# Blender v2.79 (sub 0) OBJ File: 'door.blend'
# www.blender.org
mtllib door.mtl
o Oak_Door.002
v 0.000000 1.000000 -0.093750
v 0.000000 0.000000 -0.093750
v 0.000000 -0.000000 0.093750
v 0.000000 1.000000 0.093750
v 1.000000 0.000000 -0.093750
v 1.000000 -0.000000 0.093750
v 1.000000 1.000000 -0.093750
v 1.000000 1.000000 0.093750
v 0.000000 2.000000 -0.093750
v 0.000000 1.000000 -0.093750
v 0.000000 1.000000 0.093750
v 0.000000 2.000000 0.093750
v 1.000000 1.000000 -0.093750
v 1.000000 1.000000 0.093750
v 1.000000 2.000000 -0.093750
v 1.000000 2.000000 0.093750
vt 1.000000 0.000000
vt 0.000000 1.000000
vt 0.000000 0.000000
vt 1.000000 0.000000
vt 0.000000 1.000000
vt 0.000000 0.000000
vt 1.000000 1.000000
vt 1.000000 1.000000
vt 0.803131 0.016340
vt 0.986075 0.992103
vt 0.803131 0.992103
vt 0.010312 0.199314
vt 0.986075 0.016340
vt 0.010312 0.016340
vt 1.000000 0.000000
vt 0.000000 1.000000
vt 0.000000 0.000000
vt 0.010312 0.992103
vt 0.193287 0.016340
vt 0.193287 0.992103
vt 1.000000 0.000000
vt 0.000000 1.000000
vt 0.000000 0.000000
vt 0.806943 0.020842
vt 0.989887 0.996605
vt 0.806943 0.996605
vt 0.010312 0.199314
vt 0.986075 0.016340
vt 0.010312 0.016340
vt 0.014125 0.996605
vt 0.197099 0.020842
vt 0.197099 0.996605
vt 0.010312 0.199314
vt 0.986075 0.016340
vt 0.986075 0.199314
vt 0.986075 0.016340
vt 0.986075 0.199314
vt 1.000000 1.000000
vt 0.010312 0.016340
vt 1.000000 1.000000
vt 0.989887 0.020842
vt 0.986075 0.199314
vt 0.014125 0.020842
vt 0.010312 0.016340
vt 0.458984 0.867188
vt 0.490234 0.861328
vt 0.490234 0.867188
vt 0.458984 0.861328
vn 0.0000 0.0000 -1.0000
vn 0.0000 -0.0000 1.0000
vn -1.0000 0.0000 0.0000
vn 0.0000 -1.0000 -0.0000
vn 1.0000 0.0000 0.0000
vn 0.0000 1.0000 0.0000
usemtl Oak_Door.002
s 1
f 13/1/1 9/2/1 15/3/1
f 12/4/2 14/5/2 16/6/2
f 13/1/1 10/7/1 9/2/1
f 12/4/2 11/8/2 14/5/2
usemtl Oak_Door.002_0_(99).jpeg
f 2/9/3 4/10/3 1/11/3
f 2/12/4 6/13/4 3/14/4
f 5/15/1 1/16/1 7/17/1
f 8/18/5 5/19/5 7/20/5
f 4/21/2 6/22/2 8/23/2
f 10/24/3 12/25/3 9/26/3
f 10/27/4 14/28/4 11/29/4
f 16/30/5 13/31/5 15/32/5
f 9/33/6 16/34/6 15/35/6
f 2/9/3 3/36/3 4/10/3
f 2/12/4 5/37/4 6/13/4
f 5/15/1 2/38/1 1/16/1
f 8/18/5 6/39/5 5/19/5
f 4/21/2 3/40/2 6/22/2
f 10/24/3 11/41/3 12/25/3
f 10/27/4 13/42/4 14/28/4
f 16/30/5 14/43/5 13/31/5
f 9/33/6 12/44/6 16/34/6
usemtl Oak_Door.002_door-RGBA.png.001
f 1/45/6 8/46/6 7/47/6
f 1/45/6 4/48/6 8/46/6
