# Blender MTL File: 'door.blend'
# Material Count: 3

newmtl Oak_Door.002
collisionType 0 0 0
Ns 96.078431
Ka 1.000000 1.000000 1.000000
Kd 1.000000 1.000000 1.000000
Ks 0.000000 0.000000 0.000000
Ke 0.000000 0.000000 0.000000
Ni 1.000000
d 0.000000
illum 2
map_Kd ..\DSA\minecraft\prisma rgb\0 (83).jpeg
map_d door-Alpha.png

newmtl Oak_Door.002_0_(99).jpeg
collisionType 0 0 0
Ns 96.078431
Ka 1.000000 1.000000 1.000000
Kd 1.000000 1.000000 1.000000
Ks 0.000000 0.000000 0.000000
Ke 0.000000 0.000000 0.000000
Ni 1.000000
d 0.000000
illum 2
map_Kd ..\DSA\minecraft\prisma rgb\0 (99).jpeg
map_d door-Alpha.png

newmtl Oak_Door.002_door-RGBA.png.001
collisionType 0 0 0
Ns 96.078431
Ka 1.000000 1.000000 1.000000
Kd 1.000000 1.000000 1.000000
Ks 0.000000 0.000000 0.000000
Ke 0.000000 0.000000 0.000000
Ni 1.000000
d 0.000000
illum 2
map_Kd door-RGBA.png
map_d door-Alpha.png
