.org 0x1208460
hex {00 04 00 00
08 00 00 00
0c 00 00 00 80 40 84 74
09 00 00 00}
lui t0, $8034
lw t1, $b17c (T0)
bne t1, r0, !end
lui t9, $8033
lui t7, $8024
ori t7, t7, $B9EC
sw t7, $6198 (T9) //disable pausing
!end:
jr ra
nop