# Blender v2.79 (sub 0) OBJ File: ''
# www.blender.org
mtllib magna fireball.mtl
o Sphere
v 0.000000 0.707107 -0.707107
v 0.000000 -0.000000 -1.000000
v 0.000000 -0.707107 -0.707107
v 0.500000 0.707107 -0.500000
v 0.707107 -0.000000 -0.707107
v 0.500000 -0.707107 -0.500000
v 0.707107 0.707107 0.000000
v 1.000000 -0.000000 0.000000
v 0.707107 -0.707107 0.000000
v 0.500000 0.707107 0.500000
v 0.707107 -0.000000 0.707107
v 0.500000 -0.707107 0.500000
v 0.000000 -1.000000 0.000000
v 0.000000 0.707107 0.707107
v 0.000000 -0.000000 1.000000
v 0.000000 -0.707107 0.707107
v -0.000000 1.000000 0.000000
v -0.500000 0.707107 0.500000
v -0.707107 -0.000000 0.707107
v -0.500000 -0.707107 0.500000
v -0.707107 0.707107 0.000000
v -1.000000 -0.000000 0.000000
v -0.707107 -0.707107 0.000000
v -0.500000 0.707107 -0.500000
v -0.707107 -0.000000 -0.707107
v -0.500000 -0.707107 -0.500000
vt 1.000000 0.500000
vt 0.750000 0.000000
vt 1.000000 0.000000
vt 1.000000 1.000000
vt 0.875000 1.500000
vt 0.750000 1.000000
vt 0.875000 -0.500000
vt 0.750000 0.500000
vt 0.625000 1.500000
vt 0.500000 1.000000
vt 0.625000 -0.500000
vt 0.500000 0.000000
vt 0.500000 0.500000
vt 0.250000 0.500000
vt 0.250000 0.000000
vt 0.375000 1.500000
vt 0.250000 1.000000
vt 0.375000 -0.500000
vt -0.000000 0.000000
vt 0.125000 1.500000
vt -0.000000 1.000000
vt 0.125000 -0.500000
vt -0.000000 0.500000
vt -0.250000 0.000000
vt -0.125000 1.500000
vt -0.250000 1.000000
vt -0.125000 -0.500000
vt -0.250000 0.500000
vt -0.500000 0.000000
vt -0.375000 1.500000
vt -0.500000 1.000000
vt -0.375000 -0.500000
vt -0.500000 0.500000
vt 1.500000 0.500000
vt 1.250000 -0.000000
vt 1.500000 0.000000
vt 1.500000 1.000000
vt 1.375000 1.500000
vt 1.250000 1.000000
vt 1.375000 -0.500000
vt 1.250000 0.500000
vt 1.125000 1.500000
vt 1.125000 -0.500000
vn 0.0000 0.0000 -1.0000
vn 0.5293 -0.6630 -0.5293
vn 0.0000 -0.6630 -0.7486
vn 0.0000 0.6630 -0.7486
vn 0.0000 1.0000 0.0000
vn 0.5293 0.6630 -0.5293
vn 0.0000 -1.0000 0.0000
vn 0.7071 0.0000 -0.7071
vn 0.7486 0.6630 0.0000
vn 0.7486 -0.6630 0.0000
vn 1.0000 0.0000 0.0000
vn 0.7071 0.0000 0.7071
vn 0.5293 -0.6630 0.5293
vn 0.5293 0.6630 0.5293
vn 0.0000 -0.6630 0.7486
vn 0.0000 0.6630 0.7486
vn 0.0000 0.0000 1.0000
vn -0.5293 -0.6630 0.5293
vn -0.5293 0.6630 0.5293
vn -0.7071 0.0000 0.7071
vn -0.7486 -0.6630 0.0000
vn -0.7486 0.6630 0.0000
vn -1.0000 0.0000 0.0000
vn -0.5293 -0.6630 -0.5293
vn -0.5293 0.6630 -0.5293
vn -0.7071 0.0000 -0.7071
usemtl None
s 1
f 2/1/1 6/2/2 3/3/3
f 1/4/4 17/5/5 4/6/6
f 13/7/7 3/3/3 6/2/2
f 1/4/4 5/8/8 2/1/1
f 4/6/6 17/9/5 7/10/9
f 13/11/7 6/2/2 9/12/10
f 4/6/6 8/13/11 5/8/8
f 5/8/8 9/12/10 6/2/2
f 9/12/10 11/14/12 12/15/13
f 7/10/9 17/16/5 10/17/14
f 13/18/7 9/12/10 12/15/13
f 7/10/9 11/14/12 8/13/11
f 11/14/12 16/19/15 12/15/13
f 10/17/14 17/20/5 14/21/16
f 13/22/7 12/15/13 16/19/15
f 10/17/14 15/23/17 11/14/12
f 15/23/17 20/24/18 16/19/15
f 14/21/16 17/25/5 18/26/19
f 13/27/7 16/19/15 20/24/18
f 14/21/16 19/28/20 15/23/17
f 19/28/20 23/29/21 20/24/18
f 18/26/19 17/30/5 21/31/22
f 13/32/7 20/24/18 23/29/21
f 18/26/19 22/33/23 19/28/20
f 22/34/23 26/35/24 23/36/21
f 21/37/22 17/38/5 24/39/25
f 13/40/7 23/36/21 26/35/24
f 21/37/22 25/41/26 22/34/23
f 25/41/26 1/4/4 2/1/1
f 25/41/26 3/3/3 26/35/24
f 24/39/25 17/42/5 1/4/4
f 13/43/7 26/35/24 3/3/3
f 2/1/1 5/8/8 6/2/2
f 1/4/4 4/6/6 5/8/8
f 4/6/6 7/10/9 8/13/11
f 5/8/8 8/13/11 9/12/10
f 9/12/10 8/13/11 11/14/12
f 7/10/9 10/17/14 11/14/12
f 11/14/12 15/23/17 16/19/15
f 10/17/14 14/21/16 15/23/17
f 15/23/17 19/28/20 20/24/18
f 14/21/16 18/26/19 19/28/20
f 19/28/20 22/33/23 23/29/21
f 18/26/19 21/31/22 22/33/23
f 22/34/23 25/41/26 26/35/24
f 21/37/22 24/39/25 25/41/26
f 25/41/26 24/39/25 1/4/4
f 25/41/26 2/1/1 3/3/3
