# Blender MTL File: 'magna dorrie.blend'
# Material Count: 1

newmtl Skin
Ns 0.000000
Ka 0.000000 0.000000 0.000000
Kd 0.396900 0.396900 0.396900
Ks 0.000000 0.000000 0.000000
Ke 0.000000 0.000000 0.000000
Ni 1.500000
d 1.000000
illum 2
map_Kd magna dorrie skin.png
map_Ka 4598A251_c.png
