# Blender MTL File: 'None'
# Material Count: 5

newmtl None
Ns 0.000000
Ka 0.000000 0.000000 0.000000
Kd 0.800000 0.800000 0.800000
Ks 0.800000 0.800000 0.800000
Ke 0.000000 0.000000 0.000000
Ni 1.000000
d 1.000000
illum 2
map_Kd dorrie props\Wizard Hat\Handle7Tex.png

newmtl None_4598A251_c.png.002
Ns 0.000000
Ka 0.000000 0.000000 0.000000
Kd 0.800000 0.800000 0.800000
Ks 0.800000 0.800000 0.800000
Ke 0.000000 0.000000 0.000000
Ni 1.000000
d 1.000000
illum 2
map_Kd 4598A251_c.png

newmtl None_5EA7D5B7_c.png.002
Ns 0.000000
Ka 0.000000 0.000000 0.000000
Kd 0.800000 0.800000 0.800000
Ks 0.800000 0.800000 0.800000
Ke 0.000000 0.000000 0.000000
Ni 1.000000
d 1.000000
illum 2
map_Kd 5EA7D5B7_c.png

newmtl None_673EDEF_c.png.002
Ns 0.000000
Ka 0.000000 0.000000 0.000000
Kd 0.800000 0.800000 0.800000
Ks 0.800000 0.800000 0.800000
Ke 0.000000 0.000000 0.000000
Ni 1.000000
d 1.000000
illum 2
map_Kd 673EDEF_c.png

newmtl None_HP3Gen_wand2.png.002
Ns 0.000000
Ka 0.000000 0.000000 0.000000
Kd 0.800000 0.800000 0.800000
Ks 0.800000 0.800000 0.800000
Ke 0.000000 0.000000 0.000000
Ni 1.000000
d 1.000000
illum 2
map_Kd dorrie props\HarrysWand\HP3Gen_wand2.png
