# Blender MTL File: 'cliff cliff col.blend'
# Material Count: 4

newmtl catwalk
collisionType 21 0 0
Ns 96.078431
Ka 1.000000 1.000000 1.000000
Kd 0.640000 0.640000 0.640000
Ks 0.500000 0.500000 0.500000
Ke 0.000000 0.000000 0.000000
Ni 1.000000
d 1.000000
illum 2
map_Kd ..\..\levels\PlayStation - Spyro 3 Year of the Dragon - Molten Crater\Texture base [www.imagesplitter.net]\0 (6).png

newmtl catwalk_cs_rock02_alb.png
collisionType 13 0 0
Ns 96.078431
Ka 1.000000 1.000000 1.000000
Kd 0.640000 0.640000 0.640000
Ks 0.500000 0.500000 0.500000
Ke 0.000000 0.000000 0.000000
Ni 1.000000
d 1.000000
illum 2
map_Kd ..\..\Sorted Textures\Sorted Textures\Stone\cs_rock02_alb.png

newmtl catwalk_obsidian.jpg
collisionType 13 0 0
Ns 96.078431
Ka 1.000000 1.000000 1.000000
Kd 0.640000 0.640000 0.640000
Ks 0.500000 0.500000 0.500000
Ke 0.000000 0.000000 0.000000
Ni 1.000000
d 1.000000
illum 2
map_Kd ..\..\ESA\textures\obsidian.jpg

newmtl floor
collisionType 13 0 0
Ns 96.078431
Ka 1.000000 1.000000 1.000000
Kd 0.076316 0.640000 0.136464
Ks 0.500000 0.500000 0.500000
Ke 0.000000 0.000000 0.000000
Ni 1.000000
d 1.000000
illum 2
map_Kd ..\..\ESA\textures\obsidian.jpg
