# Blender MTL File: 'cliff cliff dissolved.blend'
# Material Count: 18

newmtl catwalk
Ns 96.078431
Ka 1.000000 1.000000 1.000000
Kd 0.640000 0.640000 0.640000
Ks 0.500000 0.500000 0.500000
Ke 0.000000 0.000000 0.000000
Ni 1.000000
d 1.000000
illum 2
map_Kd ..\..\levels\PlayStation - Spyro 3 Year of the Dragon - Molten Crater\Texture base [www.imagesplitter.net]\0 (6).png

newmtl catwalk_cs_rock02_alb.png
Ns 96.078431
Ka 1.000000 1.000000 1.000000
Kd 0.640000 0.640000 0.640000
Ks 0.500000 0.500000 0.500000
Ke 0.000000 0.000000 0.000000
Ni 1.000000
d 1.000000
illum 2
map_Kd ..\..\Sorted Textures\Sorted Textures\Stone\cs_rock02_alb.png

newmtl catwalk_obsidian.jpg
Ns 96.078431
Ka 1.000000 1.000000 1.000000
Kd 0.640000 0.640000 0.640000
Ks 0.500000 0.500000 0.500000
Ke 0.000000 0.000000 0.000000
Ni 1.000000
d 1.000000
illum 2
map_Kd ..\..\ESA\textures\obsidian.jpg

newmtl ceiling
Ns 96.078431
Ka 1.000000 1.000000 1.000000
Kd 0.024758 0.057687 0.640000
Ks 0.500000 0.500000 0.500000
Ke 0.000000 0.000000 0.000000
Ni 1.000000
d 1.000000
illum 2
map_Kd ..\..\ESA\blue rock.jpg

newmtl cliff1
Ns 96.078431
Ka 1.000000 1.000000 1.000000
Kd 0.269843 0.640000 0.345356
Ks 0.500000 0.500000 0.500000
Ke 0.000000 0.000000 0.000000
Ni 1.000000
d 1.000000
illum 2
map_Kd ..\..\Sorted Textures\Sorted Textures\Stone\RockPattern05.png

newmtl cliff2
Ns 96.078431
Ka 1.000000 1.000000 1.000000
Kd 0.640000 0.281896 0.608027
Ks 0.500000 0.500000 0.500000
Ke 0.000000 0.000000 0.000000
Ni 1.000000
d 1.000000
illum 2
map_Kd ..\..\Sorted Textures\Sorted Textures\Stone\RMGP01_deddc3f0_14_mip1.png

newmtl cliff3
Ns 96.078431
Ka 1.000000 1.000000 1.000000
Kd 0.119622 0.263605 0.640000
Ks 0.500000 0.500000 0.500000
Ke 0.000000 0.000000 0.000000
Ni 1.000000
d 1.000000
illum 2
map_Kd ..\..\Sorted Textures\Sorted Textures\Stone\RMGP01_02fdbd9b_14.png

newmtl cliff_wall1
Ns 96.078431
Ka 1.000000 1.000000 1.000000
Kd 0.064994 0.640000 0.258114
Ks 0.500000 0.500000 0.500000
Ke 0.000000 0.000000 0.000000
Ni 1.000000
d 1.000000
illum 2
map_Kd ..\..\Sorted Textures\Sorted Textures\Stone\Rock10.png

newmtl cliff_wall2
Ns 96.078431
Ka 1.000000 1.000000 1.000000
Kd 0.160776 0.103073 0.640000
Ks 0.500000 0.500000 0.500000
Ke 0.000000 0.000000 0.000000
Ni 1.000000
d 1.000000
illum 2
map_Kd ..\..\Sorted Textures\Sorted Textures\Stone\Rock10.png

newmtl cliff_wall3
Ns 96.078431
Ka 1.000000 1.000000 1.000000
Kd 0.337728 0.364088 0.640000
Ks 0.500000 0.500000 0.500000
Ke 0.000000 0.000000 0.000000
Ni 1.000000
d 1.000000
illum 2
map_Kd ..\..\Sorted Textures\Sorted Textures\Stone\Rock10.png

newmtl floor
Ns 96.078431
Ka 1.000000 1.000000 1.000000
Kd 0.076316 0.640000 0.136464
Ks 0.500000 0.500000 0.500000
Ke 0.000000 0.000000 0.000000
Ni 1.000000
d 1.000000
illum 2
map_Kd ..\..\Sorted Textures\Sorted Textures\Stone\Rock_06_02.png

newmtl hole_1
Ns 96.078431
Ka 1.000000 1.000000 1.000000
Kd 0.640000 0.190047 0.110880
Ks 0.500000 0.500000 0.500000
Ke 0.000000 0.000000 0.000000
Ni 1.000000
d 1.000000
illum 2
map_Kd ..\..\Sorted Textures\Sorted Textures\Stone\cs_rock02_alb.png

newmtl hole_2
Ns 96.078431
Ka 1.000000 1.000000 1.000000
Kd 0.475037 0.640000 0.000000
Ks 0.500000 0.500000 0.500000
Ke 0.000000 0.000000 0.000000
Ni 1.000000
d 1.000000
illum 2
map_Kd ..\..\Sorted Textures\Sorted Textures\Stone\cs_rock02_alb.png

newmtl inside_floor
Ns 96.078431
Ka 1.000000 1.000000 1.000000
Kd 0.640000 0.548883 0.109707
Ks 0.500000 0.500000 0.500000
Ke 0.000000 0.000000 0.000000
Ni 1.000000
d 1.000000
illum 2
map_Kd ..\..\ESA\blue rock.jpg

newmtl inside_wall
Ns 96.078431
Ka 1.000000 1.000000 1.000000
Kd 0.640000 0.258797 0.258797
Ks 0.500000 0.500000 0.500000
Ke 0.000000 0.000000 0.000000
Ni 1.000000
d 1.000000
illum 2
map_Kd ..\..\Sorted Textures\Sorted Textures\Stone\RMGP01_02fdbd9b_14.png

newmtl miniwall
Ns 96.078431
Ka 1.000000 1.000000 1.000000
Kd 0.041775 0.041775 0.041775
Ks 0.500000 0.500000 0.500000
Ke 0.000000 0.000000 0.000000
Ni 1.000000
d 1.000000
illum 2
map_Kd ..\..\ESA\textures\obsidian.jpg

newmtl protrusions
Ns 96.078431
Ka 1.000000 1.000000 1.000000
Kd 0.640000 0.000000 0.291447
Ks 0.500000 0.500000 0.500000
Ke 0.000000 0.000000 0.000000
Ni 1.000000
d 1.000000
illum 2
map_Kd ..\..\ESA\textures\obsidian.jpg

newmtl wall
Ns 96.078431
Ka 1.000000 1.000000 1.000000
Kd 0.125947 0.125947 0.125947
Ks 0.500000 0.500000 0.500000
Ke 0.000000 0.000000 0.000000
Ni 1.000000
d 1.000000
illum 2
map_Kd ..\..\Sorted Textures\Sorted Textures\Stone\RockPattern07.png
