# Blender v2.79 (sub 0) OBJ File: ''
# www.blender.org
mtllib cliff cliff crystal tower col.mtl
o Cylinder
v 0.000000 3.939629 -0.999999
v 0.000000 3.499934 -0.999999
v 0.707107 3.939629 -0.707106
v 1.000000 3.939629 0.000001
v 0.707107 3.939629 0.707108
v 0.000000 3.939629 1.000001
v -0.707107 3.939629 0.707108
v -1.000000 3.939629 0.000001
v -0.707107 3.499934 -0.707106
v -0.707107 3.939629 -0.707106
v -0.707107 0.422068 -0.707107
v 0.000000 -0.017627 -1.000000
v -0.707107 -0.017627 -0.707107
v 0.000000 0.422068 -1.000000
v -1.089790 0.422068 -1.630986
v -0.382683 0.422068 -1.923880
v 0.000000 0.861763 -1.000000
v -0.707107 0.861763 -0.707107
v -0.707107 3.060239 -0.707107
v 0.000000 3.060239 -1.000000
v -0.382683 3.499934 -1.923879
v -1.000000 -0.017627 -0.000000
v -0.707107 -0.017627 0.707107
v -0.707107 2.180848 0.707107
v -0.707107 2.620544 0.707107
v 0.000000 -0.017627 1.000000
v 0.000000 2.180848 1.000000
v 0.000000 2.620544 1.000000
v 0.707107 -0.017627 0.707107
v 0.707107 1.741153 0.707107
v 0.707107 2.180848 0.707107
v 1.000000 -0.017627 -0.000000
v 1.000000 1.741153 0.000000
v 1.000000 2.180848 0.000000
v 1.923880 1.741153 0.382683
v 0.707107 -0.017627 -0.707107
v -1.089790 0.861763 -1.630986
v -0.382683 0.861763 -1.923880
v 1.923880 2.180848 0.382683
v 1.630986 1.741153 1.089790
v 1.630986 2.180848 1.089790
v -0.382684 2.620544 1.923880
v -1.089790 2.180848 1.630986
v -0.382684 2.180848 1.923880
v -1.089790 2.620544 1.630986
v -1.089790 3.499934 -1.630985
v -0.382683 3.060239 -1.923880
v -1.089790 3.060239 -1.630985
v 0.000000 4.354359 -1.108594
v -0.783895 4.354359 -0.783894
v -1.108595 4.354359 0.000001
v -0.783895 4.354359 0.783896
v 0.000000 4.354359 1.108596
v 0.783895 4.354359 0.783896
v 1.108595 4.354359 0.000001
v 0.783895 4.354359 -0.783894
v 0.000000 6.147728 -1.931475
v 1.689512 5.661674 -1.689511
v 0.000000 5.661674 -2.389330
v 0.000000 6.319565 0.000001
v 1.530539 5.207720 -1.530539
v 0.000000 5.207720 -2.164509
v 1.365760 6.147728 -1.365759
v 2.164510 5.207720 0.000001
v 1.931476 6.147728 0.000001
v 2.389331 5.661673 0.000001
v 1.689512 5.661673 1.689513
v 1.530539 5.207719 1.530540
v 1.365759 6.147728 1.365760
v 0.000000 6.147727 1.931476
v 0.000000 5.661673 2.389332
v 0.000000 5.207719 2.164510
v -1.689512 5.661673 1.689513
v -1.530539 5.207719 1.530540
v -1.365759 6.147728 1.365760
v -2.389331 5.661673 0.000001
v -2.164509 5.207720 0.000001
v -1.931476 6.147728 0.000001
v -1.689512 5.661674 -1.689511
v -1.530539 5.207720 -1.530539
v -1.365760 6.147728 -1.365759
vt 0.724054 1.312500
vt -0.128622 2.311877
vt -0.128622 1.312500
vt -0.775494 3.312500
vt -0.775494 2.311877
vt 0.000000 0.000000
vt 1.000000 0.000000
vt 1.000000 1.000000
vt 0.000000 0.000000
vt 1.000000 1.000000
vt 0.000000 1.000000
vt 1.000000 1.000000
vt 0.000000 0.000000
vt 1.000000 0.000000
vt 1.000000 0.000000
vt 1.000000 1.000000
vt 1.000000 1.000000
vt 1.000000 0.000000
vt 0.000000 1.000000
vt 0.000000 0.000000
vt 0.000000 0.000000
vt 1.000000 0.000000
vt 1.000000 1.000000
vt 0.000000 1.000000
vt 1.000000 0.000000
vt 1.000000 1.000000
vt 0.000000 0.000000
vt 1.000000 1.000000
vt 0.000000 1.000000
vt 1.000000 1.000000
vt 0.000000 0.000000
vt 1.000000 0.000000
vt -0.775494 -3.687625
vt -0.128622 -2.687500
vt -0.775494 -2.687500
vt 0.724054 -2.687500
vt -0.128622 -3.687625
vt 0.724054 -3.687625
vt 0.000000 1.000000
vt 1.000000 1.000000
vt 0.000000 0.000000
vt 1.000000 1.000000
vt 0.000000 1.000000
vt 0.000000 0.000000
vt 0.000000 0.000000
vt 1.000000 1.000000
vt 0.724054 -1.688071
vt 1.000000 1.000000
vt 0.000000 0.000000
vt 1.000000 0.000000
vt -0.128622 -1.688071
vt -0.775494 -0.687500
vt -0.775494 -1.688071
vt -0.775494 1.312500
vt 1.000000 1.000000
vt 1.000000 0.000000
vt 1.000000 0.000000
vt 0.000000 1.000000
vt 0.000000 0.000000
vt 1.000000 1.000000
vt 0.000000 0.000000
vt 1.000000 0.000000
vt 0.000000 0.000000
vt 0.000000 0.000000
vt 1.000000 1.000000
vt 1.000000 1.000000
vt 0.000000 1.000000
vt 1.000000 0.000000
vt 0.000000 1.000000
vt 0.000000 0.000000
vt 1.000000 1.000000
vt 1.000000 0.000000
vt 1.000000 1.000000
vt 0.000000 0.000000
vt 1.000000 0.000000
vt 1.000000 1.000000
vt 0.000000 0.000000
vt 1.000000 0.000000
vt 1.000000 0.000000
vt 0.000000 1.000000
vt 1.000000 1.000000
vt 0.000000 0.000000
vt 1.000000 0.000000
vt -0.128622 0.311505
vt -0.775494 0.311505
vt 4.024858 2.319351
vt 0.724054 2.311877
vt 1.000000 1.000000
vt 0.000000 0.000000
vt 1.000000 0.000000
vt 0.000000 0.000000
vt 1.000000 1.000000
vt 0.000000 1.000000
vt -0.128622 -0.687500
vt -0.775494 -4.687500
vt 1.000000 0.000000
vt 0.000000 1.000000
vt 1.000000 1.000000
vt 1.000000 0.000000
vt 1.000000 1.000000
vt 0.000000 0.000000
vt 1.000000 0.000000
vt 1.000000 0.000000
vt 0.000000 1.000000
vt 0.000000 0.000000
vt 1.000000 0.000000
vt 0.000000 1.000000
vt 0.000000 0.000000
vt 1.000000 0.000000
vt 0.000000 1.000000
vt 1.000000 1.000000
vt 0.000000 0.000000
vt 1.000000 0.000000
vt 1.000000 1.000000
vt 0.000000 0.000000
vt 1.000000 0.000000
vt 0.000000 0.000000
vt 1.000000 0.000000
vt -0.128622 -4.687500
vt 0.724054 -4.687500
vt 0.724054 3.312500
vt 1.000000 1.000000
vt 0.000000 0.000000
vt 1.000000 0.000000
vt 1.000000 1.000000
vt 0.000000 0.000000
vt 1.000000 0.000000
vt 0.000000 1.000000
vt 1.000000 0.000000
vt 1.000000 1.000000
vt 4.024858 0.323447
vt 0.724054 -0.687500
vt 4.024858 -1.681225
vt 0.000000 0.000000
vt 1.000000 1.000000
vt 0.000000 1.000000
vt -2.509978 1.312500
vt -2.509978 0.311505
vt 4.024858 -3.686120
vt 1.000000 0.000000
vt 0.000000 1.000000
vt 0.000000 0.000000
vt -2.509978 -3.687625
vt -2.509978 -4.687500
vt -2.509978 -0.687500
vt -2.509978 -1.688071
vt -2.509978 -2.687500
vt -2.509978 2.311877
vt -2.509978 3.312500
vt -0.128622 3.312500
vt 1.000000 1.000000
vt 1.000000 1.000000
vt 0.000000 1.000000
vt 0.000000 1.000000
vt 1.000000 1.000000
vt 1.000000 1.000000
vt 0.000000 0.000000
vt 0.000000 1.000000
vt 1.000000 1.000000
vt 1.000000 1.000000
vt 0.000000 1.000000
vt 0.000000 0.000000
vt 1.000000 0.000000
vt 0.000000 1.000000
vt 0.000000 0.000000
vt 1.000000 0.000000
vt 1.000000 1.000000
vt 1.000000 1.000000
vt 1.000000 0.000000
vt 0.000000 1.000000
vt 0.000000 0.000000
vt 0.000000 1.000000
vt 0.000000 1.000000
vt 0.000000 1.000000
vt 1.000000 0.000000
vt 0.000000 1.000000
vt 0.000000 0.000000
vt 1.000000 1.000000
vt 0.000000 1.000000
vt 0.000000 1.000000
vt 0.000000 1.000000
vt 0.724054 0.311505
vt 0.000000 1.000000
vt 1.000000 0.000000
vt 1.000000 1.000000
vt 0.000000 1.000000
vt 1.000000 1.000000
vt 1.000000 1.000000
vt 0.000000 1.000000
vt 0.000000 1.000000
vt 0.000000 1.000000
vt 1.000000 1.000000
vn -0.2887 0.6565 0.6969
vn -0.8401 -0.4161 0.3480
vn 0.9239 0.0000 -0.3827
vn 0.9239 -0.0000 0.3827
vn -0.9239 -0.0000 0.3827
vn -0.9239 -0.0000 -0.3827
vn -0.0000 -1.0000 -0.0000
vn 0.8980 -0.2351 0.3720
vn -0.3827 0.0000 -0.9239
vn -0.3480 -0.4161 -0.8401
vn -0.2887 0.6565 -0.6969
vn -0.3827 -0.0000 0.9239
vn -0.3720 -0.2351 0.8980
vn 0.3827 -0.0000 0.9239
vn 0.2887 0.6565 -0.6969
vn 0.8401 -0.4161 -0.3480
vn -0.3480 -0.4161 0.8401
vn -0.0000 1.0000 0.0000
vn 0.3827 0.0000 -0.9239
vn -0.3720 -0.2351 -0.8980
vn 0.3720 -0.2351 -0.8980
vn 0.3480 -0.4161 0.8401
vn 0.0000 0.9961 0.0886
vn -0.0367 0.9954 0.0886
vn 0.3480 -0.4161 -0.8401
vn 0.6969 0.6565 -0.2887
vn -0.8401 -0.4161 -0.3480
vn -0.8980 -0.2351 0.3720
vn 0.8980 -0.2351 -0.3720
vn 0.8401 -0.4161 0.3480
vn 0.2887 0.6565 0.6969
vn -0.6969 0.6565 -0.2887
vn -0.6969 0.6565 0.2887
vn -0.8980 -0.2351 -0.3720
vn 0.0886 0.9961 0.0000
vn 0.0886 0.9954 -0.0367
vn 0.0000 0.9961 -0.0886
vn -0.0367 0.9954 -0.0886
vn 0.2520 -0.7527 0.6083
vn -0.0886 0.9961 -0.0000
vn -0.0886 0.9954 -0.0367
vn 0.3720 -0.2351 0.8980
vn -0.6083 -0.7527 -0.2520
vn 0.6969 0.6565 0.2887
vn -0.2520 -0.7527 0.6083
vn 0.6083 -0.7527 0.2520
vn 0.6083 -0.7527 -0.2520
vn -0.2520 -0.7527 -0.6083
vn 0.2520 -0.7527 -0.6083
vn -0.6083 -0.7527 0.2520
vn 0.0367 0.9954 0.0886
vn 0.0886 0.9954 0.0367
vn 0.0367 0.9954 -0.0886
vn -0.0886 0.9954 0.0367
usemtl inside_floor
s 1
f 70/1/1 73/2/1 71/3/1
f 73/2/2 77/4/2 74/5/2
f 36/6/3 3/7/3 34/8/3
f 32/9/4 30/10/4 29/11/4
f 46/12/5 19/13/5 9/14/5
f 8/15/6 9/16/6 19/17/6
f 27/18/7 43/19/7 24/20/7
f 25/21/5 7/22/5 8/23/5
f 31/24/4 4/25/4 5/26/4
f 4/27/8 54/28/8 5/29/8
f 1/30/9 9/31/9 10/32/9
f 80/33/10 59/34/10 62/35/10
f 57/36/11 79/37/11 81/38/11
f 23/39/12 27/18/12 24/40/12
f 6/41/13 52/42/13 7/43/13
f 30/44/14 31/45/14 27/46/14
f 63/47/15 59/34/15 57/36/15
f 16/48/3 17/49/3 14/50/3
f 58/51/16 64/52/16 61/53/16
f 72/54/17 73/2/17 74/5/17
f 43/55/6 25/21/6 24/56/6
f 17/57/18 37/58/18 18/59/18
f 37/60/5 11/61/5 18/62/5
f 20/63/19 2/64/19 3/65/19
f 20/63/7 48/66/7 47/67/7
f 50/68/20 1/69/20 10/70/20
f 47/71/3 2/64/3 20/72/3
f 56/73/21 1/74/21 49/75/21
f 45/76/12 44/77/12 42/78/12
f 2/79/18 46/80/18 9/31/18
f 41/81/18 34/82/18 31/83/18
f 67/84/22 72/54/22 68/85/22
f 70/1/23 60/86/23 75/87/24
f 14/88/9 13/89/9 11/90/9
f 59/34/25 61/53/25 62/35/25
f 28/91/12 7/92/12 25/93/12
f 63/47/26 66/94/26 58/51/26
f 77/95/27 79/37/27 80/33/27
f 33/96/7 40/97/7 30/44/7
f 40/98/12 31/45/12 30/99/12
f 38/100/9 15/101/9 37/102/9
f 52/103/28 8/104/28 7/105/28
f 56/106/29 4/107/29 3/108/29
f 66/94/30 68/85/30 64/52/30
f 67/84/31 70/1/31 71/3/31
f 25/109/18 42/110/18 28/91/18
f 39/111/19 33/112/19 34/113/19
f 21/114/9 48/115/9 46/116/9
f 41/81/4 35/117/4 39/118/4
f 81/38/32 76/119/32 78/120/32
f 78/121/33 73/2/33 75/87/33
f 50/122/34 8/123/34 51/124/34
f 42/125/4 27/126/4 28/127/4
f 17/128/9 19/129/9 20/130/9
f 60/131/35 65/132/35 63/47/36
f 60/133/37 57/36/37 81/38/38
f 14/134/7 15/135/7 16/136/7
f 68/85/39 53/137/39 54/138/39
f 78/121/40 60/139/40 81/38/41
f 54/140/42 6/141/42 5/142/42
f 77/95/43 50/143/43 51/144/43
f 65/132/44 67/84/44 66/94/44
f 74/5/45 53/137/45 72/54/45
f 68/85/46 55/145/46 64/52/46
f 56/146/47 64/52/47 55/145/47
f 80/33/48 49/147/48 50/143/48
f 49/147/49 61/53/49 56/146/49
f 52/148/50 77/4/50 51/149/50
f 70/1/1 75/87/1 73/2/1
f 73/2/2 76/150/2 77/4/2
f 4/151/3 34/8/3 3/7/3
f 34/8/3 33/152/3 36/6/3
f 33/152/3 32/153/3 36/6/3
f 32/9/4 33/96/4 30/10/4
f 46/12/5 48/154/5 19/13/5
f 18/155/6 11/156/6 22/157/6
f 11/156/6 13/158/6 22/157/6
f 18/155/6 22/157/6 8/15/6
f 8/15/6 10/159/6 9/16/6
f 19/17/6 18/155/6 8/15/6
f 27/18/7 44/160/7 43/19/7
f 8/23/5 22/161/5 24/20/5
f 22/161/5 23/162/5 24/20/5
f 24/20/5 25/21/5 8/23/5
f 31/24/4 34/82/4 4/25/4
f 4/27/8 55/163/8 54/28/8
f 1/30/9 2/164/9 9/31/9
f 80/33/10 79/37/10 59/34/10
f 57/36/11 59/34/11 79/37/11
f 23/39/12 26/165/12 27/18/12
f 6/41/13 53/166/13 52/42/13
f 6/167/14 28/168/14 5/169/14
f 28/168/14 27/46/14 31/45/14
f 5/169/14 28/168/14 31/45/14
f 27/46/14 26/170/14 30/44/14
f 26/170/14 29/171/14 30/44/14
f 63/47/15 58/51/15 59/34/15
f 16/48/3 38/172/3 17/49/3
f 58/51/16 66/94/16 64/52/16
f 72/54/17 71/3/17 73/2/17
f 43/55/6 45/173/6 25/21/6
f 17/57/18 38/100/18 37/58/18
f 37/60/5 15/174/5 11/61/5
f 2/64/19 1/175/19 3/65/19
f 3/65/19 36/176/19 17/49/19
f 36/176/19 12/177/19 14/134/19
f 14/134/19 17/49/19 36/176/19
f 17/49/19 20/63/19 3/65/19
f 20/63/7 19/129/7 48/66/7
f 50/68/20 49/178/20 1/69/20
f 47/71/3 21/179/3 2/64/3
f 56/73/21 3/180/21 1/74/21
f 45/76/12 43/19/12 44/77/12
f 2/79/18 21/114/18 46/80/18
f 41/81/18 39/181/18 34/82/18
f 67/84/22 71/3/22 72/54/22
f 70/1/23 69/182/51 60/86/23
f 14/88/9 12/183/9 13/89/9
f 59/34/25 58/51/25 61/53/25
f 28/91/12 6/184/12 7/92/12
f 63/47/26 65/132/26 66/94/26
f 77/95/27 76/119/27 79/37/27
f 33/96/7 35/185/7 40/97/7
f 40/98/12 41/186/12 31/45/12
f 38/100/9 16/136/9 15/101/9
f 52/103/28 51/187/28 8/104/28
f 56/106/29 55/188/29 4/107/29
f 66/94/30 67/84/30 68/85/30
f 67/84/31 69/182/31 70/1/31
f 25/109/18 45/76/18 42/110/18
f 39/111/19 35/189/19 33/112/19
f 21/114/9 47/67/9 48/115/9
f 41/81/4 40/97/4 35/117/4
f 81/38/32 79/37/32 76/119/32
f 78/121/33 76/150/33 73/2/33
f 50/122/34 10/190/34 8/123/34
f 42/125/4 44/191/4 27/126/4
f 17/128/9 18/59/9 19/129/9
f 60/131/35 69/182/52 65/132/35
f 60/133/37 63/47/53 57/36/37
f 14/134/7 11/90/7 15/135/7
f 68/85/39 72/54/39 53/137/39
f 78/121/40 75/87/54 60/139/40
f 54/140/42 53/192/42 6/141/42
f 77/95/43 80/33/43 50/143/43
f 65/132/44 69/182/44 67/84/44
f 74/5/45 52/148/45 53/137/45
f 68/85/46 54/138/46 55/145/46
f 56/146/47 61/53/47 64/52/47
f 80/33/48 62/35/48 49/147/48
f 49/147/49 62/35/49 61/53/49
f 52/148/50 74/5/50 77/4/50
