# Blender MTL File: 'new bowser.blend'
# Material Count: 11

newmtl None
collisionType 0 0 0
Ns 0
Ka 0.000000 0.000000 0.000000
Kd 0.8 0.8 0.8
Ks 0.8 0.8 0.8
d 1
illum 2
map_Kd ..\textures\brushed metal.jpg

newmtl floor
collisionType 0 0 0
Ns 96.078431
Ka 1.000000 1.000000 1.000000
Kd 0.199452 0.640000 0.243784
Ks 0.500000 0.500000 0.500000
Ke 0.000000 0.000000 0.000000
Ni 1.000000
d 1.000000
illum 2
map_Kd ..\..\rpg hack\textures\stel floor.jpg

newmtl floor_Glover#96550320#0#0#54B68C72_ciByRGBA.png
collisionType 0 0 0
Ns 96.078431
Ka 1.000000 1.000000 1.000000
Kd 0.199452 0.640000 0.243784
Ks 0.500000 0.500000 0.500000
Ke 0.000000 0.000000 0.000000
Ni 1.000000
d 1.000000
illum 2
map_Kd ..\..\Sorted Textures\Sorted Textures\Metal\Glover#96550320#0#0#54B68C72_ciByRGBA.png

newmtl floor_MarioParty#2DDD8EB8#2#0_ci.bmp
collisionType 0 0 0
Ns 96.078431
Ka 1.000000 1.000000 1.000000
Kd 0.199452 0.640000 0.243784
Ks 0.500000 0.500000 0.500000
Ke 0.000000 0.000000 0.000000
Ni 1.000000
d 1.000000
illum 2
map_Kd ..\..\Sorted Textures\Sorted Textures\Metal\MarioParty#2DDD8EB8#2#0_ci.bmp

newmtl slip
collisionType 19 0 0
Ns 96.078431
Ka 1.000000 1.000000 1.000000
Kd 0.640000 0.292365 0.105214
Ks 0.500000 0.500000 0.500000
Ke 0.000000 0.000000 0.000000
Ni 1.000000
d 1.000000
illum 2
map_Kd ..\textures\brushed copper.jpg

newmtl wall
collisionType 0 0 0
Ns 96.078431
Ka 1.000000 1.000000 1.000000
Kd 0.130113 0.130113 0.130113
Ks 0.500000 0.500000 0.500000
Ke 0.000000 0.000000 0.000000
Ni 1.000000
d 1.000000
illum 2
map_Kd ..\..\Sorted Textures\Sorted Textures\Metal\MetalPlate02.png

newmtl wall_cs_ironb01_alb.png
collisionType 0 0 0
Ns 96.078431
Ka 1.000000 1.000000 1.000000
Kd 0.130113 0.130113 0.130113
Ks 0.500000 0.500000 0.500000
Ke 0.000000 0.000000 0.000000
Ni 1.000000
d 1.000000
illum 2
map_Kd ..\..\Sorted Textures\Sorted Textures\Metal\cs_ironb01_alb.png

newmtl wall_cs_metal01_alb.png
collisionType 0 0 0
Ns 96.078431
Ka 1.000000 1.000000 1.000000
Kd 0.130113 0.130113 0.130113
Ks 0.500000 0.500000 0.500000
Ke 0.000000 0.000000 0.000000
Ni 1.000000
d 1.000000
illum 2
map_Kd ..\..\Sorted Textures\Sorted Textures\Metal\cs_metal01_alb.png

newmtl wall_cs_metal11_alb.png
collisionType 0 0 0
Ns 96.078431
Ka 1.000000 1.000000 1.000000
Kd 0.130113 0.130113 0.130113
Ks 0.500000 0.500000 0.500000
Ke 0.000000 0.000000 0.000000
Ni 1.000000
d 1.000000
illum 2
map_Kd ..\..\Sorted Textures\Sorted Textures\Metal\cs_metal11_alb.png

newmtl wall_stel_floor.jpg
collisionType 0 0 0
Ns 96.078431
Ka 1.000000 1.000000 1.000000
Kd 0.130113 0.130113 0.130113
Ks 0.500000 0.500000 0.500000
Ke 0.000000 0.000000 0.000000
Ni 1.000000
d 1.000000
illum 2
map_Kd ..\..\rpg hack\textures\stel floor.jpg

newmtl water
collisionType 0 0 0
Ns 96.078431
Ka 1.000000 1.000000 1.000000
Kd 0.074895 0.207041 0.640000
Ks 0.500000 0.500000 0.500000
Ke 0.000000 0.000000 0.000000
Ni 1.000000
d 1.000000
illum 2
map_Kd ..\..\rpg hack\textures\stel floor.jpg
