# Blender v2.79 (sub 0) OBJ File: 'rotating bows.blend'
# www.blender.org
mtllib new bowser rotating plat.mtl
o Cube.003_Cube.023
v -1.774168 -0.384507 -1.774190
v -1.774168 0.384508 -1.774190
v 1.774199 -0.384507 -1.774190
v 1.774199 0.384508 -1.774190
v -1.774168 -0.384507 1.774186
v -1.774168 0.384508 1.774186
v 1.774199 -0.384507 1.774186
v 1.774199 0.384508 1.774186
v 0.000013 -0.420810 -2.688120
v 0.000013 0.420809 -2.688120
v 0.000013 -0.420810 2.688115
v 0.000013 0.420809 2.688115
v 2.688129 -0.420810 0.000000
v 2.688129 0.420809 0.000000
v -2.688102 -0.420810 0.000000
v -2.688102 0.420809 0.000000
v 0.000013 0.529714 0.000000
v 0.000013 -0.529715 0.000000
v -0.979509 -0.417495 -2.294148
v -1.800106 0.000000 -1.800124
v 0.979536 0.417496 -2.294148
v 1.800133 0.000000 -1.800124
v 2.294157 -0.417495 -0.979527
v 2.294157 0.417496 0.979523
v 1.800133 0.000000 1.800120
v 0.979536 -0.417495 2.294144
v -0.979509 0.417496 2.294144
v -1.800106 0.000000 1.800120
v -2.294126 -0.417495 0.979523
v -2.294126 0.417496 -0.979527
v 0.979536 -0.417495 -2.294148
v -0.979509 0.417496 -2.294148
v -0.979509 -0.417495 2.294144
v 0.979536 0.417496 2.294144
v 0.000013 0.520183 1.473547
v 0.000013 -0.520183 -1.473551
v 0.000013 0.000000 2.945626
v 0.000013 0.000000 -2.945631
v 2.294157 -0.417495 0.979523
v 2.294157 0.417496 -0.979527
v -2.294126 -0.417495 -0.979527
v -2.294126 0.417496 0.979523
v 0.000013 0.520183 -1.473551
v 0.000013 -0.520183 1.473547
v 1.473560 -0.520183 0.000000
v 1.473560 0.520183 0.000000
v -1.473533 0.520183 0.000000
v -1.473533 -0.520183 0.000000
v -2.945613 0.000000 0.000000
v 2.945640 0.000000 0.000000
v 2.499377 0.000000 -0.931146
v -2.499350 0.000000 0.931142
v -1.257242 -0.511187 -1.257260
v -1.257242 0.511188 1.257255
v 1.257273 0.511188 1.257255
v 1.257273 -0.511187 -1.257260
v -0.931128 0.000000 -2.499372
v 0.931155 0.000000 2.499368
v 1.257273 -0.511187 1.257255
v 1.257273 0.511188 -1.257260
v -1.257242 0.511188 -1.257260
v -1.257242 -0.511187 1.257255
v -2.499350 0.000000 -0.931146
v -0.931128 0.000000 2.499368
v 2.499377 0.000000 0.931142
v 0.931155 0.000000 -2.499372
vt -24.092199 28.773724
vt -24.588495 28.277431
vt -25.087709 29.040386
vt -24.092199 31.187902
vt -24.588495 31.684208
vt -25.087709 30.921257
vt -21.944670 32.183411
vt -22.885113 31.395565
vt -21.678022 31.187902
vt -21.944670 27.778217
vt -22.885113 28.566071
vt -21.678022 28.773724
vt -21.678022 31.187902
vt -22.885113 29.980824
vt -22.885113 31.395565
vt -21.678022 28.773724
vt -22.885113 29.980824
vt -22.885113 28.566071
vt -24.299856 29.980824
vt -25.087709 29.040386
vt -24.092199 28.773724
vt -24.299856 29.980824
vt -25.087709 30.921257
vt -24.092199 31.187902
vt -24.588495 31.684208
vt -23.825546 32.183411
vt -22.885113 32.561668
vt -24.588495 28.277431
vt -23.825546 27.778217
vt -22.885113 27.399967
vt -21.944670 27.778217
vt -21.181721 28.277431
vt -20.682516 29.040386
vt -21.470360 29.980824
vt -21.944670 32.183411
vt -21.181721 31.684208
vt -20.682516 30.921257
vt -21.470360 29.980824
vt -20.682516 29.040386
vt -20.304260 29.980824
vt -21.181721 28.277431
vt -20.682516 30.921257
vt -20.304260 29.980824
vt -21.181721 31.684208
vt -25.465961 29.980824
vt -23.825546 32.183411
vt -25.465961 29.980824
vt -23.825546 27.778217
vt -22.885113 32.561668
vt -22.885113 27.399967
vt 0.000000 0.000000
vt 1.000000 1.000000
vt 0.000000 1.000000
vt 0.000000 0.000000
vt 1.000000 1.000000
vt 0.000000 1.000000
vt 0.000000 0.000000
vt 1.000000 1.000000
vt 0.000000 1.000000
vt 0.000000 0.000000
vt 1.000000 1.000000
vt 0.000000 1.000000
vt 0.000000 0.000000
vt 1.000000 1.000000
vt 0.000000 1.000000
vt 0.000000 0.000000
vt 1.000000 1.000000
vt 0.000000 1.000000
vt 0.000000 0.000000
vt 1.000000 1.000000
vt 0.000000 1.000000
vt 0.000000 0.000000
vt 1.000000 1.000000
vt 0.000000 1.000000
vt 1.000000 0.000000
vt 0.000000 1.000000
vt 0.000000 0.000000
vt 0.000000 0.000000
vt 1.000000 1.000000
vt 0.000000 1.000000
vt 1.000000 0.000000
vt 0.000000 1.000000
vt 0.000000 0.000000
vt 1.000000 0.000000
vt 0.000000 1.000000
vt 0.000000 0.000000
vt 0.000000 0.000000
vt 1.000000 1.000000
vt 0.000000 1.000000
vt 1.000000 0.000000
vt 0.000000 1.000000
vt 0.000000 0.000000
vt 1.000000 0.000000
vt 0.000000 1.000000
vt 0.000000 0.000000
vt 0.000000 0.000000
vt 1.000000 1.000000
vt 0.000000 1.000000
vt 1.000000 0.000000
vt 0.000000 1.000000
vt 0.000000 0.000000
vt 1.000000 0.000000
vt 0.000000 1.000000
vt 0.000000 0.000000
vt 0.000000 0.000000
vt 1.000000 1.000000
vt 0.000000 1.000000
vt 1.000000 0.000000
vt 0.000000 1.000000
vt 0.000000 0.000000
vt 1.000000 0.000000
vt 0.000000 1.000000
vt 0.000000 0.000000
vt 0.000000 0.000000
vt 1.000000 1.000000
vt 0.000000 1.000000
vt 1.000000 0.000000
vt 0.000000 1.000000
vt 0.000000 0.000000
vt 1.000000 0.000000
vt 0.000000 1.000000
vt 0.000000 0.000000
vt 0.000000 0.000000
vt 1.000000 1.000000
vt 0.000000 1.000000
vt 1.000000 0.000000
vt 0.000000 1.000000
vt 0.000000 0.000000
vt 1.000000 0.000000
vt 0.000000 1.000000
vt 0.000000 0.000000
vt 0.000000 0.000000
vt 1.000000 1.000000
vt 0.000000 1.000000
vt 1.000000 0.000000
vt 0.000000 1.000000
vt 0.000000 0.000000
vt 1.000000 0.000000
vt 0.000000 1.000000
vt 0.000000 0.000000
vt 0.000000 0.000000
vt 1.000000 1.000000
vt 0.000000 1.000000
vt 1.000000 0.000000
vt 0.000000 1.000000
vt 0.000000 0.000000
vt 1.000000 0.000000
vt 1.000000 0.000000
vt 1.000000 0.000000
vt 1.000000 0.000000
vt 1.000000 0.000000
vt 1.000000 0.000000
vt 1.000000 0.000000
vt 1.000000 0.000000
vt 1.000000 1.000000
vt 1.000000 0.000000
vt 1.000000 1.000000
vt 1.000000 1.000000
vt 1.000000 0.000000
vt 1.000000 1.000000
vt 1.000000 1.000000
vt 1.000000 0.000000
vt 1.000000 1.000000
vt 1.000000 1.000000
vt 1.000000 0.000000
vt 1.000000 1.000000
vt 1.000000 1.000000
vt 1.000000 0.000000
vt 1.000000 1.000000
vt 1.000000 1.000000
vt 1.000000 0.000000
vt 1.000000 1.000000
vt 1.000000 1.000000
vt 1.000000 0.000000
vt 1.000000 1.000000
vt 1.000000 1.000000
vt 1.000000 0.000000
vt 1.000000 1.000000
vn -0.0642 -0.9958 0.0642
vn -0.5340 -0.6554 0.5340
vn -0.5527 -0.7751 0.3061
vn -0.0642 0.9958 -0.0642
vn -0.5340 0.6554 -0.5340
vn -0.5527 0.7751 -0.3061
vn 0.3061 0.7751 -0.5527
vn 0.0000 0.9986 -0.0522
vn 0.0642 0.9958 -0.0642
vn 0.3061 -0.7751 0.5527
vn 0.0000 -0.9986 0.0522
vn 0.0642 -0.9958 0.0642
vn 0.0642 -0.9958 -0.0642
vn 0.0000 -1.0000 0.0000
vn 0.0000 -0.9986 -0.0522
vn 0.0642 0.9958 0.0642
vn 0.0000 1.0000 0.0000
vn 0.0000 0.9986 0.0522
vn -0.0522 0.9986 0.0000
vn -0.5527 0.7751 0.3061
vn -0.0642 0.9958 0.0642
vn -0.0522 -0.9986 0.0000
vn -0.5527 -0.7751 -0.3061
vn -0.0642 -0.9958 -0.0642
vn -0.5340 -0.6554 -0.5340
vn -0.3061 -0.7751 -0.5527
vn 0.0000 -0.7946 -0.6071
vn -0.5340 0.6554 0.5340
vn -0.3061 0.7751 0.5527
vn 0.0000 0.7946 0.6071
vn 0.3061 0.7751 0.5527
vn 0.5340 0.6554 0.5340
vn 0.5527 0.7751 0.3061
vn 0.0522 0.9986 0.0000
vn 0.3061 -0.7751 -0.5527
vn 0.5340 -0.6554 -0.5340
vn 0.5527 -0.7751 -0.3061
vn 0.0522 -0.9986 0.0000
vn 0.5527 -0.7751 0.3061
vn 0.6071 -0.7946 0.0000
vn 0.5340 -0.6554 0.5340
vn 0.5527 0.7751 -0.3061
vn 0.6071 0.7946 0.0000
vn 0.5340 0.6554 -0.5340
vn -0.6071 0.7946 0.0000
vn -0.3061 0.7751 -0.5527
vn -0.6071 -0.7946 0.0000
vn -0.3061 -0.7751 0.5527
vn 0.0000 0.7946 -0.6071
vn 0.0000 -0.7946 0.6071
vn 0.4684 0.0000 -0.8835
vn 0.7071 0.0000 -0.7071
vn 0.8835 0.0000 0.4684
vn 0.7071 0.0000 0.7071
vn -0.4684 0.0000 0.8835
vn -0.7071 0.0000 0.7071
vn -0.8835 0.0000 -0.4684
vn -0.7071 0.0000 -0.7071
vn 0.4684 0.0000 0.8835
vn 0.0000 0.0000 1.0000
vn -0.4684 0.0000 -0.8835
vn 0.0000 0.0000 -1.0000
vn -0.8835 0.0000 0.4684
vn -1.0000 0.0000 0.0000
vn 0.8835 0.0000 -0.4684
vn 1.0000 0.0000 0.0000
usemtl floor
s 1
f 62/1/1 5/2/2 29/3/3
f 61/4/4 2/5/5 30/6/6
f 21/7/7 43/8/8 60/9/9
f 26/10/10 44/11/11 59/12/12
f 56/13/13 18/14/14 36/15/15
f 55/16/16 17/17/17 35/18/18
f 47/19/19 42/20/20 54/21/21
f 48/22/22 41/23/23 53/24/24
f 53/24/24 1/25/25 19/26/26
f 36/15/15 19/26/26 9/27/27
f 18/14/14 53/24/24 36/15/15
f 54/21/21 6/28/28 27/29/29
f 35/18/18 27/29/29 12/30/30
f 17/17/17 54/21/21 35/18/18
f 34/31/31 35/18/18 12/30/30
f 8/32/32 55/16/16 34/31/31
f 24/33/33 46/34/34 55/16/16
f 31/35/35 36/15/15 9/27/27
f 3/36/36 56/13/13 31/35/35
f 23/37/37 45/38/38 56/13/13
f 59/12/12 18/14/14 45/38/38
f 39/39/39 45/38/38 13/40/40
f 7/41/41 59/12/12 39/39/39
f 60/9/9 17/17/17 46/34/34
f 40/42/42 46/34/34 14/43/43
f 4/44/44 60/9/9 40/42/42
f 47/19/19 30/6/6 16/45/45
f 17/17/17 61/4/4 47/19/19
f 43/8/8 32/46/46 61/4/4
f 48/22/22 29/3/3 15/47/47
f 18/14/14 62/1/1 48/22/22
f 44/11/11 33/48/48 62/1/1
f 62/1/1 33/48/48 5/2/2
f 61/4/4 32/46/46 2/5/5
f 21/7/7 10/49/49 43/8/8
f 26/10/10 11/50/50 44/11/11
f 56/13/13 45/38/38 18/14/14
f 55/16/16 46/34/34 17/17/17
f 47/19/19 16/45/45 42/20/20
f 48/22/22 15/47/47 41/23/23
f 53/24/24 41/23/23 1/25/25
f 36/15/15 53/24/24 19/26/26
f 18/14/14 48/22/22 53/24/24
f 54/21/21 42/20/20 6/28/28
f 35/18/18 54/21/21 27/29/29
f 17/17/17 47/19/19 54/21/21
f 34/31/31 55/16/16 35/18/18
f 8/32/32 24/33/33 55/16/16
f 24/33/33 14/43/43 46/34/34
f 31/35/35 56/13/13 36/15/15
f 3/36/36 23/37/37 56/13/13
f 23/37/37 13/40/40 45/38/38
f 59/12/12 44/11/11 18/14/14
f 39/39/39 59/12/12 45/38/38
f 7/41/41 26/10/10 59/12/12
f 60/9/9 43/8/8 17/17/17
f 40/42/42 60/9/9 46/34/34
f 4/44/44 21/7/7 60/9/9
f 47/19/19 61/4/4 30/6/6
f 17/17/17 43/8/8 61/4/4
f 43/8/8 10/49/49 32/46/46
f 48/22/22 62/1/1 29/3/3
f 18/14/14 44/11/11 62/1/1
f 44/11/11 11/50/50 33/48/48
usemtl wall
f 66/51/51 4/52/44 22/53/52
f 65/54/53 8/55/32 25/56/54
f 64/57/55 6/58/28 28/59/56
f 63/60/57 2/61/5 20/62/58
f 58/63/59 12/64/30 37/65/60
f 57/66/61 10/67/49 38/68/62
f 52/69/63 16/70/45 49/71/64
f 51/72/65 14/73/43 50/74/66
f 51/75/65 13/76/40 23/77/37
f 3/78/36 51/79/65 23/80/37
f 4/81/44 51/82/65 22/83/52
f 52/84/63 15/85/47 29/86/3
f 5/87/2 52/88/63 29/89/3
f 6/90/28 52/91/63 28/92/56
f 57/93/61 9/94/27 19/95/26
f 1/96/25 57/97/61 19/98/26
f 2/99/5 57/100/61 20/101/58
f 58/102/59 11/103/50 26/104/10
f 7/105/41 58/106/59 26/107/10
f 8/108/32 58/109/59 25/110/54
f 63/111/57 1/112/25 41/113/23
f 15/114/47 63/115/57 41/116/23
f 16/117/45 63/118/57 49/119/64
f 64/120/55 5/121/2 33/122/48
f 11/123/50 64/124/55 33/125/48
f 12/126/30 64/127/55 37/128/60
f 65/129/53 7/130/41 39/131/39
f 13/132/40 65/133/53 39/134/39
f 14/135/43 65/136/53 50/137/66
f 66/138/51 3/139/36 31/140/35
f 9/141/27 66/142/51 31/143/35
f 10/144/49 66/145/51 38/146/62
f 66/51/51 21/147/7 4/52/44
f 65/54/53 24/148/33 8/55/32
f 64/57/55 27/149/29 6/58/28
f 63/60/57 30/150/6 2/61/5
f 58/63/59 34/151/31 12/64/30
f 57/66/61 32/152/46 10/67/49
f 52/69/63 42/153/20 16/70/45
f 51/72/65 40/154/42 14/73/43
f 51/75/65 50/155/66 13/76/40
f 3/78/36 22/156/52 51/79/65
f 4/81/44 40/157/42 51/82/65
f 52/84/63 49/158/64 15/85/47
f 5/87/2 28/159/56 52/88/63
f 6/90/28 42/160/20 52/91/63
f 57/93/61 38/161/62 9/94/27
f 1/96/25 20/162/58 57/97/61
f 2/99/5 32/163/46 57/100/61
f 58/102/59 37/164/60 11/103/50
f 7/105/41 25/165/54 58/106/59
f 8/108/32 34/166/31 58/109/59
f 63/111/57 20/167/58 1/112/25
f 15/114/47 49/168/64 63/115/57
f 16/117/45 30/169/6 63/118/57
f 64/120/55 28/170/56 5/121/2
f 11/123/50 37/171/60 64/124/55
f 12/126/30 27/172/29 64/127/55
f 65/129/53 25/173/54 7/130/41
f 13/132/40 50/174/66 65/133/53
f 14/135/43 24/175/33 65/136/53
f 66/138/51 22/176/52 3/139/36
f 9/141/27 38/177/62 66/142/51
f 10/144/49 21/178/7 66/145/51
