# Blender MTL File: 'reds switch.blend'
# Material Count: 1

newmtl Material
collisionType 0 0 0
Ns 96.078431
Ka 1.000000 1.000000 1.000000
Kd 0.640000 0.640000 0.640000
Ks 0.500000 0.500000 0.500000
Ke 0.000000 0.000000 0.000000
Ni 1.000000
d 1.000000
illum 2
map_Kd ..\..\levels\PlayStation - Spyro 3 Year of the Dragon - Molten Crater\Texture base [www.imagesplitter.net]\0 (22).png
