# Blender v2.79 (sub 0) OBJ File: 'reds switch.blend'
# www.blender.org
mtllib reds switch.mtl
o Cube
v 1.000000 -0.319098 -0.709107
v 0.709107 -0.450000 -0.709107
v 0.709107 -0.319098 -1.000000
v 1.000000 -0.319098 0.709107
v 0.709107 -0.319098 1.000000
v 0.709107 -0.450000 0.709107
v -0.709107 -0.319098 1.000000
v -1.000000 -0.319098 0.709107
v -0.709107 -0.450000 0.709107
v -0.709107 -0.319098 -1.000000
v -0.709107 -0.450000 -0.709107
v -1.000000 -0.319098 -0.709107
v 0.709107 0.319098 -1.000000
v 0.475300 0.688886 -0.475299
v 1.000000 0.319098 -0.709107
v 0.709106 0.319098 1.000000
v 1.000000 0.319098 0.709108
v 0.475299 0.688886 0.475300
v -1.000000 0.319098 0.709107
v -0.709107 0.319098 1.000000
v -0.475300 0.688886 0.475299
v -1.000000 0.319098 -0.709107
v -0.475300 0.688886 -0.475299
v -0.709107 0.319098 -1.000000
v 0.709107 0.545613 -0.709107
v 0.709107 0.545613 0.709108
v -0.709107 0.545613 -0.709107
v -0.709107 0.545613 0.709107
vt 0.000000 -1.032120
vt 1.000000 -0.550350
vt 0.000000 -0.550350
vt 0.000000 -2.272922
vt 1.000000 -1.272922
vt 0.000000 -1.272922
vt 1.550349 1.000000
vt 2.032119 0.000000
vt 2.032119 1.000000
vt 0.000000 1.550350
vt 1.000000 2.032120
vt 0.000000 2.032120
vt 0.000000 0.854553
vt -0.145446 0.854554
vt -0.145446 1.000000
vt 1.000000 0.145446
vt 0.854553 -0.000000
vt 0.854554 0.145446
vt 0.145446 0.000000
vt 0.000000 0.145447
vt 0.145446 0.145447
vt 0.145447 0.000000
vt 0.145447 -0.145446
vt 0.000000 -0.145446
vt 0.854554 1.000000
vt 0.854554 0.854553
vt 1.000000 0.854553
vt 0.854553 1.000000
vt 1.000000 1.145446
vt 0.854553 1.145446
vt 1.000000 0.145447
vt 1.145446 0.000000
vt 1.145446 0.145447
vt 0.000000 0.854554
vt 0.145447 0.854553
vt 0.145447 1.000000
vt -1.032120 0.000000
vt -1.272922 1.000000
vt -1.272922 0.000000
vt -0.310552 -1.032120
vt 1.000000 2.272923
vt 0.000000 2.272923
vt -0.310551 1.550350
vt -0.310551 2.032120
vt 2.272922 1.000000
vt 1.550349 1.310552
vt 2.032119 1.310552
vt 1.310551 -1.032120
vt 1.000000 -1.032120
vt -0.272033 0.000000
vt -0.550350 1.000000
vt -0.550350 0.000000
vt 0.000000 -0.272033
vt 0.000000 1.272033
vt 1.000000 1.550350
vt 1.272033 0.000000
vt 1.272033 1.000000
vt -1.032120 1.000000
vt 0.000000 0.000000
vt -0.272033 1.000000
vt 1.000000 -0.272033
vt 1.000000 0.000000
vt 0.000000 1.000000
vt 1.000000 1.272033
vt 1.000000 1.000000
vt 1.000000 -2.272922
vt 1.550349 0.000000
vt -0.310552 -0.550350
vt 2.272922 0.000000
vt 1.310551 -0.550350
vn 0.0000 0.0000 -1.0000
vn 0.0000 -1.0000 0.0000
vn -1.0000 -0.0000 -0.0000
vn -0.0000 -0.0000 1.0000
vn 0.3796 -0.8436 -0.3796
vn 0.3796 -0.8436 0.3796
vn -0.3796 -0.8436 0.3796
vn -0.3796 -0.8436 -0.3796
vn 0.5235 0.6723 -0.5235
vn 0.5235 0.6723 0.5235
vn -0.5235 0.6723 0.5235
vn -0.5235 0.6723 -0.5235
vn 0.4104 -0.9119 0.0000
vn 0.0000 -0.9119 -0.4104
vn 0.7071 -0.0000 -0.7071
vn -0.0000 -0.9119 0.4104
vn 0.7071 -0.0000 0.7071
vn -0.4104 -0.9119 -0.0000
vn -0.7071 -0.0000 0.7071
vn -0.7071 0.0000 -0.7071
vn 0.6144 0.7890 0.0000
vn 0.0000 0.7890 -0.6144
vn -0.0000 0.7890 0.6144
vn -0.6144 0.7890 -0.0000
vn 1.0000 0.0000 0.0000
vn 0.5225 0.8526 0.0000
vn 0.0000 0.8526 -0.5225
vn -0.0000 0.8526 0.5225
vn -0.5225 0.8526 -0.0000
vn 0.0000 1.0000 -0.0000
usemtl Material
s off
f 3/1/1 24/2/1 13/3/1
f 6/4/2 11/5/2 2/6/2
f 19/7/3 12/8/3 8/9/3
f 16/10/4 7/11/4 5/12/4
f 1/13/5 2/14/5 3/15/5
f 4/16/6 5/17/6 6/18/6
f 7/19/7 8/20/7 9/21/7
f 10/22/8 11/23/8 12/24/8
f 13/25/9 25/26/9 15/27/9
f 16/28/10 17/29/10 26/30/10
f 19/31/11 20/32/11 28/33/11
f 22/34/12 27/35/12 24/36/12
f 1/37/13 6/38/13 2/39/13
f 11/5/14 3/1/14 2/6/14
f 13/3/15 1/40/15 3/1/15
f 5/12/16 9/41/16 6/42/16
f 17/43/17 5/12/17 4/44/17
f 12/8/18 9/45/18 8/9/18
f 20/46/19 8/9/19 7/47/19
f 12/48/20 24/2/20 10/49/20
f 25/50/21 17/51/21 15/52/21
f 24/2/22 25/53/22 13/3/22
f 26/54/23 20/55/23 16/10/23
f 27/56/24 19/7/24 28/57/24
f 15/52/25 4/58/25 1/37/25
f 14/59/26 26/60/26 25/50/26
f 14/59/27 27/61/27 23/62/27
f 18/63/28 28/64/28 26/54/28
f 23/62/29 28/57/29 21/65/29
f 3/1/1 10/49/1 24/2/1
f 6/4/2 9/66/2 11/5/2
f 19/7/3 22/67/3 12/8/3
f 16/10/4 20/55/4 7/11/4
f 1/37/13 4/58/13 6/38/13
f 11/5/14 10/49/14 3/1/14
f 13/3/15 15/68/15 1/40/15
f 5/12/16 7/11/16 9/41/16
f 17/43/17 16/10/17 5/12/17
f 12/8/18 11/69/18 9/45/18
f 20/46/19 19/7/19 8/9/19
f 12/48/20 22/70/20 24/2/20
f 25/50/21 26/60/21 17/51/21
f 24/2/22 27/61/22 25/53/22
f 26/54/23 28/64/23 20/55/23
f 27/56/24 22/67/24 19/7/24
f 15/52/25 17/51/25 4/58/25
f 14/59/26 18/63/26 26/60/26
f 14/59/27 25/53/27 27/61/27
f 18/63/28 21/65/28 28/64/28
f 23/62/29 27/56/29 28/57/29
usemtl Material_redswitch.png
f 23/62/30 18/63/30 14/59/30
f 23/62/30 21/65/30 18/63/30
