# Blender MTL File: 'rotating bows.blend'
# Material Count: 1

newmtl climbable
Ns 96.078431
Ka 1.000000 1.000000 1.000000
Kd 0.083308 0.640000 0.061091
Ks 0.500000 0.500000 0.500000
Ke 0.000000 0.000000 0.000000
Ni 1.000000
d 1.000000
illum 2
map_Kd ..\..\Sorted Textures\Sorted Textures\Metal\cs_metal11_alb.png
