# Blender v2.79 (sub 0) OBJ File: ''
# www.blender.org
mtllib paratroop2.mtl
o n0b0_n0b0.003
v 0.083070 0.892089 0.215934
v 0.086062 0.858165 0.150917
v 0.000028 0.904477 0.151396
v 0.116150 0.814341 0.177608
v 0.134640 0.799363 0.222342
v 0.116638 0.717163 0.167493
v 0.119967 0.697680 0.238098
v 0.078134 0.655827 0.198100
v 0.054267 0.629126 0.265410
v 0.000041 0.601812 0.199446
v 0.000048 0.620365 0.281005
v -0.054174 0.629122 0.265420
v -0.095825 0.738451 0.306713
v -0.119884 0.697673 0.238120
v -0.134565 0.799355 0.222366
v -0.116569 0.717156 0.167515
v -0.116085 0.814335 0.177629
v -0.304748 0.523248 0.048449
v -0.287969 0.554599 -0.002857
v -0.304753 0.555309 -0.006556
v -0.287961 0.520686 0.047189
v -0.304749 0.473156 0.026887
v -0.287966 0.472594 0.023062
v -0.290095 0.476214 -0.048642
v -0.204053 0.469781 0.003939
v -0.216803 0.495505 -0.054961
v -0.203578 0.495298 -0.055217
v -0.217283 0.547032 -0.042360
v -0.204058 0.546741 -0.041978
v -0.204054 0.551053 0.015633
v -0.155757 0.863214 0.163893
v -0.086004 0.858160 0.150932
v -0.184483 0.761738 0.157798
v -0.212875 0.822843 0.082227
v -0.198016 0.725454 0.083685
v -0.186430 0.768075 -0.017124
v -0.148304 0.681010 0.027102
v -0.118797 0.713164 -0.059664
v -0.039472 0.652294 -0.021883
v 0.000010 0.722732 -0.101164
v 0.039511 0.652296 -0.021890
v 0.118824 0.713171 -0.059686
v -0.112209 0.499825 -0.049219
v -0.101758 0.551389 -0.034462
v -0.115234 0.476031 -0.000515
v -0.098008 0.508301 0.037762
v -0.193448 0.507876 0.043146
v -0.088762 0.552598 0.016313
v 0.048483 0.947817 0.006403
v -0.048457 0.947814 0.006411
v 0.000016 0.962102 0.040961
v 0.000005 0.896041 -0.099685
v 0.139765 0.875866 -0.054451
v 0.108907 0.795810 -0.092006
v 0.186463 0.768086 -0.017159
v 0.148350 0.681019 0.027075
v 0.057769 0.621046 0.069370
v 0.288013 0.554561 -0.002917
v 0.304798 0.523218 0.048393
v 0.304796 0.555268 -0.006619
v 0.288010 0.520657 0.047136
v 0.204101 0.551030 0.015590
v 0.204071 0.507853 0.040853
v 0.193494 0.507859 0.043113
v 0.204087 0.469755 0.003911
v 0.098053 0.508288 0.037744
v 0.115268 0.476016 -0.000536
v 0.113131 0.666981 0.131854
v 0.198070 0.725465 0.083649
v 0.212923 0.822855 0.082188
v 0.176612 0.885519 0.091188
v 0.124549 0.910456 0.033410
v 0.130845 0.893758 0.112962
v 0.000006 0.803045 -0.123888
v -0.108890 0.795804 -0.091986
v -0.139746 0.875858 -0.054426
v -0.124516 0.910449 0.033433
v -0.113065 0.666974 0.131875
v -0.058295 0.661273 0.197170
v 0.000040 0.628182 0.202926
v -0.057712 0.621043 0.069381
v 0.000034 0.615426 0.132319
v 0.290206 0.526621 -0.057812
v 0.304784 0.522545 -0.060893
v 0.217319 0.546996 -0.042405
v 0.204093 0.546707 -0.042020
v 0.101796 0.551376 -0.034480
v 0.112237 0.499810 -0.049240
v 0.290120 0.476167 -0.048687
v 0.216829 0.495467 -0.054996
v 0.203604 0.495262 -0.055249
v 0.304778 0.472307 -0.047425
v 0.343322 0.431118 0.059107
v 0.304787 0.473122 0.026840
v 0.384694 0.427702 0.054960
v 0.413999 0.441785 0.014303
v 0.399461 0.453064 0.062985
v 0.446958 0.485765 0.072311
v 0.020272 1.017073 0.031041
v 0.086500 1.008309 0.019476
v 0.056730 1.060126 0.058433
v 0.116083 1.039722 0.077246
v 0.083740 1.067956 0.116738
v -0.350263 0.464613 -0.070982
v -0.304755 0.522597 -0.060836
v -0.304753 0.472356 -0.047378
v -0.367310 0.534349 -0.083089
v -0.405711 0.462438 -0.071910
v -0.426743 0.534334 -0.081087
v -0.445816 0.486338 -0.067120
v -0.056701 1.060122 0.058443
v -0.083700 1.067951 0.116754
v -0.027025 1.066998 0.119824
v -0.116049 1.039716 0.077267
v -0.086474 1.008304 0.019492
v -0.134266 0.972743 0.057828
v 0.374257 0.542645 0.078137
v 0.446958 0.485765 0.072311
v 0.429044 0.540863 0.076951
v 0.399461 0.453064 0.062985
v 0.352040 0.472060 0.082244
v 0.384694 0.427702 0.054960
v 0.343322 0.431118 0.059107
v 0.155817 0.863223 0.163865
v 0.184548 0.761748 0.157764
v -0.020245 1.017072 0.031045
v 0.000018 1.029961 0.083647
v 0.000023 0.545275 0.014892
v -0.057712 0.621043 0.069381
v -0.026347 0.561926 -0.038412
v 0.057769 0.621046 0.069370
v 0.026385 0.561922 -0.038416
v 0.039511 0.652296 -0.021890
v -0.039472 0.652294 -0.021883
v -0.091465 0.844773 0.278778
v 0.000034 0.916018 0.227294
v -0.083002 0.892084 0.215949
v 0.000044 0.860014 0.312110
v -0.095825 0.738451 0.306713
v 0.000050 0.739624 0.344524
v 0.000050 0.739624 0.344524
v 0.095918 0.738457 0.306695
v 0.437621 0.555111 0.012456
v 0.374257 0.542645 0.078137
v 0.429044 0.540863 0.076951
v 0.304796 0.555268 -0.006619
v 0.426769 0.534263 -0.081169
v 0.367336 0.534285 -0.083160
v 0.000034 0.916018 0.227294
v -0.083002 0.892084 0.215949
v -0.130796 0.893750 0.112986
v -0.176567 0.885509 0.091220
v -0.290176 0.526669 -0.057757
v 0.116638 0.717163 0.167493
v 0.000022 0.775306 0.049111
v 0.058373 0.661276 0.197160
v 0.000036 0.735869 0.187805
v 0.078134 0.655827 0.198100
v 0.000041 0.601812 0.199446
v -0.204025 0.507872 0.040888
v 0.304787 0.473122 0.026840
v 0.288004 0.472561 0.023018
v 0.027065 1.066999 0.119819
v 0.134301 0.972751 0.057804
v -0.413967 0.441837 0.014364
v -0.445816 0.486338 -0.067120
v -0.405711 0.462438 -0.071910
v -0.458876 0.490135 0.016301
v -0.446909 0.485810 0.072387
v -0.399418 0.453104 0.063046
v -0.384656 0.427742 0.055013
v -0.304753 0.472356 -0.047378
v -0.091465 0.844773 0.278778
v -0.351991 0.472090 0.082300
v -0.374199 0.542679 0.078211
v -0.399418 0.453104 0.063046
v -0.304748 0.523248 0.048449
v -0.304749 0.473156 0.026887
v -0.374199 0.542679 0.078211
v -0.437574 0.555166 0.012544
v -0.428987 0.540905 0.077034
v -0.304753 0.555309 -0.006556
v -0.304748 0.523248 0.048449
v -0.343282 0.431151 0.059153
v -0.384656 0.427742 0.055013
v 0.000040 0.628182 0.202926
v -0.058295 0.661273 0.197170
v -0.116569 0.717156 0.167515
v 0.405730 0.462371 -0.071974
v 0.426769 0.534263 -0.081169
v 0.445839 0.486267 -0.067196
v 0.367336 0.534285 -0.083160
v 0.350282 0.464554 -0.071036
v 0.437621 0.555111 0.012456
v 0.445839 0.486267 -0.067196
v 0.426769 0.534263 -0.081169
v 0.458915 0.490078 0.016222
v 0.446958 0.485765 0.072311
v 0.458915 0.490078 0.016222
v 0.445839 0.486267 -0.067196
v 0.405730 0.462371 -0.071974
v -0.304755 0.522597 -0.060836
v 0.091547 0.844779 0.278762
v -0.078056 0.655823 0.198114
v -0.078056 0.655823 0.198114
v 0.304784 0.522545 -0.060893
v 0.304778 0.472307 -0.047425
v 0.304798 0.523218 0.048393
v 0.304787 0.473122 0.026840
v 0.350282 0.464554 -0.071036
v 0.304778 0.472307 -0.047425
v -0.367310 0.534349 -0.083089
v -0.304755 0.522597 -0.060836
v -0.426743 0.534334 -0.081087
v -0.343282 0.431151 0.059153
v -0.304749 0.473156 0.026887
v -0.445816 0.486338 -0.067120
v -0.437574 0.555166 0.012544
v -0.426743 0.534334 -0.081087
v -0.458876 0.490135 0.016301
v -0.446909 0.485810 0.072387
v -0.428987 0.540905 0.077034
v -0.446909 0.485810 0.072387
v -0.428987 0.540905 0.077034
v 0.058373 0.661276 0.197160
v 0.091547 0.844779 0.278762
v 0.083070 0.892089 0.215934
v -0.350263 0.464613 -0.070982
v -0.304753 0.472356 -0.047378
v 0.088809 0.552586 0.016297
v 0.095918 0.738457 0.306695
v 0.304784 0.522545 -0.060893
v 0.429044 0.540863 0.076951
v 0.304798 0.523218 0.048393
v 0.155094 0.259844 -0.146116
v 0.132453 0.296424 -0.157709
v 0.174613 0.425348 -0.081084
v -0.000020 0.213769 -0.213318
v -0.000015 0.214426 -0.158915
v -0.155115 0.259865 -0.146088
v -0.136497 0.251177 -0.096790
v -0.215489 0.418801 -0.059702
v -0.191963 0.403786 -0.010837
v -0.155083 0.598860 -0.042449
v -0.136466 0.578360 0.003236
v 0.000026 0.643544 -0.027724
v 0.000003 0.438711 -0.124215
v 0.136514 0.578342 0.003212
v 0.191985 0.403761 -0.010872
v 0.155126 0.598839 -0.042478
v 0.215504 0.418772 -0.059742
v 0.132480 0.575087 -0.072515
v -0.180877 0.072157 -0.115162
v -0.101009 0.003274 -0.146592
v -0.166701 -0.000065 -0.107524
v -0.101007 0.073761 -0.159229
v -0.100997 0.134486 -0.129022
v -0.021121 0.072146 -0.115192
v -0.038079 0.129477 -0.080827
v -0.012052 0.094700 0.040166
v -0.052218 0.131589 -0.006718
v -0.100959 0.148396 0.071068
v -0.149731 0.131596 -0.006700
v -0.189884 0.094712 0.040199
v -0.163898 0.129485 -0.080804
v 0.163868 0.129463 -0.080846
v 0.180826 0.072132 -0.115210
v 0.100950 0.134472 -0.129041
v 0.189895 0.094686 0.040147
v 0.149729 0.131576 -0.006737
v 0.100988 0.148382 0.071050
v 0.052216 0.131582 -0.006719
v 0.012063 0.094699 0.040180
v 0.038049 0.129472 -0.080822
v 0.021070 0.072143 -0.115180
v 0.100940 0.073747 -0.159247
v 0.100937 0.003261 -0.146610
v 0.166643 -0.000088 -0.107567
v -0.000017 0.258343 -0.215952
v -0.132472 0.296441 -0.157685
v -0.174600 0.425372 -0.081052
v -0.132446 0.575105 -0.072491
v 0.000024 0.674643 -0.072419
v -0.133184 0.228678 -0.011631
v -0.148874 0.217690 -0.080960
v -0.134016 0.218425 -0.011488
v -0.143487 0.298186 -0.084397
v -0.129182 0.291396 -0.018432
v -0.097923 0.439822 -0.061957
v -0.068280 0.281193 -0.014068
v -0.053371 0.287981 -0.084405
v -0.052541 0.217684 -0.080968
v -0.099541 0.219922 -0.109544
v -0.099547 0.206632 -0.111341
v -0.180864 -0.000065 0.074428
v -0.159383 0.090545 0.118826
v -0.042525 0.090537 0.118804
v -0.021072 -0.000075 0.074398
v -0.035303 -0.000074 -0.107548
v -0.155305 0.157782 -0.137014
v -0.100993 0.176767 -0.122226
v -0.046690 0.157775 -0.137034
v -0.164404 0.176771 -0.074636
v -0.184280 0.157827 -0.029676
v -0.139950 0.176769 -0.003476
v -0.100966 0.157864 0.027948
v -0.061992 0.176764 -0.003491
v -0.017674 0.157816 -0.029707
v -0.037565 0.176762 -0.074660
v -0.046690 0.157775 -0.137034
v -0.100997 0.134486 -0.129022
v -0.155305 0.157782 -0.137014
v -0.038079 0.129477 -0.080827
v -0.017674 0.157816 -0.029707
v -0.052218 0.131589 -0.006718
v -0.100966 0.157864 0.027948
v -0.149731 0.131596 -0.006700
v -0.184280 0.157827 -0.029676
v -0.163898 0.129485 -0.080804
v 0.163868 0.129463 -0.080846
v 0.184273 0.157802 -0.029725
v 0.149729 0.131576 -0.006737
v 0.155257 0.157761 -0.137053
v 0.100950 0.134472 -0.129041
v 0.046643 0.157769 -0.137033
v 0.038049 0.129472 -0.080822
v 0.017667 0.157814 -0.029694
v 0.052216 0.131582 -0.006719
v 0.100981 0.157851 0.027930
v 0.155257 0.157761 -0.137053
v 0.164383 0.176749 -0.074678
v 0.184273 0.157802 -0.029725
v 0.100954 0.176753 -0.122244
v 0.046643 0.157769 -0.137033
v 0.037543 0.176758 -0.074655
v 0.017667 0.157814 -0.029694
v 0.061997 0.176756 -0.003495
v 0.100981 0.157851 0.027930
v 0.139956 0.176750 -0.003510
v 0.066416 0.228665 -0.011649
v 0.052526 0.217676 -0.080978
v 0.065833 0.218412 -0.011506
v 0.068286 0.281184 -0.014080
v 0.129188 0.291379 -0.018456
v 0.097940 0.439809 -0.061975
v 0.143482 0.298167 -0.084423
v 0.098923 0.296014 -0.115746
v 0.148859 0.217670 -0.080987
v 0.099521 0.219909 -0.109562
v 0.099516 0.206618 -0.111359
v -0.099547 0.206632 -0.111341
v -0.099134 0.114357 -0.110940
v -0.148874 0.217690 -0.080960
v -0.050757 0.116722 -0.086329
v -0.052541 0.217684 -0.080968
v -0.066710 0.125736 -0.018785
v -0.065826 0.218421 -0.011501
v -0.133368 0.125740 -0.018772
v -0.134016 0.218425 -0.011488
v -0.039622 0.215896 -0.045043
v -0.154410 0.345100 -0.073058
v -0.056770 0.242080 -0.161837
v -0.096682 0.278820 0.024174
v 0.000008 0.274021 0.044000
v 0.000018 0.369340 0.092364
v 0.096694 0.278807 0.024156
v 0.112267 0.375969 0.065265
v 0.154413 0.345080 -0.073087
v 0.148204 0.458031 -0.033149
v 0.021082 -0.000077 0.074410
v 0.035245 -0.000079 -0.107542
v 0.042564 0.090532 0.118808
v 0.159422 0.090524 0.118786
v 0.180874 -0.000089 0.074380
v 0.050723 0.116716 -0.086329
v 0.099516 0.206618 -0.111359
v 0.099090 0.114343 -0.110958
v 0.052526 0.217676 -0.080978
v 0.066703 0.125727 -0.018791
v 0.065833 0.218412 -0.011506
v 0.133360 0.125723 -0.018803
v 0.134024 0.218407 -0.011519
v 0.148859 0.217670 -0.080987
v 0.102328 0.478042 0.063558
v 0.097171 0.567657 -0.040081
v 0.000026 0.470709 0.099035
v -0.112234 0.375984 0.065285
v 0.062409 0.574041 -0.230558
v -0.062404 0.574050 -0.230546
v 0.000019 0.639249 -0.099500
v -0.000009 0.492921 -0.301534
v 0.116930 0.472737 -0.235548
v 0.070921 0.385579 -0.286976
v 0.132453 0.296424 -0.157709
v -0.000017 0.258343 -0.215952
v -0.000593 0.169014 -0.149358
v -0.000006 0.237838 -0.081235
v -0.045489 0.255744 -0.123904
v 0.045471 0.255738 -0.123913
v -0.000024 0.140364 -0.203470
v -0.000011 0.271080 -0.160469
v 0.136483 0.251159 -0.096815
v -0.148178 0.458051 -0.033122
v -0.102283 0.478056 0.063576
v -0.047104 0.543951 0.066772
v 0.047160 0.543945 0.066763
v 0.132480 0.575087 -0.072515
v 0.174613 0.425348 -0.081084
v 0.116518 0.624756 -0.433012
v 0.117102 0.566835 -0.411893
v 0.116809 0.602634 -0.435690
v 0.157821 0.671170 -0.287593
v 0.116221 0.668722 -0.485579
v 0.116623 0.718652 -0.495681
v 0.021082 -0.000077 0.074410
v 0.180874 -0.000089 0.074380
v 0.100986 0.006488 0.111218
v 0.166643 -0.000088 -0.107567
v 0.035245 -0.000079 -0.107542
v 0.100937 0.003261 -0.146610
v -0.117165 0.566852 -0.411870
v -0.116574 0.624773 -0.432989
v -0.116871 0.602651 -0.435667
v -0.157816 0.671197 -0.287557
v -0.114699 0.518456 -0.323834
v -0.114223 0.518707 -0.219361
v -0.065826 0.218421 -0.011501
v -0.066417 0.228674 -0.011637
v -0.080485 0.500549 -0.016233
v 0.055222 0.667285 -0.280061
v 0.116826 0.722361 -0.472977
v 0.116623 0.718652 -0.495681
v 0.116943 0.753695 -0.506863
v 0.117305 0.806024 -0.514979
v -0.132446 0.575105 -0.072491
v -0.116940 0.472753 -0.235526
v -0.174600 0.425372 -0.081052
v -0.062404 0.574050 -0.230546
v 0.116518 0.624756 -0.433012
v 0.116809 0.602634 -0.435690
v 0.116221 0.668722 -0.485579
v 0.114654 0.518439 -0.323856
v 0.114213 0.518691 -0.219383
v 0.117102 0.566835 -0.411893
v 0.113796 0.664404 -0.133275
v 0.114446 0.772768 -0.188441
v 0.113948 0.567443 -0.141638
v 0.000019 0.639249 -0.099500
v 0.126375 0.985222 -0.467647
v 0.122768 0.937413 -0.483116
v 0.127422 0.993446 -0.435948
v 0.119142 0.899518 -0.502699
v 0.118170 0.865222 -0.515657
v 0.120594 0.892393 -0.467464
v -0.070952 0.385589 -0.286963
v -0.116940 0.472753 -0.235526
v -0.132472 0.296441 -0.157685
v 0.100986 0.006488 0.111218
v 0.133183 0.228661 -0.011655
v 0.134024 0.218407 -0.011519
v 0.053364 0.287974 -0.084415
v -0.055216 0.667286 -0.280059
v -0.114699 0.518456 -0.323834
v -0.117165 0.566852 -0.411870
v -0.114223 0.518707 -0.219361
v -0.113920 0.567459 -0.141616
v -0.113741 0.664420 -0.133253
v -0.114383 0.772784 -0.188419
v -0.127388 0.993465 -0.435922
v 0.080519 0.500538 -0.016248
v -0.118194 0.865239 -0.515633
v -0.117553 0.811385 -0.487157
v -0.119153 0.899535 -0.502675
v -0.120595 0.892411 -0.467440
v -0.116992 0.753712 -0.506840
v -0.116871 0.722378 -0.472954
v -0.117344 0.806040 -0.514956
v -0.098934 0.296028 -0.115728
v 0.114654 0.518439 -0.323856
v 0.114213 0.518691 -0.219383
v 0.113948 0.567443 -0.141638
v -0.100961 0.006501 0.111236
v 0.119142 0.899518 -0.502699
v 0.120594 0.892393 -0.467464
v 0.118170 0.865222 -0.515657
v 0.117525 0.811368 -0.487180
v 0.126375 0.985222 -0.467647
v 0.127422 0.993446 -0.435948
v 0.122768 0.937413 -0.483116
v 0.113796 0.664404 -0.133275
v 0.114446 0.772768 -0.188441
v -0.116284 0.668739 -0.485557
v -0.116676 0.718669 -0.495658
v -0.116871 0.722378 -0.472954
v -0.116676 0.718669 -0.495658
v -0.116992 0.753712 -0.506840
v -0.117344 0.806040 -0.514956
v -0.117553 0.811385 -0.487157
v -0.118194 0.865239 -0.515633
v -0.119153 0.899535 -0.502675
v -0.120595 0.892411 -0.467440
v -0.122763 0.937431 -0.483091
v -0.126353 0.985241 -0.467621
v -0.149390 0.116729 -0.086311
v 0.149356 0.116709 -0.086348
v 0.117525 0.811368 -0.487180
v -0.060208 0.580047 0.067421
v -0.097133 0.567670 -0.040064
v -0.081484 0.594168 -0.020232
v -0.060208 0.580047 0.067421
v 0.000021 0.612490 -0.054220
v -0.081484 0.594168 -0.020232
v 0.060268 0.580039 0.067410
v 0.039613 0.215890 -0.045051
v 0.056743 0.242073 -0.161847
v 0.060268 0.580039 0.067410
v 0.081530 0.594157 -0.020247
v -0.039622 0.215896 -0.045043
v 0.056743 0.242073 -0.161847
v 0.039613 0.215890 -0.045051
v -0.056770 0.242080 -0.161837
v -0.180864 -0.000065 0.074428
v -0.021072 -0.000075 0.074398
v -0.100961 0.006501 0.111236
v -0.166701 -0.000065 -0.107524
v -0.035303 -0.000074 -0.107548
v -0.101009 0.003274 -0.146592
v -0.113920 0.567459 -0.141616
v -0.113741 0.664420 -0.133253
v -0.114383 0.772784 -0.188419
v -0.127388 0.993465 -0.435922
v -0.126353 0.985241 -0.467621
v -0.122763 0.937431 -0.483091
v 0.116826 0.722361 -0.472977
v 0.116943 0.753695 -0.506863
v 0.117305 0.806024 -0.514979
v 0.060268 0.580039 0.067410
v -0.047104 0.543951 0.066772
v 0.047160 0.543945 0.066763
v -0.060208 0.580047 0.067421
v -0.116284 0.668739 -0.485557
v -0.116574 0.624773 -0.432989
v -0.116871 0.602651 -0.435667
v -0.070952 0.385589 -0.286963
v 0.081530 0.594157 -0.020247
vt 1.587891 0.958984
vt 1.587891 0.963867
vt 1.581055 0.963867
vt 1.590820 0.961914
vt 1.591797 0.958008
vt 1.590820 0.962891
vt 1.590820 0.957031
vt 1.587891 0.959961
vt 1.585938 0.955078
vt 1.581055 0.959961
vt 1.581055 0.953125
vt 1.577148 0.955078
vt 1.573242 0.951172
vt 1.571289 0.957031
vt 1.570312 0.958008
vt 1.571289 0.962891
vt 1.571289 0.961914
vt 2.333008 0.264648
vt 2.344727 0.256836
vt 2.333008 0.257812
vt 2.344727 0.265625
vt 2.333008 0.276367
vt 2.344727 0.276367
vt 2.342773 0.275391
vt 2.396484 0.276367
vt 2.387695 0.270508
vt 2.396484 0.270508
vt 2.386719 0.257812
vt 2.396484 0.257812
vt 2.396484 0.256836
vt 1.568359 0.962891
vt 1.574219 0.963867
vt 1.566406 0.962891
vt 1.563477 0.969727
vt 1.564453 0.969727
vt 1.565430 0.977539
vt 1.569336 0.973633
vt 1.571289 0.980469
vt 1.578125 0.977539
vt 1.581055 0.984375
vt 1.583984 0.977539
vt 1.590820 0.980469
vt 2.505859 0.269531
vt 2.514648 0.256836
vt 2.502930 0.276367
vt 2.504883 0.267578
vt 2.404297 0.267578
vt 2.519531 0.256836
vt 1.584961 0.975586
vt 1.577148 0.975586
vt 1.581055 0.972656
vt 1.581055 0.984375
vt 1.592773 0.980469
vt 1.589844 0.983398
vt 1.596680 0.977539
vt 1.593750 0.973633
vt 1.585938 0.970703
vt 2.344727 0.256836
vt 2.333008 0.264648
vt 2.333008 0.257812
vt 2.344727 0.265625
vt 2.396484 0.256836
vt 2.396484 0.267578
vt 2.404297 0.267578
vt 2.396484 0.276367
vt 2.504883 0.267578
vt 2.502930 0.276367
vt 1.588867 0.965820
vt 1.597656 0.969727
vt 1.598633 0.969727
vt 1.595703 0.968750
vt 1.591797 0.973633
vt 1.591797 0.966797
vt 1.581055 0.986328
vt 1.572266 0.983398
vt 1.569336 0.980469
vt 1.571289 0.973633
vt 1.573242 0.965820
vt 1.576172 0.959961
vt 1.581055 0.959961
vt 1.576172 0.970703
vt 1.581055 0.965820
vt 2.342773 0.263672
vt 2.333008 0.264648
vt 2.386719 0.257812
vt 2.396484 0.257812
vt 2.514648 0.256836
vt 2.505859 0.269531
vt 2.342773 0.275391
vt 2.387695 0.270508
vt 2.396484 0.270508
vt 0.549805 2.910156
vt 0.524414 2.817383
vt 0.546875 2.845703
vt 0.496094 2.815430
vt 0.474609 2.850586
vt 0.478516 2.818359
vt 0.461914 2.807617
vt 1.583008 0.973633
vt 1.587891 0.974609
vt 1.585938 0.971680
vt 1.590820 0.969727
vt 1.587891 0.966797
vt 0.458008 3.667969
vt 0.386719 3.690430
vt 0.452148 3.663086
vt 0.403320 3.712891
vt 0.488281 3.691406
vt 0.448242 3.750977
vt 0.502930 3.745117
vt 1.576172 0.971680
vt 1.574219 0.966797
vt 1.579102 0.966797
vt 1.571289 0.969727
vt 1.574219 0.974609
vt 1.570312 0.971680
vt 0.427734 2.729492
vt 0.500977 2.727539
vt 0.464844 2.753906
vt 0.481445 2.685547
vt 0.444336 2.675781
vt 0.485352 2.663086
vt 0.456055 2.645508
vt 1.593750 0.962891
vt 1.596680 0.962891
vt 1.579102 0.973633
vt 1.581055 0.969727
vt 0.599609 2.261719
vt 0.446289 2.251953
vt 0.604492 2.276367
vt 0.446289 2.251953
vt 0.604492 2.276367
vt 0.447266 2.277344
vt 0.447266 2.277344
vt 0.788086 0.963867
vt 0.670898 0.846680
vt 0.670898 0.963867
vt 0.788086 0.846680
vt 0.904297 0.963867
vt 0.904297 0.846680
vt 1.581055 0.948242
vt 1.588867 0.951172
vt 0.387695 2.932617
vt 0.362305 2.958984
vt 0.363281 2.933594
vt 0.392578 2.987305
vt 0.422852 2.936523
vt 0.421875 2.962891
vt 1.581055 0.958008
vt 1.574219 0.958984
vt 1.570312 0.966797
vt 1.566406 0.968750
vt 2.342773 0.263672
vt 0.567383 0.083984
vt 0.485352 0.098633
vt 0.524414 0.037109
vt 0.485352 0.136719
vt 0.563477 0.160156
vt 0.485352 0.231445
vt 2.396484 0.267578
vt 2.333008 0.276367
vt 2.344727 0.276367
vt 1.583008 0.966797
vt 1.591797 0.971680
vt 0.474609 2.850586
vt 0.449219 2.935547
vt 0.472656 2.939453
vt 0.450195 2.852539
vt 0.461914 2.807617
vt 0.478516 2.818359
vt 0.496094 2.815430
vt 0.549805 2.910156
vt 1.573242 0.953125
vt 0.444336 2.675781
vt 0.427734 2.729492
vt 0.481445 2.685547
vt 0.415039 2.703125
vt 0.437500 2.671875
vt 0.362305 2.958984
vt 0.387695 2.932617
vt 0.363281 2.933594
vt 0.392578 2.987305
vt 0.370117 2.977539
vt 0.456055 2.645508
vt 0.485352 2.663086
vt 0.485352 0.025391
vt 0.447266 0.037109
vt 0.404297 0.083984
vt 0.488281 3.691406
vt 0.448242 3.750977
vt 0.502930 3.745117
vt 0.403320 3.712891
vt 0.458008 3.667969
vt 0.367188 3.856445
vt 0.447266 3.934570
vt 0.382812 3.948242
vt 0.447266 3.852539
vt 0.457031 3.798828
vt 0.450195 2.852539
vt 0.449219 2.935547
vt 0.472656 2.939453
vt 2.333008 0.264648
vt 1.588867 0.953125
vt 1.575195 0.959961
vt 0.408203 0.160156
vt 0.386719 3.690430
vt 0.452148 3.663086
vt 0.415039 2.703125
vt 0.437500 2.671875
vt 0.519531 2.935547
vt 2.333008 0.276367
vt 0.421875 2.962891
vt 0.411133 2.987305
vt 0.422852 2.936523
vt 0.524414 2.817383
vt 0.546875 2.845703
vt 0.447266 3.934570
vt 0.367188 3.856445
vt 0.382812 3.948242
vt 0.447266 3.852539
vt 0.457031 3.798828
vt 0.397461 3.795898
vt 0.500977 2.727539
vt 0.464844 2.753906
vt 1.585938 0.959961
vt 0.788086 0.963867
vt 0.670898 0.963867
vt 0.519531 2.935547
vt 2.333008 0.276367
vt 2.519531 0.256836
vt 0.904297 0.963867
vt 0.411133 2.987305
vt 0.397461 3.795898
vt 0.370117 2.977539
vt 2.503906 0.489258
vt 2.473633 0.473633
vt 2.520508 0.329102
vt 2.347656 0.550781
vt 2.347656 0.519531
vt 2.503906 0.489258
vt 2.477539 0.473633
vt 2.561523 0.329102
vt 2.528320 0.329102
vt 2.503906 0.489258
vt 2.477539 0.473633
vt 2.347656 0.519531
vt 2.347656 0.329102
vt 2.477539 0.473633
vt 2.528320 0.329102
vt 2.503906 0.489258
vt 2.561523 0.329102
vt 2.473633 0.473633
vt 0.106445 2.147461
vt 0.121094 2.101562
vt 0.103516 2.101562
vt 0.121094 2.148438
vt 0.113281 2.174805
vt 0.106445 2.147461
vt 0.091797 2.174805
vt 0.037109 2.157227
vt 0.058594 2.174805
vt 0.015625 2.173828
vt 0.058594 2.174805
vt 0.037109 2.157227
vt 0.091797 2.174805
vt 0.091797 2.174805
vt 0.106445 2.147461
vt 0.113281 2.174805
vt 0.037109 2.157227
vt 0.058594 2.174805
vt 0.015625 2.173828
vt 0.058594 2.174805
vt 0.037109 2.157227
vt 0.091797 2.174805
vt 0.106445 2.147461
vt 0.121094 2.148438
vt 0.121094 2.101562
vt 0.103516 2.101562
vt 2.347656 0.517578
vt 2.473633 0.473633
vt 2.520508 0.329102
vt 2.473633 0.473633
vt 2.347656 0.550781
vt 1.440430 2.255859
vt 1.432617 2.250977
vt 1.432617 2.254883
vt 1.518555 2.251953
vt 1.513672 2.256836
vt 1.608398 2.265625
vt 1.506836 2.275391
vt 1.511719 2.279297
vt 1.432617 2.279297
vt 1.433594 2.265625
vt 1.424805 2.265625
vt 0.021484 2.101562
vt 0.000977 2.155273
vt 0.000977 2.155273
vt 0.021484 2.101562
vt 0.103516 2.101562
vt 0.626953 1.275391
vt 0.666016 1.287109
vt 0.705078 1.275391
vt 0.621094 1.320312
vt 0.598633 1.350586
vt 0.638672 1.370117
vt 0.666016 1.393555
vt 0.693359 1.370117
vt 0.731445 1.350586
vt 0.709961 1.320312
vt 0.116211 2.207031
vt 0.110352 2.185547
vt 0.116211 2.207031
vt 0.079102 2.185547
vt 0.045898 2.207031
vt 0.030273 2.185547
vt 0.007812 2.207031
vt 0.030273 2.185547
vt 0.045898 2.207031
vt 0.079102 2.185547
vt 0.079102 2.185547
vt 0.045898 2.207031
vt 0.030273 2.185547
vt 0.116211 2.207031
vt 0.110352 2.185547
vt 0.116211 2.207031
vt 0.079102 2.185547
vt 0.045898 2.207031
vt 0.030273 2.185547
vt 0.007812 2.207031
vt 0.626953 1.275391
vt 0.621094 1.320312
vt 0.596680 1.350586
vt 0.666016 1.287109
vt 0.705078 1.275391
vt 0.709961 1.320312
vt 0.735352 1.350586
vt 0.693359 1.370117
vt 0.666016 1.393555
vt 0.638672 1.370117
vt 1.440430 2.275391
vt 1.432617 2.279297
vt 1.432617 2.275391
vt 1.506836 2.275391
vt 1.513672 2.256836
vt 1.608398 2.265625
vt 1.518555 2.251953
vt 1.517578 2.265625
vt 1.432617 2.250977
vt 1.433594 2.265625
vt 1.424805 2.265625
vt 1.465820 1.276367
vt 1.600586 1.276367
vt 1.450195 1.264648
vt 1.597656 1.265625
vt 1.450195 1.264648
vt 1.584961 1.251953
vt 1.449219 1.250000
vt 1.584961 1.251953
vt 1.449219 1.250000
vt 1.100586 0.612305
vt 1.226562 0.693359
vt 1.291992 0.609375
vt 1.063477 0.668945
vt 1.005859 0.669922
vt 1.005859 0.757812
vt 1.063477 0.668945
vt 1.057617 0.757812
vt 1.226562 0.693359
vt 1.223633 0.808594
vt 0.021484 2.101562
vt 0.103516 2.101562
vt 0.000977 2.155273
vt 0.000977 2.155273
vt 0.021484 2.101562
vt 1.597656 1.265625
vt 1.465820 1.276367
vt 1.600586 1.276367
vt 1.450195 1.264648
vt 1.584961 1.251953
vt 1.449219 1.250000
vt 1.584961 1.251953
vt 1.449219 1.250000
vt 1.450195 1.264648
vt 1.096680 0.841797
vt 1.242188 0.893555
vt 1.005859 0.841797
vt 1.057617 0.757812
vt 2.197266 0.345703
vt 2.303711 0.345703
vt 2.250977 0.478516
vt 2.250977 0.250977
vt 2.142578 0.250977
vt 2.197266 0.345703
vt 2.085938 0.416992
vt 2.250977 0.478516
vt 0.462891 2.266602
vt 0.557617 2.251953
vt 0.559570 2.265625
vt 0.559570 2.265625
vt 0.414062 2.282227
vt 0.561523 2.277344
vt 2.477539 0.473633
vt 1.223633 0.808594
vt 1.096680 0.841797
vt 1.131836 0.902344
vt 1.131836 0.902344
vt 2.085938 0.416992
vt 2.027344 0.250977
vt 0.880859 1.105469
vt 0.863281 1.051758
vt 0.882812 1.086914
vt 0.758789 1.144531
vt 0.924805 1.142578
vt 0.933594 1.179688
vt 0.017578 1.100586
vt 0.017578 1.040039
vt 0.000977 1.070312
vt 0.107422 1.045898
vt 0.107422 1.094727
vt 0.122070 1.070312
vt 0.863281 1.051758
vt 0.880859 1.105469
vt 0.882812 1.086914
vt 0.758789 1.144531
vt 0.789062 1.011719
vt 0.701172 1.011719
vt 1.432617 2.275391
vt 1.440430 2.275391
vt 2.598633 0.269531
vt 0.750000 1.512695
vt 0.915039 1.582031
vt 0.933594 1.576172
vt 0.941406 1.610352
vt 0.950195 1.649414
vt 2.085938 0.416992
vt 2.142578 0.250977
vt 2.027344 0.250977
vt 2.197266 0.345703
vt 0.879883 1.500977
vt 0.882812 1.478516
vt 0.923828 1.538086
vt 0.787109 1.408203
vt 0.698242 1.408203
vt 0.862305 1.449219
vt 0.625000 1.530273
vt 0.671875 1.621094
vt 0.631836 1.449219
vt 2.347656 0.517578
vt 0.910156 1.799805
vt 0.922852 1.759766
vt 0.882812 1.806641
vt 0.939453 1.727539
vt 0.950195 1.699219
vt 0.914062 1.723633
vt 2.197266 0.345703
vt 2.142578 0.250977
vt 2.085938 0.416992
vt 0.004883 2.101562
vt 1.440430 2.255859
vt 1.432617 2.254883
vt 1.511719 2.279297
vt 0.750000 1.512695
vt 0.787109 1.408203
vt 0.862305 1.449219
vt 0.698242 1.408203
vt 0.631836 1.449219
vt 0.625000 1.530273
vt 0.671875 1.621094
vt 0.882812 1.806641
vt 2.598633 0.269531
vt 0.950195 1.305664
vt 0.926758 1.260742
vt 0.939453 1.333984
vt 0.910156 1.324219
vt 0.943359 1.212891
vt 0.914062 1.182617
vt 0.950195 1.255859
vt 1.517578 2.265625
vt 0.789062 1.011719
vt 0.701172 1.011719
vt 0.635742 1.057617
vt 0.004883 2.101562
vt 0.939453 1.333984
vt 0.910156 1.324219
vt 0.950195 1.305664
vt 0.926758 1.260742
vt 0.910156 1.405273
vt 0.883789 1.406250
vt 0.922852 1.365234
vt 0.628906 1.138672
vt 0.675781 1.228516
vt 0.924805 1.142578
vt 0.933594 1.179688
vt 0.915039 1.582031
vt 0.933594 1.576172
vt 0.941406 1.610352
vt 0.950195 1.649414
vt 0.926758 1.654297
vt 0.950195 1.699219
vt 0.939453 1.727539
vt 0.914062 1.723633
vt 0.922852 1.759766
vt 0.910156 1.799805
vt 1.597656 1.265625
vt 1.597656 1.265625
vt 0.926758 1.654297
vt 1.099609 0.928711
vt 1.242188 0.893555
vt 1.243164 0.914062
vt 0.624023 1.727539
vt 0.664062 1.818359
vt 0.605469 1.791992
vt 0.704102 1.727539
vt 1.100586 0.612305
vt 1.291992 0.609375
vt 1.099609 0.928711
vt 1.243164 0.914062
vt 0.712891 0.692383
vt 0.619141 0.830078
vt 0.547852 0.692383
vt 0.703125 0.830078
vt 0.017578 1.040039
vt 0.017578 1.100586
vt 0.000977 1.070312
vt 0.107422 1.045898
vt 0.107422 1.094727
vt 0.122070 1.070312
vt 0.635742 1.057617
vt 0.628906 1.138672
vt 0.675781 1.228516
vt 0.883789 1.406250
vt 0.910156 1.405273
vt 0.922852 1.365234
vt 0.914062 1.182617
vt 0.943359 1.212891
vt 0.950195 1.255859
vt 1.099609 0.928711
vt 1.048828 0.903320
vt 1.131836 0.903320
vt 1.042969 0.928711
vt 0.923828 1.538086
vt 0.879883 1.500977
vt 0.882812 1.478516
vt 2.303711 0.345703
vt 0.722656 1.791992
vn 0.6738 0.7223 -0.1558
vn 0.4517 0.8739 0.1799
vn -0.0001 0.9608 -0.2773
vn 0.7940 0.3486 0.4981
vn 0.9810 0.1823 0.0663
vn 0.7796 -0.4318 0.4536
vn 0.8950 -0.4148 0.1645
vn 0.6962 -0.7102 -0.1049
vn 0.5163 -0.7505 0.4126
vn 0.0000 -0.9996 0.0293
vn 0.0001 -0.7746 0.6325
vn -0.5162 -0.7505 0.4127
vn -0.7232 -0.2604 0.6397
vn -0.8949 -0.4148 0.1646
vn -0.9810 0.1822 0.0664
vn -0.7795 -0.4318 0.4538
vn -0.7942 0.3475 0.4985
vn 0.0919 0.3299 0.9395
vn -0.0226 0.9957 0.0903
vn 0.0269 0.9986 -0.0447
vn 0.0625 0.2259 0.9721
vn 0.1012 -0.8167 0.5681
vn 0.0391 -0.8780 0.4770
vn 0.0817 -0.7385 -0.6693
vn 0.0823 -0.9796 0.1831
vn 0.0773 -0.4209 -0.9038
vn 0.0247 -0.4428 -0.8963
vn 0.0390 0.7710 -0.6356
vn 0.0233 0.7585 -0.6512
vn 0.0119 0.8928 0.4504
vn -0.3678 0.5395 0.7574
vn -0.4517 0.8738 0.1800
vn -0.6894 -0.1993 0.6964
vn -0.9769 0.2088 0.0459
vn -0.8718 -0.4842 0.0739
vn -0.8619 -0.1556 -0.4825
vn -0.6265 -0.7429 -0.2357
vn -0.4851 -0.5373 -0.6899
vn -0.2360 -0.7860 -0.5715
vn -0.0001 -0.4897 -0.8719
vn 0.2359 -0.7860 -0.5715
vn 0.4850 -0.5373 -0.6900
vn 0.1144 -0.4018 -0.9086
vn 0.1305 0.7867 -0.6034
vn 0.1041 -0.9882 0.1120
vn 0.1656 -0.2157 0.9623
vn -0.0719 -0.1243 0.9896
vn 0.1892 0.8441 0.5017
vn 0.1076 0.6241 -0.7739
vn -0.1077 0.6241 -0.7739
vn -0.0001 0.5248 -0.8512
vn -0.0001 0.5962 -0.8029
vn 0.6190 0.5144 -0.5935
vn 0.4628 -0.0254 -0.8861
vn 0.8619 -0.1555 -0.4827
vn 0.6265 -0.7429 -0.2358
vn 0.3884 -0.9213 -0.0192
vn 0.0228 0.9957 0.0901
vn -0.0917 0.3301 0.9395
vn -0.0267 0.9986 -0.0448
vn -0.0623 0.2261 0.9721
vn -0.0117 0.8929 0.4502
vn 0.0373 -0.1274 0.9912
vn 0.0721 -0.1241 0.9897
vn -0.0823 -0.9796 0.1833
vn -0.1655 -0.2157 0.9623
vn -0.1041 -0.9882 0.1126
vn 0.5948 -0.7267 0.3437
vn 0.8718 -0.4842 0.0738
vn 0.9769 0.2089 0.0458
vn 0.6644 0.7372 0.1226
vn 0.5794 0.7225 -0.3773
vn 0.1679 0.9116 0.3753
vn -0.0001 -0.0002 -1.0000
vn -0.4629 -0.0254 -0.8860
vn -0.6191 0.5144 -0.5934
vn -0.5795 0.7225 -0.3772
vn -0.5947 -0.7267 0.3438
vn -0.5534 -0.7303 0.4004
vn 0.0001 -0.9604 0.2787
vn -0.3883 -0.9213 -0.0192
vn 0.0000 -0.9936 0.1129
vn -0.0047 0.4698 -0.8828
vn -0.0828 0.2977 -0.9511
vn -0.0390 0.7709 -0.6358
vn -0.0233 0.7584 -0.6514
vn -0.1305 0.7867 -0.6034
vn -0.1146 -0.4017 -0.9085
vn -0.0820 -0.7386 -0.6692
vn -0.0776 -0.4210 -0.9037
vn -0.0249 -0.4430 -0.8962
vn -0.3080 -0.9378 -0.1604
vn -0.2740 -0.9262 -0.2590
vn -0.7397 -0.6729 0.0075
vn 0.2686 -0.9570 -0.1097
vn 0.4089 -0.9102 -0.0661
vn 0.6173 -0.7057 0.3478
vn 0.6350 -0.7450 0.2041
vn -0.5286 0.4428 -0.7242
vn 0.3375 0.3891 -0.8571
vn -0.0499 0.8610 -0.5062
vn 0.5351 0.6753 -0.5075
vn 0.1836 0.9594 -0.2139
vn 0.2331 -0.1599 -0.9592
vn 0.3886 -0.1458 -0.9098
vn 0.4786 -0.2272 -0.8482
vn 0.1172 -0.1259 -0.9851
vn -0.0689 -0.1646 -0.9839
vn -0.0993 -0.1545 -0.9830
vn -0.2263 -0.1882 -0.9557
vn 0.0498 0.8610 -0.5062
vn -0.1837 0.9594 -0.2139
vn 0.3143 0.9146 -0.2544
vn -0.5353 0.6753 -0.5074
vn -0.3377 0.3891 -0.8571
vn -0.7108 0.2443 -0.6595
vn -0.0968 -0.0009 0.9953
vn -0.0390 -0.1510 0.9878
vn 0.0190 -0.0777 0.9968
vn 0.1544 -0.2498 0.9559
vn -0.2233 -0.1792 0.9581
vn 0.1326 -0.4466 0.8848
vn -0.3688 -0.3966 0.8407
vn 0.3679 0.5395 0.7573
vn 0.6895 -0.1993 0.6963
vn 0.5285 0.4428 -0.7243
vn -0.0001 0.8458 -0.5336
vn 0.0000 -0.8939 0.4482
vn -0.6822 -0.5964 0.4230
vn -0.6694 -0.1972 -0.7163
vn 0.6823 -0.5964 0.4229
vn 0.6693 -0.1972 -0.7163
vn 0.6287 0.0506 -0.7760
vn -0.6289 0.0506 -0.7759
vn -0.3595 0.5459 0.7568
vn 0.0000 0.8277 0.5611
vn -0.3000 0.7810 0.5477
vn 0.0001 0.5797 0.8148
vn -0.3672 0.2499 0.8960
vn 0.0001 0.2600 0.9656
vn 0.0001 -0.4701 0.8826
vn 0.7233 -0.2604 0.6396
vn 0.0158 0.9999 0.0017
vn -0.0914 0.9642 0.2488
vn 0.0365 0.9748 0.2202
vn -0.1816 0.9826 -0.0392
vn 0.0246 0.9720 -0.2337
vn -0.0695 0.9461 -0.3162
vn -0.0000 0.9886 -0.1503
vn -0.6730 0.7230 -0.1560
vn -0.1679 0.9116 0.3753
vn -0.6644 0.7372 0.1227
vn 0.0046 0.4699 -0.8827
vn -0.9412 -0.1939 -0.2767
vn 0.0001 -0.4815 0.8764
vn -0.3232 0.6839 0.6541
vn -0.0000 -0.6798 -0.7334
vn -0.0823 -0.2057 -0.9752
vn -0.0001 -0.0865 -0.9963
vn -0.0371 -0.1276 0.9911
vn -0.1012 -0.8166 0.5683
vn -0.0391 -0.8779 0.4772
vn -0.3144 0.9146 -0.2543
vn 0.7107 0.2444 -0.6597
vn -0.4091 -0.9101 -0.0662
vn -0.6078 -0.7724 -0.1843
vn -0.2351 -0.9401 -0.2470
vn -0.7321 -0.6811 0.0094
vn -0.6351 -0.7450 0.2040
vn -0.6173 -0.7057 0.3478
vn -0.2687 -0.9569 -0.1098
vn 0.3078 -0.9378 -0.1606
vn -0.8588 0.3468 0.3769
vn 0.2234 -0.1795 0.9581
vn 0.0970 -0.0011 0.9953
vn -0.1543 -0.2500 0.9559
vn 0.6215 -0.0570 0.7813
vn 0.7404 -0.2437 0.6265
vn 0.0916 0.9642 0.2489
vn -0.0157 0.9999 0.0019
vn -0.0363 0.9747 0.2204
vn 0.1817 0.9826 -0.0391
vn 0.4160 0.7856 0.4579
vn 0.3689 -0.3968 0.8405
vn -0.1325 -0.4468 0.8848
vn 0.0000 0.7226 0.6912
vn 0.3233 0.6839 0.6541
vn 0.9411 -0.1938 -0.2769
vn 0.0687 -0.1648 -0.9839
vn 0.0991 -0.1547 -0.9830
vn 0.2261 -0.1884 -0.9557
vn -0.1174 -0.1261 -0.9850
vn -0.2333 -0.1600 -0.9592
vn 0.9509 0.3094 0.0122
vn 0.9348 0.3106 -0.1720
vn 0.9311 0.3179 -0.1787
vn 0.9490 0.3129 0.0379
vn 0.9308 0.3025 0.2052
vn 0.7320 -0.6812 0.0094
vn 0.6076 -0.7725 -0.1843
vn 0.2349 -0.9402 -0.2468
vn 0.0827 0.2979 -0.9510
vn 0.8589 0.3469 0.3768
vn -0.6961 -0.7102 -0.1047
vn 0.0821 -0.2057 -0.9752
vn -0.3888 -0.1459 -0.9097
vn -0.4787 -0.2273 -0.8480
vn -0.6214 -0.0567 0.7814
vn -0.7403 -0.2435 0.6267
vn -0.1559 -0.9772 -0.1443
vn -0.1726 -0.8293 -0.5315
vn 0.0696 0.9462 -0.3160
vn 0.3257 0.8098 -0.4880
vn -0.0245 0.9720 -0.2335
vn 0.2738 -0.9262 -0.2592
vn 0.7396 -0.6730 0.0072
vn -0.9348 0.3108 -0.1718
vn -0.9508 0.3095 0.0124
vn -0.9311 0.3181 -0.1785
vn -0.9490 0.3131 0.0382
vn -0.9307 0.3025 0.2054
vn -0.9384 0.2893 0.1889
vn 0.0391 -0.1512 0.9877
vn -0.0189 -0.0779 0.9968
vn 0.5535 -0.7303 0.4003
vn 0.3596 0.5459 0.7567
vn 0.3000 0.7811 0.5477
vn 0.1558 -0.9772 -0.1445
vn 0.1724 -0.8292 -0.5317
vn -0.1890 0.8441 0.5018
vn 0.3673 0.2500 0.8959
vn -0.3257 0.8097 -0.4881
vn 0.9385 0.2892 0.1887
vn -0.4158 0.7858 0.4578
vn 0.7442 -0.5020 -0.4407
vn 0.5589 0.0828 -0.8251
vn 0.4918 0.2238 -0.8415
vn -0.0001 -0.7070 -0.7072
vn -0.0000 -0.8741 0.4858
vn -0.7443 -0.5019 -0.4406
vn -0.2444 -0.7392 0.6276
vn -0.9786 0.0532 -0.1989
vn -0.3760 -0.2689 0.8868
vn -0.7388 0.6696 -0.0756
vn -0.2466 0.2595 0.9337
vn 0.0001 0.4516 0.8922
vn 0.0001 -0.2925 0.9563
vn 0.2468 0.2594 0.9337
vn 0.3761 -0.2689 0.8867
vn 0.7389 0.6695 -0.0758
vn 0.9785 0.0531 -0.1991
vn 0.5269 0.4116 -0.7436
vn -0.8311 0.1151 -0.5440
vn -0.0002 -0.1931 -0.9812
vn -0.8282 -0.2172 -0.5167
vn -0.0002 0.1328 -0.9911
vn -0.0001 0.5284 -0.8490
vn 0.8309 0.1150 -0.5444
vn 0.7928 0.5196 -0.3185
vn 0.9072 0.3925 0.1515
vn 0.4771 0.8773 0.0513
vn 0.0001 0.9486 0.3164
vn -0.4770 0.8774 0.0515
vn -0.9071 0.3926 0.1518
vn -0.7929 0.5197 -0.3182
vn -0.8311 0.1151 -0.5441
vn 0.8279 -0.2173 -0.5170
vn -0.0001 -0.0590 -0.9983
vn -0.5590 0.0829 -0.8250
vn -0.4919 0.2239 -0.8414
vn -0.5270 0.4117 -0.7435
vn 0.0001 0.9818 -0.1897
vn -0.6150 0.0889 0.7835
vn -0.9118 0.0312 -0.4095
vn -0.6459 0.0630 0.7608
vn -0.9099 0.1906 -0.3685
vn -0.6170 0.2178 0.7562
vn 0.0117 0.9999 0.0080
vn 0.5956 0.1728 0.7845
vn 0.9175 0.1334 -0.3746
vn 0.9056 0.0099 -0.4241
vn 0.0152 0.0315 -0.9994
vn 0.0084 0.1340 -0.9909
vn -0.8789 -0.1844 0.4400
vn -0.5245 0.3130 0.7918
vn 0.5248 0.3129 0.7916
vn 0.8790 -0.1845 0.4397
vn -0.3139 0.8449 -0.4331
vn -0.0000 0.9010 -0.4338
vn 0.3138 0.8449 -0.4333
vn -0.5396 0.8302 -0.1404
vn -0.6193 0.7555 0.2138
vn -0.3601 0.7755 0.5186
vn 0.0002 0.7311 0.6823
vn 0.3603 0.7755 0.5184
vn 0.6194 0.7555 0.2135
vn 0.5396 0.8301 -0.1406
vn 0.4209 -0.6975 -0.5800
vn -0.0002 -0.6007 -0.7994
vn -0.4212 -0.6974 -0.5798
vn 0.8248 -0.5067 -0.2510
vn 0.7953 -0.5512 0.2523
vn 0.5649 -0.4097 0.7162
vn 0.0001 -0.6270 0.7790
vn -0.5647 -0.4096 0.7165
vn -0.7953 -0.5511 0.2526
vn -0.8249 -0.5066 -0.2507
vn -0.8250 -0.5066 -0.2507
vn -0.3138 0.8449 -0.4331
vn -0.6192 0.7555 0.2138
vn -0.3600 0.7755 0.5186
vn 0.0002 0.7311 0.6822
vn 0.3604 0.7755 0.5184
vn -0.6239 0.0618 0.7791
vn -0.9056 0.0100 -0.4240
vn -0.6492 0.0475 0.7591
vn -0.5954 0.1729 0.7846
vn 0.6171 0.2177 0.7561
vn -0.0115 0.9999 0.0080
vn 0.9098 0.1905 -0.3686
vn -0.0148 0.1459 -0.9892
vn 0.9112 0.0335 -0.4107
vn -0.0153 0.0315 -0.9994
vn -0.0088 0.1340 -0.9909
vn -0.0096 0.0181 -0.9998
vn -0.0069 0.0165 -0.9998
vn -0.9397 -0.0034 -0.3419
vn 0.8877 0.0147 -0.4603
vn 0.9436 0.0218 -0.3304
vn 0.6628 -0.0515 0.7471
vn 0.6206 -0.0673 0.7812
vn -0.6589 -0.0562 0.7501
vn -0.6119 -0.0662 0.7882
vn -0.4452 -0.8389 0.3131
vn -0.8986 -0.4013 0.1772
vn -0.7425 -0.6686 -0.0409
vn -0.5921 -0.6180 0.5171
vn 0.0000 -0.6403 0.7681
vn 0.0001 -0.2557 0.9668
vn 0.5921 -0.6181 0.5170
vn 0.6596 -0.1689 0.7324
vn 0.8986 -0.4014 0.1771
vn 0.9245 0.1652 0.3436
vn -0.5244 0.3130 0.7918
vn -0.8878 0.0148 -0.4599
vn 0.0093 0.0181 -0.9998
vn 0.0065 0.0165 -0.9998
vn -0.9437 0.0219 -0.3302
vn -0.6625 -0.0514 0.7473
vn -0.6204 -0.0672 0.7814
vn 0.6591 -0.0563 0.7499
vn 0.6121 -0.0663 0.7880
vn 0.9397 -0.0036 -0.3421
vn 0.6713 0.2619 0.6933
vn 0.8664 0.3503 0.3559
vn 0.0001 0.1317 0.9913
vn -0.6595 -0.1688 0.7325
vn 0.4272 0.6929 -0.5809
vn -0.0000 0.7985 -0.6020
vn 0.2836 0.9055 -0.3155
vn 0.2468 0.2774 -0.9285
vn 0.7972 0.1910 -0.5727
vn 0.4563 -0.2409 -0.8566
vn 0.7718 -0.3293 -0.5439
vn 0.2650 -0.5784 -0.7715
vn -0.0131 -0.8422 0.5390
vn 0.0020 -0.7035 0.7107
vn -0.9650 -0.2480 -0.0854
vn 0.9634 -0.2540 -0.0859
vn 0.0019 -0.7835 -0.6215
vn -0.0001 0.3125 -0.9499
vn 0.2444 -0.7392 0.6275
vn -0.9244 0.1653 0.3438
vn -0.6712 0.2620 0.6934
vn -0.5910 0.2566 0.7648
vn 0.5912 0.2565 0.7646
vn 0.7655 0.5781 -0.2825
vn 0.9418 0.0981 -0.3216
vn 0.9697 -0.1477 -0.1944
vn 0.9752 -0.1488 -0.1640
vn 0.9999 0.0124 0.0063
vn 0.9981 -0.0381 0.0476
vn 0.9737 -0.1028 -0.2033
vn 0.9810 0.0824 -0.1754
vn -0.0001 -0.9992 0.0399
vn -0.0000 -0.9844 0.1757
vn -0.0001 -0.9998 -0.0210
vn -0.0001 -0.9964 -0.0853
vn -0.9753 -0.1486 -0.1637
vn -0.9698 -0.1475 -0.1941
vn -0.9999 0.0126 0.0066
vn -0.9981 -0.0378 0.0479
vn -0.9642 -0.2601 -0.0509
vn -0.9673 -0.2413 0.0788
vn 0.6497 0.0476 0.7587
vn 0.6239 0.0617 0.7791
vn -0.9936 -0.0976 -0.0567
vn -0.9979 -0.0325 0.0553
vn -0.9556 0.1063 -0.2748
vn -0.9602 0.1451 -0.2388
vn -0.9489 -0.1041 -0.2979
vn -0.9748 0.1327 -0.1793
vn -0.7655 0.5782 -0.2823
vn -0.7772 0.3711 -0.5082
vn -0.9253 0.2754 -0.2609
vn -0.6627 0.5516 -0.5064
vn -0.4604 0.8625 -0.2098
vn -0.9309 -0.1592 -0.3288
vn -0.9386 -0.0978 -0.3308
vn -0.9498 -0.1335 -0.2828
vn -0.9338 -0.3423 -0.1037
vn -0.9380 -0.3326 0.0975
vn -0.9358 -0.2495 -0.2492
vn -0.9265 0.0631 0.3710
vn -0.9196 0.2629 0.2917
vn -0.9454 -0.1760 0.2742
vn -0.0000 0.6077 -0.7942
vn -0.9816 0.1750 -0.0757
vn -0.9754 0.0940 -0.1994
vn -0.9730 0.2289 0.0284
vn -0.9776 0.1965 -0.0757
vn -0.9734 0.0411 -0.2256
vn -0.9732 0.1183 -0.1974
vn -0.6903 -0.1600 -0.7056
vn -0.7880 0.0048 -0.6157
vn -0.5081 0.2229 -0.8320
vn -0.7720 -0.3292 -0.5437
vn -0.4590 -0.6141 -0.6420
vn 0.0002 -0.2650 0.9642
vn 0.6138 0.0890 0.7845
vn 0.6466 0.0631 0.7603
vn -0.9176 0.1335 -0.3744
vn 0.9980 -0.0327 0.0550
vn 0.9337 -0.3426 -0.1041
vn 0.9356 -0.2497 -0.2495
vn 0.9380 -0.3328 0.0972
vn 0.9455 -0.1762 0.2739
vn 0.9266 0.0629 0.3706
vn 0.9198 0.2627 0.2914
vn 0.9731 0.2287 0.0281
vn 0.9936 -0.0978 -0.0569
vn -0.9841 -0.0076 -0.1774
vn -0.9810 0.0059 -0.1938
vn -0.9923 0.0751 -0.0986
vn -0.9725 -0.0247 -0.2316
vn -0.9734 -0.0843 -0.2129
vn -0.9780 0.0688 -0.1970
vn -0.9885 0.0763 -0.1307
vn 0.0146 0.1459 -0.9892
vn 0.9642 -0.2603 -0.0512
vn 0.9672 -0.2415 0.0785
vn 0.9711 -0.1250 0.2031
vn 0.9923 0.0749 -0.0989
vn 0.9724 -0.0249 -0.2319
vn 0.9840 -0.0078 -0.1777
vn 0.9810 0.0056 -0.1941
vn 0.9935 0.0381 -0.1071
vn 0.9955 0.0951 0.0025
vn 0.9742 -0.0354 -0.2228
vn 0.9602 0.0431 0.2758
vn 0.9546 0.1665 0.2470
vn -0.9738 -0.1025 -0.2030
vn -0.9811 0.0827 -0.1751
vn 0.9555 0.1061 -0.2751
vn 0.9601 0.1449 -0.2392
vn 0.9488 -0.1043 -0.2982
vn 0.9748 0.1324 -0.1796
vn 0.9650 0.0464 -0.2581
vn 0.9733 0.0408 -0.2259
vn 0.9776 0.1963 -0.0760
vn 0.9731 0.1180 -0.1977
vn 0.9754 0.0938 -0.1997
vn 0.9817 0.1748 -0.0760
vn -0.8745 0.0301 -0.4840
vn 0.8743 0.0300 -0.4844
vn -0.9651 0.0467 -0.2578
vn -0.9111 -0.2334 0.3399
vn -0.8663 0.3504 0.3561
vn -0.9039 0.3298 0.2725
vn -0.0529 0.9711 0.2328
vn 0.0001 0.9759 0.2180
vn -0.1391 0.9718 0.1903
vn 0.0531 0.9711 0.2328
vn 0.4451 -0.8390 0.3130
vn 0.7424 -0.6686 -0.0410
vn 0.9111 -0.2335 0.3397
vn 0.9040 0.3297 0.2724
vn -0.0001 -0.9758 -0.2188
vn -0.0001 -0.9758 -0.2187
vn -0.9711 -0.1248 0.2034
vn -0.9601 0.0433 0.2762
vn -0.9545 0.1668 0.2473
vn -0.9954 0.0953 0.0029
vn -0.9935 0.0383 -0.1068
vn -0.9743 -0.0351 -0.2225
vn 0.9779 0.0686 -0.1973
vn 0.9733 -0.0845 -0.2133
vn 0.9885 0.0761 -0.1310
vn 0.0001 -0.0180 0.9998
vn 0.0001 -0.0179 0.9998
vn 0.9497 -0.1337 -0.2832
vn 0.9307 -0.1595 -0.3291
vn 0.9385 -0.0980 -0.3311
vn -0.0001 -0.3272 -0.9450
vn -0.5073 0.3126 -0.8031
vn 0.1393 0.9718 0.1903
vn -0.9252 -0.0821 -0.3705
usemtl m0
s 1
f 1/1/1 2/2/2 3/3/3
f 2/2/2 1/1/1 4/4/4
f 5/5/5 4/4/4 1/1/1
f 4/4/4 5/5/5 6/6/6
f 7/7/7 6/6/6 5/5/5
f 6/6/6 7/7/7 8/8/8
f 9/9/9 8/8/8 7/7/7
f 8/8/8 9/9/9 10/10/10
f 11/11/11 10/10/10 9/9/9
f 10/10/10 11/11/11 12/12/12
f 13/13/13 12/12/12 11/11/11
f 12/12/12 13/13/13 14/14/14
f 15/15/15 14/14/14 13/13/13
f 14/14/14 15/15/15 16/16/16
f 17/17/17 16/16/16 15/15/15
f 18/18/18 19/19/19 20/20/20
f 19/19/19 18/18/18 21/21/21
f 22/22/22 21/21/21 18/18/18
f 21/21/21 22/22/22 23/23/23
f 24/24/24 23/23/23 22/22/22
f 23/23/23 24/24/24 25/25/25
f 26/26/26 25/25/25 24/24/24
f 25/25/25 26/26/26 27/27/27
f 28/28/28 27/27/27 26/26/26
f 27/27/27 28/28/28 29/29/29
f 30/30/30 29/29/29 28/28/28
f 31/31/31 17/17/17 32/32/32
f 17/17/17 31/31/31 33/33/33
f 34/34/34 33/33/33 31/31/31
f 33/33/33 34/34/34 35/35/35
f 36/36/36 35/35/35 34/34/34
f 35/35/35 36/36/36 37/37/37
f 38/38/38 37/37/37 36/36/36
f 37/37/37 38/38/38 39/39/39
f 40/40/40 39/39/39 38/38/38
f 39/39/39 40/40/40 41/41/41
f 42/42/42 41/41/41 40/40/40
f 43/43/43 29/29/29 44/44/44
f 29/29/29 43/43/43 27/27/27
f 45/45/45 27/27/27 43/43/43
f 27/27/27 45/45/45 25/25/25
f 46/46/46 25/25/25 45/45/45
f 25/25/25 46/46/46 47/47/47
f 48/48/48 47/47/47 46/46/46
f 47/47/47 48/48/48 30/30/30
f 44/44/44 30/30/30 48/48/48
f 30/30/30 44/44/44 29/29/29
f 49/49/49 50/50/50 51/51/51
f 50/50/50 49/49/49 52/52/52
f 53/53/53 52/52/52 49/49/49
f 52/52/52 53/53/53 54/54/54
f 55/55/55 54/54/54 53/53/53
f 54/54/54 55/55/55 42/42/42
f 56/56/56 42/42/42 55/55/55
f 42/42/42 56/56/56 41/41/41
f 57/57/57 41/41/41 56/56/56
f 58/58/58 59/59/59 60/60/60
f 59/59/59 58/58/58 61/61/61
f 62/62/62 61/61/61 58/58/58
f 61/61/61 62/62/62 63/63/63
f 64/64/64 63/63/63 62/62/62
f 63/63/63 64/64/64 65/65/65
f 66/66/66 65/65/65 64/64/64
f 65/65/65 66/66/66 67/67/67
f 56/56/56 68/68/68 57/57/57
f 68/68/68 56/56/56 69/69/69
f 55/55/55 69/69/69 56/56/56
f 69/69/69 55/55/55 70/70/70
f 53/53/53 70/70/70 55/55/55
f 70/70/70 53/53/53 71/71/71
f 72/72/72 71/71/71 53/53/53
f 71/71/71 72/72/72 73/73/73
f 40/40/40 54/54/54 42/42/42
f 54/54/54 40/40/40 74/74/74
f 75/75/75 74/74/74 40/40/40
f 74/74/74 75/75/75 52/52/52
f 76/76/76 52/52/52 75/75/75
f 52/52/52 76/76/76 50/50/50
f 77/77/77 50/50/50 76/76/76
f 78/78/78 79/79/79 16/16/16
f 79/79/79 78/78/78 80/80/80
f 81/81/81 80/80/80 78/78/78
f 80/80/80 81/81/81 82/82/82
f 57/57/57 82/82/82 81/81/81
f 82/82/82 57/57/57 80/80/80
f 68/68/68 80/80/80 57/57/57
f 83/83/83 60/60/60 84/84/84
f 60/60/60 83/83/83 58/58/58
f 85/85/85 58/58/58 83/83/83
f 58/58/58 85/85/85 62/62/62
f 86/86/86 62/62/62 85/85/85
f 62/62/62 86/86/86 87/87/87
f 88/88/88 87/87/87 86/86/86
f 89/89/89 83/83/83 84/84/84
f 83/83/83 89/89/89 90/90/90
f 65/65/65 90/90/90 89/89/89
f 90/90/90 65/65/65 91/91/91
f 67/67/67 91/91/91 65/65/65
f 91/91/91 67/67/67 88/88/88
f 92/92/92 93/93/93 94/94/94
f 93/93/93 92/92/92 95/95/95
f 96/96/96 95/95/95 92/92/92
f 95/95/95 96/96/96 97/97/97
f 98/98/98 97/97/97 96/96/96
f 99/99/99 49/49/49 51/51/51
f 49/49/49 99/99/99 100/100/100
f 101/101/101 100/100/100 99/99/99
f 100/100/100 101/101/101 102/102/102
f 103/103/103 102/102/102 101/101/101
f 104/104/104 105/105/105 106/106/106
f 105/105/105 104/104/104 107/107/107
f 108/108/108 107/107/107 104/104/104
f 107/107/107 108/108/108 109/109/109
f 110/110/110 109/109/109 108/108/108
f 111/111/111 112/112/112 113/113/113
f 112/112/112 111/111/111 114/114/114
f 115/115/115 114/114/114 111/111/111
f 114/114/114 115/115/115 116/116/116
f 77/77/77 116/116/116 115/115/115
f 117/117/117 118/118/118 119/119/119
f 118/118/118 117/117/117 120/120/120
f 121/121/121 120/120/120 117/117/117
f 120/120/120 121/121/121 122/122/122
f 123/123/123 122/122/122 121/121/121
f 124/124/124 71/71/71 73/73/73
f 71/71/71 124/124/124 70/70/70
f 125/125/125 70/70/70 124/124/124
f 70/70/70 125/125/125 69/69/69
f 68/68/68 69/69/69 125/125/125
f 115/115/115 50/50/50 77/77/77
f 50/50/50 115/115/115 126/126/126
f 111/111/111 126/126/126 115/115/115
f 126/126/126 111/111/111 127/127/127
f 113/113/113 127/127/127 111/111/111
f 128/128/128 129/129/129 130/130/130
f 129/129/129 128/128/128 131/131/131
f 132/132/132 131/131/131 128/128/128
f 131/131/131 132/132/132 133/133/133
f 134/134/134 133/133/133 132/132/132
f 135/135/135 136/136/136 137/137/137
f 136/136/136 135/135/135 138/138/138
f 139/139/139 138/138/138 135/135/135
f 138/138/138 139/139/139 140/140/140
f 11/11/11 141/141/141 13/13/13
f 141/141/141 11/11/11 142/142/142
f 9/9/9 142/142/142 11/11/11
f 142/142/142 9/9/9 7/7/7
f 143/143/143 144/144/144 145/145/145
f 144/144/144 143/143/143 146/146/146
f 147/147/147 146/146/146 143/143/143
f 146/146/146 147/147/147 148/148/148
f 33/33/33 16/16/16 17/17/17
f 16/16/16 33/33/33 78/78/78
f 35/35/35 78/78/78 33/33/33
f 78/78/78 35/35/35 37/37/37
f 3/3/3 149/149/149 1/1/1
f 149/149/149 3/3/3 150/150/150
f 32/32/32 150/150/150 3/3/3
f 150/150/150 32/32/32 17/17/17
f 151/151/151 31/31/31 32/32/32
f 31/31/31 151/151/151 152/152/152
f 77/77/77 152/152/152 151/151/151
f 152/152/152 77/77/77 76/76/76
f 28/28/28 19/19/19 30/30/30
f 19/19/19 28/28/28 153/153/153
f 26/26/26 153/153/153 28/28/28
f 153/153/153 26/26/26 24/24/24
f 154/154/154 155/155/155 156/156/156
f 155/155/155 154/154/154 157/157/157
f 158/158/158 157/157/157 154/154/154
f 157/157/157 158/158/158 159/159/159
f 21/21/21 30/30/30 19/19/19
f 30/30/30 21/21/21 160/160/160
f 23/23/23 160/160/160 21/21/21
f 160/160/160 23/23/23 25/25/25
f 61/61/61 161/161/161 59/59/59
f 161/161/161 61/61/61 162/162/162
f 63/63/63 162/162/162 61/61/61
f 162/162/162 63/63/63 65/65/65
f 127/127/127 99/99/99 51/51/51
f 99/99/99 127/127/127 101/101/101
f 163/163/163 101/101/101 127/127/127
f 101/101/101 163/163/163 103/103/103
f 125/125/125 6/6/6 68/68/68
f 6/6/6 125/125/125 4/4/4
f 124/124/124 4/4/4 125/125/125
f 100/100/100 72/72/72 49/49/49
f 72/72/72 100/100/100 164/164/164
f 102/102/102 164/164/164 100/100/100
f 165/165/165 166/166/166 167/167/167
f 166/166/166 165/165/165 168/168/168
f 169/169/169 168/168/168 165/165/165
f 165/165/165 170/170/170 169/169/169
f 170/170/170 165/165/165 171/171/171
f 172/172/172 171/171/171 165/165/165
f 15/15/15 150/150/150 17/17/17
f 150/150/150 15/15/15 173/173/173
f 13/13/13 173/173/173 15/15/15
f 174/174/174 175/175/175 176/176/176
f 175/175/175 174/174/174 177/177/177
f 178/178/178 177/177/177 174/174/174
f 179/179/179 180/180/180 181/181/181
f 180/180/180 179/179/179 182/182/182
f 183/183/183 182/182/182 179/179/179
f 174/174/174 184/184/184 178/178/178
f 184/184/184 174/174/174 185/185/185
f 176/176/176 185/185/185 174/174/174
f 155/155/155 186/186/186 156/156/156
f 186/186/186 155/155/155 187/187/187
f 188/188/188 187/187/187 155/155/155
f 189/189/189 190/190/190 191/191/191
f 190/190/190 189/189/189 192/192/192
f 193/193/193 192/192/192 189/189/189
f 194/194/194 195/195/195 196/196/196
f 195/195/195 194/194/194 197/197/197
f 198/198/198 197/197/197 194/194/194
f 96/96/96 199/199/199 98/98/98
f 199/199/199 96/96/96 200/200/200
f 201/201/201 200/200/200 96/96/96
f 202/202/202 153/153/153 24/24/24
f 153/153/153 202/202/202 20/20/20
f 2/2/2 124/124/124 73/73/73
f 124/124/124 2/2/2 4/4/4
f 203/203/203 5/5/5 1/1/1
f 5/5/5 203/203/203 142/142/142
f 12/12/12 204/204/204 10/10/10
f 204/204/204 12/12/12 14/14/14
f 37/37/37 81/81/81 78/78/78
f 81/81/81 37/37/37 39/39/39
f 38/38/38 75/75/75 40/40/40
f 75/75/75 38/38/38 36/36/36
f 152/152/152 34/34/34 31/31/31
f 34/34/34 152/152/152 76/76/76
f 36/36/36 76/76/76 75/75/75
f 76/76/76 36/36/36 34/34/34
f 205/205/205 157/157/157 159/159/159
f 157/157/157 205/205/205 188/188/188
f 126/126/126 51/51/51 50/50/50
f 51/51/51 126/126/126 127/127/127
f 206/206/206 193/193/193 207/207/207
f 193/193/193 206/206/206 192/192/192
f 208/208/208 121/121/121 117/117/117
f 121/121/121 208/208/208 209/209/209
f 96/96/96 210/210/210 201/201/201
f 210/210/210 96/96/96 92/92/92
f 89/89/89 211/211/211 161/161/161
f 211/211/211 89/89/89 84/84/84
f 212/212/212 182/182/182 213/213/213
f 182/182/182 212/212/212 214/214/214
f 215/215/215 172/172/172 216/216/216
f 172/172/172 215/215/215 171/171/171
f 217/217/217 218/218/218 219/219/219
f 218/218/218 217/217/217 220/220/220
f 221/221/221 218/218/218 220/220/220
f 218/218/218 221/221/221 222/222/222
f 223/223/223 175/175/175 224/224/224
f 175/175/175 223/223/223 176/176/176
f 225/225/225 68/68/68 6/6/6
f 68/68/68 225/225/225 80/80/80
f 136/136/136 226/226/226 227/227/227
f 226/226/226 136/136/136 138/138/138
f 47/47/47 160/160/160 25/25/25
f 160/160/160 47/47/47 30/30/30
f 228/228/228 165/165/165 167/167/167
f 165/165/165 228/228/228 172/172/172
f 229/229/229 24/24/24 22/22/22
f 24/24/24 229/229/229 202/202/202
f 162/162/162 89/89/89 161/161/161
f 89/89/89 162/162/162 65/65/65
f 86/86/86 91/91/91 88/88/88
f 91/91/91 86/86/86 85/85/85
f 64/64/64 230/230/230 66/66/66
f 230/230/230 64/64/64 62/62/62
f 90/90/90 85/85/85 83/83/83
f 85/85/85 90/90/90 91/91/91
f 134/134/134 130/130/130 129/129/129
f 130/130/130 134/134/134 132/132/132
f 231/231/231 138/138/138 140/140/140
f 138/138/138 231/231/231 226/226/226
f 214/214/214 180/180/180 182/182/182
f 230/230/230 62/62/62 87/87/87
f 142/142/142 7/7/7 5/5/5
f 146/146/146 148/148/148 232/232/232
f 14/14/14 16/16/16 204/204/204
f 74/74/74 52/52/52 54/54/54
f 53/53/53 49/49/49 72/72/72
f 194/194/194 233/233/233 198/198/198
f 123/123/123 121/121/121 209/209/209
f 155/155/155 157/157/157 188/188/188
f 153/153/153 20/20/20 19/19/19
f 234/234/234 144/144/144 146/146/146
f 235/235/235 236/236/236 237/237/237
f 236/236/236 235/235/235 238/238/238
f 239/239/239 238/238/238 235/235/235
f 238/238/238 239/239/239 240/240/240
f 241/241/241 240/240/240 239/239/239
f 240/240/240 241/241/241 242/242/242
f 243/243/243 242/242/242 241/241/241
f 242/242/242 243/243/243 244/244/244
f 245/245/245 244/244/244 243/243/243
f 244/244/244 245/245/245 246/246/246
f 247/247/247 246/246/246 245/245/245
f 246/246/246 247/247/247 248/248/248
f 249/249/249 248/248/248 247/247/247
f 248/248/248 249/249/249 250/250/250
f 251/251/251 250/250/250 249/249/249
f 250/250/250 251/251/251 252/252/252
f 237/237/237 252/252/252 251/251/251
f 253/253/253 254/254/254 255/255/255
f 254/254/254 253/253/253 256/256/256
f 257/257/257 256/256/256 253/253/253
f 256/256/256 257/257/257 258/258/258
f 259/259/259 258/258/258 257/257/257
f 258/258/258 259/259/259 260/260/260
f 261/261/261 260/260/260 259/259/259
f 260/260/260 261/261/261 262/262/262
f 263/263/263 262/262/262 261/261/261
f 262/262/262 263/263/263 264/264/264
f 265/265/265 264/264/264 263/263/263
f 264/264/264 265/265/265 253/253/253
f 257/257/257 253/253/253 265/265/265
f 266/266/259 267/267/258 268/268/257
f 267/267/258 266/266/259 269/269/260
f 270/270/261 269/269/260 266/266/259
f 269/269/260 270/270/261 271/271/262
f 272/272/263 271/271/262 270/270/261
f 271/271/262 272/272/263 273/273/264
f 274/274/265 273/273/264 272/272/263
f 273/273/264 274/274/265 275/275/266
f 268/268/257 275/275/266 274/274/265
f 275/275/266 268/268/257 276/276/256
f 267/267/258 276/276/256 268/268/257
f 276/276/256 267/267/258 277/277/254
f 278/278/267 277/277/254 267/267/258
f 238/238/238 279/279/268 236/236/236
f 279/279/268 238/238/238 280/280/269
f 240/240/240 280/280/269 238/238/238
f 280/280/269 240/240/240 281/281/270
f 242/242/242 281/281/270 240/240/240
f 281/281/270 242/242/242 282/282/271
f 244/244/244 282/282/271 242/242/242
f 282/282/271 244/244/244 283/283/272
f 246/246/246 283/283/272 244/244/244
f 283/283/272 246/246/246 250/250/250
f 248/248/248 250/250/250 246/246/246
f 284/284/273 285/285/274 286/286/275
f 285/285/274 284/284/273 287/287/276
f 288/288/277 287/287/276 284/284/273
f 287/287/276 288/288/277 289/289/278
f 290/290/279 289/289/278 288/288/277
f 289/289/278 290/290/279 291/291/280
f 292/292/281 291/291/280 290/290/279
f 291/291/280 292/292/281 293/293/282
f 294/294/283 293/293/282 292/292/281
f 293/293/282 294/294/283 285/285/274
f 295/295/284 253/253/253 255/255/255
f 253/253/253 295/295/284 264/264/264
f 296/296/285 264/264/264 295/295/284
f 264/264/264 296/296/285 262/262/262
f 297/297/286 262/262/262 296/296/285
f 262/262/262 297/297/286 260/260/260
f 298/298/287 260/260/260 297/297/286
f 260/260/260 298/298/287 258/258/258
f 299/299/267 258/258/258 298/298/287
f 258/258/258 299/299/267 254/254/254
f 300/300/288 301/301/289 302/302/290
f 301/301/289 300/300/288 303/303/291
f 304/304/292 303/303/291 300/300/288
f 303/303/291 304/304/292 305/305/293
f 306/306/294 305/305/293 304/304/292
f 305/305/293 306/306/294 307/307/295
f 308/308/296 307/307/295 306/306/294
f 307/307/295 308/308/296 309/309/297
f 302/302/290 309/309/297 308/308/296
f 309/309/297 302/302/290 301/301/289
f 310/310/298 311/311/299 312/312/300
f 311/311/299 310/310/298 313/313/301
f 314/314/302 313/313/301 310/310/298
f 313/313/301 314/314/302 315/315/303
f 316/316/304 315/315/303 314/314/302
f 315/315/303 316/316/304 317/317/305
f 318/318/306 317/317/305 316/316/304
f 317/317/305 318/318/306 319/319/307
f 312/312/300 319/319/307 318/318/306
f 319/319/307 312/312/300 311/311/299
f 320/320/301 321/321/302 322/322/303
f 321/321/302 320/320/301 323/323/298
f 324/324/299 323/323/298 320/320/301
f 323/323/298 324/324/299 325/325/300
f 326/326/308 325/325/300 324/324/299
f 325/325/300 326/326/308 327/327/306
f 328/328/305 327/327/306 326/326/308
f 327/327/306 328/328/305 329/329/304
f 322/322/303 329/329/304 328/328/305
f 329/329/304 322/322/303 321/321/302
f 330/330/290 331/331/297 332/332/296
f 331/331/297 330/330/290 333/333/289
f 334/334/309 333/333/289 330/330/290
f 333/333/289 334/334/309 335/335/291
f 336/336/310 335/335/291 334/334/309
f 335/335/291 336/336/310 337/337/311
f 338/338/312 337/337/311 336/336/310
f 337/337/311 338/338/312 339/339/313
f 332/332/296 339/339/313 338/338/312
f 339/339/313 332/332/296 331/331/297
f 340/340/314 341/341/315 342/342/316
f 341/341/315 340/340/314 343/343/317
f 344/344/318 343/343/317 340/340/314
f 343/343/317 344/344/318 345/345/319
f 346/346/320 345/345/319 344/344/318
f 345/345/319 346/346/320 347/347/321
f 348/348/322 347/347/321 346/346/320
f 347/347/321 348/348/322 349/349/323
f 350/350/324 349/349/323 348/348/322
f 349/349/323 350/350/324 341/341/315
f 351/351/325 352/352/326 353/353/327
f 352/352/326 351/351/325 354/354/328
f 355/355/329 354/354/328 351/351/325
f 354/354/328 355/355/329 356/356/330
f 357/357/331 356/356/330 355/355/329
f 356/356/330 357/357/331 358/358/332
f 359/359/333 358/358/332 357/357/331
f 358/358/332 359/359/333 353/353/327
f 360/360/334 361/361/335 362/362/336
f 361/361/335 360/360/334 363/363/337
f 364/364/338 363/363/337 360/360/334
f 363/363/337 364/364/338 365/365/339
f 366/366/340 365/365/339 364/364/338
f 365/365/339 366/366/340 367/367/341
f 368/368/342 367/367/341 366/366/340
f 367/367/341 368/368/342 369/369/343
f 370/370/284 275/275/266 371/371/255
f 275/275/266 370/370/284 273/273/264
f 372/372/344 273/273/264 370/370/284
f 273/273/264 372/372/344 271/271/262
f 373/373/286 271/271/262 372/372/344
f 271/271/262 373/373/286 269/269/260
f 374/374/287 269/269/260 373/373/286
f 375/375/345 376/376/346 377/377/347
f 376/376/346 375/375/345 378/378/348
f 379/379/349 378/378/348 375/375/345
f 378/378/348 379/379/349 380/380/350
f 381/381/351 380/380/350 379/379/349
f 380/380/350 381/381/351 382/382/352
f 383/383/353 382/382/352 381/381/351
f 384/384/354 369/369/343 385/385/355
f 369/369/343 384/384/354 367/367/341
f 386/386/356 367/367/341 384/384/354
f 367/367/341 386/386/356 365/365/339
f 387/387/357 365/365/339 386/386/356
f 365/365/339 387/387/357 363/363/337
f 361/361/335 363/363/337 387/387/357
f 388/388/358 389/389/359 390/390/360
f 389/389/359 388/388/358 391/391/361
f 392/392/362 391/391/361 388/388/358
f 391/391/361 392/392/362 393/393/363
f 394/394/364 393/393/363 392/392/362
f 393/393/363 394/394/364 395/395/365
f 396/396/366 397/397/367 398/398/368
f 397/397/367 396/396/366 399/399/369
f 400/400/370 399/399/369 396/396/366
f 399/399/369 400/400/370 401/401/371
f 398/398/368 401/401/371 400/400/370
f 239/239/239 247/247/247 241/241/241
f 247/247/247 239/239/239 402/402/372
f 235/235/235 402/402/372 239/239/239
f 402/402/372 235/235/235 251/251/251
f 237/237/237 251/251/251 235/235/235
f 387/387/357 403/403/373 361/361/335
f 403/403/373 387/387/357 404/404/374
f 386/386/356 404/404/374 387/387/357
f 404/404/374 386/386/356 405/405/375
f 406/406/376 405/405/375 386/386/356
f 407/407/377 388/388/358 390/390/360
f 388/388/358 407/407/377 392/392/362
f 408/408/378 392/392/362 407/407/377
f 392/392/362 408/408/378 394/394/364
f 409/409/379 410/410/380 411/411/381
f 410/410/380 409/409/379 412/412/382
f 413/413/383 412/412/382 409/409/379
f 412/412/382 413/413/383 414/414/384
f 415/415/385 416/416/385 417/417/386
f 416/416/385 415/415/385 418/418/387
f 419/419/387 418/418/387 415/415/385
f 418/418/387 419/419/387 420/420/388
f 421/421/389 422/422/390 423/423/391
f 422/422/390 421/421/389 424/424/392
f 425/425/393 424/424/392 421/421/389
f 424/424/392 425/425/393 426/426/394
f 427/427/395 284/284/273 286/286/275
f 284/284/273 427/427/395 428/428/396
f 292/292/281 428/428/396 427/427/395
f 428/428/396 292/292/281 290/290/279
f 429/429/397 230/230/230 87/87/87
f 230/230/230 429/429/397 66/66/66
f 67/67/67 66/66/66 429/429/397
f 430/430/398 431/431/399 432/432/400
f 431/431/399 430/430/398 433/433/401
f 434/434/402 433/433/401 430/430/398
f 435/435/403 436/436/404 437/437/405
f 436/436/404 435/435/403 438/438/406
f 390/390/407 438/438/406 435/435/403
f 430/430/398 439/439/408 440/440/409
f 439/439/408 430/430/398 441/441/410
f 432/432/400 441/441/410 430/430/398
f 430/430/398 442/442/411 443/443/412
f 442/442/411 430/430/398 444/444/413
f 440/440/409 444/444/413 430/430/398
f 430/430/398 445/445/414 446/446/415
f 447/447/416 445/445/414 430/430/398
f 443/443/412 447/447/416 430/430/398
f 283/283/272 448/448/417 282/282/271
f 448/448/417 283/283/272 252/252/252
f 250/250/250 252/252/252 283/283/272
f 430/430/398 449/449/418 450/450/419
f 449/449/418 430/430/398 451/451/420
f 446/446/415 451/451/420 430/430/398
f 430/430/398 452/452/421 453/453/422
f 452/452/421 430/430/398 454/454/423
f 450/450/419 454/454/423 430/430/398
f 455/455/424 456/456/425 391/391/426
f 456/456/425 455/455/424 457/457/427
f 395/395/428 457/457/427 455/455/424
f 458/458/429 372/372/344 370/370/284
f 372/372/344 458/458/429 373/373/286
f 374/374/287 373/373/286 458/458/429
f 459/459/430 460/460/431 348/348/322
f 460/460/431 459/459/430 342/342/316
f 340/340/314 342/342/316 459/459/430
f 461/461/432 343/343/317 345/345/319
f 343/343/317 461/461/432 341/341/315
f 349/349/323 341/341/315 461/461/432
f 462/462/433 463/463/434 464/464/435
f 463/463/434 462/462/433 465/465/436
f 466/466/437 465/465/436 462/462/433
f 462/462/433 467/467/438 466/466/437
f 467/467/438 462/462/433 468/468/439
f 469/469/440 468/468/439 462/462/433
f 470/470/441 48/48/48 46/46/46
f 48/48/48 470/470/441 44/44/44
f 43/43/43 44/44/44 470/470/441
f 424/424/392 471/471/442 472/472/443
f 471/471/442 424/424/392 473/473/444
f 474/474/445 473/473/444 424/424/392
f 424/424/392 475/475/446 476/476/447
f 475/475/446 424/424/392 477/477/448
f 472/472/443 477/477/448 424/424/392
f 303/303/291 309/309/297 301/301/289
f 309/309/297 303/303/291 307/307/295
f 305/305/293 307/307/295 303/303/291
f 478/478/449 291/291/280 293/293/282
f 291/291/280 478/478/449 289/289/278
f 287/287/276 289/289/278 478/478/449
f 412/412/382 479/479/450 410/410/380
f 479/479/450 412/412/382 480/480/451
f 481/481/452 480/480/451 412/412/382
f 482/482/429 296/296/285 295/295/284
f 296/296/285 482/482/429 297/297/286
f 298/298/287 297/297/286 482/482/429
f 412/412/382 483/483/453 484/484/454
f 483/483/453 412/412/382 485/485/455
f 486/486/456 485/485/455 412/412/382
f 412/412/382 487/487/457 488/488/458
f 487/487/457 412/412/382 489/489/459
f 484/484/454 489/489/459 412/412/382
f 412/412/382 490/490/460 481/481/452
f 490/490/460 412/412/382 491/491/461
f 488/488/458 491/491/461 412/412/382
f 424/424/392 492/492/462 422/422/390
f 492/492/462 424/424/392 493/493/463
f 476/476/447 493/493/463 424/424/392
f 494/494/464 462/462/433 495/495/465
f 462/462/433 494/494/464 496/496/466
f 497/497/467 462/462/433 496/496/466
f 462/462/433 497/497/467 498/498/468
f 499/499/469 462/462/433 498/498/468
f 462/462/433 499/499/469 500/500/470
f 501/501/471 462/462/433 500/500/470
f 462/462/433 501/501/471 502/502/472
f 503/503/473 462/462/433 502/502/472
f 462/462/433 503/503/473 469/469/440
f 504/504/474 353/353/327 352/352/326
f 353/353/327 504/504/474 358/358/332
f 288/288/277 428/428/396 290/290/279
f 428/428/396 288/288/277 284/284/273
f 402/402/372 249/249/249 247/247/247
f 249/249/249 402/402/372 251/251/251
f 243/243/243 247/247/247 245/245/245
f 247/247/247 243/243/243 241/241/241
f 478/478/449 285/285/274 287/287/276
f 285/285/274 478/478/449 293/293/282
f 505/505/475 383/383/353 381/381/351
f 383/383/353 505/505/475 377/377/347
f 430/430/398 506/506/476 434/434/402
f 506/506/476 430/430/398 453/453/422
f 507/507/477 508/508/478 405/405/375
f 508/508/478 507/507/477 509/509/479
f 510/510/480 511/511/481 512/512/482
f 511/511/481 510/510/480 513/513/483
f 368/368/342 514/514/484 515/515/485
f 514/514/484 368/368/342 366/366/340
f 364/364/338 514/514/484 366/366/340
f 514/514/484 364/364/338 360/360/334
f 516/516/486 385/385/355 517/517/487
f 385/385/355 516/516/486 406/406/376
f 518/518/488 519/519/488 520/520/488
f 519/519/488 518/518/488 521/521/489
f 522/522/385 523/523/385 524/524/386
f 523/523/385 522/522/385 525/525/387
f 526/526/387 525/525/387 527/527/388
f 525/525/387 526/526/387 523/523/385
f 528/528/490 424/424/392 426/426/394
f 424/424/392 528/528/490 529/529/491
f 530/530/492 424/424/392 529/529/491
f 424/424/392 530/530/492 531/531/493
f 532/532/494 424/424/392 531/531/493
f 424/424/392 532/532/494 533/533/495
f 534/534/496 412/412/382 414/414/384
f 412/412/382 534/534/496 535/535/497
f 536/536/498 412/412/382 535/535/497
f 412/412/382 536/536/498 486/486/456
f 537/537/499 538/538/500 539/539/499
f 538/538/500 537/537/499 540/540/500
f 541/541/501 462/462/433 542/542/502
f 462/462/433 541/541/501 495/495/465
f 543/543/503 462/462/433 464/464/435
f 462/462/433 543/543/503 542/542/502
f 461/461/432 347/347/321 349/349/323
f 347/347/321 461/461/432 345/345/319
f 346/346/320 459/459/430 348/348/322
f 459/459/430 346/346/320 344/344/318
f 277/277/254 275/275/266 276/276/256
f 275/275/266 277/277/254 371/371/255
f 267/267/258 374/374/287 278/278/267
f 374/374/287 267/267/258 269/269/260
f 335/335/291 331/331/297 333/333/289
f 331/331/297 335/335/291 337/337/311
f 429/429/397 88/88/88 67/67/67
f 88/88/88 429/429/397 87/87/87
f 45/45/45 470/470/441 46/46/46
f 470/470/441 45/45/45 43/43/43
f 508/508/478 404/404/374 405/405/375
f 404/404/374 508/508/478 403/403/373
f 384/384/354 406/406/376 386/386/356
f 406/406/376 384/384/354 385/385/355
f 544/544/504 393/393/363 395/395/365
f 393/393/363 544/544/504 391/391/361
f 396/396/366 398/398/368 400/400/370
f 337/337/311 339/339/313 331/331/297
f 424/424/392 533/533/495 474/474/445
f 258/258/258 254/254/254 256/256/256
f 383/383/353 377/377/347 376/376/346
f 436/436/404 438/438/406 391/391/505
f 545/545/506 511/511/481 513/513/483
f 340/340/314 459/459/430 344/344/318
f 456/456/425 457/457/427 437/437/507
o n1b1
v -0.027025 1.066998 0.119824
v 0.000023 1.001504 0.136137
v 0.000018 1.029961 0.083647
v -0.026023 1.029967 0.154605
v -0.094529 1.027470 0.157725
v -0.032176 0.955672 0.176131
v -0.103005 0.945299 0.167538
v -0.044780 0.878575 0.163594
v -0.086004 0.858160 0.150932
v 0.134301 0.972751 0.057804
v 0.130845 0.893758 0.112962
v 0.124549 0.910456 0.033410
v 0.134155 0.963404 0.130392
v 0.116083 1.039722 0.077246
v 0.094579 1.027476 0.157708
v 0.083740 1.067956 0.116738
v 0.027065 1.066999 0.119819
v 0.026072 1.029969 0.154600
v 0.000026 0.959742 0.145996
v 0.032233 0.955674 0.176125
v 0.000028 0.904477 0.151396
v 0.044839 0.878578 0.163585
v -0.130796 0.893750 0.112986
v -0.134266 0.972743 0.057828
v -0.124516 0.910449 0.033433
v -0.134107 0.963396 0.130417
v 0.103061 0.945305 0.167519
v 0.086062 0.858165 0.150917
v -0.083700 1.067951 0.116754
v -0.116049 1.039716 0.077267
vt 0.430664 0.996582
vt 0.500000 0.839355
vt 0.500000 0.954590
vt 0.432617 0.894531
vt 0.255371 0.893066
vt 0.417480 0.735840
vt 0.237305 0.711914
vt 0.385742 0.561035
vt 0.278809 0.515137
vt 0.962402 0.765137
vt 0.871094 0.598145
vt 0.989746 0.633301
vt 0.841797 0.752930
vt 0.896973 0.915527
vt 0.744141 0.893066
vt 0.753906 0.999023
vt 0.568848 0.996582
vt 0.566895 0.894531
vt 0.500000 0.744629
vt 0.582031 0.735840
vt 0.500000 0.619629
vt 0.613770 0.561035
vt 0.128418 0.598145
vt 0.037109 0.765137
vt 0.009766 0.633301
vt 0.157715 0.752930
vt 0.762207 0.711914
vt 0.720703 0.515137
vt 0.245605 0.999023
vt 0.102539 0.915527
vn 0.4645 0.6519 0.5994
vn 0.0001 0.4584 0.8888
vn 0.0000 0.8791 0.4766
vn 0.4152 0.4642 0.7824
vn -0.4610 0.4711 0.7520
vn 0.2789 0.0508 0.9590
vn -0.4925 -0.0573 0.8685
vn 0.0057 -0.2007 0.9796
vn -0.4559 -0.2516 0.8537
vn 0.9977 0.0653 -0.0172
vn 0.9257 -0.1765 0.3347
vn 0.9881 -0.1146 -0.1023
vn 0.9291 0.0908 0.3586
vn 0.8954 0.3933 0.2087
vn 0.4611 0.4712 0.7519
vn 0.4533 0.6911 0.5629
vn -0.4644 0.6519 0.5994
vn -0.4150 0.4642 0.7825
vn 0.0001 0.1641 0.9864
vn -0.2788 0.0508 0.9590
vn 0.0001 -0.1328 0.9911
vn -0.0056 -0.2007 0.9796
vn -0.9256 -0.1766 0.3348
vn -0.9977 0.0652 -0.0171
vn -0.9881 -0.1147 -0.1021
vn -0.9290 0.0907 0.3588
vn 0.4926 -0.0572 0.8684
vn 0.4561 -0.2516 0.8536
vn -0.4532 0.6911 0.5630
vn -0.8954 0.3932 0.2089
usemtl m1
s 1
f 546/546/508 547/547/509 548/548/510
f 547/547/509 546/546/508 549/549/511
f 550/550/512 549/549/511 546/546/508
f 549/549/511 550/550/512 551/551/513
f 552/552/514 551/551/513 550/550/512
f 551/551/513 552/552/514 553/553/515
f 554/554/516 553/553/515 552/552/514
f 555/555/517 556/556/518 557/557/519
f 556/556/518 555/555/517 558/558/520
f 559/559/521 558/558/520 555/555/517
f 558/558/520 559/559/521 560/560/522
f 561/561/523 560/560/522 559/559/521
f 560/560/522 561/561/523 562/562/524
f 547/547/509 562/562/524 548/548/510
f 562/562/524 547/547/509 563/563/525
f 564/564/526 563/563/525 547/547/509
f 563/563/525 564/564/526 565/565/527
f 566/566/528 565/565/527 564/564/526
f 565/565/527 566/566/528 567/567/529
f 568/568/530 569/569/531 570/570/532
f 569/569/531 568/568/530 571/571/533
f 552/552/514 571/571/533 568/568/530
f 571/571/533 552/552/514 550/550/512
f 572/572/534 558/558/520 560/560/522
f 558/558/520 572/572/534 556/556/518
f 573/573/535 556/556/518 572/572/534
f 572/572/534 567/567/529 573/573/535
f 567/567/529 572/572/534 565/565/527
f 560/560/522 565/565/527 572/572/534
f 563/563/525 560/560/522 562/562/524
f 560/560/522 563/563/525 565/565/527
f 566/566/528 551/551/513 553/553/515
f 551/551/513 566/566/528 564/564/526
f 574/574/536 550/550/512 546/546/508
f 550/550/512 574/574/536 575/575/537
f 575/575/537 571/571/533 550/550/512
f 571/571/533 575/575/537 569/569/531
f 564/564/526 549/549/511 551/551/513
f 549/549/511 564/564/526 547/547/509
f 552/552/514 568/568/530 554/554/516
