9122e4 = cap shade
aa6454 = hollow box shade
//8029dba8:nop (allow ! DL to switch)

geo layout
(00201300)
02 01 00 00 0f 00 0a 30 //jump geolayout
15 01 00 00 08 01 94 38 //yellow box
15 01 00 00 08 02 4b b8
03 00 00 00




! box f3d:
06 00 00 00 08 01 90 58
fd 10 00 00 08 01 1a 90
e6 00 00 00 00 00 00 00
f3 00 00 00 07 3f f1 00
06 00 00 00 08 01 8f a8
e8 00 00 00 00 00 00 00
f5 10 10 00 00 09 82 50
f2 10 00 00 08 02 39 98
e6 00 00 00 00 00 00 00
f3 00 00 00 07 7f f1 00
06 01 00 00 08 01 90 08