# Blender v2.79 (sub 0) OBJ File: 'bowser 2 fight.blend'
# www.blender.org
mtllib bowser 2 fight.mtl
o Cube_Cube.001
v -9.000000 -4.000000 9.000000
v -6.930000 -0.000000 6.930000
v -9.000000 -4.000000 -9.000000
v -6.930000 -0.000000 -6.930000
v 9.000000 -4.000000 9.000000
v 6.930000 -0.000000 6.930000
v 9.000000 -4.000000 -9.000000
v 6.930000 -0.000000 -6.930000
v -9.000000 -0.000000 9.000000
v -9.000000 -0.000000 -9.000000
v 9.000000 -0.000000 -9.000000
v 9.000000 -0.000000 9.000000
v -6.930000 -3.000000 6.930000
v -6.930000 -3.000000 -6.930000
v 6.930000 -3.000000 -6.930000
v 6.930000 -3.000000 6.930000
v -9.000000 -4.000000 -3.000000
v -9.000000 -4.000000 3.000000
v -9.000000 -0.000000 3.000000
v -9.000000 -0.000000 -3.000000
v 9.000000 -4.000000 3.000000
v 9.000000 -4.000000 -3.000000
v 9.000000 -0.000000 -3.000000
v 9.000000 -0.000000 3.000000
v -6.930000 -0.000000 2.310000
v -6.930000 -0.000000 -2.310000
v 6.930000 -0.000000 -2.310000
v 6.930000 -0.000000 2.310000
v -6.930000 -3.000000 2.310000
v -6.930000 -3.000000 -2.310000
v 6.930000 -3.000000 -2.310000
v 6.930000 -3.000000 2.310000
v 3.000000 -4.000000 -9.000000
v -3.000000 -4.000000 -9.000000
v -3.000000 -0.000000 -9.000000
v 3.000000 -0.000000 -9.000000
v -3.000000 -4.000000 9.000000
v 3.000000 -4.000000 9.000000
v 3.000000 -0.000000 9.000000
v -3.000000 -0.000000 9.000000
v -2.310000 -0.000000 -6.930000
v 2.310000 -0.000000 -6.930000
v 2.310000 -0.000000 6.930000
v -2.310000 -0.000000 6.930000
v -2.310000 -3.000000 -6.930000
v 2.310000 -3.000000 -6.930000
v 2.310000 -3.000000 6.930000
v -2.310000 -3.000000 6.930000
v -2.310000 -3.000000 -2.310000
v 2.310000 -3.000000 -2.310000
v -2.310000 -3.000000 2.310000
v 2.310000 -3.000000 2.310000
v -9.000000 -4.000000 -1.000000
v -9.000000 -4.000000 1.000000
v -9.000000 -0.000000 1.000000
v -9.000000 -0.000000 -1.000000
v 9.000000 -4.000000 1.000000
v 9.000000 -4.000000 -1.000000
v 9.000000 -0.000000 -1.000000
v 9.000000 -0.000000 1.000000
v -6.930000 -0.000000 0.770000
v -6.930000 -0.000000 -0.770000
v 6.930000 -0.000000 -0.770000
v 6.930000 -0.000000 0.770000
v -6.930000 -3.000000 0.770000
v -6.930000 -3.000000 -0.770000
v 6.930000 -3.000000 -0.770000
v 6.930000 -3.000000 0.770000
v 2.310000 -3.000000 -0.770000
v 2.310000 -3.000000 0.770000
v -2.310000 -3.000000 -0.770000
v -2.310000 -3.000000 0.770000
v 1.000000 -4.000000 -9.000000
v -1.000000 -4.000000 -9.000000
v -1.000000 -0.000000 -9.000000
v 1.000000 -0.000000 -9.000000
v -1.000000 -4.000000 9.000000
v 1.000000 -4.000000 9.000000
v 1.000000 -0.000000 9.000000
v -1.000000 -0.000000 9.000000
v -0.770000 -0.000000 -6.930000
v 0.770000 -0.000000 -6.930000
v 0.770000 -0.000000 6.930000
v -0.770000 -0.000000 6.930000
v -0.770000 -3.000000 -6.930000
v 0.770000 -3.000000 -6.930000
v 0.770000 -3.000000 6.930000
v -0.770000 -3.000000 6.930000
v -0.770000 -3.000000 -2.310000
v 0.770000 -3.000000 -2.310000
v -0.770000 -3.000000 2.310000
v 0.770000 -3.000000 2.310000
v -0.770000 -3.000000 -0.770000
v 0.770000 -3.000000 -0.770000
v -0.770000 -3.000000 0.770000
v 0.770000 -3.000000 0.770000
v 6.930000 -1.500000 -6.930000
v 6.930000 -1.500000 6.930000
v -6.930000 -1.500000 6.930000
v -6.930000 -1.500000 -6.930000
v -6.930000 -1.500000 -2.310000
v -6.930000 -1.500000 2.310000
v 6.930000 -1.500000 2.310000
v 6.930000 -1.500000 -2.310000
v 2.310000 -1.500000 -6.930000
v -2.310000 -1.500000 -6.930000
v -2.310000 -1.500000 6.930000
v 2.310000 -1.500000 6.930000
v 6.930000 -1.500000 0.770000
v 6.930000 -1.500000 -0.770000
v -6.930000 -1.500000 -0.770000
v -6.930000 -1.500000 0.770000
v -0.770000 -1.500000 6.930000
v 0.770000 -1.500000 6.930000
v 0.770000 -1.500000 -6.930000
v -0.770000 -1.500000 -6.930000
v 5.043100 -1.500000 0.770000
v 5.043100 -1.500000 -0.770000
v -5.043100 -1.500000 -0.770000
v -5.043100 -1.500000 0.770000
v -0.770000 -1.500000 5.043100
v 0.770000 -1.500000 5.043100
v 0.770000 -1.500000 -5.043100
v -0.770000 -1.500000 -5.043100
v -9.000000 -2.000000 9.000000
v -9.000000 -2.000000 -9.000000
v 9.000000 -2.000000 -9.000000
v 9.000000 -2.000000 9.000000
v 9.000000 -2.000000 -3.000000
v 9.000000 -2.000000 3.000000
v -9.000000 -2.000000 3.000000
v -9.000000 -2.000000 -3.000000
v 3.000000 -2.000000 9.000000
v -3.000000 -2.000000 9.000000
v -3.000000 -2.000000 -9.000000
v 3.000000 -2.000000 -9.000000
v -9.000000 -2.000000 1.000000
v -9.000000 -2.000000 -1.000000
v 9.000000 -2.000000 -1.000000
v 9.000000 -2.000000 1.000000
v -1.000000 -2.000000 -9.000000
v 1.000000 -2.000000 -9.000000
v 1.000000 -2.000000 9.000000
v -1.000000 -2.000000 9.000000
vt -1.228475 0.000000
vt 2.228475 1.000000
vt -1.228474 1.000000
vt -1.228475 0.000000
vt 2.228475 1.000000
vt -1.228474 1.000000
vt -1.228475 0.000000
vt 2.228475 1.000000
vt -1.228474 1.000000
vt -1.228475 0.000000
vt 2.228475 1.000000
vt -1.228474 1.000000
vt 2.228475 0.000000
vt 2.228475 0.000000
vt 2.228475 0.000000
vt 2.228475 0.000000
vt 16.553722 1.469391
vt 13.592382 0.493939
vt 16.553722 0.493939
vt 7.681360 1.469391
vt 4.720018 0.493939
vt 7.681360 0.493939
vt -1.191003 1.469391
vt -4.152344 0.493939
vt -1.191003 0.493939
vt -10.063367 1.469391
vt -13.024708 0.493939
vt -10.063367 0.493939
vt 10.531415 0.737803
vt 12.811647 0.006213
vt 12.811647 0.737803
vt -3.132022 0.737803
vt -0.851789 0.006213
vt -0.851789 0.737803
vt -9.963740 0.737803
vt -7.683508 0.006213
vt -7.683508 0.737803
vt 3.699697 0.737803
vt 5.979930 0.006213
vt 5.979930 0.737803
vt 1.419465 0.737803
vt 3.699697 0.006213
vt -0.091712 0.006213
vt -0.091712 0.737803
vt -12.243973 0.737803
vt -9.963740 0.006213
vt -14.515226 0.737803
vt -13.755149 0.006213
vt -13.755149 0.737803
vt 4.720018 1.469391
vt 1.758677 0.493939
vt -0.203889 1.469391
vt -0.203889 0.493939
vt -13.024708 1.469391
vt -15.986048 0.493939
vt 17.540838 1.469391
vt 17.540838 0.493939
vt 8.251184 0.737803
vt 10.531415 0.006213
vt 6.740007 0.006213
vt 6.740007 0.737803
vt -5.412255 0.737803
vt -3.132022 0.006213
vt -6.923429 0.006213
vt -6.923429 0.737803
vt -4.152344 1.469391
vt -7.113686 0.493939
vt -9.076253 1.469391
vt -9.076253 0.493939
vt 13.592382 1.469391
vt 10.631041 0.493939
vt 8.668474 1.469391
vt 8.668474 0.493939
vt -15.986048 1.469391
vt -16.973162 0.493939
vt 18.516291 1.469391
vt 18.516291 0.493939
vt 1.758677 1.469391
vt 0.771564 0.493939
vt 0.771564 1.469391
vt -13.004050 0.737803
vt -12.243973 0.006213
vt -13.004050 0.006213
vt 0.659387 0.737803
vt 1.419465 0.006213
vt 0.659387 0.006213
vt 10.631041 1.469391
vt 9.643928 0.493939
vt 9.643928 1.469391
vt -7.113686 1.469391
vt -8.100800 0.493939
vt -8.100800 1.469391
vt -6.172332 0.737803
vt -5.412255 0.006213
vt -6.172332 0.006213
vt 7.491107 0.737803
vt 8.251184 0.006213
vt 7.491107 0.006213
vt 7.491107 1.469393
vt 8.251184 1.469393
vt -13.755149 1.469393
vt -13.004050 0.737803
vt -6.172332 1.469393
vt -5.412255 1.469393
vt 0.659387 1.469393
vt 1.419465 1.469393
vt -13.004050 1.469393
vt -13.755149 0.737803
vt -12.243973 1.469393
vt -7.683508 1.469393
vt -6.923429 1.469393
vt -3.132022 1.469393
vt 5.979930 1.469393
vt 6.740007 1.469393
vt 10.531415 1.469393
vt -14.515226 1.469393
vt -9.963740 1.469393
vt -0.851789 1.469393
vt -0.091712 1.469393
vt 3.699697 1.469393
vt 12.811647 1.469393
vt -0.091712 0.737803
vt 0.659387 0.737803
vt -6.923429 0.737803
vt -6.172332 0.737803
vt 6.740007 0.737803
vt 7.491107 0.737803
vt -9.076253 -0.481512
vt -8.100800 -0.481512
vt -7.113686 -0.481512
vt 8.668474 -0.481512
vt 9.643928 -0.481512
vt 10.631041 -0.481512
vt -0.203889 -0.481512
vt 0.771564 -0.481512
vt 1.758677 -0.481512
vt 17.540838 -0.481512
vt 18.516291 -0.481512
vt -16.973162 -0.481512
vt -15.986048 -0.481512
vt 7.681360 -0.481512
vt 13.592382 -0.481512
vt -10.063367 -0.481512
vt -4.152344 -0.481512
vt 16.553722 -0.481512
vt -13.024708 -0.481512
vt -1.191003 -0.481512
vt 4.720018 -0.481512
vt -14.515226 0.006213
vt -16.973162 1.469391
vt -1.006475 2.008997
vt -1.454725 1.157972
vt -1.006475 1.008556
vt 1.994849 2.008997
vt 1.143824 2.457246
vt 0.994408 2.008997
vt 1.994849 -0.992327
vt 2.443098 -0.141302
vt 1.994849 0.008115
vt -1.006475 -0.992327
vt -0.155450 -1.440576
vt -0.006034 -0.992327
vt -1.006475 0.008115
vt -0.006034 -0.992327
vt -0.006034 0.008115
vt -1.006475 2.008997
vt -0.006034 1.008556
vt -0.006034 2.008997
vt -1.006475 0.341595
vt -0.006034 0.341595
vt 2.443098 1.157972
vt 2.443098 2.457246
vt 2.443098 0.291790
vt 1.994849 0.341595
vt -1.454725 -0.141302
vt -1.454725 -1.440576
vt -1.454725 0.724881
vt -1.006475 0.675075
vt 0.994408 0.341595
vt 1.994849 0.008115
vt 1.994849 0.341595
vt 0.327447 0.008115
vt 0.327447 0.341595
vt 0.994408 2.008997
vt 1.994849 1.008556
vt 1.994849 2.008997
vt 0.327447 1.008556
vt 0.327447 2.008997
vt 0.994408 0.008115
vt 1.994849 -0.992327
vt 0.327447 -0.992327
vt 1.143824 -1.440576
vt 2.443098 -1.440576
vt 0.277641 -1.440576
vt 0.327447 -0.992327
vt -0.155450 2.457246
vt -1.454725 2.457246
vt 0.710733 2.457246
vt 0.660927 2.008997
vt 0.327447 0.675075
vt -0.006034 0.675075
vt 0.994408 1.008556
vt 1.994849 0.675075
vt 0.994408 0.675075
vt -1.006475 0.008115
vt -1.454725 0.291790
vt -1.006475 0.341595
vt 1.994849 1.008556
vt 2.443098 0.724881
vt 1.994849 0.675075
vt -1.006475 1.008556
vt -1.006475 0.675075
vt 0.660927 0.675075
vt 0.660927 0.341595
vt 0.660927 1.008556
vt -0.006034 2.008997
vt 0.277641 2.457246
vt 0.327447 2.008997
vt 0.994408 -0.992327
vt 0.710733 -1.440576
vt 0.660927 -0.992327
vt 0.660927 0.008115
vt 0.994408 -0.992327
vt 0.660927 -0.992327
vt 0.660927 2.008997
vt -1.006475 -0.992327
vt 0.000000 0.000000
vt 0.000000 0.000000
vt 0.000000 0.000000
vt 0.000000 0.000000
vt 0.000000 0.000000
vt 0.000000 0.000000
vt 0.000000 0.000000
vt 0.000000 0.000000
vt 0.000000 0.000000
vt 0.000000 0.000000
vt 0.000000 0.000000
vt 0.000000 0.000000
vt 0.000000 0.000000
vt 0.000000 0.000000
vt 0.000000 0.000000
vt 0.000000 0.000000
vn 0.0000 0.7828 -0.6223
vn -0.6223 0.7828 0.0000
vn 0.0000 0.7828 0.6223
vn 0.6223 0.7828 0.0000
vn -1.0000 0.0000 0.0000
vn 0.0000 0.0000 -1.0000
vn 1.0000 0.0000 0.0000
vn 0.0000 0.0000 1.0000
vn 0.0000 1.0000 0.0000
vn 0.0000 -1.0000 0.0000
usemtl None
s off
f 83/1/1 121/2/1 84/3/1
f 63/4/2 117/5/2 64/6/2
f 81/7/3 123/8/3 82/9/3
f 61/10/4 119/11/4 62/12/4
f 83/1/1 122/13/1 121/2/1
f 63/4/2 118/14/2 117/5/2
f 81/7/3 124/15/3 123/8/3
f 61/10/4 120/16/4 119/11/4
usemtl None_MetalPlate02.png
f 20/17/5 126/18/5 132/19/5
f 36/20/6 127/21/6 136/22/6
f 24/23/7 128/24/7 130/25/7
f 40/26/8 125/27/8 134/28/8
f 97/29/5 31/30/5 104/31/5
f 99/32/7 29/33/7 102/34/7
f 98/35/6 47/36/6 108/37/6
f 100/38/8 45/39/8 106/40/8
f 101/41/7 14/42/7 100/38/7
f 102/34/7 65/43/7 112/44/7
f 103/45/5 16/46/5 98/35/5
f 104/47/5 67/48/5 110/49/5
f 11/50/7 129/51/7 127/21/7
f 60/52/7 130/25/7 140/53/7
f 9/54/5 131/55/5 125/27/5
f 56/56/5 132/19/5 138/57/5
f 105/58/8 15/59/8 97/29/8
f 106/40/8 85/60/8 116/61/8
f 107/62/6 13/63/6 99/32/6
f 108/37/6 87/64/6 114/65/6
f 12/66/8 133/67/8 128/24/8
f 80/68/8 134/28/8 144/69/8
f 10/70/6 135/71/6 126/18/6
f 76/72/6 136/22/6 142/73/6
f 19/74/5 137/75/5 131/55/5
f 55/76/5 138/57/5 137/77/5
f 23/78/7 139/79/7 129/51/7
f 59/80/7 140/53/7 139/79/7
f 109/81/5 32/82/5 103/45/5
f 110/49/5 68/83/5 109/81/5
f 111/84/7 30/85/7 101/41/7
f 112/44/7 66/86/7 111/84/7
f 35/87/6 141/88/6 135/71/6
f 75/89/6 142/73/6 141/88/6
f 39/90/8 143/91/8 133/67/8
f 79/92/8 144/69/8 143/91/8
f 113/93/6 48/94/6 107/62/6
f 114/65/6 88/95/6 113/93/6
f 115/96/8 46/97/8 105/58/8
f 116/61/8 86/98/8 115/96/8
f 82/99/8 105/58/8 42/100/8
f 63/101/6 110/49/6 118/102/6
f 84/103/6 107/62/6 44/104/6
f 62/105/7 101/41/7 26/106/7
f 109/81/8 64/107/8 117/108/8
f 64/107/5 103/45/5 28/109/5
f 43/110/6 114/65/6 83/111/6
f 44/104/6 99/32/6 2/112/6
f 41/113/8 116/61/8 81/114/8
f 42/100/8 97/29/8 8/115/8
f 27/116/5 110/49/5 63/101/5
f 28/109/5 98/35/5 6/117/5
f 25/118/7 112/44/7 61/119/7
f 26/106/7 100/38/7 4/120/7
f 4/120/8 106/40/8 41/113/8
f 6/117/6 108/37/6 43/110/6
f 2/112/7 102/34/7 25/118/7
f 8/115/5 104/31/5 27/121/5
f 111/84/6 62/105/6 119/122/6
f 61/119/8 112/44/8 120/123/8
f 113/93/5 84/103/5 121/124/5
f 83/111/7 114/65/7 122/125/7
f 115/96/7 82/99/7 123/126/7
f 81/114/5 116/61/5 124/127/5
f 143/91/8 77/128/8 78/129/8
f 133/67/8 78/129/8 38/130/8
f 141/88/6 73/131/6 74/132/6
f 135/71/6 74/132/6 34/133/6
f 139/79/7 57/134/7 58/135/7
f 129/51/7 58/135/7 22/136/7
f 137/77/5 53/137/5 54/138/5
f 131/55/5 54/139/5 18/140/5
f 142/73/6 33/141/6 73/131/6
f 126/18/6 34/133/6 3/142/6
f 144/69/8 37/143/8 77/128/8
f 128/24/8 38/130/8 5/144/8
f 138/57/5 17/145/5 53/137/5
f 125/27/5 18/140/5 1/146/5
f 140/53/7 21/147/7 57/134/7
f 127/21/7 22/136/7 7/148/7
f 134/28/8 1/146/8 37/143/8
f 130/25/7 5/144/7 21/147/7
f 136/22/6 7/148/6 33/141/6
f 132/19/5 3/142/5 17/145/5
f 20/17/5 10/70/5 126/18/5
f 36/20/6 11/50/6 127/21/6
f 24/23/7 12/66/7 128/24/7
f 40/26/8 9/54/8 125/27/8
f 97/29/5 15/59/5 31/30/5
f 99/32/7 13/63/7 29/33/7
f 98/35/6 16/46/6 47/36/6
f 100/38/8 14/42/8 45/39/8
f 101/41/7 30/85/7 14/42/7
f 102/34/7 29/33/7 65/43/7
f 103/45/5 32/82/5 16/46/5
f 104/47/5 31/149/5 67/48/5
f 11/50/7 23/78/7 129/51/7
f 60/52/7 24/23/7 130/25/7
f 9/54/5 19/74/5 131/55/5
f 56/56/5 20/17/5 132/19/5
f 105/58/8 46/97/8 15/59/8
f 106/40/8 45/39/8 85/60/8
f 107/62/6 48/94/6 13/63/6
f 108/37/6 47/36/6 87/64/6
f 12/66/8 39/90/8 133/67/8
f 80/68/8 40/26/8 134/28/8
f 10/70/6 35/87/6 135/71/6
f 76/72/6 36/20/6 136/22/6
f 19/74/5 55/150/5 137/75/5
f 55/76/5 56/56/5 138/57/5
f 23/78/7 59/80/7 139/79/7
f 59/80/7 60/52/7 140/53/7
f 109/81/5 68/83/5 32/82/5
f 110/49/5 67/48/5 68/83/5
f 111/84/7 66/86/7 30/85/7
f 112/44/7 65/43/7 66/86/7
f 35/87/6 75/89/6 141/88/6
f 75/89/6 76/72/6 142/73/6
f 39/90/8 79/92/8 143/91/8
f 79/92/8 80/68/8 144/69/8
f 113/93/6 88/95/6 48/94/6
f 114/65/6 87/64/6 88/95/6
f 115/96/8 86/98/8 46/97/8
f 116/61/8 85/60/8 86/98/8
f 82/99/8 115/96/8 105/58/8
f 84/103/6 113/93/6 107/62/6
f 62/105/7 111/84/7 101/41/7
f 64/107/5 109/81/5 103/45/5
f 43/110/6 108/37/6 114/65/6
f 44/104/6 107/62/6 99/32/6
f 41/113/8 106/40/8 116/61/8
f 42/100/8 105/58/8 97/29/8
f 27/116/5 104/47/5 110/49/5
f 28/109/5 103/45/5 98/35/5
f 25/118/7 102/34/7 112/44/7
f 26/106/7 101/41/7 100/38/7
f 4/120/8 100/38/8 106/40/8
f 6/117/6 98/35/6 108/37/6
f 2/112/7 99/32/7 102/34/7
f 8/115/5 97/29/5 104/31/5
f 143/91/8 144/69/8 77/128/8
f 133/67/8 143/91/8 78/129/8
f 141/88/6 142/73/6 73/131/6
f 135/71/6 141/88/6 74/132/6
f 139/79/7 140/53/7 57/134/7
f 129/51/7 139/79/7 58/135/7
f 137/77/5 138/57/5 53/137/5
f 131/55/5 137/75/5 54/139/5
f 142/73/6 136/22/6 33/141/6
f 126/18/6 135/71/6 34/133/6
f 144/69/8 134/28/8 37/143/8
f 128/24/8 133/67/8 38/130/8
f 138/57/5 132/19/5 17/145/5
f 125/27/5 131/55/5 18/140/5
f 140/53/7 130/25/7 21/147/7
f 127/21/7 129/51/7 22/136/7
f 134/28/8 125/27/8 1/146/8
f 130/25/7 128/24/7 5/144/7
f 136/22/6 127/21/6 7/148/6
f 132/19/5 126/18/5 3/142/5
usemtl None_stel_floor.jpg
f 4/151/9 20/152/9 26/153/9
f 8/154/9 36/155/9 42/156/9
f 6/157/9 24/158/9 28/159/9
f 2/160/9 40/161/9 44/162/9
f 29/163/9 48/164/9 51/165/9
f 14/166/9 49/167/9 45/168/9
f 65/169/9 51/165/9 72/170/9
f 8/154/9 23/171/9 11/172/9
f 28/159/9 60/173/9 64/174/9
f 2/160/9 19/175/9 9/176/9
f 26/153/9 56/177/9 62/178/9
f 70/179/9 32/180/9 68/181/9
f 72/170/9 91/182/9 95/183/9
f 46/184/9 31/185/9 15/186/9
f 45/168/9 89/187/9 85/188/9
f 52/189/9 16/190/9 32/180/9
f 51/165/9 88/191/9 91/182/9
f 6/157/9 39/192/9 12/193/9
f 44/162/9 80/194/9 84/195/9
f 4/151/9 35/196/9 10/197/9
f 42/156/9 76/198/9 82/199/9
f 49/167/9 93/200/9 89/187/9
f 71/201/9 95/183/9 93/200/9
f 50/202/9 67/203/9 31/185/9
f 69/204/9 68/181/9 67/203/9
f 25/205/9 55/206/9 19/175/9
f 62/178/9 55/206/9 61/207/9
f 27/208/9 59/209/9 23/171/9
f 64/174/9 59/209/9 63/210/9
f 30/211/9 71/201/9 49/167/9
f 66/212/9 72/170/9 71/201/9
f 94/213/9 70/179/9 69/204/9
f 93/200/9 96/214/9 94/213/9
f 90/215/9 69/204/9 50/202/9
f 89/187/9 94/213/9 90/215/9
f 41/216/9 75/217/9 35/196/9
f 82/199/9 75/217/9 81/218/9
f 43/219/9 79/220/9 39/192/9
f 84/195/9 79/220/9 83/221/9
f 92/222/9 47/223/9 52/189/9
f 91/182/9 87/224/9 92/222/9
f 86/225/9 50/202/9 46/184/9
f 85/188/9 90/215/9 86/225/9
f 96/214/9 52/189/9 70/179/9
f 95/183/9 92/222/9 96/214/9
f 4/151/9 10/197/9 20/152/9
f 8/154/9 11/172/9 36/155/9
f 6/157/9 12/193/9 24/158/9
f 2/160/9 9/176/9 40/161/9
f 29/163/9 13/226/9 48/164/9
f 14/166/9 30/211/9 49/167/9
f 65/169/9 29/163/9 51/165/9
f 8/154/9 27/208/9 23/171/9
f 28/159/9 24/158/9 60/173/9
f 2/160/9 25/205/9 19/175/9
f 26/153/9 20/152/9 56/177/9
f 70/179/9 52/189/9 32/180/9
f 72/170/9 51/165/9 91/182/9
f 46/184/9 50/202/9 31/185/9
f 45/168/9 49/167/9 89/187/9
f 52/189/9 47/223/9 16/190/9
f 51/165/9 48/164/9 88/191/9
f 6/157/9 43/219/9 39/192/9
f 44/162/9 40/161/9 80/194/9
f 4/151/9 41/216/9 35/196/9
f 42/156/9 36/155/9 76/198/9
f 49/167/9 71/201/9 93/200/9
f 71/201/9 72/170/9 95/183/9
f 50/202/9 69/204/9 67/203/9
f 69/204/9 70/179/9 68/181/9
f 25/205/9 61/207/9 55/206/9
f 62/178/9 56/177/9 55/206/9
f 27/208/9 63/210/9 59/209/9
f 64/174/9 60/173/9 59/209/9
f 30/211/9 66/212/9 71/201/9
f 66/212/9 65/169/9 72/170/9
f 94/213/9 96/214/9 70/179/9
f 93/200/9 95/183/9 96/214/9
f 90/215/9 94/213/9 69/204/9
f 89/187/9 93/200/9 94/213/9
f 41/216/9 81/218/9 75/217/9
f 82/199/9 76/198/9 75/217/9
f 43/219/9 83/221/9 79/220/9
f 84/195/9 80/194/9 79/220/9
f 92/222/9 87/224/9 47/223/9
f 91/182/9 88/191/9 87/224/9
f 86/225/9 90/215/9 50/202/9
f 85/188/9 89/187/9 90/215/9
f 96/214/9 92/222/9 52/189/9
f 95/183/9 91/182/9 92/222/9
usemtl None_NONE
f 115/227/10 124/228/10 116/229/10
f 113/230/10 122/231/10 114/232/10
f 111/233/10 120/234/10 112/235/10
f 109/236/10 118/237/10 110/238/10
f 115/227/10 123/239/10 124/228/10
f 113/230/10 121/240/10 122/231/10
f 111/233/10 119/241/10 120/234/10
f 109/236/10 117/242/10 118/237/10
