.org 0xDC9D8 //803219d8
jal $8040a680
andi a1, t7, $ff


.org 0x120a680 //8040a680
addiu sp, sp, $ffe8
sw ra, $0014 (SP)

lui v1, $8033
lh v1, $DDF8 (V1) //level
li at, $14 //secret aquarium
beq at, v1, !end
nop
jal $80320544
nop
!end:
lw ra, $0014 (SP)
jr ra
addiu sp, sp, $18