# Blender v2.79 (sub 0) OBJ File: 'skateboard.blend'
# www.blender.org
mtllib skateboard.mtl
o Sphere.001
v 0.257386 0.047996 0.405531
v 0.257386 -0.022714 0.376242
v 0.186676 0.118707 0.305531
v 0.157386 0.047996 0.305531
v 0.186676 -0.022714 0.305531
v 0.257386 0.147996 0.305531
v 0.257386 0.118707 0.234821
v 0.257386 0.047996 0.205531
v 0.257386 -0.022714 0.234821
v 0.257386 -0.052004 0.305531
v 0.328097 0.118707 0.305531
v 0.357386 0.047996 0.305531
v 0.328097 -0.022714 0.305531
v 0.257386 0.118707 0.376242
v -0.182032 0.047996 -0.111848
v -0.182032 -0.022714 -0.141138
v -0.252743 0.118707 -0.211848
v -0.282032 0.047996 -0.211848
v -0.252743 -0.022714 -0.211848
v -0.182032 0.147996 -0.211848
v -0.182032 0.118707 -0.282559
v -0.182032 0.047996 -0.311848
v -0.182032 -0.022714 -0.282559
v -0.182032 -0.052004 -0.211848
v -0.111321 0.118707 -0.211848
v -0.082032 0.047996 -0.211848
v -0.111321 -0.022714 -0.211848
v -0.182032 0.118707 -0.141138
v -0.182032 0.047996 0.405531
v -0.182032 -0.022714 0.376242
v -0.252743 0.118707 0.305531
v -0.282032 0.047996 0.305531
v -0.252743 -0.022714 0.305531
v -0.182032 0.147996 0.305531
v -0.182032 0.118707 0.234820
v -0.182032 0.047996 0.205531
v -0.182032 -0.022714 0.234820
v -0.182032 -0.052004 0.305531
v -0.111321 0.118707 0.305531
v -0.082032 0.047996 0.305531
v -0.111321 -0.022714 0.305531
v -0.182032 0.118707 0.376242
v 0.257386 0.047996 -0.111848
v 0.257386 -0.022714 -0.141138
v 0.186676 0.118707 -0.211848
v 0.157386 0.047996 -0.211848
v 0.186676 -0.022714 -0.211848
v 0.257386 0.147996 -0.211848
v 0.257386 0.118707 -0.282559
v 0.257386 0.047996 -0.311848
v 0.257386 -0.022714 -0.282559
v 0.257386 -0.052004 -0.211848
v 0.328097 0.118707 -0.211848
v 0.357386 0.047996 -0.211848
v 0.328097 -0.022714 -0.211848
v 0.257386 0.118707 -0.141138
vt 1.000000 0.000000
vt 0.000000 1.000000
vt 0.000000 0.000000
vt 1.000000 0.000000
vt 0.000000 1.000000
vt 0.000000 0.000000
vt 0.000000 0.000000
vt 1.000000 0.000000
vt 1.000000 1.000000
vt 0.000000 0.000000
vt 1.000000 0.000000
vt 1.000000 1.000000
vt 0.000000 0.000000
vt 1.000000 1.000000
vt 0.000000 1.000000
vt 0.000000 0.000000
vt 1.000000 1.000000
vt 1.000000 0.000000
vt 1.000000 1.000000
vt 0.000000 0.000000
vt 0.000000 1.000000
vt 1.000000 0.000000
vt 0.000000 1.000000
vt 0.000000 0.000000
vt 0.000000 0.000000
vt 1.000000 1.000000
vt 1.000000 0.000000
vt 1.000000 1.000000
vt 1.000000 0.000000
vt 0.000000 1.000000
vt 0.000000 0.000000
vt 1.000000 0.000000
vt 0.000000 1.000000
vt 0.000000 0.000000
vt 1.000000 0.000000
vt 0.000000 1.000000
vt 0.000000 0.000000
vt 0.000000 0.000000
vt 1.000000 1.000000
vt 1.000000 0.000000
vt 1.000000 1.000000
vt 1.000000 0.000000
vt 0.000000 1.000000
vt 0.000000 0.000000
vt 1.000000 0.000000
vt 0.000000 1.000000
vt 0.000000 0.000000
vt 0.000000 0.000000
vt 1.000000 0.000000
vt 1.000000 1.000000
vt 0.000000 0.000000
vt 1.000000 0.000000
vt 1.000000 1.000000
vt 1.000000 0.000000
vt 0.000000 1.000000
vt 0.000000 0.000000
vt 0.000000 0.000000
vt 1.000000 1.000000
vt 1.000000 0.000000
vt 1.000000 1.000000
vt 0.000000 0.000000
vt 0.000000 1.000000
vt 0.000000 0.000000
vt 1.000000 1.000000
vt 0.000000 1.000000
vt 0.000000 0.000000
vt 1.000000 1.000000
vt 1.000000 0.000000
vt 1.000000 1.000000
vt 1.000000 0.000000
vt 0.000000 1.000000
vt 0.000000 0.000000
vt 1.000000 0.000000
vt 0.000000 1.000000
vt 0.000000 0.000000
vt 1.000000 0.000000
vt 0.000000 1.000000
vt 0.000000 0.000000
vt 0.000000 0.000000
vt 1.000000 1.000000
vt 1.000000 0.000000
vt 1.000000 1.000000
vt 1.000000 0.000000
vt 0.000000 1.000000
vt 0.000000 0.000000
vt 0.000000 0.000000
vt 1.000000 1.000000
vt 0.000000 1.000000
vt 0.000000 0.000000
vt 1.000000 0.000000
vt 1.000000 1.000000
vt 0.000000 0.000000
vt 1.000000 0.000000
vt 1.000000 1.000000
vt 0.000000 0.000000
vt 1.000000 1.000000
vt 0.000000 1.000000
vt 0.000000 0.000000
vt 1.000000 1.000000
vt 1.000000 0.000000
vt 1.000000 1.000000
vt 1.000000 0.000000
vt 0.000000 1.000000
vt 0.000000 0.000000
vt 1.000000 0.000000
vt 0.000000 1.000000
vt 0.000000 0.000000
vt 0.000000 0.000000
vt 1.000000 1.000000
vt 1.000000 0.000000
vt 1.000000 1.000000
vt 1.000000 0.000000
vt 0.000000 1.000000
vt 0.000000 0.000000
vt 1.000000 0.000000
vt 0.000000 1.000000
vt 0.000000 0.000000
vt 1.000000 0.000000
vt 0.000000 1.000000
vt 0.000000 0.000000
vt 0.000000 0.000000
vt 1.000000 1.000000
vt 1.000000 0.000000
vt 1.000000 1.000000
vt 1.000000 0.000000
vt 0.000000 1.000000
vt 0.000000 0.000000
vt 1.000000 0.000000
vt 0.000000 1.000000
vt 0.000000 0.000000
vt 0.000000 0.000000
vt 1.000000 0.000000
vt 1.000000 1.000000
vt 0.000000 0.000000
vt 1.000000 0.000000
vt 1.000000 1.000000
vt 1.000000 0.000000
vt 0.000000 1.000000
vt 0.000000 0.000000
vt 0.000000 0.000000
vt 1.000000 1.000000
vt 1.000000 0.000000
vt 1.000000 1.000000
vt 0.000000 0.000000
vt 0.000000 1.000000
vt 1.000000 0.000000
vt 0.000000 1.000000
vt 0.000000 0.000000
vt 0.000000 0.000000
vt 1.000000 1.000000
vt 1.000000 0.000000
vt 1.000000 1.000000
vt 0.000000 0.000000
vt 0.000000 1.000000
vt 1.000000 0.000000
vt 0.000000 1.000000
vt 0.000000 0.000000
vt 1.000000 0.000000
vt 0.000000 1.000000
vt 0.000000 0.000000
vt 0.000000 0.000000
vt 1.000000 1.000000
vt 1.000000 0.000000
vt 1.000000 1.000000
vt 1.000000 1.000000
vt 1.000000 0.000000
vt 1.000000 0.000000
vt 1.000000 1.000000
vt 1.000000 1.000000
vt 1.000000 1.000000
vt 1.000000 1.000000
vt 1.000000 0.000000
vt 1.000000 0.000000
vt 1.000000 1.000000
vt 1.000000 0.000000
vt 1.000000 0.000000
vt 1.000000 1.000000
vt 1.000000 1.000000
vt 1.000000 1.000000
vt 1.000000 1.000000
vt 1.000000 0.000000
vt 1.000000 1.000000
vt 1.000000 0.000000
vt 1.000000 1.000000
vn 0.0000 0.6285 0.7778
vn -1.0000 0.0000 0.0000
vn 0.0000 0.0000 1.0000
vn -0.7778 -0.6285 0.0000
vn 0.0000 -0.6285 0.7778
vn 0.0000 1.0000 0.0000
vn -0.7778 0.6285 0.0000
vn 0.0000 -1.0000 0.0000
vn 0.0000 0.0000 -1.0000
vn 0.0000 -0.6285 -0.7778
vn 0.0000 0.6285 -0.7778
vn 0.7778 -0.6285 0.0000
vn 0.7778 0.6285 0.0000
vn 1.0000 0.0000 0.0000
usemtl None
s 1
f 14/1/1 4/2/2 1/3/3
f 1/4/3 5/5/4 2/6/5
f 14/7/1 6/8/6 3/9/7
f 10/10/8 2/11/5 5/12/4
f 5/13/4 8/14/9 9/15/10
f 3/16/7 6/8/6 7/17/11
f 10/10/8 5/18/4 9/19/10
f 4/20/2 7/17/11 8/21/9
f 8/22/9 13/23/12 9/24/10
f 7/25/11 6/8/6 11/26/13
f 10/10/8 9/27/10 13/28/12
f 7/29/11 12/30/14 8/31/9
f 11/32/13 1/33/3 12/34/14
f 12/35/14 2/36/5 13/37/12
f 11/38/13 6/8/6 14/39/1
f 10/10/8 13/40/12 2/41/5
f 28/42/1 18/43/2 15/44/3
f 15/45/3 19/46/4 16/47/5
f 28/48/1 20/49/6 17/50/7
f 24/51/8 16/52/5 19/53/4
f 18/54/2 23/55/10 19/56/4
f 17/57/7 20/49/6 21/58/11
f 24/51/8 19/59/4 23/60/10
f 18/61/2 21/58/11 22/62/9
f 23/63/10 26/64/14 27/65/12
f 21/66/11 20/49/6 25/67/13
f 24/51/8 23/68/10 27/69/12
f 21/70/11 26/71/14 22/72/9
f 25/73/13 15/74/3 26/75/14
f 26/76/14 16/77/5 27/78/12
f 25/79/13 20/49/6 28/80/1
f 24/51/8 27/81/12 16/82/5
f 42/83/1 32/84/2 29/85/3
f 30/86/5 32/87/2 33/88/4
f 42/89/1 34/90/6 31/91/7
f 38/92/8 30/93/5 33/94/4
f 33/95/4 36/96/9 37/97/10
f 31/98/7 34/90/6 35/99/11
f 38/92/8 33/100/4 37/101/10
f 31/102/7 36/103/9 32/104/2
f 36/105/9 41/106/12 37/107/10
f 35/108/11 34/90/6 39/109/13
f 38/92/8 37/110/10 41/111/12
f 35/112/11 40/113/14 36/114/9
f 39/115/13 29/116/3 40/117/14
f 40/118/14 30/119/5 41/120/12
f 39/121/13 34/90/6 42/122/1
f 38/92/8 41/123/12 30/124/5
f 56/125/1 46/126/2 43/127/3
f 43/128/3 47/129/4 44/130/5
f 56/131/1 48/132/6 45/133/7
f 52/134/8 44/135/5 47/136/4
f 46/137/2 51/138/10 47/139/4
f 45/140/7 48/132/6 49/141/11
f 52/134/8 47/142/4 51/143/10
f 46/144/2 49/141/11 50/145/9
f 50/146/9 55/147/12 51/148/10
f 49/149/11 48/132/6 53/150/13
f 52/134/8 51/151/10 55/152/12
f 50/153/9 53/150/13 54/154/14
f 53/155/13 43/156/3 54/157/14
f 54/158/14 44/159/5 55/160/12
f 53/161/13 48/132/6 56/162/1
f 52/134/8 55/163/12 44/164/5
f 14/1/1 3/9/7 4/2/2
f 1/4/3 4/165/2 5/5/4
f 5/13/4 4/166/2 8/14/9
f 4/20/2 3/167/7 7/17/11
f 8/22/9 12/168/14 13/23/12
f 7/29/11 11/26/13 12/30/14
f 11/32/13 14/39/1 1/33/3
f 12/35/14 1/169/3 2/36/5
f 28/42/1 17/50/7 18/43/2
f 15/45/3 18/170/2 19/46/4
f 18/54/2 22/171/9 23/55/10
f 18/61/2 17/172/7 21/58/11
f 23/63/10 22/173/9 26/64/14
f 21/70/11 25/67/13 26/71/14
f 25/73/13 28/80/1 15/74/3
f 26/76/14 15/174/3 16/77/5
f 42/83/1 31/91/7 32/84/2
f 30/86/5 29/175/3 32/87/2
f 33/95/4 32/176/2 36/96/9
f 31/102/7 35/99/11 36/103/9
f 36/105/9 40/177/14 41/106/12
f 35/112/11 39/109/13 40/113/14
f 39/115/13 42/122/1 29/116/3
f 40/118/14 29/178/3 30/119/5
f 56/125/1 45/133/7 46/126/2
f 43/128/3 46/179/2 47/129/4
f 46/137/2 50/180/9 51/138/10
f 46/144/2 45/181/7 49/141/11
f 50/146/9 54/182/14 55/147/12
f 50/153/9 49/183/11 53/150/13
f 53/155/13 56/162/1 43/156/3
f 54/158/14 43/184/3 44/159/5
o Cube_Cube.001
v -0.213128 0.242480 -0.710922
v -0.213128 0.429290 -0.710922
v 0.296088 0.242480 -0.710922
v 0.296088 0.429290 -0.710922
v -0.213128 0.242480 0.724251
v -0.213128 0.429290 0.724251
v 0.296088 0.242480 0.724251
v 0.296088 0.429290 0.724251
v 0.041480 0.263828 -0.773897
v -0.235472 0.365430 -0.773897
v 0.041480 0.467032 -0.773897
v 0.318433 0.365430 -0.773897
v 0.318433 0.100288 0.006665
v 0.318433 0.303493 0.006665
v 0.318433 0.365430 0.787226
v 0.041480 0.263828 0.787226
v 0.041480 0.467032 0.787226
v -0.235472 0.365430 0.787226
v -0.235472 0.100288 0.006665
v -0.235472 0.303493 0.006665
v 0.041480 0.329229 0.006665
v 0.041480 0.078790 0.006665
v -0.299848 0.204010 0.006665
v 0.041480 0.449826 0.968664
v 0.382809 0.204010 0.006665
v 0.041480 0.449826 -0.955334
v -0.112000 0.258722 -0.760738
v -0.230803 0.414917 -0.760738
v 0.194961 0.458501 -0.760738
v 0.313764 0.302306 -0.760738
v 0.313764 0.146219 -0.425905
v 0.313764 0.345998 0.439234
v 0.313764 0.302306 0.774067
v 0.194961 0.258722 0.774067
v -0.112000 0.458501 0.774067
v -0.230803 0.302306 0.774067
v -0.230803 0.146219 0.439234
v -0.230803 0.345998 -0.425905
v 0.194961 0.258722 -0.760738
v -0.230803 0.302306 -0.760738
v -0.112000 0.458501 -0.760738
v 0.313764 0.414917 -0.760738
v 0.313764 0.146219 0.439234
v 0.313764 0.345998 -0.425905
v 0.313764 0.414917 0.774067
v -0.112000 0.258722 0.774067
v 0.194961 0.458501 0.774067
v -0.230803 0.414917 0.774067
v -0.230803 0.146219 -0.425905
v -0.230803 0.345998 0.439234
v -0.116265 0.324199 0.006665
v 0.199225 0.324199 0.006665
v 0.041480 0.373381 0.451253
v 0.041480 0.373381 -0.437923
v -0.116265 0.082594 0.006665
v 0.199225 0.082594 0.006665
v 0.041480 0.131776 -0.437923
v 0.041480 0.131776 0.451253
v -0.287808 0.252578 -0.437923
v -0.287808 0.252578 0.451253
v -0.287808 0.145526 0.006665
v -0.287808 0.261267 0.006665
v -0.116265 0.432451 0.934731
v 0.199225 0.432451 0.934731
v 0.041480 0.374581 0.934731
v 0.041480 0.490321 0.934731
v 0.370769 0.252578 0.451253
v 0.370769 0.252578 -0.437923
v 0.370769 0.145526 0.006665
v 0.370769 0.261267 0.006665
v 0.199225 0.432451 -0.921402
v -0.116265 0.432451 -0.921402
v 0.041480 0.374581 -0.921402
v 0.041480 0.490321 -0.921402
v -0.115163 0.474868 -0.891808
v -0.115163 0.359937 -0.891808
v 0.198124 0.359937 -0.891808
v 0.360269 0.308268 -0.434818
v 0.360269 0.193336 -0.434818
v 0.360269 0.193336 0.448147
v 0.198123 0.474868 0.905137
v 0.198123 0.359937 0.905137
v -0.115163 0.359937 0.905137
v -0.277308 0.308268 0.448147
v -0.277308 0.193336 0.448147
v -0.277308 0.193336 -0.434818
v 0.198123 0.133852 0.448147
v 0.198124 0.133852 -0.434818
v -0.115163 0.133852 -0.434818
v 0.198124 0.367753 -0.434818
v 0.198123 0.367753 0.448147
v -0.115163 0.367753 0.448147
v -0.115163 0.367753 -0.434818
v -0.115163 0.133852 0.448147
v -0.277308 0.308268 -0.434818
v -0.115163 0.474868 0.905137
v 0.360269 0.308268 0.448147
v 0.198124 0.474868 -0.891808
vt 0.000000 0.000000
vt 1.000000 1.000000
vt 0.000000 1.000000
vt 1.000000 0.000000
vt 0.000000 1.000000
vt 0.000000 0.000000
vt 0.000000 0.000000
vt 1.000000 1.000000
vt 0.000000 1.000000
vt 1.000000 0.000000
vt 0.000000 1.000000
vt 0.000000 0.000000
vt 0.000000 0.000000
vt 1.000000 1.000000
vt 0.000000 1.000000
vt 1.000000 0.000000
vt 0.000000 1.000000
vt 0.000000 0.000000
vt 0.000000 0.000000
vt 1.000000 1.000000
vt 0.000000 1.000000
vt 1.000000 0.000000
vt 0.000000 1.000000
vt 0.000000 0.000000
vt 0.000000 0.000000
vt 1.000000 1.000000
vt 0.000000 1.000000
vt 0.000000 0.000000
vt 1.000000 1.000000
vt 0.000000 1.000000
vt 0.000000 0.000000
vt 1.000000 1.000000
vt 0.000000 1.000000
vt 0.000000 0.000000
vt 1.000000 1.000000
vt 0.000000 1.000000
vt 1.000000 0.000000
vt 0.000000 1.000000
vt 0.000000 0.000000
vt 0.000000 0.000000
vt 1.000000 1.000000
vt 0.000000 1.000000
vt 1.000000 0.000000
vt 0.000000 1.000000
vt 0.000000 0.000000
vt 0.000000 0.000000
vt 1.000000 1.000000
vt 0.000000 1.000000
vt 1.000000 0.000000
vt 0.000000 1.000000
vt 0.000000 0.000000
vt 1.000000 0.000000
vt 0.000000 1.000000
vt 0.000000 0.000000
vt 1.000000 0.000000
vt 0.000000 1.000000
vt 0.000000 0.000000
vt 0.000000 0.000000
vt 1.000000 1.000000
vt 0.000000 1.000000
vt 0.000000 0.000000
vt 1.000000 1.000000
vt 0.000000 1.000000
vt 0.000000 0.000000
vt 1.000000 1.000000
vt 0.000000 1.000000
vt 1.000000 0.000000
vt 0.000000 1.000000
vt 0.000000 0.000000
vt 1.000000 0.000000
vt 0.000000 1.000000
vt 0.000000 0.000000
vt 1.000000 0.000000
vt 0.000000 1.000000
vt 0.000000 0.000000
vt 0.000000 0.000000
vt 1.000000 1.000000
vt 0.000000 1.000000
vt 0.000000 0.000000
vt 1.000000 1.000000
vt 0.000000 1.000000
vt 0.000000 0.000000
vt 1.000000 1.000000
vt 0.000000 1.000000
vt 1.000000 0.000000
vt 0.000000 1.000000
vt 0.000000 0.000000
vt 1.000000 0.000000
vt 0.000000 1.000000
vt 0.000000 0.000000
vt 1.000000 0.000000
vt 0.000000 1.000000
vt 0.000000 0.000000
vt 1.000000 0.000000
vt 0.000000 1.000000
vt 0.000000 0.000000
vt 1.000000 1.000000
vt 1.000000 0.000000
vt 1.000000 0.000000
vt 1.000000 0.000000
vt 1.000000 0.000000
vt 1.000000 0.000000
vt 1.000000 1.000000
vt 1.000000 0.000000
vt 1.000000 1.000000
vt 1.000000 1.000000
vt 1.000000 1.000000
vt 1.000000 0.000000
vt 1.000000 1.000000
vt 1.000000 1.000000
vt 1.000000 0.000000
vt 1.000000 0.000000
vt 1.000000 1.000000
vt 1.000000 1.000000
vt 0.000000 0.000000
vt 1.000000 1.000000
vt 0.000000 1.000000
vt 0.000000 0.000000
vt 1.000000 1.000000
vt 0.000000 1.000000
vt 1.000000 0.000000
vt 0.000000 1.000000
vt 0.000000 0.000000
vt 1.000000 0.000000
vt 0.000000 1.000000
vt 0.000000 0.000000
vt 1.000000 0.000000
vt 0.000000 1.000000
vt 0.000000 0.000000
vt 0.000000 0.000000
vt 1.000000 1.000000
vt 0.000000 1.000000
vt 0.000000 0.000000
vt 1.000000 1.000000
vt 0.000000 1.000000
vt 1.000000 0.000000
vt 0.000000 1.000000
vt 0.000000 0.000000
vt 1.000000 0.000000
vt 0.000000 1.000000
vt 0.000000 0.000000
vt 0.000000 0.000000
vt 1.000000 1.000000
vt 0.000000 1.000000
vt 0.000000 0.000000
vt 1.000000 1.000000
vt 0.000000 1.000000
vt 1.000000 0.000000
vt 0.000000 1.000000
vt 0.000000 0.000000
vt 1.000000 0.000000
vt 0.000000 1.000000
vt 0.000000 0.000000
vt 1.000000 0.000000
vt 0.000000 1.000000
vt 0.000000 0.000000
vt 1.000000 0.000000
vt 0.000000 1.000000
vt 0.000000 0.000000
vt 1.000000 0.000000
vt 0.000000 1.000000
vt 0.000000 0.000000
vt 1.000000 0.000000
vt 0.000000 1.000000
vt 0.000000 0.000000
vt 0.000000 0.000000
vt 1.000000 1.000000
vt 0.000000 1.000000
vt 0.000000 0.000000
vt 1.000000 1.000000
vt 0.000000 1.000000
vt 0.000000 0.000000
vt 1.000000 1.000000
vt 0.000000 1.000000
vt 0.000000 0.000000
vt 1.000000 1.000000
vt 0.000000 1.000000
vt 0.000000 0.000000
vt 1.000000 1.000000
vt 0.000000 1.000000
vt 0.000000 0.000000
vt 1.000000 1.000000
vt 0.000000 1.000000
vt 0.000000 0.000000
vt 1.000000 1.000000
vt 0.000000 1.000000
vt 0.000000 0.000000
vt 1.000000 1.000000
vt 0.000000 1.000000
vt 1.000000 0.000000
vt 0.000000 1.000000
vt 0.000000 0.000000
vt 1.000000 0.000000
vt 0.000000 1.000000
vt 0.000000 0.000000
vt 1.000000 0.000000
vt 0.000000 1.000000
vt 0.000000 0.000000
vt 1.000000 0.000000
vt 0.000000 1.000000
vt 0.000000 0.000000
vt 1.000000 0.000000
vt 0.000000 1.000000
vt 0.000000 0.000000
vt 1.000000 0.000000
vt 0.000000 1.000000
vt 0.000000 0.000000
vt 1.000000 0.000000
vt 0.000000 1.000000
vt 0.000000 0.000000
vt 1.000000 0.000000
vt 0.000000 1.000000
vt 0.000000 0.000000
vt 0.000000 0.000000
vt 1.000000 1.000000
vt 0.000000 1.000000
vt 0.000000 0.000000
vt 1.000000 1.000000
vt 0.000000 1.000000
vt 0.000000 0.000000
vt 1.000000 1.000000
vt 0.000000 1.000000
vt 0.000000 0.000000
vt 1.000000 1.000000
vt 0.000000 1.000000
vt 0.000000 0.000000
vt 1.000000 1.000000
vt 0.000000 1.000000
vt 0.000000 0.000000
vt 1.000000 1.000000
vt 0.000000 1.000000
vt 0.000000 0.000000
vt 1.000000 1.000000
vt 0.000000 0.000000
vt 1.000000 1.000000
vt 0.000000 1.000000
vt 1.000000 0.000000
vt 0.000000 1.000000
vt 0.000000 0.000000
vt 1.000000 0.000000
vt 0.000000 0.000000
vt 1.000000 0.000000
vt 0.000000 1.000000
vt 0.000000 0.000000
vt 0.000000 0.000000
vt 1.000000 1.000000
vt 0.000000 1.000000
vt 1.000000 1.000000
vt 0.000000 1.000000
vt 1.000000 0.000000
vt 0.000000 1.000000
vt 1.000000 1.000000
vt 1.000000 1.000000
vt 1.000000 0.000000
vt 0.000000 1.000000
vt 1.000000 0.000000
vt 1.000000 0.000000
vt 0.000000 0.000000
vt 1.000000 1.000000
vt 0.000000 1.000000
vt 1.000000 0.000000
vt 0.000000 0.000000
vt 1.000000 0.000000
vt 0.000000 1.000000
vt 0.000000 0.000000
vt 0.000000 0.000000
vt 1.000000 1.000000
vt 0.000000 1.000000
vt 1.000000 0.000000
vt 0.000000 1.000000
vt 0.000000 0.000000
vt 1.000000 0.000000
vt 0.000000 1.000000
vt 0.000000 0.000000
vt 0.000000 0.000000
vt 1.000000 1.000000
vt 0.000000 1.000000
vt 0.000000 0.000000
vt 1.000000 1.000000
vt 0.000000 1.000000
vt 1.000000 0.000000
vt 0.000000 1.000000
vt 0.000000 0.000000
vt 1.000000 0.000000
vt 0.000000 1.000000
vt 0.000000 0.000000
vt 0.000000 0.000000
vt 1.000000 1.000000
vt 0.000000 1.000000
vt 0.000000 0.000000
vt 1.000000 1.000000
vt 0.000000 1.000000
vt 1.000000 0.000000
vt 1.000000 0.000000
vt 1.000000 1.000000
vt 1.000000 1.000000
vt 1.000000 1.000000
vt 1.000000 0.000000
vt 1.000000 0.000000
vt 1.000000 1.000000
vt 1.000000 1.000000
vt 1.000000 0.000000
vt 1.000000 0.000000
vt 1.000000 1.000000
vt 1.000000 1.000000
vt 1.000000 1.000000
vt 1.000000 1.000000
vt 1.000000 1.000000
vt 1.000000 1.000000
vt 1.000000 0.000000
vt 1.000000 0.000000
vt 1.000000 0.000000
vt 1.000000 0.000000
vt 1.000000 0.000000
vt 1.000000 0.000000
vt 1.000000 0.000000
vt 1.000000 0.000000
vt 1.000000 1.000000
vt 1.000000 1.000000
vt 1.000000 1.000000
vt 1.000000 1.000000
vt 1.000000 1.000000
vt 1.000000 1.000000
vt 1.000000 1.000000
vt 1.000000 1.000000
vt 1.000000 0.000000
vt 1.000000 0.000000
vt 1.000000 0.000000
vt 1.000000 0.000000
vt 1.000000 0.000000
vt 1.000000 0.000000
vt 1.000000 0.000000
vt 1.000000 0.000000
vt 1.000000 1.000000
vt 1.000000 1.000000
vt 1.000000 1.000000
vt 1.000000 0.000000
vt 1.000000 0.000000
vt 1.000000 1.000000
vt 1.000000 0.000000
vt 1.000000 0.000000
vt 1.000000 1.000000
vt 1.000000 1.000000
vt 1.000000 1.000000
vt 1.000000 0.000000
vt 1.000000 1.000000
vt 1.000000 1.000000
vt 1.000000 0.000000
vt 1.000000 1.000000
vt 1.000000 1.000000
vt 1.000000 0.000000
vt 1.000000 0.000000
vt 1.000000 1.000000
vt 1.000000 1.000000
vt 1.000000 0.000000
vt 1.000000 0.000000
vn 0.4174 0.8275 -0.3754
vn 0.5100 0.8466 0.1520
vn 0.8337 0.5098 -0.2123
vn 0.4308 0.8904 -0.1466
vn 0.8337 0.5098 0.2123
vn 0.8756 0.4823 -0.0255
vn -0.4174 0.8275 0.3754
vn -0.5100 0.8466 -0.1520
vn -0.8337 0.5098 0.2123
vn -0.4308 0.8904 0.1466
vn -0.8337 0.5098 -0.2123
vn -0.8756 0.4823 0.0255
vn -0.0995 0.9775 0.1858
vn -0.5100 0.8466 0.1520
vn -0.1028 0.9947 0.0000
vn -0.4308 0.8904 -0.1466
vn -0.0995 0.9775 -0.1858
vn 0.0995 0.9775 -0.1858
vn 0.0000 1.0000 0.0000
vn 0.0000 0.9826 -0.1856
vn 0.1142 0.9754 0.1884
vn 0.0000 0.9826 0.1856
vn 0.0995 0.9775 0.1858
vn -0.8756 0.4823 -0.0255
vn -0.4206 0.9072 0.0000
vn -0.8645 0.5025 0.0000
vn 0.4174 0.8275 0.3754
vn 0.0000 0.9794 -0.2020
vn 0.0000 0.9214 0.3887
vn 0.8756 0.4823 0.0255
vn 0.4206 0.9072 0.0000
vn 0.8645 0.5025 0.0000
vn -0.4174 0.8275 -0.3754
vn 0.0000 0.9794 0.2020
vn 0.0000 0.9214 -0.3887
vn 0.4308 0.8904 0.1466
vn 0.5100 0.8466 -0.1520
vn 0.1028 0.9947 0.0000
vn 0.1142 0.9754 -0.1884
vn -0.1142 0.9754 -0.1884
vn -0.1142 0.9754 0.1884
vn -0.0652 -0.9707 0.2311
vn -0.4617 -0.7653 0.4484
vn -0.4179 -0.8861 0.2005
vn -0.0652 -0.9707 -0.2311
vn -0.4092 -0.9124 0.0000
vn -0.4179 -0.8861 -0.2005
vn 0.0844 -0.9964 0.0000
vn 0.0000 -0.9705 -0.2412
vn 0.0652 -0.9707 -0.2311
vn 0.1000 -0.8507 0.5160
vn 0.0000 -0.9705 0.2412
vn 0.0652 -0.9707 0.2311
vn -0.9957 -0.0060 -0.0918
vn -0.7364 -0.4339 -0.5190
vn -0.8671 -0.4703 -0.1640
vn -0.8671 -0.4703 0.1640
vn -0.9999 -0.0108 0.0000
vn -0.8558 -0.5172 0.0000
vn -0.3436 -0.5497 0.7614
vn -0.8984 -0.0058 0.4392
vn -0.7364 -0.4339 0.5190
vn 0.4884 0.0915 0.8678
vn 0.0000 -0.5979 0.8015
vn 0.3436 -0.5497 0.7614
vn 0.9957 -0.0060 0.0918
vn 0.7364 -0.4339 0.5190
vn 0.8671 -0.4703 0.1640
vn 0.8671 -0.4703 -0.1640
vn 0.9999 -0.0108 0.0000
vn 0.8558 -0.5172 0.0000
vn 0.3436 -0.5497 -0.7614
vn 0.8984 -0.0058 -0.4392
vn 0.7364 -0.4339 -0.5190
vn -0.4884 0.0915 -0.8678
vn 0.0000 -0.5979 -0.8015
vn -0.3436 -0.5497 -0.7614
vn 0.0000 0.1526 -0.9883
vn -0.8984 -0.0058 -0.4392
vn 0.0000 -0.8675 -0.4974
vn -0.1000 -0.8507 -0.5160
vn -0.4617 -0.7653 -0.4484
vn 0.1000 -0.8507 -0.5160
vn 0.4617 -0.7653 -0.4484
vn 0.4884 0.0915 -0.8678
vn 0.9957 -0.0060 -0.0918
vn 0.4179 -0.8861 -0.2005
vn 0.4092 -0.9124 0.0000
vn 0.4617 -0.7653 0.4484
vn 0.4179 -0.8861 0.2005
vn 0.0000 0.1526 0.9883
vn 0.8983 -0.0058 0.4392
vn 0.0000 -0.8675 0.4974
vn -0.1000 -0.8507 0.5160
vn -0.4884 0.0915 0.8678
vn -0.9957 -0.0060 0.0918
vn 0.0000 -1.0000 0.0000
vn -0.0844 -0.9964 0.0000
usemtl None_sk8grip.jpg
s 1
f 154/185/15 60/186/16 98/187/17
f 88/188/18 101/189/19 153/190/20
f 152/191/21 62/192/22 104/193/23
f 94/194/24 84/195/25 151/196/26
f 149/197/27 58/198/28 94/199/24
f 107/200/29 106/201/30 148/202/31
f 147/203/32 77/204/33 109/205/34
f 85/206/35 110/207/36 146/208/37
f 140/209/38 76/210/39 118/211/40
f 137/212/41 73/213/42 122/214/43
f 134/215/44 70/216/45 126/217/46
f 131/218/47 67/219/48 130/220/49
f 58/221/28 131/222/47 84/223/25
f 98/224/17 100/225/50 134/226/44
f 64/227/51 137/228/41 101/229/19
f 104/230/23 106/231/30 140/232/38
f 146/233/37 77/234/33 108/235/52
f 100/236/50 108/237/52 70/238/45
f 60/239/16 146/240/37 100/241/50
f 103/242/53 109/243/34 73/244/42
f 64/245/51 147/246/32 103/247/53
f 88/248/18 108/249/52 147/250/32
f 148/251/31 62/252/22 91/253/54
f 109/254/34 91/255/54 73/256/42
f 77/257/33 148/258/31 109/259/34
f 107/260/29 94/261/24 76/262/39
f 77/263/33 149/264/27 107/265/29
f 110/266/36 97/267/55 149/268/27
f 76/269/39 151/270/26 118/271/40
f 73/272/42 152/273/21 122/274/43
f 70/275/45 153/276/20 126/277/46
f 67/278/48 154/279/15 130/280/49
f 154/185/15 85/206/35 60/186/16
f 88/188/18 64/281/51 101/189/19
f 152/191/21 91/282/54 62/192/22
f 94/194/24 58/198/28 84/195/25
f 149/197/27 97/283/55 58/198/28
f 107/200/29 76/210/39 106/201/30
f 147/203/32 108/284/52 77/204/33
f 85/206/35 67/219/48 110/207/36
f 140/209/38 106/285/30 76/210/39
f 137/212/41 103/286/53 73/213/42
f 134/215/44 100/236/50 70/216/45
f 131/218/47 97/283/55 67/219/48
f 58/221/28 97/267/55 131/222/47
f 98/224/17 60/239/16 100/225/50
f 64/227/51 103/287/53 137/228/41
f 104/230/23 62/288/22 106/231/30
f 146/233/37 110/289/36 77/234/33
f 100/236/50 146/290/37 108/237/52
f 60/239/16 85/291/35 146/240/37
f 103/242/53 147/292/32 109/243/34
f 64/245/51 88/188/18 147/246/32
f 88/248/18 70/275/45 108/249/52
f 148/251/31 106/231/30 62/252/22
f 109/254/34 148/293/31 91/255/54
f 77/257/33 107/294/29 148/258/31
f 107/260/29 149/295/27 94/261/24
f 77/263/33 110/296/36 149/264/27
f 110/266/36 67/278/48 97/267/55
f 76/269/39 94/261/24 151/270/26
f 73/272/42 91/297/54 152/273/21
f 70/275/45 88/298/18 153/276/20
f 67/278/48 85/291/35 154/279/15
usemtl None_wood_grain.png
f 150/299/56 61/300/57 93/301/58
f 145/302/59 75/303/60 105/304/61
f 112/305/62 113/306/63 144/307/64
f 90/308/65 114/309/66 143/310/67
f 115/311/68 96/312/69 142/313/70
f 141/314/71 79/315/72 117/316/73
f 139/317/74 74/318/75 92/319/76
f 120/320/77 121/321/78 138/322/79
f 123/323/80 89/324/81 136/325/82
f 135/326/83 81/327/84 125/328/85
f 133/329/86 68/330/87 86/331/88
f 128/332/89 129/333/90 132/334/91
f 131/335/47 82/336/92 128/337/89
f 84/338/25 128/339/89 66/340/93
f 132/341/91 65/342/94 83/343/95
f 96/344/69 83/345/95 57/346/96
f 66/347/93 132/348/91 96/349/69
f 95/350/97 86/351/88 59/352/98
f 65/353/94 133/354/86 95/355/97
f 129/356/90 127/357/99 133/358/86
f 124/359/100 126/360/46 81/361/84
f 68/362/87 134/363/44 124/364/100
f 87/365/101 125/366/85 69/367/102
f 59/368/98 135/369/83 87/370/101
f 86/371/88 124/372/100 135/373/83
f 136/374/82 63/375/103 99/376/104
f 125/377/85 99/378/104 69/379/102
f 81/380/84 136/381/82 125/382/85
f 137/383/41 80/384/105 120/385/77
f 101/386/19 120/387/77 71/388/106
f 138/389/79 72/390/107 90/391/65
f 89/392/81 90/393/65 63/394/103
f 71/395/106 138/396/79 89/397/81
f 102/398/108 92/399/76 61/400/57
f 72/401/107 139/402/74 102/403/108
f 121/404/78 119/405/109 139/406/74
f 116/407/110 118/408/40 79/409/72
f 74/410/75 140/411/38 116/412/110
f 93/413/58 117/414/73 75/415/60
f 61/416/57 141/417/71 93/301/58
f 92/418/76 116/419/110 141/420/71
f 142/421/70 57/422/96 105/423/61
f 117/424/73 105/304/61 75/425/60
f 79/426/72 142/427/70 117/428/73
f 112/429/62 114/430/66 78/431/111
f 69/379/102 143/432/67 112/433/62
f 63/434/103 143/435/67 99/376/104
f 95/350/97 113/436/63 65/342/94
f 59/368/98 144/437/64 95/355/97
f 69/438/102 144/439/64 87/365/101
f 145/440/59 57/422/96 83/343/95
f 113/441/63 83/345/95 65/353/94
f 113/442/63 111/443/112 145/444/59
f 150/445/56 75/415/60 111/446/112
f 114/447/66 111/448/112 78/449/111
f 114/450/66 102/451/108 150/452/56
f 151/453/26 66/454/93 115/455/68
f 118/456/40 115/457/68 79/458/72
f 119/459/109 104/460/23 74/461/75
f 80/462/105 152/463/21 119/464/109
f 153/465/20 71/466/106 123/467/80
f 126/468/46 123/469/80 81/470/84
f 127/471/99 98/472/17 68/473/87
f 82/474/92 154/475/15 127/476/99
f 150/299/56 102/477/108 61/300/57
f 145/302/59 111/478/112 75/303/60
f 112/305/62 78/479/111 113/306/63
f 90/308/65 72/480/107 114/309/66
f 115/311/68 66/481/93 96/312/69
f 141/314/71 116/482/110 79/315/72
f 139/317/74 119/483/109 74/318/75
f 120/320/77 80/484/105 121/321/78
f 123/323/80 71/485/106 89/324/81
f 135/326/83 124/486/100 81/327/84
f 133/329/86 127/487/99 68/330/87
f 128/332/89 82/488/92 129/333/90
f 131/335/47 130/489/49 82/336/92
f 84/338/25 131/490/47 128/339/89
f 132/341/91 129/491/90 65/342/94
f 96/344/69 132/492/91 83/345/95
f 66/347/93 128/493/89 132/348/91
f 95/350/97 133/494/86 86/351/88
f 65/353/94 129/495/90 133/354/86
f 129/356/90 82/496/92 127/357/99
f 124/359/100 134/497/44 126/360/46
f 68/362/87 98/498/17 134/363/44
f 87/365/101 135/499/83 125/366/85
f 59/368/98 86/500/88 135/369/83
f 86/371/88 68/501/87 124/372/100
f 136/374/82 89/502/81 63/375/103
f 125/377/85 136/503/82 99/378/104
f 81/380/84 123/504/80 136/381/82
f 137/383/41 122/505/43 80/384/105
f 101/386/19 137/506/41 120/387/77
f 138/389/79 121/507/78 72/390/107
f 89/392/81 138/508/79 90/393/65
f 71/395/106 120/509/77 138/396/79
f 102/398/108 139/510/74 92/399/76
f 72/401/107 121/511/78 139/402/74
f 121/404/78 80/512/105 119/405/109
f 116/407/110 140/513/38 118/408/40
f 74/410/75 104/514/23 140/411/38
f 93/413/58 141/515/71 117/414/73
f 61/416/57 92/516/76 141/417/71
f 92/418/76 74/517/75 116/419/110
f 142/421/70 96/518/69 57/422/96
f 117/424/73 142/519/70 105/304/61
f 79/426/72 115/520/68 142/427/70
f 112/429/62 143/521/67 114/430/66
f 69/379/102 99/522/104 143/432/67
f 63/434/103 90/523/65 143/435/67
f 95/350/97 144/524/64 113/436/63
f 59/368/98 87/525/101 144/437/64
f 69/438/102 112/526/62 144/439/64
f 145/440/59 105/527/61 57/422/96
f 113/441/63 145/528/59 83/345/95
f 113/442/63 78/529/111 111/443/112
f 150/445/56 93/530/58 75/415/60
f 114/447/66 150/531/56 111/448/112
f 114/450/66 72/532/107 102/451/108
f 151/453/26 84/533/25 66/454/93
f 118/456/40 151/534/26 115/457/68
f 119/459/109 152/535/21 104/460/23
f 80/462/105 122/536/43 152/463/21
f 153/465/20 101/537/19 71/466/106
f 126/468/46 153/538/20 123/469/80
f 127/471/99 154/539/15 98/472/17
f 82/474/92 130/540/49 154/475/15
