.org 0x2278A4 //801773e4
j $80409e00
nop

//801a7d30 = 2581f0

.org 0x1209e00
lui t6, $801b
lb t6, $81a0 (T6)
ori t4, r0, $0006
lui t5, $801c
lb t5, $9aa2 (T5)
beq t6, t4, !noprint
lui t9, $8017
ori t9, t9, $73ec
jr t9
nop

!noprint:
lui t9, $8034
lh t9, $bac6 (T9)
lui t6, $801b
lb t6, $81a0 (T6)
hex{00 19 c0 80
03 19 c0 23
8f a9 00 50
00 18 c0 40
03 0e 78 21
00 0f 40 80
01 28 58 21
0c 09 df d4
8d 64 ff e8}
addiu a0, r0, $a3
lui a1, $801a
ori a1, a1, $7d30
jal $802d8844
lui a2, $4100
sh v0, $48 (SP)
lh a0, $48 (SP)
lui a2, $801a
ori a2, a2, $7d30 //star 7 text pointer
jal $802D7e88 //print text n other shit
li a1, $51
lui t9, $8017
ori t9, t9, $7450
jr t9
nop