# Blender v2.79 (sub 0) OBJ File: 'trash can.blend'
# www.blender.org
mtllib trash can col.mtl
o Cylinder
v -0.047633 -0.587005 -0.514285
v -0.047633 0.412995 -0.514285
v 0.235210 -0.587005 -0.397127
v 0.235210 0.412995 -0.397127
v 0.352367 -0.587005 -0.114285
v 0.352367 0.412995 -0.114285
v 0.235210 -0.587005 0.168558
v -0.047633 -0.587005 0.285715
v -0.047633 0.412995 0.285715
v -0.330475 -0.587005 0.168558
v -0.330475 0.412995 0.168558
v -0.447633 -0.587005 -0.114285
v -0.447633 0.412995 -0.114285
v -0.330475 -0.587005 -0.397127
v -0.330475 0.412995 -0.397127
v 0.235210 0.412995 0.168558
v 0.518053 0.412995 0.285716
v 0.635210 0.412995 0.568558
v 0.518053 0.412995 0.851401
v 0.235210 0.412995 0.968558
v -0.047633 0.412995 0.851401
v -0.164790 0.412995 0.568558
v -0.047633 -0.587005 -0.472071
v -0.047633 0.412995 -0.472071
v 0.205361 -0.587005 -0.367278
v 0.205361 0.412995 -0.367278
v 0.310154 -0.587005 -0.114285
v 0.310154 0.412995 -0.114285
v 0.205361 -0.587005 0.138709
v -0.047633 -0.587005 0.243502
v -0.045297 0.377426 0.242437
v -0.300626 -0.587005 0.138709
v -0.300626 0.412995 0.138709
v -0.405419 -0.587005 -0.114285
v -0.405419 0.412995 -0.114285
v -0.300626 -0.587005 -0.367278
v -0.300626 0.412995 -0.367278
v 0.202956 0.377426 0.139607
v 0.518053 0.350290 0.285716
v 0.235210 0.350290 0.168558
v 0.635210 0.350290 0.568558
v 0.518053 0.350290 0.851401
v 0.235210 0.350290 0.968558
v -0.047633 0.350290 0.851401
v -0.164790 0.350290 0.568558
v -0.047633 0.350290 0.285715
vt 0.086369 0.106989
vt 0.086370 -0.268683
vt 0.086370 -0.268683
vt 0.086370 0.482661
vt 0.086369 0.106989
vt 0.086370 0.858332
vt 0.086370 0.482661
vt 0.086370 1.234004
vt 0.086370 0.858332
vt 0.086370 1.609675
vt 0.086370 1.234004
vt 0.086370 1.985347
vt 0.086370 1.609675
vt 0.086370 2.361019
vt 0.086370 1.985347
vt 0.086370 2.736690
vt 0.086370 2.361019
vt 0.941003 1.234004
vt 2.370975 2.370975
vt 0.941003 0.858332
vt -2.145958 0.500000
vt -1.370975 2.370975
vt 2.370975 -1.370975
vt 0.086370 2.736690
vt 3.145958 0.500000
vt 0.500000 3.145958
vt 2.370975 2.370975
vt 3.145958 0.500000
vt 0.500000 -2.145958
vt -1.370975 -1.370975
vt 0.941003 -0.268683
vt -0.206946 0.106989
vt -0.206946 -0.268683
vt 0.941003 0.106989
vt -0.206946 0.482661
vt 0.941003 0.482661
vt -0.206946 0.858332
vt -0.206946 1.234004
vt 0.941003 1.234004
vt -0.206946 1.609675
vt 0.941003 1.609675
vt -0.206946 1.985347
vt 0.941003 1.985347
vt -0.206946 2.361019
vt 0.941003 2.361019
vt -0.206946 2.736690
vt -0.206946 0.106989
vt 0.941003 -0.268683
vt -0.206946 -0.268683
vt -0.206946 0.482661
vt 0.941003 0.106989
vt 0.941003 0.858332
vt 0.941003 0.482661
vt -0.206946 1.234004
vt -0.206946 0.858332
vt -0.206946 1.609675
vt 0.941003 1.234004
vt -0.206946 1.985347
vt 0.941003 1.609675
vt -0.206946 2.361019
vt 0.941003 1.985347
vt -0.206946 2.736690
vt 0.941003 2.361019
vt 0.941003 -0.268683
vt 0.941003 2.736690
vt 0.941003 2.361019
vt 0.941003 1.985347
vt 0.941003 1.985347
vt 0.941003 1.609675
vt 0.941003 1.234004
vt 0.941003 0.858332
vt 0.941003 0.482661
vt 0.941003 0.482661
vt 0.941003 0.106989
vt 0.941003 0.858332
vt 0.941003 2.736690
vt 0.941003 2.736690
vt 0.941003 0.106989
vt 0.941003 2.361019
vt 0.941003 1.609675
vt 0.941003 1.234004
vt 0.000000 0.000000
vt 0.000000 0.000000
vt 0.000000 0.000000
vt 0.000000 0.000000
vt 0.000000 0.000000
vt 0.000000 0.000000
vt 0.000000 0.000000
vt 0.000000 0.000000
vt 0.000000 0.000000
vt 0.000000 0.000000
vt 0.000000 0.000000
vt 0.000000 0.000000
vt 0.000000 0.000000
vt 0.000000 0.000000
vt 0.000000 0.000000
vt 0.000000 0.000000
vn 0.5490 -0.6302 -0.5490
vn 0.0000 -0.8042 0.5943
vn 0.0000 -0.6302 -0.7764
vn 0.7764 -0.6302 0.0000
vn -0.4203 -0.8042 0.4203
vn 0.5490 -0.6302 0.5490
vn -0.5940 -0.8044 -0.0003
vn 0.0000 -0.6302 0.7764
vn -0.4202 -0.8045 -0.4197
vn -0.5490 -0.6302 0.5490
vn 0.0003 -0.8045 -0.5940
vn -0.7764 -0.6302 0.0000
vn 0.4198 -0.8044 -0.4203
vn 0.4203 -0.8042 0.4203
vn 0.5943 -0.8042 0.0000
vn -0.5490 -0.6302 -0.5490
vn -0.6453 0.4574 -0.6119
vn 0.5224 -0.1026 0.8465
vn 0.2291 -0.1026 0.9680
vn -0.5490 0.6302 -0.5490
vn -0.7764 0.6302 0.0000
vn 0.7764 0.6302 0.0000
vn 0.0236 0.4574 -0.8889
vn -0.5490 0.6302 0.5490
vn 0.0000 0.6302 0.7764
vn 0.5490 0.6302 0.5490
vn 0.5490 0.6302 -0.5490
vn 0.0000 0.6302 -0.7764
vn 0.0000 0.8042 0.5943
vn -0.4203 0.8042 0.4203
vn -0.5940 0.8044 0.0014
vn 0.4211 0.8044 -0.4190
vn 0.5943 0.8042 0.0000
vn 0.4203 0.8042 0.4203
vn 0.9239 0.0000 -0.3827
vn -0.3827 0.0000 -0.9239
vn -0.9239 0.0000 0.3827
vn 0.3827 0.0000 -0.9239
vn -0.9239 0.0000 -0.3827
vn -0.3827 0.0000 0.9239
vn 0.9239 0.0000 0.3827
vn 0.0000 -1.0000 0.0000
usemtl None
s 1
f 3/1/1 23/2/2 1/3/3
f 5/4/4 25/5/5 3/1/1
f 7/6/6 27/7/7 5/4/4
f 8/8/8 29/9/9 7/6/6
f 10/10/10 30/11/11 8/8/8
f 12/12/12 32/13/13 10/10/10
f 12/12/12 36/14/14 34/15/15
f 1/16/3 36/14/14 14/17/16
f 38/18/17 9/19/18 16/20/19
f 42/21/20 41/22/21 45/23/22
f 3/1/1 25/5/5 23/2/2
f 5/4/4 27/7/7 25/5/5
f 7/6/6 29/9/9 27/7/7
f 8/8/8 30/11/11 29/9/9
f 10/10/10 32/13/13 30/11/11
f 12/12/12 34/15/15 32/13/13
f 12/12/12 14/17/16 36/14/14
f 1/16/3 23/24/2 36/14/14
f 38/18/17 31/25/23 9/19/18
f 41/22/21 39/26/24 45/23/22
f 39/26/24 40/27/25 45/23/22
f 40/27/25 46/28/26 45/23/22
f 45/23/22 44/29/27 43/30/28
f 43/30/28 42/21/20 45/23/22
usemtl None_black_trash.jpg
f 2/31/28 3/32/1 1/33/3
f 4/34/27 5/35/4 3/32/1
f 6/36/22 7/37/6 5/35/4
f 16/20/19 8/38/8 7/37/6
f 9/39/18 10/40/10 8/38/8
f 11/41/24 12/42/12 10/40/10
f 13/43/21 14/44/16 12/42/12
f 15/45/20 1/46/3 14/44/16
f 25/47/5 24/48/29 23/49/2
f 27/50/7 26/51/30 25/47/5
f 27/50/7 38/52/17 28/53/31
f 30/54/11 38/52/17 29/55/9
f 32/56/13 31/57/23 30/54/11
f 34/58/15 33/59/32 32/56/13
f 36/60/14 35/61/33 34/58/15
f 23/62/2 37/63/34 36/60/14
f 2/31/28 26/51/30 4/64/27
f 37/65/34 2/66/28 15/45/20
f 13/43/21 37/63/34 15/67/20
f 33/68/32 13/69/21 11/41/24
f 9/39/18 33/59/32 11/70/24
f 28/71/31 16/72/19 6/36/22
f 26/73/30 6/74/22 4/34/27
f 9/39/18 40/75/25 16/20/19
f 2/31/28 4/34/27 3/32/1
f 4/34/27 6/36/22 5/35/4
f 6/36/22 16/20/19 7/37/6
f 16/20/19 9/39/18 8/38/8
f 9/39/18 11/41/24 10/40/10
f 11/41/24 13/43/21 12/42/12
f 13/43/21 15/45/20 14/44/16
f 15/45/20 2/76/28 1/46/3
f 25/47/5 26/51/30 24/48/29
f 27/50/7 28/53/31 26/51/30
f 27/50/7 29/55/9 38/52/17
f 30/54/11 31/57/23 38/52/17
f 32/56/13 33/59/32 31/57/23
f 34/58/15 35/61/33 33/59/32
f 36/60/14 37/63/34 35/61/33
f 23/62/2 24/77/29 37/63/34
f 2/31/28 24/78/29 26/51/30
f 37/65/34 24/77/29 2/66/28
f 13/43/21 35/79/33 37/63/34
f 33/68/32 35/61/33 13/69/21
f 9/39/18 31/80/23 33/59/32
f 28/71/31 38/52/17 16/72/19
f 26/73/30 28/53/31 6/74/22
f 9/39/18 46/81/26 40/75/25
usemtl None_NONE
s off
f 21/82/35 45/83/35 22/84/35
f 19/85/36 43/86/36 20/87/36
f 17/88/37 41/89/37 18/90/37
f 20/87/38 44/91/38 21/82/38
f 18/90/39 42/92/39 19/85/39
f 16/93/40 39/94/40 17/88/40
f 22/84/41 46/95/41 9/96/41
f 20/87/42 22/84/42 16/93/42
f 21/82/35 44/91/35 45/83/35
f 19/85/36 42/92/36 43/86/36
f 17/88/37 39/94/37 41/89/37
f 20/87/38 43/86/38 44/91/38
f 18/90/39 41/89/39 42/92/39
f 16/93/40 40/97/40 39/94/40
f 22/84/41 45/83/41 46/95/41
f 16/93/42 17/88/42 18/90/42
f 18/90/42 19/85/42 16/93/42
f 19/85/42 20/87/42 16/93/42
f 20/87/42 21/82/42 22/84/42
f 22/84/42 9/96/42 16/93/42
