# Blender MTL File: 'dorrie statue.blend'
# Material Count: 5

newmtl None
collisionType 0 0 0
Ns 0.000000
Ka 0.000000 0.000000 0.000000
Kd 0.800000 0.800000 0.800000
Ks 0.800000 0.800000 0.800000
Ke 0.000000 0.000000 0.000000
Ni 1.000000
d 1.000000
illum 2
map_Kd ..\..\..\levels\PlayStation - Spyro 2 Riptos Rage - Winter Tundra\tex\0 (30).png

newmtl None_4598A251_c.png.002
collisionType 0 0 0
Ns 0.000000
Ka 0.000000 0.000000 0.000000
Kd 0.800000 0.800000 0.800000
Ks 0.800000 0.800000 0.800000
Ke 0.000000 0.000000 0.000000
Ni 1.000000
d 1.000000
illum 2
map_Kd ..\..\..\levels\PlayStation - Spyro 2 Riptos Rage - Winter Tundra\tex\0 (30).png

newmtl None_5EA7D5B7_c.png.002
collisionType 0 0 0
Ns 0.000000
Ka 0.000000 0.000000 0.000000
Kd 0.800000 0.800000 0.800000
Ks 0.800000 0.800000 0.800000
Ke 0.000000 0.000000 0.000000
Ni 1.000000
d 1.000000
illum 2
map_Kd ..\..\..\levels\PlayStation - Spyro 2 Riptos Rage - Winter Tundra\tex\0 (30).png

newmtl None_673EDEF_c.png.002
collisionType 0 0 0
Ns 0.000000
Ka 0.000000 0.000000 0.000000
Kd 0.800000 0.800000 0.800000
Ks 0.800000 0.800000 0.800000
Ke 0.000000 0.000000 0.000000
Ni 1.000000
d 1.000000
illum 2
map_Kd ..\..\..\levels\PlayStation - Spyro 2 Riptos Rage - Winter Tundra\tex\0 (30).png

newmtl None_HP3Gen_wand2.png.002
collisionType 0 0 0
Ns 0.000000
Ka 0.000000 0.000000 0.000000
Kd 0.800000 0.800000 0.800000
Ks 0.800000 0.800000 0.800000
Ke 0.000000 0.000000 0.000000
Ni 1.000000
d 1.000000
illum 2
map_Kd ..\..\..\levels\PlayStation - Spyro 2 Riptos Rage - Winter Tundra\tex\0 (30).png
