# Blender MTL File: 'gold portal col.blend'
# Material Count: 2

newmtl Grass_Block
Ns 0.000000
Ka 0.200000 0.200000 0.200000
Kd 0.185326 0.610986 1.000000
Ks 0.000000 0.000000 0.000000
Ke 0.000000 0.000000 0.000000
Ni 1.000000
d 1.000000
illum 2
map_Kd ..\..\DSA\minecraft\prisma rgb\0 (107).jpeg

newmtl Grass_Block_NONE
Ns 0.000000
Ka 0.200000 0.200000 0.200000
Kd 0.185326 0.610986 1.000000
Ks 0.000000 0.000000 0.000000
Ke 0.000000 0.000000 0.000000
Ni 1.000000
d 1.000000
illum 2
