# Blender MTL File: 'king bob col.blend'
# Material Count: 1

newmtl None
collisionType 0 0 0
Ns 0
Ka 0.000000 0.000000 0.000000
Kd 0.8 0.8 0.8
Ks 0.8 0.8 0.8
d 1
illum 2
map_Kd ..\..\..\levels\PlayStation - Spyro 2 Riptos Rage - Winter Tundra\tex\0 (30).png
