# Blender MTL File: 'king bob.blend'
# Material Count: 2

newmtl None
Ns 0
Ka 0.000000 0.000000 0.000000
Kd 0.8 0.8 0.8
Ks 0.8 0.8 0.8
d 1
illum 2
map_Kd ..\..\..\levels\PlayStation - Spyro 2 Riptos Rage - Winter Tundra\tex\0 (30).png

newmtl bomb_king_mat02
Ns -3.921569
Ka 1.000000 1.000000 1.000000
Kd 0.640000 0.640000 0.640000
Ks 0.000000 0.000000 0.000000
Ke 0.000000 0.000000 0.000000
Ni -1.000000
d 1.000000
illum 2
map_Kd ..\..\..\levels\PlayStation - Spyro 2 Riptos Rage - Winter Tundra\tex\0 (30).png
