version 1
nodes
0 "blender_implicit" -1
1 "pd0003_00" -1
2 "Origin" 1
3 "pd0003_00_hatSkin" 2
end
skeleton
time 0
0  0 0 0  0 0 0
1  0.000000 0.000000 0.000000  0.000000 -0.000000 0.000000
2  0.000000 0.000000 0.000000  0.000000 -0.000000 0.000000
3  0.000000 0.000000 0.000000  0.000000 -0.000000 0.000000
end
triangles
body.045
0  7.038331 5.771172 1.084972  0.358867 0.258156 0.896969  0.921923 0.750190 1 1 1.000000
0  5.287217 7.806808 1.147263  0.261361 0.254158 0.931150  0.876952 0.800421 1 1 1.000000
0  5.928012 4.778121 1.815027  0.433576 0.314127 0.844569  0.885313 0.695422 1 1 1.000000
body.045
0  5.928012 4.778121 1.815027  0.433576 0.314127 0.844569  0.885313 0.695422 1 1 1.000000
0  5.287217 7.806808 1.147263  0.261361 0.254158 0.931150  0.876952 0.800421 1 1 1.000000
0  3.946106 6.349905 1.876503  0.367687 0.534989 0.760613  0.811775 0.740970 1 1 1.000000
body.045
0  1.652620 5.225953 5.820514  0.230018 0.746269 0.624592  0.258580 0.887166 1 1 1.000000
0  1.540048 4.156780 6.930359  0.207709 0.554369 0.805902  0.255299 0.848350 1 1 1.000000
0  3.198337 4.499026 5.767439  0.478805 0.613575 0.627857  0.294017 0.873806 1 1 1.000000
body.045
0  3.198337 4.499026 5.767439  0.478805 0.613575 0.627857  0.294017 0.873806 1 1 1.000000
0  1.540048 4.156780 6.930359  0.207709 0.554369 0.805902  0.255299 0.848350 1 1 1.000000
0  2.823640 3.508653 6.824210  0.419080 0.437635 0.795495  0.285084 0.835809 1 1 1.000000
body.045
0  1.912463 7.016882 2.353033  0.247993 0.882687 0.399121  0.277454 0.977263 1 1 1.000000
0  1.736524 5.965107 4.710668  0.249580 0.840877 0.480178  0.262817 0.919086 1 1 1.000000
0  3.852834 6.153405 2.353033  0.532151 0.753471 0.386059  0.334058 0.962703 1 1 1.000000
body.045
0  3.852834 6.153405 2.353033  0.532151 0.753471 0.386059  0.334058 0.962703 1 1 1.000000
0  1.736524 5.965107 4.710668  0.249580 0.840877 0.480178  0.262817 0.919086 1 1 1.000000
0  3.492579 5.208880 4.710668  0.517533 0.715323 0.469497  0.303579 0.904592 1 1 1.000000
body.045
0  1.982227 7.319935 1.941210  0.165868 0.497574 0.851405  0.769197 0.758092 1 1 1.000000
0  1.912463 7.016882 2.353033  0.240059 0.769982 0.591174  0.768402 0.740503 1 1 1.000000
0  3.946106 6.349905 1.876503  0.367687 0.534989 0.760613  0.811775 0.740970 1 1 1.000000
body.045
0  3.946106 6.349905 1.876503  0.367687 0.534989 0.760613  0.811775 0.740970 1 1 1.000000
0  1.912463 7.016882 2.353033  0.240059 0.769982 0.591174  0.768402 0.740503 1 1 1.000000
0  3.852834 6.153405 2.353033  0.477737 0.752586 0.453139  0.810142 0.729040 1 1 1.000000
body.045
0  1.982227 7.319935 1.941210  0.165868 0.497574 0.851405  0.769197 0.758092 1 1 1.000000
0  3.946106 6.349905 1.876503  0.367687 0.534989 0.760613  0.811775 0.740970 1 1 1.000000
0  2.898074 8.970449 1.466280  0.135838 0.232124 0.963134  0.810409 0.829996 1 1 1.000000
body.045
0  2.898074 8.970449 1.466280  0.135838 0.232124 0.963134  0.810409 0.829996 1 1 1.000000
0  3.946106 6.349905 1.876503  0.367687 0.534989 0.760613  0.811775 0.740970 1 1 1.000000
0  5.287217 7.806808 1.147263  0.261361 0.254158 0.931150  0.876952 0.800421 1 1 1.000000
body.045
0  1.736524 5.965107 4.710668  0.249580 0.840877 0.480178  0.262817 0.919086 1 1 1.000000
0  1.912463 7.016882 2.353033  0.247993 0.882687 0.399121  0.277454 0.977263 1 1 1.000000
0  0.000000 6.271084 4.710669  0.000000 0.872982 0.487716  0.220845 0.935303 1 1 1.000000
body.045
0  0.000000 6.271084 4.710669  0.000000 0.872982 0.487716  0.220845 0.935303 1 1 1.000000
0  1.912463 7.016882 2.353033  0.247993 0.882687 0.399121  0.277454 0.977263 1 1 1.000000
0  0.000000 7.237080 2.353033  0.000000 0.925321 0.379131  0.220851 0.991824 1 1 1.000000
body.045
0  1.540048 4.156780 6.930359  0.207709 0.554369 0.805902  0.255299 0.848350 1 1 1.000000
0  1.652620 5.225953 5.820514  0.230018 0.746269 0.624592  0.258580 0.887166 1 1 1.000000
0  0.000000 4.296043 7.013243  0.000000 0.573748 0.818995  0.220735 0.851637 1 1 1.000000
body.045
0  0.000000 4.296043 7.013243  0.000000 0.573748 0.818995  0.220735 0.851637 1 1 1.000000
0  1.652620 5.225953 5.820514  0.230018 0.746269 0.624592  0.258580 0.887166 1 1 1.000000
0  0.000000 5.455467 5.861956  0.000000 0.768395 0.639943  0.220817 0.897465 1 1 1.000000
body.045
0  0.000000 7.237080 2.353033  0.000000 0.779504 0.626362  0.726661 0.751966 1 1 1.000000
0  1.912463 7.016882 2.353033  0.240059 0.769982 0.591174  0.768402 0.740503 1 1 1.000000
0  0.000000 7.557533 1.954242  0.000000 0.509079 0.860714  0.726619 0.762881 1 1 1.000000
body.045
0  0.000000 7.557533 1.954242  0.000000 0.509079 0.860714  0.726619 0.762881 1 1 1.000000
0  1.912463 7.016882 2.353033  0.240059 0.769982 0.591174  0.768402 0.740503 1 1 1.000000
0  1.982227 7.319935 1.941210  0.165868 0.497574 0.851405  0.769197 0.758092 1 1 1.000000
body.045
0  1.919159 -6.409948 2.353033  0.283059 -0.765648 0.577593  0.765738 0.430321 1 1 1.000000
0  0.000000 -6.715034 2.353033  0.000000 -0.717917 0.696097  0.726661 0.419440 1 1 1.000000
0  1.997373 -6.813635 1.799037  0.257607 -0.590381 0.764885  0.775597 0.403260 1 1 1.000000
body.045
0  1.997373 -6.813635 1.799037  0.257607 -0.590381 0.764885  0.775597 0.403260 1 1 1.000000
0  0.000000 -6.715034 2.353033  0.000000 -0.717917 0.696097  0.726661 0.419440 1 1 1.000000
0  0.000000 -7.251978 1.833239  0.000000 -0.566576 0.823969  0.726785 0.390149 1 1 1.000000
body.045
0  1.997373 -6.813635 1.799037  0.257607 -0.590381 0.764885  0.775597 0.403260 1 1 1.000000
0  0.000000 -7.251978 1.833239  0.000000 -0.566576 0.823969  0.726785 0.390149 1 1 1.000000
0  2.073475 -7.885717 1.267177  0.202826 -0.426588 0.881375  0.783252 0.348268 1 1 1.000000
body.045
0  2.073475 -7.885717 1.267177  0.202826 -0.426588 0.881375  0.783252 0.348268 1 1 1.000000
0  0.000000 -7.251978 1.833239  0.000000 -0.566576 0.823969  0.726785 0.390149 1 1 1.000000
0  0.000000 -8.161218 1.365952  0.000000 -0.457076 0.889401  0.726665 0.341453 1 1 1.000000
body.045
0  -1.912463 7.016882 2.353033  -0.247993 0.882687 0.399121  0.164248 0.977263 1 1 1.000000
0  -3.852834 6.153405 2.353033  -0.532151 0.753471 0.386059  0.107645 0.962703 1 1 1.000000
0  -1.736524 5.965108 4.710669  -0.249580 0.840877 0.480178  0.178808 0.919149 1 1 1.000000
body.045
0  -1.736524 5.965108 4.710669  -0.249580 0.840877 0.480178  0.178808 0.919149 1 1 1.000000
0  -3.852834 6.153405 2.353033  -0.532151 0.753471 0.386059  0.107645 0.962703 1 1 1.000000
0  -3.492579 5.208880 4.710668  -0.517533 0.715323 0.469497  0.137908 0.905100 1 1 1.000000
body.045
0  -1.652619 5.225953 5.820514  -0.230018 0.746269 0.624592  0.183031 0.887116 1 1 1.000000
0  -3.198337 4.499026 5.767439  -0.478805 0.613575 0.627857  0.147414 0.874160 1 1 1.000000
0  -1.540048 4.156780 6.930359  -0.207709 0.554369 0.805902  0.186083 0.847400 1 1 1.000000
body.045
0  -1.540048 4.156780 6.930359  -0.207709 0.554369 0.805902  0.186083 0.847400 1 1 1.000000
0  -3.198337 4.499026 5.767439  -0.478805 0.613575 0.627857  0.147414 0.874160 1 1 1.000000
0  -2.823640 3.508653 6.824210  -0.419080 0.437635 0.795495  0.155946 0.834493 1 1 1.000000
body.045
0  -1.982228 7.319935 1.941209  -0.165868 0.497574 0.851405  0.683632 0.757842 1 1 1.000000
0  -3.946106 6.349905 1.876503  -0.367687 0.534989 0.760613  0.640644 0.740471 1 1 1.000000
0  -1.912463 7.016882 2.353033  -0.240059 0.769982 0.591174  0.684777 0.740347 1 1 1.000000
body.045
0  -1.912463 7.016882 2.353033  -0.240059 0.769982 0.591174  0.684777 0.740347 1 1 1.000000
0  -3.946106 6.349905 1.876503  -0.367687 0.534989 0.760613  0.640644 0.740471 1 1 1.000000
0  -3.852834 6.153405 2.353033  -0.477737 0.752586 0.453139  0.642894 0.728728 1 1 1.000000
body.045
0  0.000000 -8.161218 1.365952  0.000000 -0.457076 0.889401  0.726665 0.341453 1 1 1.000000
0  0.000000 -7.251978 1.833239  0.000000 -0.566576 0.823969  0.726785 0.390149 1 1 1.000000
0  -2.073475 -7.885717 1.267177  -0.202826 -0.426588 0.881375  0.671021 0.347860 1 1 1.000000
body.045
0  -2.073475 -7.885717 1.267177  -0.202826 -0.426588 0.881375  0.671021 0.347860 1 1 1.000000
0  0.000000 -7.251978 1.833239  0.000000 -0.566576 0.823969  0.726785 0.390149 1 1 1.000000
0  -1.997373 -6.813635 1.799037  -0.257607 -0.590381 0.764885  0.678006 0.403064 1 1 1.000000
body.045
0  0.000000 -5.640430 1.307670  0.000000 -0.016480 -0.999847  0.249864 0.119774 1 1 1.000000
0  2.073475 -7.885717 1.267177  -0.077914 -0.018525 -0.996765  0.206311 0.055119 1 1 1.000000
0  0.000000 -8.161218 1.365952  0.000000 -0.023103 -0.999725  0.250137 0.049206 1 1 1.000000
body.045
0  -3.194810 -5.565332 1.122564  0.114170 0.016144 -0.993316  0.320525 0.120150 1 1 1.000000
0  0.000000 -5.640430 1.307670  0.000000 -0.016480 -0.999847  0.249864 0.119774 1 1 1.000000
0  -2.073475 -7.885717 1.267177  0.077914 -0.018525 -0.996765  0.294226 0.055178 1 1 1.000000
body.045
0  0.000000 -5.640430 1.307670  0.000000 -0.016480 -0.999847  0.249864 0.119774 1 1 1.000000
0  0.000000 -8.161218 1.365952  0.000000 -0.023103 -0.999725  0.250137 0.049206 1 1 1.000000
0  -2.073475 -7.885717 1.267177  0.077914 -0.018525 -0.996765  0.294226 0.055178 1 1 1.000000
body.045
0  -1.919158 -6.409948 2.353033  -0.283059 -0.765648 0.577593  0.687677 0.430147 1 1 1.000000
0  -1.997373 -6.813635 1.799037  -0.257607 -0.590381 0.764885  0.678006 0.403064 1 1 1.000000
0  0.000000 -6.715034 2.353033  0.000000 -0.717917 0.696097  0.726661 0.419440 1 1 1.000000
body.045
0  0.000000 -6.715034 2.353033  0.000000 -0.717917 0.696097  0.726661 0.419440 1 1 1.000000
0  -1.997373 -6.813635 1.799037  -0.257607 -0.590381 0.764885  0.678006 0.403064 1 1 1.000000
0  0.000000 -7.251978 1.833239  0.000000 -0.566576 0.823969  0.726785 0.390149 1 1 1.000000
body.045
0  -1.766763 -5.616945 4.710668  -0.252144 -0.863979 0.435774  0.181720 0.618773 1 1 1.000000
0  -1.919158 -6.409948 2.353033  -0.285379 -0.900235 0.328776  0.167515 0.564202 1 1 1.000000
0  0.000000 -5.837131 4.710668  0.000000 -0.891720 0.452528  0.220841 0.607798 1 1 1.000000
body.045
0  0.000000 -5.837131 4.710668  0.000000 -0.891720 0.452528  0.220841 0.607798 1 1 1.000000
0  -1.919158 -6.409948 2.353033  -0.285379 -0.900235 0.328776  0.167515 0.564202 1 1 1.000000
0  0.000000 -6.715034 2.353033  0.000000 -0.937132 0.348949  0.220851 0.551237 1 1 1.000000
body.045
0  -1.540048 4.156780 6.930359  -0.207709 0.554369 0.805902  0.186083 0.847400 1 1 1.000000
0  0.000000 4.296043 7.013243  0.000000 0.573748 0.818995  0.220735 0.851637 1 1 1.000000
0  -1.652619 5.225953 5.820514  -0.230018 0.746269 0.624592  0.183031 0.887116 1 1 1.000000
body.045
0  -1.652619 5.225953 5.820514  -0.230018 0.746269 0.624592  0.183031 0.887116 1 1 1.000000
0  0.000000 4.296043 7.013243  0.000000 0.573748 0.818995  0.220735 0.851637 1 1 1.000000
0  0.000000 5.455467 5.861956  0.000000 0.768395 0.639943  0.220817 0.897465 1 1 1.000000
body.045
0  -1.736524 5.965108 4.710669  -0.249580 0.840877 0.480178  0.178808 0.919149 1 1 1.000000
0  0.000000 6.271084 4.710669  0.000000 0.872982 0.487716  0.220845 0.935303 1 1 1.000000
0  -1.912463 7.016882 2.353033  -0.247993 0.882687 0.399121  0.164248 0.977263 1 1 1.000000
body.045
0  -1.912463 7.016882 2.353033  -0.247993 0.882687 0.399121  0.164248 0.977263 1 1 1.000000
0  0.000000 6.271084 4.710669  0.000000 0.872982 0.487716  0.220845 0.935303 1 1 1.000000
0  0.000000 7.237080 2.353033  0.000000 0.925321 0.379131  0.220851 0.991824 1 1 1.000000
body.045
0  -1.982228 7.319935 1.941209  -0.165868 0.497574 0.851405  0.683632 0.757842 1 1 1.000000
0  -1.912463 7.016882 2.353033  -0.240059 0.769982 0.591174  0.684777 0.740347 1 1 1.000000
0  0.000000 7.557533 1.954242  0.000000 0.509079 0.860714  0.726619 0.762881 1 1 1.000000
body.045
0  0.000000 7.557533 1.954242  0.000000 0.509079 0.860714  0.726619 0.762881 1 1 1.000000
0  -1.912463 7.016882 2.353033  -0.240059 0.769982 0.591174  0.684777 0.740347 1 1 1.000000
0  0.000000 7.237080 2.353033  0.000000 0.779504 0.626362  0.726661 0.751966 1 1 1.000000
body.045
0  -3.194810 -5.565332 1.122564  0.114170 0.016144 -0.993316  0.320525 0.120150 1 1 1.000000
0  -2.073475 -7.885717 1.267177  0.077914 -0.018525 -0.996765  0.294226 0.055178 1 1 1.000000
0  -4.396028 -6.836908 0.908912  0.153417 0.021027 -0.987915  0.355785 0.085239 1 1 1.000000
body.045
0  -1.919158 -6.409948 2.353033  -0.285379 -0.900235 0.328776  0.167515 0.564202 1 1 1.000000
0  -1.766763 -5.616945 4.710668  -0.252144 -0.863979 0.435774  0.181720 0.618773 1 1 1.000000
0  -3.756389 -5.460091 2.353033  -0.555864 -0.776971 0.295419  0.114178 0.577168 1 1 1.000000
body.045
0  -3.756389 -5.460091 2.353033  -0.555864 -0.776971 0.295419  0.114178 0.577168 1 1 1.000000
0  -1.766763 -5.616945 4.710668  -0.252144 -0.863979 0.435774  0.181720 0.618773 1 1 1.000000
0  -3.408246 -4.843520 4.710668  -0.523850 -0.742973 0.416578  0.142031 0.630217 1 1 1.000000
body.045
0  -1.997373 -6.813635 1.799037  -0.257607 -0.590381 0.764885  0.678006 0.403064 1 1 1.000000
0  -1.919158 -6.409948 2.353033  -0.283059 -0.765648 0.577593  0.687677 0.430147 1 1 1.000000
0  -3.941681 -5.834058 1.562298  -0.472121 -0.551744 0.687490  0.629227 0.415979 1 1 1.000000
body.045
0  -3.941681 -5.834058 1.562298  -0.472121 -0.551744 0.687490  0.629227 0.415979 1 1 1.000000
0  -1.919158 -6.409948 2.353033  -0.283059 -0.765648 0.577593  0.687677 0.430147 1 1 1.000000
0  -3.756389 -5.460091 2.353033  -0.528398 -0.712912 0.460982  0.648694 0.440854 1 1 1.000000
body.045
0  -2.073475 -7.885717 1.267177  -0.202826 -0.426588 0.881375  0.671021 0.347860 1 1 1.000000
0  -1.997373 -6.813635 1.799037  -0.257607 -0.590381 0.764885  0.678006 0.403064 1 1 1.000000
0  -4.396028 -6.836908 0.908912  -0.381237 -0.375408 0.844783  0.588423 0.383402 1 1 1.000000
body.045
0  -4.396028 -6.836908 0.908912  -0.381237 -0.375408 0.844783  0.588423 0.383402 1 1 1.000000
0  -1.997373 -6.813635 1.799037  -0.257607 -0.590381 0.764885  0.678006 0.403064 1 1 1.000000
0  -3.941681 -5.834058 1.562298  -0.472121 -0.551744 0.687490  0.629227 0.415979 1 1 1.000000
body.045
0  -1.601033 -3.888636 6.750780  -0.197150 -0.566027 0.800439  0.186158 0.681487 1 1 1.000000
0  -1.708454 -4.919116 5.730724  -0.225043 -0.740745 0.632954  0.183337 0.649013 1 1 1.000000
0  0.000000 -4.043086 6.799256  0.000000 -0.592212 0.805750  0.220894 0.677760 1 1 1.000000
body.045
0  0.000000 -4.043086 6.799256  0.000000 -0.592212 0.805750  0.220894 0.677760 1 1 1.000000
0  -1.708454 -4.919116 5.730724  -0.225043 -0.740745 0.632954  0.183337 0.649013 1 1 1.000000
0  0.000000 -5.112769 5.754962  0.000000 -0.766198 0.642567  0.220881 0.641351 1 1 1.000000
body.045
0  2.073475 -7.885717 1.267177  0.202826 -0.426588 0.881375  0.783252 0.348268 1 1 1.000000
0  4.396028 -6.836908 0.908912  0.381237 -0.375408 0.844783  0.865359 0.383276 1 1 1.000000
0  1.997373 -6.813635 1.799037  0.257607 -0.590381 0.764885  0.775597 0.403260 1 1 1.000000
body.045
0  1.997373 -6.813635 1.799037  0.257607 -0.590381 0.764885  0.775597 0.403260 1 1 1.000000
0  4.396028 -6.836908 0.908912  0.381237 -0.375408 0.844783  0.865359 0.383276 1 1 1.000000
0  3.941681 -5.834058 1.562298  0.472121 -0.551744 0.687490  0.824409 0.416371 1 1 1.000000
body.045
0  3.194810 -5.565332 1.122564  -0.114170 0.016175 -0.993316  0.179185 0.119741 1 1 1.000000
0  4.396028 -6.836908 0.908912  -0.153417 0.021027 -0.987915  0.144161 0.084749 1 1 1.000000
0  2.073475 -7.885717 1.267177  -0.077914 -0.018525 -0.996765  0.206311 0.055119 1 1 1.000000
body.045
0  3.756389 -5.460091 2.353033  0.528398 -0.712912 0.460982  0.804816 0.441202 1 1 1.000000
0  1.919159 -6.409948 2.353033  0.283059 -0.765648 0.577593  0.765738 0.430321 1 1 1.000000
0  3.941681 -5.834058 1.562298  0.472121 -0.551744 0.687490  0.824409 0.416371 1 1 1.000000
body.045
0  3.941681 -5.834058 1.562298  0.472121 -0.551744 0.687490  0.824409 0.416371 1 1 1.000000
0  1.919159 -6.409948 2.353033  0.283059 -0.765648 0.577593  0.765738 0.430321 1 1 1.000000
0  1.997373 -6.813635 1.799037  0.257607 -0.590381 0.764885  0.775597 0.403260 1 1 1.000000
body.045
0  1.919159 -6.409948 2.353033  0.285379 -0.900235 0.328776  0.274188 0.564202 1 1 1.000000
0  3.756389 -5.460091 2.353033  0.555864 -0.776971 0.295419  0.327525 0.577168 1 1 1.000000
0  1.766763 -5.616945 4.710668  0.252144 -0.863979 0.435774  0.260013 0.618836 1 1 1.000000
body.045
0  1.766763 -5.616945 4.710668  0.252144 -0.863979 0.435774  0.260013 0.618836 1 1 1.000000
0  3.756389 -5.460091 2.353033  0.555864 -0.776971 0.295419  0.327525 0.577168 1 1 1.000000
0  3.408246 -4.843520 4.710668  0.523850 -0.742973 0.416578  0.300008 0.630620 1 1 1.000000
body.045
0  0.000000 -5.112769 5.754962  0.000000 -0.766198 0.642567  0.220881 0.641351 1 1 1.000000
0  1.708455 -4.919116 5.730724  0.225074 -0.740745 0.632954  0.258545 0.649318 1 1 1.000000
0  0.000000 -4.043086 6.799256  0.000000 -0.592212 0.805750  0.220894 0.677760 1 1 1.000000
body.045
0  0.000000 -4.043086 6.799256  0.000000 -0.592212 0.805750  0.220894 0.677760 1 1 1.000000
0  1.708455 -4.919116 5.730724  0.225074 -0.740745 0.632954  0.258545 0.649318 1 1 1.000000
0  1.601033 -3.888636 6.750780  0.197150 -0.566027 0.800439  0.255735 0.681652 1 1 1.000000
body.045
0  1.766763 -5.616945 4.710668  0.252144 -0.863979 0.435774  0.260013 0.618836 1 1 1.000000
0  0.000000 -5.837131 4.710668  0.000000 -0.891720 0.452528  0.220841 0.607798 1 1 1.000000
0  1.919159 -6.409948 2.353033  0.285379 -0.900235 0.328776  0.274188 0.564202 1 1 1.000000
body.045
0  1.919159 -6.409948 2.353033  0.285379 -0.900235 0.328776  0.274188 0.564202 1 1 1.000000
0  0.000000 -5.837131 4.710668  0.000000 -0.891720 0.452528  0.220841 0.607798 1 1 1.000000
0  0.000000 -6.715034 2.353033  0.000000 -0.937132 0.348949  0.220851 0.551237 1 1 1.000000
body.045
0  3.194810 -5.565332 1.122564  -0.114170 0.016175 -0.993316  0.179185 0.119741 1 1 1.000000
0  2.073475 -7.885717 1.267177  -0.077914 -0.018525 -0.996765  0.206311 0.055119 1 1 1.000000
0  0.000000 -5.640430 1.307670  0.000000 -0.016480 -0.999847  0.249864 0.119774 1 1 1.000000
body.045
0  -1.708454 -4.919116 5.730724  -0.225043 -0.740745 0.632954  0.183337 0.649013 1 1 1.000000
0  -1.601033 -3.888636 6.750780  -0.197150 -0.566027 0.800439  0.186158 0.681487 1 1 1.000000
0  -3.176602 -4.229472 5.662165  -0.474349 -0.627766 0.617145  0.150066 0.656762 1 1 1.000000
body.045
0  -3.176602 -4.229472 5.662165  -0.474349 -0.627766 0.617145  0.150066 0.656762 1 1 1.000000
0  -1.601033 -3.888636 6.750780  -0.197150 -0.566027 0.800439  0.186158 0.681487 1 1 1.000000
0  -2.867354 -3.349266 6.613663  -0.408795 -0.482040 0.774895  0.158796 0.688930 1 1 1.000000
body.045
0  1.708455 -4.919116 5.730724  0.225074 -0.740745 0.632954  0.258545 0.649318 1 1 1.000000
0  3.176602 -4.229472 5.662165  0.474349 -0.627766 0.617145  0.292230 0.657613 1 1 1.000000
0  1.601033 -3.888636 6.750780  0.197150 -0.566027 0.800439  0.255735 0.681652 1 1 1.000000
body.045
0  1.601033 -3.888636 6.750780  0.197150 -0.566027 0.800439  0.255735 0.681652 1 1 1.000000
0  3.176602 -4.229472 5.662165  0.474349 -0.627766 0.617145  0.292230 0.657613 1 1 1.000000
0  2.867354 -3.349266 6.613663  0.408795 -0.482040 0.774895  0.283213 0.689493 1 1 1.000000
body.045
0  1.766763 -5.616945 4.710668  0.252144 -0.863979 0.435774  0.260013 0.618836 1 1 1.000000
0  3.408246 -4.843520 4.710668  0.523850 -0.742973 0.416578  0.300008 0.630620 1 1 1.000000
0  1.708455 -4.919116 5.730724  0.225074 -0.740745 0.632954  0.258545 0.649318 1 1 1.000000
body.045
0  1.708455 -4.919116 5.730724  0.225074 -0.740745 0.632954  0.258545 0.649318 1 1 1.000000
0  3.408246 -4.843520 4.710668  0.523850 -0.742973 0.416578  0.300008 0.630620 1 1 1.000000
0  3.176602 -4.229472 5.662165  0.474349 -0.627766 0.617145  0.292230 0.657613 1 1 1.000000
body.045
0  1.736524 5.965107 4.710668  0.249580 0.840877 0.480178  0.262817 0.919086 1 1 1.000000
0  1.652620 5.225953 5.820514  0.230018 0.746269 0.624592  0.258580 0.887166 1 1 1.000000
0  3.492579 5.208880 4.710668  0.517533 0.715323 0.469497  0.303579 0.904592 1 1 1.000000
body.045
0  3.492579 5.208880 4.710668  0.517533 0.715323 0.469497  0.303579 0.904592 1 1 1.000000
0  1.652620 5.225953 5.820514  0.230018 0.746269 0.624592  0.258580 0.887166 1 1 1.000000
0  3.198337 4.499026 5.767439  0.478805 0.613575 0.627857  0.294017 0.873806 1 1 1.000000
body.045
0  1.652620 5.225953 5.820514  0.230018 0.746269 0.624592  0.258580 0.887166 1 1 1.000000
0  1.736524 5.965107 4.710668  0.249580 0.840877 0.480178  0.262817 0.919086 1 1 1.000000
0  0.000000 5.455467 5.861956  0.000000 0.768395 0.639943  0.220817 0.897465 1 1 1.000000
body.045
0  0.000000 5.455467 5.861956  0.000000 0.768395 0.639943  0.220817 0.897465 1 1 1.000000
0  1.736524 5.965107 4.710668  0.249580 0.840877 0.480178  0.262817 0.919086 1 1 1.000000
0  0.000000 6.271084 4.710669  0.000000 0.872982 0.487716  0.220845 0.935303 1 1 1.000000
body.045
0  -1.652619 5.225953 5.820514  -0.230018 0.746269 0.624592  0.183031 0.887116 1 1 1.000000
0  0.000000 5.455467 5.861956  0.000000 0.768395 0.639943  0.220817 0.897465 1 1 1.000000
0  -1.736524 5.965108 4.710669  -0.249580 0.840877 0.480178  0.178808 0.919149 1 1 1.000000
body.045
0  -1.736524 5.965108 4.710669  -0.249580 0.840877 0.480178  0.178808 0.919149 1 1 1.000000
0  0.000000 5.455467 5.861956  0.000000 0.768395 0.639943  0.220817 0.897465 1 1 1.000000
0  0.000000 6.271084 4.710669  0.000000 0.872982 0.487716  0.220845 0.935303 1 1 1.000000
body.045
0  -3.198337 4.499026 5.767439  -0.478805 0.613575 0.627857  0.147414 0.874160 1 1 1.000000
0  -1.652619 5.225953 5.820514  -0.230018 0.746269 0.624592  0.183031 0.887116 1 1 1.000000
0  -3.492579 5.208880 4.710668  -0.517533 0.715323 0.469497  0.137908 0.905100 1 1 1.000000
body.045
0  -3.492579 5.208880 4.710668  -0.517533 0.715323 0.469497  0.137908 0.905100 1 1 1.000000
0  -1.652619 5.225953 5.820514  -0.230018 0.746269 0.624592  0.183031 0.887116 1 1 1.000000
0  -1.736524 5.965108 4.710669  -0.249580 0.840877 0.480178  0.178808 0.919149 1 1 1.000000
body.045
0  -1.766763 -5.616945 4.710668  -0.252144 -0.863979 0.435774  0.181720 0.618773 1 1 1.000000
0  -1.708454 -4.919116 5.730724  -0.225043 -0.740745 0.632954  0.183337 0.649013 1 1 1.000000
0  -3.408246 -4.843520 4.710668  -0.523850 -0.742973 0.416578  0.142031 0.630217 1 1 1.000000
body.045
0  -3.408246 -4.843520 4.710668  -0.523850 -0.742973 0.416578  0.142031 0.630217 1 1 1.000000
0  -1.708454 -4.919116 5.730724  -0.225043 -0.740745 0.632954  0.183337 0.649013 1 1 1.000000
0  -3.176602 -4.229472 5.662165  -0.474349 -0.627766 0.617145  0.150066 0.656762 1 1 1.000000
body.045
0  -1.708454 -4.919116 5.730724  -0.225043 -0.740745 0.632954  0.183337 0.649013 1 1 1.000000
0  -1.766763 -5.616945 4.710668  -0.252144 -0.863979 0.435774  0.181720 0.618773 1 1 1.000000
0  0.000000 -5.112769 5.754962  0.000000 -0.766198 0.642567  0.220881 0.641351 1 1 1.000000
body.045
0  0.000000 -5.112769 5.754962  0.000000 -0.766198 0.642567  0.220881 0.641351 1 1 1.000000
0  -1.766763 -5.616945 4.710668  -0.252144 -0.863979 0.435774  0.181720 0.618773 1 1 1.000000
0  0.000000 -5.837131 4.710668  0.000000 -0.891720 0.452528  0.220841 0.607798 1 1 1.000000
body.045
0  1.708455 -4.919116 5.730724  0.225074 -0.740745 0.632954  0.258545 0.649318 1 1 1.000000
0  0.000000 -5.112769 5.754962  0.000000 -0.766198 0.642567  0.220881 0.641351 1 1 1.000000
0  1.766763 -5.616945 4.710668  0.252144 -0.863979 0.435774  0.260013 0.618836 1 1 1.000000
body.045
0  1.766763 -5.616945 4.710668  0.252144 -0.863979 0.435774  0.260013 0.618836 1 1 1.000000
0  0.000000 -5.112769 5.754962  0.000000 -0.766198 0.642567  0.220881 0.641351 1 1 1.000000
0  0.000000 -5.837131 4.710668  0.000000 -0.891720 0.452528  0.220841 0.607798 1 1 1.000000
body.045
0  -6.892205 -1.717146 1.489071  -0.655538 -0.251564 0.711997  0.545381 0.528217 1 1 1.000000
0  -5.993056 -3.902758 1.351574  -0.637074 -0.429518 0.640004  0.560586 0.467792 1 1 1.000000
0  -6.320535 -1.610033 2.353033  -0.808496 -0.229255 0.541978  0.581879 0.539629 1 1 1.000000
body.045
0  -6.320535 -1.610033 2.353033  -0.808496 -0.229255 0.541978  0.581879 0.539629 1 1 1.000000
0  -5.993056 -3.902758 1.351574  -0.637074 -0.429518 0.640004  0.560586 0.467792 1 1 1.000000
0  -5.547677 -3.680402 2.353033  -0.750847 -0.488113 0.444899  0.594274 0.498282 1 1 1.000000
body.045
0  -6.671436 -4.380514 0.630181  -0.528947 -0.367229 0.765038  0.521497 0.448375 1 1 1.000000
0  -5.993056 -3.902758 1.351574  -0.637074 -0.429518 0.640004  0.560586 0.467792 1 1 1.000000
0  -7.803838 -1.959096 0.803509  -0.541459 -0.257088 0.800439  0.489558 0.520083 1 1 1.000000
body.045
0  -7.803838 -1.959096 0.803509  -0.541459 -0.257088 0.800439  0.489558 0.520083 1 1 1.000000
0  -5.993056 -3.902758 1.351574  -0.637074 -0.429518 0.640004  0.560586 0.467792 1 1 1.000000
0  -6.892205 -1.717146 1.489071  -0.655538 -0.251564 0.711997  0.545381 0.528217 1 1 1.000000
body.045
0  -3.756389 -5.460091 2.353033  -0.528398 -0.712912 0.460982  0.648694 0.440854 1 1 1.000000
0  -5.547677 -3.680402 2.353033  -0.750847 -0.488113 0.444899  0.594274 0.498282 1 1 1.000000
0  -3.941681 -5.834058 1.562298  -0.472121 -0.551744 0.687490  0.629227 0.415979 1 1 1.000000
body.045
0  -3.941681 -5.834058 1.562298  -0.472121 -0.551744 0.687490  0.629227 0.415979 1 1 1.000000
0  -5.547677 -3.680402 2.353033  -0.750847 -0.488113 0.444899  0.594274 0.498282 1 1 1.000000
0  -5.993056 -3.902758 1.351574  -0.637074 -0.429518 0.640004  0.560586 0.467792 1 1 1.000000
body.045
0  -5.993056 -3.902758 1.351574  -0.637074 -0.429518 0.640004  0.560586 0.467792 1 1 1.000000
0  -6.671436 -4.380514 0.630181  -0.528947 -0.367229 0.765038  0.521497 0.448375 1 1 1.000000
0  -3.941681 -5.834058 1.562298  -0.472121 -0.551744 0.687490  0.629227 0.415979 1 1 1.000000
body.045
0  -3.941681 -5.834058 1.562298  -0.472121 -0.551744 0.687490  0.629227 0.415979 1 1 1.000000
0  -6.671436 -4.380514 0.630181  -0.528947 -0.367229 0.765038  0.521497 0.448375 1 1 1.000000
0  -4.396028 -6.836908 0.908912  -0.381237 -0.375408 0.844783  0.588423 0.383402 1 1 1.000000
body.045
0  6.892206 -1.717146 1.489071  0.655538 -0.251564 0.711997  0.907531 0.529536 1 1 1.000000
0  6.320535 -1.610032 2.353033  0.808496 -0.229255 0.541978  0.871337 0.540148 1 1 1.000000
0  5.993056 -3.902758 1.351574  0.637074 -0.429518 0.640004  0.892212 0.469544 1 1 1.000000
body.045
0  5.993056 -3.902758 1.351574  0.637074 -0.429518 0.640004  0.892212 0.469544 1 1 1.000000
0  6.320535 -1.610032 2.353033  0.808496 -0.229255 0.541978  0.871337 0.540148 1 1 1.000000
0  5.547677 -3.680402 2.353033  0.750847 -0.488113 0.444899  0.858892 0.498819 1 1 1.000000
body.045
0  6.892206 -1.717146 1.489071  0.655538 -0.251564 0.711997  0.907531 0.529536 1 1 1.000000
0  5.993056 -3.902758 1.351574  0.637074 -0.429518 0.640004  0.892212 0.469544 1 1 1.000000
0  7.803838 -1.959096 0.803509  0.541459 -0.257088 0.800439  0.965887 0.523377 1 1 1.000000
body.045
0  7.803838 -1.959096 0.803509  0.541459 -0.257088 0.800439  0.965887 0.523377 1 1 1.000000
0  5.993056 -3.902758 1.351574  0.637074 -0.429518 0.640004  0.892212 0.469544 1 1 1.000000
0  6.671436 -4.380514 0.630181  0.528947 -0.367229 0.765038  0.929862 0.448932 1 1 1.000000
body.045
0  5.993056 -3.902758 1.351574  0.637074 -0.429518 0.640004  0.892212 0.469544 1 1 1.000000
0  5.547677 -3.680402 2.353033  0.750847 -0.488113 0.444899  0.858892 0.498819 1 1 1.000000
0  3.941681 -5.834058 1.562298  0.472121 -0.551744 0.687490  0.824409 0.416371 1 1 1.000000
body.045
0  3.941681 -5.834058 1.562298  0.472121 -0.551744 0.687490  0.824409 0.416371 1 1 1.000000
0  5.547677 -3.680402 2.353033  0.750847 -0.488113 0.444899  0.858892 0.498819 1 1 1.000000
0  3.756389 -5.460091 2.353033  0.528398 -0.712912 0.460982  0.804816 0.441202 1 1 1.000000
body.045
0  5.993056 -3.902758 1.351574  0.637074 -0.429518 0.640004  0.892212 0.469544 1 1 1.000000
0  3.941681 -5.834058 1.562298  0.472121 -0.551744 0.687490  0.824409 0.416371 1 1 1.000000
0  6.671436 -4.380514 0.630181  0.528947 -0.367229 0.765038  0.929862 0.448932 1 1 1.000000
body.045
0  6.671436 -4.380514 0.630181  0.528947 -0.367229 0.765038  0.929862 0.448932 1 1 1.000000
0  3.941681 -5.834058 1.562298  0.472121 -0.551744 0.687490  0.824409 0.416371 1 1 1.000000
0  4.396028 -6.836908 0.908912  0.381237 -0.375408 0.844783  0.865359 0.383276 1 1 1.000000
body.045
0  -6.320535 -1.610033 2.353033  -0.925047 -0.227485 0.304117  0.022918 0.710693 1 1 1.000000
0  -5.547677 -3.680402 2.353033  -0.804529 -0.515122 0.295511  0.037841 0.654767 1 1 1.000000
0  -5.564073 -1.551732 4.710664  -0.869228 -0.214972 0.445204  0.077295 0.721529 1 1 1.000000
body.045
0  -5.564073 -1.551732 4.710664  -0.869228 -0.214972 0.445204  0.077295 0.721529 1 1 1.000000
0  -5.547677 -3.680402 2.353033  -0.804529 -0.515122 0.295511  0.037841 0.654767 1 1 1.000000
0  -4.911421 -3.326743 4.710664  -0.761925 -0.481033 0.433607  0.088563 0.682350 1 1 1.000000
body.045
0  -3.176602 -4.229472 5.662165  -0.474349 -0.627766 0.617145  0.150066 0.656762 1 1 1.000000
0  -2.867354 -3.349266 6.613663  -0.408795 -0.482040 0.774895  0.158796 0.688930 1 1 1.000000
0  -4.322530 -2.974662 5.653985  -0.669118 -0.403088 0.624287  0.111310 0.696740 1 1 1.000000
body.045
0  -4.322530 -2.974662 5.653985  -0.669118 -0.403088 0.624287  0.111310 0.696740 1 1 1.000000
0  -2.867354 -3.349266 6.613663  -0.408795 -0.482040 0.774895  0.158796 0.688930 1 1 1.000000
0  -3.627793 -2.603002 6.538658  -0.556108 -0.326548 0.764244  0.138060 0.708183 1 1 1.000000
body.045
0  -3.408246 -4.843520 4.710668  -0.523850 -0.742973 0.416578  0.142031 0.630217 1 1 1.000000
0  -4.911421 -3.326743 4.710664  -0.761925 -0.481033 0.433607  0.088563 0.682350 1 1 1.000000
0  -3.756389 -5.460091 2.353033  -0.555864 -0.776971 0.295419  0.114178 0.577168 1 1 1.000000
body.045
0  -3.756389 -5.460091 2.353033  -0.555864 -0.776971 0.295419  0.114178 0.577168 1 1 1.000000
0  -4.911421 -3.326743 4.710664  -0.761925 -0.481033 0.433607  0.088563 0.682350 1 1 1.000000
0  -5.547677 -3.680402 2.353033  -0.804529 -0.515122 0.295511  0.037841 0.654767 1 1 1.000000
body.045
0  6.320535 -1.610032 2.353033  0.925047 -0.227485 0.304117  0.418785 0.710693 1 1 1.000000
0  5.564073 -1.551732 4.710664  0.869228 -0.214972 0.445204  0.364380 0.721543 1 1 1.000000
0  5.547677 -3.680402 2.353033  0.804529 -0.515122 0.295511  0.403861 0.654767 1 1 1.000000
body.045
0  5.547677 -3.680402 2.353033  0.804529 -0.515122 0.295511  0.403861 0.654767 1 1 1.000000
0  5.564073 -1.551732 4.710664  0.869228 -0.214972 0.445204  0.364380 0.721543 1 1 1.000000
0  4.911421 -3.326743 4.710664  0.761925 -0.481033 0.433607  0.352997 0.682383 1 1 1.000000
body.045
0  5.547677 -3.680402 2.353033  0.804529 -0.515122 0.295511  0.403861 0.654767 1 1 1.000000
0  4.911421 -3.326743 4.710664  0.761925 -0.481033 0.433607  0.352997 0.682383 1 1 1.000000
0  3.756389 -5.460091 2.353033  0.555864 -0.776971 0.295419  0.327525 0.577168 1 1 1.000000
body.045
0  3.756389 -5.460091 2.353033  0.555864 -0.776971 0.295419  0.327525 0.577168 1 1 1.000000
0  4.911421 -3.326743 4.710664  0.761925 -0.481033 0.433607  0.352997 0.682383 1 1 1.000000
0  3.408246 -4.843520 4.710668  0.523850 -0.742973 0.416578  0.300008 0.630620 1 1 1.000000
body.045
0  1.601033 -3.888636 6.750780  0.197150 -0.566027 0.800439  0.255735 0.681652 1 1 1.000000
0  1.399496 -2.571488 7.429742  0.180273 -0.348643 0.919736  0.250853 0.711933 1 1 1.000000
0  0.000000 -4.043086 6.799256  0.000000 -0.592212 0.805750  0.220894 0.677760 1 1 1.000000
body.045
0  0.000000 -4.043086 6.799256  0.000000 -0.592212 0.805750  0.220894 0.677760 1 1 1.000000
0  1.399496 -2.571488 7.429742  0.180273 -0.348643 0.919736  0.250853 0.711933 1 1 1.000000
0  0.000000 -2.718725 7.524796  0.000000 -0.375896 0.926633  0.220747 0.709377 1 1 1.000000
body.045
0  -4.873192 -1.435243 5.669748  -0.754753 -0.188360 0.628346  0.100131 0.728032 1 1 1.000000
0  -4.322530 -2.974662 5.653985  -0.669118 -0.403088 0.624287  0.111310 0.696740 1 1 1.000000
0  -4.077847 -1.321889 6.556523  -0.626637 -0.168157 0.760949  0.125231 0.734407 1 1 1.000000
body.045
0  -4.077847 -1.321889 6.556523  -0.626637 -0.168157 0.760949  0.125231 0.734407 1 1 1.000000
0  -4.322530 -2.974662 5.653985  -0.669118 -0.403088 0.624287  0.111310 0.696740 1 1 1.000000
0  -3.627793 -2.603002 6.538658  -0.556108 -0.326548 0.764244  0.138060 0.708183 1 1 1.000000
body.045
0  -1.601033 -3.888636 6.750780  -0.197150 -0.566027 0.800439  0.186158 0.681487 1 1 1.000000
0  -1.399496 -2.571488 7.429742  -0.180273 -0.348643 0.919736  0.190668 0.712062 1 1 1.000000
0  -2.867354 -3.349266 6.613663  -0.408795 -0.482040 0.774895  0.158796 0.688930 1 1 1.000000
body.045
0  -2.867354 -3.349266 6.613663  -0.408795 -0.482040 0.774895  0.158796 0.688930 1 1 1.000000
0  -1.399496 -2.571488 7.429742  -0.180273 -0.348643 0.919736  0.190668 0.712062 1 1 1.000000
0  -2.607277 -2.308002 7.128602  -0.366161 -0.288217 0.884762  0.164497 0.714574 1 1 1.000000
body.045
0  0.000000 -2.718725 7.524796  0.000000 -0.375896 0.926633  0.220747 0.709377 1 1 1.000000
0  -1.399496 -2.571488 7.429742  -0.180273 -0.348643 0.919736  0.190668 0.712062 1 1 1.000000
0  0.000000 -4.043086 6.799256  0.000000 -0.592212 0.805750  0.220894 0.677760 1 1 1.000000
body.045
0  0.000000 -4.043086 6.799256  0.000000 -0.592212 0.805750  0.220894 0.677760 1 1 1.000000
0  -1.399496 -2.571488 7.429742  -0.180273 -0.348643 0.919736  0.190668 0.712062 1 1 1.000000
0  -1.601033 -3.888636 6.750780  -0.197150 -0.566027 0.800439  0.186158 0.681487 1 1 1.000000
body.045
0  -2.607277 -2.308002 7.128602  -0.366161 -0.288217 0.884762  0.164497 0.714574 1 1 1.000000
0  -3.627793 -2.603002 6.538658  -0.556108 -0.326548 0.764244  0.138060 0.708183 1 1 1.000000
0  -2.867354 -3.349266 6.613663  -0.408795 -0.482040 0.774895  0.158796 0.688930 1 1 1.000000
body.045
0  3.176602 -4.229472 5.662165  0.474349 -0.627766 0.617145  0.292230 0.657613 1 1 1.000000
0  4.322530 -2.974662 5.653985  0.669118 -0.403088 0.624287  0.329945 0.696727 1 1 1.000000
0  2.867354 -3.349266 6.613663  0.408795 -0.482040 0.774895  0.283213 0.689493 1 1 1.000000
body.045
0  2.867354 -3.349266 6.613663  0.408795 -0.482040 0.774895  0.283213 0.689493 1 1 1.000000
0  4.322530 -2.974662 5.653985  0.669118 -0.403088 0.624287  0.329945 0.696727 1 1 1.000000
0  3.627793 -2.603002 6.538658  0.556108 -0.326548 0.764244  0.302850 0.707924 1 1 1.000000
body.045
0  4.873192 -1.435243 5.669748  0.754753 -0.188360 0.628346  0.341108 0.728108 1 1 1.000000
0  4.077847 -1.321890 6.556523  0.626637 -0.168157 0.760949  0.315782 0.734351 1 1 1.000000
0  4.322530 -2.974662 5.653985  0.669118 -0.403088 0.624287  0.329945 0.696727 1 1 1.000000
body.045
0  4.322530 -2.974662 5.653985  0.669118 -0.403088 0.624287  0.329945 0.696727 1 1 1.000000
0  4.077847 -1.321890 6.556523  0.626637 -0.168157 0.760949  0.315782 0.734351 1 1 1.000000
0  3.627793 -2.603002 6.538658  0.556108 -0.326548 0.764244  0.302850 0.707924 1 1 1.000000
body.045
0  2.793038 -1.167169 7.382151  0.416761 -0.173040 0.892361  0.279613 0.739481 1 1 1.000000
0  2.607277 -2.308002 7.128602  0.366161 -0.288217 0.884762  0.277055 0.714848 1 1 1.000000
0  4.077847 -1.321890 6.556523  0.626637 -0.168157 0.760949  0.315782 0.734351 1 1 1.000000
body.045
0  4.077847 -1.321890 6.556523  0.626637 -0.168157 0.760949  0.315782 0.734351 1 1 1.000000
0  2.607277 -2.308002 7.128602  0.366161 -0.288217 0.884762  0.277055 0.714848 1 1 1.000000
0  3.627793 -2.603002 6.538658  0.556108 -0.326548 0.764244  0.302850 0.707924 1 1 1.000000
body.045
0  1.601033 -3.888636 6.750780  0.197150 -0.566027 0.800439  0.255735 0.681652 1 1 1.000000
0  2.867354 -3.349266 6.613663  0.408795 -0.482040 0.774895  0.283213 0.689493 1 1 1.000000
0  1.399496 -2.571488 7.429742  0.180273 -0.348643 0.919736  0.250853 0.711933 1 1 1.000000
body.045
0  1.399496 -2.571488 7.429742  0.180273 -0.348643 0.919736  0.250853 0.711933 1 1 1.000000
0  2.867354 -3.349266 6.613663  0.408795 -0.482040 0.774895  0.283213 0.689493 1 1 1.000000
0  2.607277 -2.308002 7.128602  0.366161 -0.288217 0.884762  0.277055 0.714848 1 1 1.000000
body.045
0  3.627793 -2.603002 6.538658  0.556108 -0.326548 0.764244  0.302850 0.707924 1 1 1.000000
0  2.607277 -2.308002 7.128602  0.366161 -0.288217 0.884762  0.277055 0.714848 1 1 1.000000
0  2.867354 -3.349266 6.613663  0.408795 -0.482040 0.774895  0.283213 0.689493 1 1 1.000000
body.045
0  -2.793038 -1.167169 7.382151  -0.416761 -0.173040 0.892361  0.161838 0.739328 1 1 1.000000
0  -4.077847 -1.321889 6.556523  -0.626637 -0.168157 0.760949  0.125231 0.734407 1 1 1.000000
0  -2.607277 -2.308002 7.128602  -0.366161 -0.288217 0.884762  0.164497 0.714574 1 1 1.000000
body.045
0  -2.607277 -2.308002 7.128602  -0.366161 -0.288217 0.884762  0.164497 0.714574 1 1 1.000000
0  -4.077847 -1.321889 6.556523  -0.626637 -0.168157 0.760949  0.125231 0.734407 1 1 1.000000
0  -3.627793 -2.603002 6.538658  -0.556108 -0.326548 0.764244  0.138060 0.708183 1 1 1.000000
body.045
0  -2.793038 -1.167169 7.382151  -0.416761 -0.173040 0.892361  0.161838 0.739328 1 1 1.000000
0  -2.607277 -2.308002 7.128602  -0.366161 -0.288217 0.884762  0.164497 0.714574 1 1 1.000000
0  -1.535324 -1.308336 7.757695  -0.189856 -0.187536 0.963713  0.188799 0.739103 1 1 1.000000
body.045
0  -1.535324 -1.308336 7.757695  -0.189856 -0.187536 0.963713  0.188799 0.739103 1 1 1.000000
0  -2.607277 -2.308002 7.128602  -0.366161 -0.288217 0.884762  0.164497 0.714574 1 1 1.000000
0  -1.399496 -2.571488 7.429742  -0.180273 -0.348643 0.919736  0.190668 0.712062 1 1 1.000000
body.045
0  -1.535324 -1.308336 7.757695  -0.189856 -0.187536 0.963713  0.188799 0.739103 1 1 1.000000
0  -1.399496 -2.571488 7.429742  -0.180273 -0.348643 0.919736  0.190668 0.712062 1 1 1.000000
0  0.000000 -1.428744 7.866047  0.000000 -0.183752 0.982940  0.220807 0.736919 1 1 1.000000
body.045
0  0.000000 -1.428744 7.866047  0.000000 -0.183752 0.982940  0.220807 0.736919 1 1 1.000000
0  -1.399496 -2.571488 7.429742  -0.180273 -0.348643 0.919736  0.190668 0.712062 1 1 1.000000
0  0.000000 -2.718725 7.524796  0.000000 -0.375896 0.926633  0.220747 0.709377 1 1 1.000000
body.045
0  1.535324 -1.308337 7.757695  0.189856 -0.187536 0.963713  0.252661 0.738744 1 1 1.000000
0  0.000000 -1.428744 7.866047  0.000000 -0.183752 0.982940  0.220807 0.736919 1 1 1.000000
0  1.399496 -2.571488 7.429742  0.180273 -0.348643 0.919736  0.250853 0.711933 1 1 1.000000
body.045
0  1.399496 -2.571488 7.429742  0.180273 -0.348643 0.919736  0.250853 0.711933 1 1 1.000000
0  0.000000 -1.428744 7.866047  0.000000 -0.183752 0.982940  0.220807 0.736919 1 1 1.000000
0  0.000000 -2.718725 7.524796  0.000000 -0.375896 0.926633  0.220747 0.709377 1 1 1.000000
body.045
0  2.793038 -1.167169 7.382151  0.416761 -0.173040 0.892361  0.279613 0.739481 1 1 1.000000
0  1.535324 -1.308337 7.757695  0.189856 -0.187536 0.963713  0.252661 0.738744 1 1 1.000000
0  2.607277 -2.308002 7.128602  0.366161 -0.288217 0.884762  0.277055 0.714848 1 1 1.000000
body.045
0  2.607277 -2.308002 7.128602  0.366161 -0.288217 0.884762  0.277055 0.714848 1 1 1.000000
0  1.535324 -1.308337 7.757695  0.189856 -0.187536 0.963713  0.252661 0.738744 1 1 1.000000
0  1.399496 -2.571488 7.429742  0.180273 -0.348643 0.919736  0.250853 0.711933 1 1 1.000000
body.045
0  3.408246 -4.843520 4.710668  0.523850 -0.742973 0.416578  0.300008 0.630620 1 1 1.000000
0  4.911421 -3.326743 4.710664  0.761925 -0.481033 0.433607  0.352997 0.682383 1 1 1.000000
0  3.176602 -4.229472 5.662165  0.474349 -0.627766 0.617145  0.292230 0.657613 1 1 1.000000
body.045
0  3.176602 -4.229472 5.662165  0.474349 -0.627766 0.617145  0.292230 0.657613 1 1 1.000000
0  4.911421 -3.326743 4.710664  0.761925 -0.481033 0.433607  0.352997 0.682383 1 1 1.000000
0  4.322530 -2.974662 5.653985  0.669118 -0.403088 0.624287  0.329945 0.696727 1 1 1.000000
body.045
0  4.873192 -1.435243 5.669748  0.754753 -0.188360 0.628346  0.341108 0.728108 1 1 1.000000
0  4.322530 -2.974662 5.653985  0.669118 -0.403088 0.624287  0.329945 0.696727 1 1 1.000000
0  5.564073 -1.551732 4.710664  0.869228 -0.214972 0.445204  0.364380 0.721543 1 1 1.000000
body.045
0  5.564073 -1.551732 4.710664  0.869228 -0.214972 0.445204  0.364380 0.721543 1 1 1.000000
0  4.322530 -2.974662 5.653985  0.669118 -0.403088 0.624287  0.329945 0.696727 1 1 1.000000
0  4.911421 -3.326743 4.710664  0.761925 -0.481033 0.433607  0.352997 0.682383 1 1 1.000000
body.045
0  -4.873192 -1.435243 5.669748  -0.754753 -0.188360 0.628346  0.100131 0.728032 1 1 1.000000
0  -5.564073 -1.551732 4.710664  -0.869228 -0.214972 0.445204  0.077295 0.721529 1 1 1.000000
0  -4.322530 -2.974662 5.653985  -0.669118 -0.403088 0.624287  0.111310 0.696740 1 1 1.000000
body.045
0  -4.322530 -2.974662 5.653985  -0.669118 -0.403088 0.624287  0.111310 0.696740 1 1 1.000000
0  -5.564073 -1.551732 4.710664  -0.869228 -0.214972 0.445204  0.077295 0.721529 1 1 1.000000
0  -4.911421 -3.326743 4.710664  -0.761925 -0.481033 0.433607  0.088563 0.682350 1 1 1.000000
body.045
0  -3.408246 -4.843520 4.710668  -0.523850 -0.742973 0.416578  0.142031 0.630217 1 1 1.000000
0  -3.176602 -4.229472 5.662165  -0.474349 -0.627766 0.617145  0.150066 0.656762 1 1 1.000000
0  -4.911421 -3.326743 4.710664  -0.761925 -0.481033 0.433607  0.088563 0.682350 1 1 1.000000
body.045
0  -4.911421 -3.326743 4.710664  -0.761925 -0.481033 0.433607  0.088563 0.682350 1 1 1.000000
0  -3.176602 -4.229472 5.662165  -0.474349 -0.627766 0.617145  0.150066 0.656762 1 1 1.000000
0  -4.322530 -2.974662 5.653985  -0.669118 -0.403088 0.624287  0.111310 0.696740 1 1 1.000000
body.045
0  7.038331 5.771172 1.084972  0.358867 0.258156 0.896969  0.921923 0.750190 1 1 1.000000
0  5.928012 4.778121 1.815027  0.433576 0.314127 0.844569  0.885313 0.695422 1 1 1.000000
0  8.245322 3.072891 1.309722  0.378430 0.107059 0.919401  0.957394 0.663743 1 1 1.000000
body.045
0  8.245322 3.072891 1.309722  0.378430 0.107059 0.919401  0.957394 0.663743 1 1 1.000000
0  5.928012 4.778121 1.815027  0.433576 0.314127 0.844569  0.885313 0.695422 1 1 1.000000
0  6.974021 2.466572 1.879272  0.477493 0.119816 0.870388  0.911969 0.635073 1 1 1.000000
body.045
0  8.245322 3.072891 1.309722  0.128788 0.008972 -0.991607  0.050843 0.312494 1 1 1.000000
0  6.150929 3.880100 1.020187  0.013001 -0.021546 -0.999664  0.115454 0.331458 1 1 1.000000
0  7.038331 5.771172 1.084972  0.045778 0.015534 -0.998810  0.086289 0.390035 1 1 1.000000
body.045
0  -8.245322 3.072891 1.309722  -0.128788 0.008972 -0.991607  0.447159 0.314456 1 1 1.000000
0  -7.038331 5.771172 1.084972  -0.035524 0.014893 -0.999237  0.411114 0.391353 1 1 1.000000
0  -6.150929 3.880100 1.020187  -0.008362 -0.017670 -0.999786  0.382329 0.332905 1 1 1.000000
body.045
0  4.848523 3.735512 4.718160  0.757775 0.471023 0.451521  0.361492 0.843019 1 1 1.000000
0  5.497231 4.306089 2.360527  0.792108 0.504196 0.343974  0.411856 0.874335 1 1 1.000000
0  3.492579 5.208880 4.710668  0.517533 0.715323 0.469497  0.303579 0.904592 1 1 1.000000
body.045
0  3.492579 5.208880 4.710668  0.517533 0.715323 0.469497  0.303579 0.904592 1 1 1.000000
0  5.497231 4.306089 2.360527  0.792108 0.504196 0.343974  0.411856 0.874335 1 1 1.000000
0  3.852834 6.153405 2.353033  0.532151 0.753471 0.386059  0.334058 0.962703 1 1 1.000000
body.045
0  3.646425 2.686759 6.662533  0.572375 0.275124 0.772423  0.310205 0.813418 1 1 1.000000
0  4.354346 3.294602 5.664309  0.680319 0.396741 0.616199  0.338064 0.829026 1 1 1.000000
0  2.823640 3.508653 6.824210  0.419080 0.437635 0.795495  0.285084 0.835809 1 1 1.000000
body.045
0  2.823640 3.508653 6.824210  0.419080 0.437635 0.795495  0.285084 0.835809 1 1 1.000000
0  4.354346 3.294602 5.664309  0.680319 0.396741 0.616199  0.338064 0.829026 1 1 1.000000
0  3.198337 4.499026 5.767439  0.478805 0.613575 0.627857  0.294017 0.873806 1 1 1.000000
body.045
0  5.497231 4.306089 2.360527  0.549425 0.350322 0.758507  0.869664 0.663887 1 1 1.000000
0  5.928012 4.778121 1.815027  0.433576 0.314127 0.844569  0.885313 0.695422 1 1 1.000000
0  3.852834 6.153405 2.353033  0.477737 0.752586 0.453139  0.810142 0.729040 1 1 1.000000
body.045
0  3.852834 6.153405 2.353033  0.477737 0.752586 0.453139  0.810142 0.729040 1 1 1.000000
0  5.928012 4.778121 1.815027  0.433576 0.314127 0.844569  0.885313 0.695422 1 1 1.000000
0  3.946106 6.349905 1.876503  0.367687 0.534989 0.760613  0.811775 0.740970 1 1 1.000000
body.045
0  -3.852834 6.153405 2.353033  -0.532151 0.753471 0.386059  0.107645 0.962703 1 1 1.000000
0  -5.497231 4.306089 2.360527  -0.792108 0.504196 0.343974  0.029847 0.874335 1 1 1.000000
0  -3.492579 5.208880 4.710668  -0.517533 0.715323 0.469497  0.137908 0.905100 1 1 1.000000
body.045
0  -3.492579 5.208880 4.710668  -0.517533 0.715323 0.469497  0.137908 0.905100 1 1 1.000000
0  -5.497231 4.306089 2.360527  -0.792108 0.504196 0.343974  0.029847 0.874335 1 1 1.000000
0  -4.848523 3.735512 4.718160  -0.757775 0.471023 0.451521  0.079807 0.842853 1 1 1.000000
body.045
0  -3.198337 4.499026 5.767439  -0.478805 0.613575 0.627857  0.147414 0.874160 1 1 1.000000
0  -4.354346 3.294602 5.664309  -0.680319 0.396741 0.616199  0.102595 0.828143 1 1 1.000000
0  -2.823640 3.508653 6.824210  -0.419080 0.437635 0.795495  0.155946 0.834493 1 1 1.000000
body.045
0  -2.823640 3.508653 6.824210  -0.419080 0.437635 0.795495  0.155946 0.834493 1 1 1.000000
0  -4.354346 3.294602 5.664309  -0.680319 0.396741 0.616199  0.102595 0.828143 1 1 1.000000
0  -3.646425 2.686759 6.662533  -0.572375 0.275124 0.772423  0.130099 0.811460 1 1 1.000000
body.045
0  -7.038331 5.771172 1.084972  -0.358867 0.258156 0.896969  0.530618 0.749576 1 1 1.000000
0  -5.928012 4.778121 1.815027  -0.433576 0.314127 0.844569  0.567488 0.694808 1 1 1.000000
0  -5.287217 7.806808 1.147263  -0.261361 0.254158 0.931150  0.575802 0.800097 1 1 1.000000
body.045
0  -5.287217 7.806808 1.147263  -0.261361 0.254158 0.931150  0.575802 0.800097 1 1 1.000000
0  -5.928012 4.778121 1.815027  -0.433576 0.314127 0.844569  0.567488 0.694808 1 1 1.000000
0  -3.946106 6.349905 1.876503  -0.367687 0.534989 0.760613  0.640644 0.740471 1 1 1.000000
body.045
0  -3.946106 6.349905 1.876503  -0.367687 0.534989 0.760613  0.640644 0.740471 1 1 1.000000
0  -5.928012 4.778121 1.815027  -0.433576 0.314127 0.844569  0.567488 0.694808 1 1 1.000000
0  -3.852834 6.153405 2.353033  -0.477737 0.752586 0.453139  0.642894 0.728728 1 1 1.000000
body.045
0  -3.852834 6.153405 2.353033  -0.477737 0.752586 0.453139  0.642894 0.728728 1 1 1.000000
0  -5.928012 4.778121 1.815027  -0.433576 0.314127 0.844569  0.567488 0.694808 1 1 1.000000
0  -5.497231 4.306089 2.360527  -0.549425 0.350322 0.758507  0.583502 0.663424 1 1 1.000000
body.045
0  3.646425 2.686759 6.662533  0.572375 0.275124 0.772423  0.310205 0.813418 1 1 1.000000
0  2.823640 3.508653 6.824210  0.419080 0.437635 0.795495  0.285084 0.835809 1 1 1.000000
0  2.634010 2.247629 7.289433  0.388714 0.202185 0.898862  0.281141 0.809704 1 1 1.000000
body.045
0  1.540048 4.156780 6.930359  0.207709 0.554369 0.805902  0.255299 0.848350 1 1 1.000000
0  1.389947 2.350326 7.705772  0.199744 0.238197 0.950438  0.251894 0.813560 1 1 1.000000
0  2.823640 3.508653 6.824210  0.419080 0.437635 0.795495  0.285084 0.835809 1 1 1.000000
body.045
0  2.823640 3.508653 6.824210  0.419080 0.437635 0.795495  0.285084 0.835809 1 1 1.000000
0  1.389947 2.350326 7.705772  0.199744 0.238197 0.950438  0.251894 0.813560 1 1 1.000000
0  2.634010 2.247629 7.289433  0.388714 0.202185 0.898862  0.281141 0.809704 1 1 1.000000
body.045
0  0.000000 4.296043 7.013243  0.000000 0.573748 0.818995  0.220735 0.851637 1 1 1.000000
0  0.000000 2.523539 7.812207  0.000000 0.267525 0.963530  0.220497 0.817503 1 1 1.000000
0  1.540048 4.156780 6.930359  0.207709 0.554369 0.805902  0.255299 0.848350 1 1 1.000000
body.045
0  1.540048 4.156780 6.930359  0.207709 0.554369 0.805902  0.255299 0.848350 1 1 1.000000
0  0.000000 2.523539 7.812207  0.000000 0.267525 0.963530  0.220497 0.817503 1 1 1.000000
0  1.389947 2.350326 7.705772  0.199744 0.238197 0.950438  0.251894 0.813560 1 1 1.000000
body.045
0  -3.646425 2.686759 6.662533  -0.572375 0.275124 0.772423  0.130099 0.811460 1 1 1.000000
0  -2.634010 2.247629 7.289433  -0.388714 0.202185 0.898862  0.159637 0.808769 1 1 1.000000
0  -2.823640 3.508653 6.824210  -0.419080 0.437635 0.795495  0.155946 0.834493 1 1 1.000000
body.045
0  -1.540048 4.156780 6.930359  -0.207709 0.554369 0.805902  0.186083 0.847400 1 1 1.000000
0  -2.823640 3.508653 6.824210  -0.419080 0.437635 0.795495  0.155946 0.834493 1 1 1.000000
0  -1.389947 2.350326 7.705771  -0.199744 0.238197 0.950438  0.189001 0.813078 1 1 1.000000
body.045
0  -1.389947 2.350326 7.705771  -0.199744 0.238197 0.950438  0.189001 0.813078 1 1 1.000000
0  -2.823640 3.508653 6.824210  -0.419080 0.437635 0.795495  0.155946 0.834493 1 1 1.000000
0  -2.634010 2.247629 7.289433  -0.388714 0.202185 0.898862  0.159637 0.808769 1 1 1.000000
body.045
0  0.000000 4.296043 7.013243  0.000000 0.573748 0.818995  0.220735 0.851637 1 1 1.000000
0  -1.540048 4.156780 6.930359  -0.207709 0.554369 0.805902  0.186083 0.847400 1 1 1.000000
0  0.000000 2.523539 7.812207  0.000000 0.267525 0.963530  0.220497 0.817503 1 1 1.000000
body.045
0  0.000000 2.523539 7.812207  0.000000 0.267525 0.963530  0.220497 0.817503 1 1 1.000000
0  -1.540048 4.156780 6.930359  -0.207709 0.554369 0.805902  0.186083 0.847400 1 1 1.000000
0  -1.389947 2.350326 7.705771  -0.199744 0.238197 0.950438  0.189001 0.813078 1 1 1.000000
body.045
0  4.354346 3.294602 5.664309  0.680319 0.396741 0.616199  0.338064 0.829026 1 1 1.000000
0  4.848523 3.735512 4.718160  0.757775 0.471023 0.451521  0.361492 0.843019 1 1 1.000000
0  3.198337 4.499026 5.767439  0.478805 0.613575 0.627857  0.294017 0.873806 1 1 1.000000
body.045
0  3.198337 4.499026 5.767439  0.478805 0.613575 0.627857  0.294017 0.873806 1 1 1.000000
0  4.848523 3.735512 4.718160  0.757775 0.471023 0.451521  0.361492 0.843019 1 1 1.000000
0  3.492579 5.208880 4.710668  0.517533 0.715323 0.469497  0.303579 0.904592 1 1 1.000000
body.045
0  -4.354346 3.294602 5.664309  -0.680319 0.396741 0.616199  0.102595 0.828143 1 1 1.000000
0  -3.198337 4.499026 5.767439  -0.478805 0.613575 0.627857  0.147414 0.874160 1 1 1.000000
0  -4.848523 3.735512 4.718160  -0.757775 0.471023 0.451521  0.079807 0.842853 1 1 1.000000
body.045
0  -4.848523 3.735512 4.718160  -0.757775 0.471023 0.451521  0.079807 0.842853 1 1 1.000000
0  -3.198337 4.499026 5.767439  -0.478805 0.613575 0.627857  0.147414 0.874160 1 1 1.000000
0  -3.492579 5.208880 4.710668  -0.517533 0.715323 0.469497  0.137908 0.905100 1 1 1.000000
body.045
0  6.333848 2.258859 2.353032  0.909787 0.245308 0.334758  0.422782 0.820476 1 1 1.000000
0  5.541125 1.934648 4.710665  0.864589 0.222510 0.450484  0.369312 0.802392 1 1 1.000000
0  6.597097 0.425262 2.353032  0.945799 0.010407 0.324564  0.433709 0.766618 1 1 1.000000
body.045
0  6.597097 0.425262 2.353032  0.945799 0.010407 0.324564  0.433709 0.766618 1 1 1.000000
0  5.541125 1.934648 4.710665  0.864589 0.222510 0.450484  0.369312 0.802392 1 1 1.000000
0  5.791976 0.225980 4.710664  0.891446 0.002167 0.453078  0.376543 0.762523 1 1 1.000000
body.045
0  8.343431 0.660749 1.218473  0.491989 -0.090609 0.865841  0.969533 0.595572 1 1 1.000000
0  7.410723 0.498228 1.758085  0.550462 -0.088198 0.830164  0.922851 0.589527 1 1 1.000000
0  7.803838 -1.959096 0.803509  0.541459 -0.257088 0.800439  0.965887 0.523377 1 1 1.000000
body.045
0  7.803838 -1.959096 0.803509  0.541459 -0.257088 0.800439  0.965887 0.523377 1 1 1.000000
0  7.410723 0.498228 1.758085  0.550462 -0.088198 0.830164  0.922851 0.589527 1 1 1.000000
0  6.892206 -1.717146 1.489071  0.655538 -0.251564 0.711997  0.907531 0.529536 1 1 1.000000
body.045
0  6.333848 2.258859 2.353032  0.556871 0.147893 0.817316  0.876723 0.622682 1 1 1.000000
0  6.597097 0.425262 2.353032  0.627827 -0.067934 0.775353  0.883781 0.581476 1 1 1.000000
0  6.974021 2.466572 1.879272  0.477493 0.119816 0.870388  0.911969 0.635073 1 1 1.000000
body.045
0  6.974021 2.466572 1.879272  0.477493 0.119816 0.870388  0.911969 0.635073 1 1 1.000000
0  6.597097 0.425262 2.353032  0.627827 -0.067934 0.775353  0.883781 0.581476 1 1 1.000000
0  7.410723 0.498228 1.758085  0.550462 -0.088198 0.830164  0.922851 0.589527 1 1 1.000000
body.045
0  8.245322 3.072891 1.309722  0.378430 0.107059 0.919401  0.957394 0.663743 1 1 1.000000
0  6.974021 2.466572 1.879272  0.477493 0.119816 0.870388  0.911969 0.635073 1 1 1.000000
0  8.343431 0.660749 1.218473  0.491989 -0.090609 0.865841  0.969533 0.595572 1 1 1.000000
body.045
0  8.343431 0.660749 1.218473  0.491989 -0.090609 0.865841  0.969533 0.595572 1 1 1.000000
0  6.974021 2.466572 1.879272  0.477493 0.119816 0.870388  0.911969 0.635073 1 1 1.000000
0  7.410723 0.498228 1.758085  0.550462 -0.088198 0.830164  0.922851 0.589527 1 1 1.000000
body.045
0  -6.333848 2.258858 2.353032  -0.909787 0.245308 0.334758  0.018921 0.820476 1 1 1.000000
0  -6.597097 0.425261 2.353032  -0.945799 0.010407 0.324564  0.007994 0.766618 1 1 1.000000
0  -5.541124 1.934648 4.710665  -0.864589 0.222510 0.450484  0.072229 0.802292 1 1 1.000000
body.045
0  -5.541124 1.934648 4.710665  -0.864589 0.222510 0.450484  0.072229 0.802292 1 1 1.000000
0  -6.597097 0.425261 2.353032  -0.945799 0.010407 0.324564  0.007994 0.766618 1 1 1.000000
0  -5.791976 0.225980 4.710664  -0.891446 0.002167 0.453078  0.065053 0.762478 1 1 1.000000
body.045
0  -6.333848 2.258858 2.353032  -0.556871 0.147893 0.817316  0.576493 0.622200 1 1 1.000000
0  -6.974021 2.466572 1.879272  -0.477493 0.119816 0.870388  0.540998 0.634312 1 1 1.000000
0  -6.597097 0.425261 2.353032  -0.627827 -0.067934 0.775353  0.569484 0.580976 1 1 1.000000
body.045
0  -6.597097 0.425261 2.353032  -0.627827 -0.067934 0.775353  0.569484 0.580976 1 1 1.000000
0  -6.974021 2.466572 1.879272  -0.477493 0.119816 0.870388  0.540998 0.634312 1 1 1.000000
0  -7.410723 0.498228 1.758085  -0.550462 -0.088198 0.830164  0.530175 0.588642 1 1 1.000000
body.045
0  -8.245322 3.072891 1.309722  -0.378430 0.107059 0.919401  0.494472 0.660305 1 1 1.000000
0  -8.343431 0.660749 1.218473  -0.491989 -0.090609 0.865841  0.486399 0.598598 1 1 1.000000
0  -6.974021 2.466572 1.879272  -0.477493 0.119816 0.870388  0.540998 0.634312 1 1 1.000000
body.045
0  -6.974021 2.466572 1.879272  -0.477493 0.119816 0.870388  0.540998 0.634312 1 1 1.000000
0  -8.343431 0.660749 1.218473  -0.491989 -0.090609 0.865841  0.486399 0.598598 1 1 1.000000
0  -7.410723 0.498228 1.758085  -0.550462 -0.088198 0.830164  0.530175 0.588642 1 1 1.000000
body.045
0  4.912634 1.712594 5.674910  0.760521 0.174993 0.625233  0.344121 0.795262 1 1 1.000000
0  4.076124 1.413793 6.608159  0.624622 0.120975 0.771477  0.315988 0.788711 1 1 1.000000
0  5.075596 0.103927 5.685512  0.771813 -0.013337 0.635670  0.348123 0.753500 1 1 1.000000
body.045
0  5.075596 0.103927 5.685512  0.771813 -0.013337 0.635670  0.348123 0.753500 1 1 1.000000
0  4.076124 1.413793 6.608159  0.624622 0.120975 0.771477  0.315988 0.788711 1 1 1.000000
0  4.232260 0.004750 6.589163  0.644124 -0.018128 0.764702  0.317277 0.753871 1 1 1.000000
body.045
0  -4.912634 1.712593 5.674910  -0.760521 0.174993 0.625233  0.096706 0.794541 1 1 1.000000
0  -5.075596 0.103927 5.685512  -0.771813 -0.013337 0.635670  0.092903 0.753174 1 1 1.000000
0  -4.076124 1.413793 6.608159  -0.624622 0.120975 0.771477  0.124634 0.787437 1 1 1.000000
body.045
0  -4.076124 1.413793 6.608159  -0.624622 0.120975 0.771477  0.124634 0.787437 1 1 1.000000
0  -5.075596 0.103927 5.685512  -0.771813 -0.013337 0.635670  0.092903 0.753174 1 1 1.000000
0  -4.232260 0.004750 6.589163  -0.644124 -0.018128 0.764702  0.123656 0.753436 1 1 1.000000
body.045
0  0.000000 1.191910 7.966828  0.000000 0.067598 0.997711  0.220769 0.791006 1 1 1.000000
0  0.000000 -0.202756 7.992072  0.000000 -0.039613 0.999207  0.220849 0.762460 1 1 1.000000
0  1.546053 1.105488 7.831877  0.203619 0.083254 0.975494  0.253562 0.788374 1 1 1.000000
body.045
0  1.546053 1.105488 7.831877  0.203619 0.083254 0.975494  0.253562 0.788374 1 1 1.000000
0  0.000000 -0.202756 7.992072  0.000000 -0.039613 0.999207  0.220849 0.762460 1 1 1.000000
0  1.637239 -0.176995 7.870420  0.200293 -0.033052 0.979156  0.254618 0.762190 1 1 1.000000
body.045
0  -4.076124 1.413793 6.608159  -0.624622 0.120975 0.771477  0.124634 0.787437 1 1 1.000000
0  -4.232260 0.004750 6.589163  -0.644124 -0.018128 0.764702  0.123656 0.753436 1 1 1.000000
0  -2.845248 1.066670 7.406363  -0.423719 0.098300 0.900418  0.158293 0.784896 1 1 1.000000
body.045
0  -2.845248 1.066670 7.406363  -0.423719 0.098300 0.900418  0.158293 0.784896 1 1 1.000000
0  -4.232260 0.004750 6.589163  -0.644124 -0.018128 0.764702  0.123656 0.753436 1 1 1.000000
0  -2.854616 -0.128170 7.455575  -0.431104 -0.024140 0.901944  0.160171 0.760875 1 1 1.000000
body.045
0  -1.546053 1.105488 7.831877  -0.203619 0.083254 0.975494  0.187677 0.788409 1 1 1.000000
0  -2.845248 1.066670 7.406363  -0.423719 0.098300 0.900418  0.158293 0.784896 1 1 1.000000
0  -1.637239 -0.176995 7.870420  -0.200293 -0.033052 0.979156  0.186803 0.762541 1 1 1.000000
body.045
0  -1.637239 -0.176995 7.870420  -0.200293 -0.033052 0.979156  0.186803 0.762541 1 1 1.000000
0  -2.845248 1.066670 7.406363  -0.423719 0.098300 0.900418  0.158293 0.784896 1 1 1.000000
0  -2.854616 -0.128170 7.455575  -0.431104 -0.024140 0.901944  0.160171 0.760875 1 1 1.000000
body.045
0  0.000000 1.191910 7.966828  0.000000 0.067598 0.997711  0.220769 0.791006 1 1 1.000000
0  -1.546053 1.105488 7.831877  -0.203619 0.083254 0.975494  0.187677 0.788409 1 1 1.000000
0  0.000000 -0.202756 7.992072  0.000000 -0.039613 0.999207  0.220849 0.762460 1 1 1.000000
body.045
0  0.000000 -0.202756 7.992072  0.000000 -0.039613 0.999207  0.220849 0.762460 1 1 1.000000
0  -1.546053 1.105488 7.831877  -0.203619 0.083254 0.975494  0.187677 0.788409 1 1 1.000000
0  -1.637239 -0.176995 7.870420  -0.200293 -0.033052 0.979156  0.186803 0.762541 1 1 1.000000
body.045
0  4.076124 1.413793 6.608159  0.624622 0.120975 0.771477  0.315988 0.788711 1 1 1.000000
0  2.845248 1.066670 7.406363  0.423719 0.098300 0.900418  0.282847 0.785377 1 1 1.000000
0  4.232260 0.004750 6.589163  0.644124 -0.018128 0.764702  0.317277 0.753871 1 1 1.000000
body.045
0  4.232260 0.004750 6.589163  0.644124 -0.018128 0.764702  0.317277 0.753871 1 1 1.000000
0  2.845248 1.066670 7.406363  0.423719 0.098300 0.900418  0.282847 0.785377 1 1 1.000000
0  2.854616 -0.128170 7.455576  0.431104 -0.024140 0.901944  0.281221 0.761065 1 1 1.000000
body.045
0  1.546053 1.105488 7.831877  0.203619 0.083254 0.975494  0.253562 0.788374 1 1 1.000000
0  1.637239 -0.176995 7.870420  0.200293 -0.033052 0.979156  0.254618 0.762190 1 1 1.000000
0  2.845248 1.066670 7.406363  0.423719 0.098300 0.900418  0.282847 0.785377 1 1 1.000000
body.045
0  2.845248 1.066670 7.406363  0.423719 0.098300 0.900418  0.282847 0.785377 1 1 1.000000
0  1.637239 -0.176995 7.870420  0.200293 -0.033052 0.979156  0.254618 0.762190 1 1 1.000000
0  2.854616 -0.128170 7.455576  0.431104 -0.024140 0.901944  0.281221 0.761065 1 1 1.000000
body.045
0  5.541125 1.934648 4.710665  0.864589 0.222510 0.450484  0.369312 0.802392 1 1 1.000000
0  4.912634 1.712594 5.674910  0.760521 0.174993 0.625233  0.344121 0.795262 1 1 1.000000
0  5.791976 0.225980 4.710664  0.891446 0.002167 0.453078  0.376543 0.762523 1 1 1.000000
body.045
0  5.791976 0.225980 4.710664  0.891446 0.002167 0.453078  0.376543 0.762523 1 1 1.000000
0  4.912634 1.712594 5.674910  0.760521 0.174993 0.625233  0.344121 0.795262 1 1 1.000000
0  5.075596 0.103927 5.685512  0.771813 -0.013337 0.635670  0.348123 0.753500 1 1 1.000000
body.045
0  -5.541124 1.934648 4.710665  -0.864589 0.222510 0.450484  0.072229 0.802292 1 1 1.000000
0  -5.791976 0.225980 4.710664  -0.891446 0.002167 0.453078  0.065053 0.762478 1 1 1.000000
0  -4.912634 1.712593 5.674910  -0.760521 0.174993 0.625233  0.096706 0.794541 1 1 1.000000
body.045
0  -4.912634 1.712593 5.674910  -0.760521 0.174993 0.625233  0.096706 0.794541 1 1 1.000000
0  -5.791976 0.225980 4.710664  -0.891446 0.002167 0.453078  0.065053 0.762478 1 1 1.000000
0  -5.075596 0.103927 5.685512  -0.771813 -0.013337 0.635670  0.092903 0.753174 1 1 1.000000
body.045
0  6.320535 -1.610032 2.353033  0.808496 -0.229255 0.541978  0.871337 0.540148 1 1 1.000000
0  6.892206 -1.717146 1.489071  0.655538 -0.251564 0.711997  0.907531 0.529536 1 1 1.000000
0  6.597097 0.425262 2.353032  0.627827 -0.067934 0.775353  0.883781 0.581476 1 1 1.000000
body.045
0  6.597097 0.425262 2.353032  0.627827 -0.067934 0.775353  0.883781 0.581476 1 1 1.000000
0  6.892206 -1.717146 1.489071  0.655538 -0.251564 0.711997  0.907531 0.529536 1 1 1.000000
0  7.410723 0.498228 1.758085  0.550462 -0.088198 0.830164  0.922851 0.589527 1 1 1.000000
body.045
0  5.564073 -1.551732 4.710664  0.869228 -0.214972 0.445204  0.364380 0.721543 1 1 1.000000
0  6.320535 -1.610032 2.353033  0.925047 -0.227485 0.304117  0.418785 0.710693 1 1 1.000000
0  5.791976 0.225980 4.710664  0.891446 0.002167 0.453078  0.376543 0.762523 1 1 1.000000
body.045
0  5.791976 0.225980 4.710664  0.891446 0.002167 0.453078  0.376543 0.762523 1 1 1.000000
0  6.320535 -1.610032 2.353033  0.925047 -0.227485 0.304117  0.418785 0.710693 1 1 1.000000
0  6.597097 0.425262 2.353032  0.945799 0.010407 0.324564  0.433709 0.766618 1 1 1.000000
body.045
0  4.873192 -1.435243 5.669748  0.754753 -0.188360 0.628346  0.341108 0.728108 1 1 1.000000
0  5.564073 -1.551732 4.710664  0.869228 -0.214972 0.445204  0.364380 0.721543 1 1 1.000000
0  5.075596 0.103927 5.685512  0.771813 -0.013337 0.635670  0.348123 0.753500 1 1 1.000000
body.045
0  5.075596 0.103927 5.685512  0.771813 -0.013337 0.635670  0.348123 0.753500 1 1 1.000000
0  5.564073 -1.551732 4.710664  0.869228 -0.214972 0.445204  0.364380 0.721543 1 1 1.000000
0  5.791976 0.225980 4.710664  0.891446 0.002167 0.453078  0.376543 0.762523 1 1 1.000000
body.045
0  4.077847 -1.321890 6.556523  0.626637 -0.168157 0.760949  0.315782 0.734351 1 1 1.000000
0  4.873192 -1.435243 5.669748  0.754753 -0.188360 0.628346  0.341108 0.728108 1 1 1.000000
0  4.232260 0.004750 6.589163  0.644124 -0.018128 0.764702  0.317277 0.753871 1 1 1.000000
body.045
0  4.232260 0.004750 6.589163  0.644124 -0.018128 0.764702  0.317277 0.753871 1 1 1.000000
0  4.873192 -1.435243 5.669748  0.754753 -0.188360 0.628346  0.341108 0.728108 1 1 1.000000
0  5.075596 0.103927 5.685512  0.771813 -0.013337 0.635670  0.348123 0.753500 1 1 1.000000
body.045
0  2.793038 -1.167169 7.382151  0.416761 -0.173040 0.892361  0.279613 0.739481 1 1 1.000000
0  4.077847 -1.321890 6.556523  0.626637 -0.168157 0.760949  0.315782 0.734351 1 1 1.000000
0  2.854616 -0.128170 7.455576  0.431104 -0.024140 0.901944  0.281221 0.761065 1 1 1.000000
body.045
0  2.854616 -0.128170 7.455576  0.431104 -0.024140 0.901944  0.281221 0.761065 1 1 1.000000
0  4.077847 -1.321890 6.556523  0.626637 -0.168157 0.760949  0.315782 0.734351 1 1 1.000000
0  4.232260 0.004750 6.589163  0.644124 -0.018128 0.764702  0.317277 0.753871 1 1 1.000000
body.045
0  1.535324 -1.308337 7.757695  0.189856 -0.187536 0.963713  0.252661 0.738744 1 1 1.000000
0  2.793038 -1.167169 7.382151  0.416761 -0.173040 0.892361  0.279613 0.739481 1 1 1.000000
0  1.637239 -0.176995 7.870420  0.200293 -0.033052 0.979156  0.254618 0.762190 1 1 1.000000
body.045
0  1.637239 -0.176995 7.870420  0.200293 -0.033052 0.979156  0.254618 0.762190 1 1 1.000000
0  2.793038 -1.167169 7.382151  0.416761 -0.173040 0.892361  0.279613 0.739481 1 1 1.000000
0  2.854616 -0.128170 7.455576  0.431104 -0.024140 0.901944  0.281221 0.761065 1 1 1.000000
body.045
0  0.000000 -1.428744 7.866047  0.000000 -0.183752 0.982940  0.220807 0.736919 1 1 1.000000
0  1.535324 -1.308337 7.757695  0.189856 -0.187536 0.963713  0.252661 0.738744 1 1 1.000000
0  0.000000 -0.202756 7.992072  0.000000 -0.039613 0.999207  0.220849 0.762460 1 1 1.000000
body.045
0  0.000000 -0.202756 7.992072  0.000000 -0.039613 0.999207  0.220849 0.762460 1 1 1.000000
0  1.535324 -1.308337 7.757695  0.189856 -0.187536 0.963713  0.252661 0.738744 1 1 1.000000
0  1.637239 -0.176995 7.870420  0.200293 -0.033052 0.979156  0.254618 0.762190 1 1 1.000000
body.045
0  0.000000 -1.428744 7.866047  0.000000 -0.183752 0.982940  0.220807 0.736919 1 1 1.000000
0  0.000000 -0.202756 7.992072  0.000000 -0.039613 0.999207  0.220849 0.762460 1 1 1.000000
0  -1.535324 -1.308336 7.757695  -0.189856 -0.187536 0.963713  0.188799 0.739103 1 1 1.000000
body.045
0  -1.535324 -1.308336 7.757695  -0.189856 -0.187536 0.963713  0.188799 0.739103 1 1 1.000000
0  0.000000 -0.202756 7.992072  0.000000 -0.039613 0.999207  0.220849 0.762460 1 1 1.000000
0  -1.637239 -0.176995 7.870420  -0.200293 -0.033052 0.979156  0.186803 0.762541 1 1 1.000000
body.045
0  -2.854616 -0.128170 7.455575  -0.431104 -0.024140 0.901944  0.160171 0.760875 1 1 1.000000
0  -2.793038 -1.167169 7.382151  -0.416761 -0.173040 0.892361  0.161838 0.739328 1 1 1.000000
0  -1.637239 -0.176995 7.870420  -0.200293 -0.033052 0.979156  0.186803 0.762541 1 1 1.000000
body.045
0  -1.637239 -0.176995 7.870420  -0.200293 -0.033052 0.979156  0.186803 0.762541 1 1 1.000000
0  -2.793038 -1.167169 7.382151  -0.416761 -0.173040 0.892361  0.161838 0.739328 1 1 1.000000
0  -1.535324 -1.308336 7.757695  -0.189856 -0.187536 0.963713  0.188799 0.739103 1 1 1.000000
body.045
0  -2.793038 -1.167169 7.382151  -0.416761 -0.173040 0.892361  0.161838 0.739328 1 1 1.000000
0  -2.854616 -0.128170 7.455575  -0.431104 -0.024140 0.901944  0.160171 0.760875 1 1 1.000000
0  -4.077847 -1.321889 6.556523  -0.626637 -0.168157 0.760949  0.125231 0.734407 1 1 1.000000
body.045
0  -4.077847 -1.321889 6.556523  -0.626637 -0.168157 0.760949  0.125231 0.734407 1 1 1.000000
0  -2.854616 -0.128170 7.455575  -0.431104 -0.024140 0.901944  0.160171 0.760875 1 1 1.000000
0  -4.232260 0.004750 6.589163  -0.644124 -0.018128 0.764702  0.123656 0.753436 1 1 1.000000
body.045
0  -4.077847 -1.321889 6.556523  -0.626637 -0.168157 0.760949  0.125231 0.734407 1 1 1.000000
0  -4.232260 0.004750 6.589163  -0.644124 -0.018128 0.764702  0.123656 0.753436 1 1 1.000000
0  -4.873192 -1.435243 5.669748  -0.754753 -0.188360 0.628346  0.100131 0.728032 1 1 1.000000
body.045
0  -4.873192 -1.435243 5.669748  -0.754753 -0.188360 0.628346  0.100131 0.728032 1 1 1.000000
0  -4.232260 0.004750 6.589163  -0.644124 -0.018128 0.764702  0.123656 0.753436 1 1 1.000000
0  -5.075596 0.103927 5.685512  -0.771813 -0.013337 0.635670  0.092903 0.753174 1 1 1.000000
body.045
0  -4.873192 -1.435243 5.669748  -0.754753 -0.188360 0.628346  0.100131 0.728032 1 1 1.000000
0  -5.075596 0.103927 5.685512  -0.771813 -0.013337 0.635670  0.092903 0.753174 1 1 1.000000
0  -5.564073 -1.551732 4.710664  -0.869228 -0.214972 0.445204  0.077295 0.721529 1 1 1.000000
body.045
0  -5.564073 -1.551732 4.710664  -0.869228 -0.214972 0.445204  0.077295 0.721529 1 1 1.000000
0  -5.075596 0.103927 5.685512  -0.771813 -0.013337 0.635670  0.092903 0.753174 1 1 1.000000
0  -5.791976 0.225980 4.710664  -0.891446 0.002167 0.453078  0.065053 0.762478 1 1 1.000000
body.045
0  -5.564073 -1.551732 4.710664  -0.869228 -0.214972 0.445204  0.077295 0.721529 1 1 1.000000
0  -5.791976 0.225980 4.710664  -0.891446 0.002167 0.453078  0.065053 0.762478 1 1 1.000000
0  -6.320535 -1.610033 2.353033  -0.925047 -0.227485 0.304117  0.022918 0.710693 1 1 1.000000
body.045
0  -6.320535 -1.610033 2.353033  -0.925047 -0.227485 0.304117  0.022918 0.710693 1 1 1.000000
0  -5.791976 0.225980 4.710664  -0.891446 0.002167 0.453078  0.065053 0.762478 1 1 1.000000
0  -6.597097 0.425261 2.353032  -0.945799 0.010407 0.324564  0.007994 0.766618 1 1 1.000000
body.045
0  -6.320535 -1.610033 2.353033  -0.808496 -0.229255 0.541978  0.581879 0.539629 1 1 1.000000
0  -6.597097 0.425261 2.353032  -0.627827 -0.067934 0.775353  0.569484 0.580976 1 1 1.000000
0  -6.892205 -1.717146 1.489071  -0.655538 -0.251564 0.711997  0.545381 0.528217 1 1 1.000000
body.045
0  -6.892205 -1.717146 1.489071  -0.655538 -0.251564 0.711997  0.545381 0.528217 1 1 1.000000
0  -6.597097 0.425261 2.353032  -0.627827 -0.067934 0.775353  0.569484 0.580976 1 1 1.000000
0  -7.410723 0.498228 1.758085  -0.550462 -0.088198 0.830164  0.530175 0.588642 1 1 1.000000
body.045
0  -6.892205 -1.717146 1.489071  -0.655538 -0.251564 0.711997  0.545381 0.528217 1 1 1.000000
0  -7.410723 0.498228 1.758085  -0.550462 -0.088198 0.830164  0.530175 0.588642 1 1 1.000000
0  -7.803838 -1.959096 0.803509  -0.541459 -0.257088 0.800439  0.489558 0.520083 1 1 1.000000
body.045
0  -7.803838 -1.959096 0.803509  -0.541459 -0.257088 0.800439  0.489558 0.520083 1 1 1.000000
0  -7.410723 0.498228 1.758085  -0.550462 -0.088198 0.830164  0.530175 0.588642 1 1 1.000000
0  -8.343431 0.660749 1.218473  -0.491989 -0.090609 0.865841  0.486399 0.598598 1 1 1.000000
body.045
0  6.333848 2.258859 2.353032  0.556871 0.147893 0.817316  0.876723 0.622682 1 1 1.000000
0  6.974021 2.466572 1.879272  0.477493 0.119816 0.870388  0.911969 0.635073 1 1 1.000000
0  5.497231 4.306089 2.360527  0.549425 0.350322 0.758507  0.869664 0.663887 1 1 1.000000
body.045
0  5.497231 4.306089 2.360527  0.549425 0.350322 0.758507  0.869664 0.663887 1 1 1.000000
0  6.974021 2.466572 1.879272  0.477493 0.119816 0.870388  0.911969 0.635073 1 1 1.000000
0  5.928012 4.778121 1.815027  0.433576 0.314127 0.844569  0.885313 0.695422 1 1 1.000000
body.045
0  5.541125 1.934648 4.710665  0.864589 0.222510 0.450484  0.369312 0.802392 1 1 1.000000
0  6.333848 2.258859 2.353032  0.909787 0.245308 0.334758  0.422782 0.820476 1 1 1.000000
0  4.848523 3.735512 4.718160  0.757775 0.471023 0.451521  0.361492 0.843019 1 1 1.000000
body.045
0  4.848523 3.735512 4.718160  0.757775 0.471023 0.451521  0.361492 0.843019 1 1 1.000000
0  6.333848 2.258859 2.353032  0.909787 0.245308 0.334758  0.422782 0.820476 1 1 1.000000
0  5.497231 4.306089 2.360527  0.792108 0.504196 0.343974  0.411856 0.874335 1 1 1.000000
body.045
0  4.912634 1.712594 5.674910  0.760521 0.174993 0.625233  0.344121 0.795262 1 1 1.000000
0  5.541125 1.934648 4.710665  0.864589 0.222510 0.450484  0.369312 0.802392 1 1 1.000000
0  4.354346 3.294602 5.664309  0.680319 0.396741 0.616199  0.338064 0.829026 1 1 1.000000
body.045
0  4.354346 3.294602 5.664309  0.680319 0.396741 0.616199  0.338064 0.829026 1 1 1.000000
0  5.541125 1.934648 4.710665  0.864589 0.222510 0.450484  0.369312 0.802392 1 1 1.000000
0  4.848523 3.735512 4.718160  0.757775 0.471023 0.451521  0.361492 0.843019 1 1 1.000000
body.045
0  4.076124 1.413793 6.608159  0.624622 0.120975 0.771477  0.315988 0.788711 1 1 1.000000
0  4.912634 1.712594 5.674910  0.760521 0.174993 0.625233  0.344121 0.795262 1 1 1.000000
0  3.646425 2.686759 6.662533  0.572375 0.275124 0.772423  0.310205 0.813418 1 1 1.000000
body.045
0  3.646425 2.686759 6.662533  0.572375 0.275124 0.772423  0.310205 0.813418 1 1 1.000000
0  4.912634 1.712594 5.674910  0.760521 0.174993 0.625233  0.344121 0.795262 1 1 1.000000
0  4.354346 3.294602 5.664309  0.680319 0.396741 0.616199  0.338064 0.829026 1 1 1.000000
body.045
0  2.845248 1.066670 7.406363  0.423719 0.098300 0.900418  0.282847 0.785377 1 1 1.000000
0  4.076124 1.413793 6.608159  0.624622 0.120975 0.771477  0.315988 0.788711 1 1 1.000000
0  2.634010 2.247629 7.289433  0.388714 0.202185 0.898862  0.281141 0.809704 1 1 1.000000
body.045
0  2.634010 2.247629 7.289433  0.388714 0.202185 0.898862  0.281141 0.809704 1 1 1.000000
0  4.076124 1.413793 6.608159  0.624622 0.120975 0.771477  0.315988 0.788711 1 1 1.000000
0  3.646425 2.686759 6.662533  0.572375 0.275124 0.772423  0.310205 0.813418 1 1 1.000000
body.045
0  2.845248 1.066670 7.406363  0.423719 0.098300 0.900418  0.282847 0.785377 1 1 1.000000
0  2.634010 2.247629 7.289433  0.388714 0.202185 0.898862  0.281141 0.809704 1 1 1.000000
0  1.546053 1.105488 7.831877  0.203619 0.083254 0.975494  0.253562 0.788374 1 1 1.000000
body.045
0  1.546053 1.105488 7.831877  0.203619 0.083254 0.975494  0.253562 0.788374 1 1 1.000000
0  2.634010 2.247629 7.289433  0.388714 0.202185 0.898862  0.281141 0.809704 1 1 1.000000
0  1.389947 2.350326 7.705772  0.199744 0.238197 0.950438  0.251894 0.813560 1 1 1.000000
body.045
0  1.546053 1.105488 7.831877  0.203619 0.083254 0.975494  0.253562 0.788374 1 1 1.000000
0  1.389947 2.350326 7.705772  0.199744 0.238197 0.950438  0.251894 0.813560 1 1 1.000000
0  0.000000 1.191910 7.966828  0.000000 0.067598 0.997711  0.220769 0.791006 1 1 1.000000
body.045
0  0.000000 1.191910 7.966828  0.000000 0.067598 0.997711  0.220769 0.791006 1 1 1.000000
0  1.389947 2.350326 7.705772  0.199744 0.238197 0.950438  0.251894 0.813560 1 1 1.000000
0  0.000000 2.523539 7.812207  0.000000 0.267525 0.963530  0.220497 0.817503 1 1 1.000000
body.045
0  -1.546053 1.105488 7.831877  -0.203619 0.083254 0.975494  0.187677 0.788409 1 1 1.000000
0  0.000000 1.191910 7.966828  0.000000 0.067598 0.997711  0.220769 0.791006 1 1 1.000000
0  -1.389947 2.350326 7.705771  -0.199744 0.238197 0.950438  0.189001 0.813078 1 1 1.000000
body.045
0  -1.389947 2.350326 7.705771  -0.199744 0.238197 0.950438  0.189001 0.813078 1 1 1.000000
0  0.000000 1.191910 7.966828  0.000000 0.067598 0.997711  0.220769 0.791006 1 1 1.000000
0  0.000000 2.523539 7.812207  0.000000 0.267525 0.963530  0.220497 0.817503 1 1 1.000000
body.045
0  -2.845248 1.066670 7.406363  -0.423719 0.098300 0.900418  0.158293 0.784896 1 1 1.000000
0  -1.546053 1.105488 7.831877  -0.203619 0.083254 0.975494  0.187677 0.788409 1 1 1.000000
0  -2.634010 2.247629 7.289433  -0.388714 0.202185 0.898862  0.159637 0.808769 1 1 1.000000
body.045
0  -2.634010 2.247629 7.289433  -0.388714 0.202185 0.898862  0.159637 0.808769 1 1 1.000000
0  -1.546053 1.105488 7.831877  -0.203619 0.083254 0.975494  0.187677 0.788409 1 1 1.000000
0  -1.389947 2.350326 7.705771  -0.199744 0.238197 0.950438  0.189001 0.813078 1 1 1.000000
body.045
0  -2.845248 1.066670 7.406363  -0.423719 0.098300 0.900418  0.158293 0.784896 1 1 1.000000
0  -2.634010 2.247629 7.289433  -0.388714 0.202185 0.898862  0.159637 0.808769 1 1 1.000000
0  -4.076124 1.413793 6.608159  -0.624622 0.120975 0.771477  0.124634 0.787437 1 1 1.000000
body.045
0  -4.076124 1.413793 6.608159  -0.624622 0.120975 0.771477  0.124634 0.787437 1 1 1.000000
0  -2.634010 2.247629 7.289433  -0.388714 0.202185 0.898862  0.159637 0.808769 1 1 1.000000
0  -3.646425 2.686759 6.662533  -0.572375 0.275124 0.772423  0.130099 0.811460 1 1 1.000000
body.045
0  -4.076124 1.413793 6.608159  -0.624622 0.120975 0.771477  0.124634 0.787437 1 1 1.000000
0  -3.646425 2.686759 6.662533  -0.572375 0.275124 0.772423  0.130099 0.811460 1 1 1.000000
0  -4.912634 1.712593 5.674910  -0.760521 0.174993 0.625233  0.096706 0.794541 1 1 1.000000
body.045
0  -4.912634 1.712593 5.674910  -0.760521 0.174993 0.625233  0.096706 0.794541 1 1 1.000000
0  -3.646425 2.686759 6.662533  -0.572375 0.275124 0.772423  0.130099 0.811460 1 1 1.000000
0  -4.354346 3.294602 5.664309  -0.680319 0.396741 0.616199  0.102595 0.828143 1 1 1.000000
body.045
0  -4.912634 1.712593 5.674910  -0.760521 0.174993 0.625233  0.096706 0.794541 1 1 1.000000
0  -4.354346 3.294602 5.664309  -0.680319 0.396741 0.616199  0.102595 0.828143 1 1 1.000000
0  -5.541124 1.934648 4.710665  -0.864589 0.222510 0.450484  0.072229 0.802292 1 1 1.000000
body.045
0  -5.541124 1.934648 4.710665  -0.864589 0.222510 0.450484  0.072229 0.802292 1 1 1.000000
0  -4.354346 3.294602 5.664309  -0.680319 0.396741 0.616199  0.102595 0.828143 1 1 1.000000
0  -4.848523 3.735512 4.718160  -0.757775 0.471023 0.451521  0.079807 0.842853 1 1 1.000000
body.045
0  -5.541124 1.934648 4.710665  -0.864589 0.222510 0.450484  0.072229 0.802292 1 1 1.000000
0  -4.848523 3.735512 4.718160  -0.757775 0.471023 0.451521  0.079807 0.842853 1 1 1.000000
0  -6.333848 2.258858 2.353032  -0.909787 0.245308 0.334758  0.018921 0.820476 1 1 1.000000
body.045
0  -6.333848 2.258858 2.353032  -0.909787 0.245308 0.334758  0.018921 0.820476 1 1 1.000000
0  -4.848523 3.735512 4.718160  -0.757775 0.471023 0.451521  0.079807 0.842853 1 1 1.000000
0  -5.497231 4.306089 2.360527  -0.792108 0.504196 0.343974  0.029847 0.874335 1 1 1.000000
body.045
0  -6.333848 2.258858 2.353032  -0.556871 0.147893 0.817316  0.576493 0.622200 1 1 1.000000
0  -5.497231 4.306089 2.360527  -0.549425 0.350322 0.758507  0.583502 0.663424 1 1 1.000000
0  -6.974021 2.466572 1.879272  -0.477493 0.119816 0.870388  0.540998 0.634312 1 1 1.000000
body.045
0  -6.974021 2.466572 1.879272  -0.477493 0.119816 0.870388  0.540998 0.634312 1 1 1.000000
0  -5.497231 4.306089 2.360527  -0.549425 0.350322 0.758507  0.583502 0.663424 1 1 1.000000
0  -5.928012 4.778121 1.815027  -0.433576 0.314127 0.844569  0.567488 0.694808 1 1 1.000000
body.045
0  -6.974021 2.466572 1.879272  -0.477493 0.119816 0.870388  0.540998 0.634312 1 1 1.000000
0  -5.928012 4.778121 1.815027  -0.433576 0.314127 0.844569  0.567488 0.694808 1 1 1.000000
0  -8.245322 3.072891 1.309722  -0.378430 0.107059 0.919401  0.494472 0.660305 1 1 1.000000
body.045
0  -8.245322 3.072891 1.309722  -0.378430 0.107059 0.919401  0.494472 0.660305 1 1 1.000000
0  -5.928012 4.778121 1.815027  -0.433576 0.314127 0.844569  0.567488 0.694808 1 1 1.000000
0  -7.038331 5.771172 1.084972  -0.358867 0.258156 0.896969  0.530618 0.749576 1 1 1.000000
body.045
0  -5.287217 7.806808 1.147263  -0.261361 0.254158 0.931150  0.575802 0.800097 1 1 1.000000
0  -3.946106 6.349905 1.876503  -0.367687 0.534989 0.760613  0.640644 0.740471 1 1 1.000000
0  -2.898074 8.970449 1.466280  -0.135838 0.232124 0.963134  0.643008 0.829969 1 1 1.000000
body.045
0  -2.898074 8.970449 1.466280  -0.135838 0.232124 0.963134  0.643008 0.829969 1 1 1.000000
0  -3.946106 6.349905 1.876503  -0.367687 0.534989 0.760613  0.640644 0.740471 1 1 1.000000
0  -1.982228 7.319935 1.941209  -0.165868 0.497574 0.851405  0.683632 0.757842 1 1 1.000000
body.045
0  2.898074 8.970449 1.466280  0.135838 0.232124 0.963134  0.810409 0.829996 1 1 1.000000
0  0.000000 9.318753 1.574905  0.000000 0.225745 0.974181  0.726702 0.839928 1 1 1.000000
0  1.982227 7.319935 1.941210  0.165868 0.497574 0.851405  0.769197 0.758092 1 1 1.000000
body.045
0  1.982227 7.319935 1.941210  0.165868 0.497574 0.851405  0.769197 0.758092 1 1 1.000000
0  0.000000 9.318753 1.574905  0.000000 0.225745 0.974181  0.726702 0.839928 1 1 1.000000
0  0.000000 7.557533 1.954242  0.000000 0.509079 0.860714  0.726619 0.762881 1 1 1.000000
body.045
0  0.000000 7.557533 1.954242  0.000000 0.509079 0.860714  0.726619 0.762881 1 1 1.000000
0  0.000000 9.318753 1.574905  0.000000 0.225745 0.974181  0.726702 0.839928 1 1 1.000000
0  -1.982228 7.319935 1.941209  -0.165868 0.497574 0.851405  0.683632 0.757842 1 1 1.000000
body.045
0  -1.982228 7.319935 1.941209  -0.165868 0.497574 0.851405  0.683632 0.757842 1 1 1.000000
0  0.000000 9.318753 1.574905  0.000000 0.225745 0.974181  0.726702 0.839928 1 1 1.000000
0  -2.898074 8.970449 1.466280  -0.135838 0.232124 0.963134  0.643008 0.829969 1 1 1.000000
body.045
0  3.194810 -5.565332 1.122564  -0.114170 0.016175 -0.993316  0.179185 0.119741 1 1 1.000000
0  2.662791 -4.887144 1.189489  -0.066256 0.021729 -0.997559  0.197885 0.137009 1 1 1.000000
0  5.195737 -3.041231 0.930097  -0.165044 0.089541 -0.982208  0.138483 0.176651 1 1 1.000000
body.045
0  5.195737 -3.041231 0.930097  -0.165044 0.089541 -0.982208  0.138483 0.176651 1 1 1.000000
0  2.662791 -4.887144 1.189489  -0.066256 0.021729 -0.997559  0.197885 0.137009 1 1 1.000000
0  4.572861 -2.680477 1.142667  -0.156560 0.071596 -0.985046  0.153283 0.185561 1 1 1.000000
body.045
0  2.662791 -4.887144 1.189489  -0.066256 0.021729 -0.997559  0.197885 0.137009 1 1 1.000000
0  3.194810 -5.565332 1.122564  -0.114170 0.016175 -0.993316  0.179185 0.119741 1 1 1.000000
0  0.000000 -5.640430 1.307670  0.000000 -0.016480 -0.999847  0.249864 0.119774 1 1 1.000000
body.045
0  5.195737 -3.041231 0.930097  -0.165044 0.089541 -0.982208  0.138483 0.176651 1 1 1.000000
0  7.803838 -1.959096 0.803509  -0.042451 0.092349 -0.994812  0.056099 0.201242 1 1 1.000000
0  6.671436 -4.380514 0.630181  -0.127964 0.074801 -0.988922  0.086898 0.143181 1 1 1.000000
body.045
0  5.195737 -3.041231 0.930097  -0.165044 0.089541 -0.982208  0.138483 0.176651 1 1 1.000000
0  6.671436 -4.380514 0.630181  -0.127964 0.074801 -0.988922  0.086898 0.143181 1 1 1.000000
0  3.194810 -5.565332 1.122564  -0.114170 0.016175 -0.993316  0.179185 0.119741 1 1 1.000000
body.045
0  3.194810 -5.565332 1.122564  -0.114170 0.016175 -0.993316  0.179185 0.119741 1 1 1.000000
0  6.671436 -4.380514 0.630181  -0.127964 0.074801 -0.988922  0.086898 0.143181 1 1 1.000000
0  4.396028 -6.836908 0.908912  -0.153417 0.021027 -0.987915  0.144161 0.084749 1 1 1.000000
body.045
0  2.789723 6.546538 1.066884  -0.016663 0.046999 -0.998749  0.189681 0.390257 1 1 1.000000
0  5.287217 7.806808 1.147263  -0.009705 0.082827 -0.996490  0.125901 0.433025 1 1 1.000000
0  7.038331 5.771172 1.084972  0.045778 0.015534 -0.998810  0.086289 0.390035 1 1 1.000000
body.045
0  2.898074 8.970449 1.466280  -0.020508 0.172491 -0.984771  0.179651 0.458306 1 1 1.000000
0  5.287217 7.806808 1.147263  -0.009705 0.082827 -0.996490  0.125901 0.433025 1 1 1.000000
0  2.789723 6.546538 1.066884  -0.016663 0.046999 -0.998749  0.189681 0.390257 1 1 1.000000
body.045
0  2.577485 5.363191 1.142667  -0.017762 -0.034455 -0.999237  0.194496 0.363621 1 1 1.000000
0  0.000000 6.040318 1.142667  -0.005799 -0.028962 -0.999542  0.248884 0.378618 1 1 1.000000
0  2.789723 6.546538 1.066884  -0.016663 0.046999 -0.998749  0.189681 0.390257 1 1 1.000000
body.045
0  2.789723 6.546538 1.066884  -0.016663 0.046999 -0.998749  0.189681 0.390257 1 1 1.000000
0  0.000000 6.040318 1.142667  -0.005799 -0.028962 -0.999542  0.248884 0.378618 1 1 1.000000
0  0.000000 6.953101 1.098675  -0.007233 0.074709 -0.997162  0.248750 0.399889 1 1 1.000000
body.045
0  2.789723 6.546538 1.066884  -0.016663 0.046999 -0.998749  0.189681 0.390257 1 1 1.000000
0  0.000000 6.953101 1.098675  -0.007233 0.074709 -0.997162  0.248750 0.399889 1 1 1.000000
0  2.898074 8.970449 1.466280  -0.020508 0.172491 -0.984771  0.179651 0.458306 1 1 1.000000
body.045
0  2.898074 8.970449 1.466280  -0.020508 0.172491 -0.984771  0.179651 0.458306 1 1 1.000000
0  0.000000 6.953101 1.098675  -0.007233 0.074709 -0.997162  0.248750 0.399889 1 1 1.000000
0  0.000000 9.318753 1.574905  0.000000 0.197333 -0.980316  0.248550 0.467202 1 1 1.000000
body.045
0  0.000000 -5.640430 1.307670  0.000000 -0.016480 -0.999847  0.249864 0.119774 1 1 1.000000
0  0.000000 6.040318 1.142667  -0.005799 -0.028962 -0.999542  0.248884 0.378618 1 1 1.000000
0  2.662791 -4.887144 1.189489  -0.066256 0.021729 -0.997559  0.197885 0.137009 1 1 1.000000
body.045
0  2.662791 -4.887144 1.189489  -0.066256 0.021729 -0.997559  0.197885 0.137009 1 1 1.000000
0  0.000000 6.040318 1.142667  -0.005799 -0.028962 -0.999542  0.248884 0.378618 1 1 1.000000
0  2.577485 5.363191 1.142667  -0.017762 -0.034455 -0.999237  0.194496 0.363621 1 1 1.000000
body.045
0  4.572861 -2.680477 1.142667  -0.156560 0.071596 -0.985046  0.153283 0.185561 1 1 1.000000
0  2.662791 -4.887144 1.189489  -0.066256 0.021729 -0.997559  0.197885 0.137009 1 1 1.000000
0  4.577807 2.794346 1.142667  -0.003052 -0.001617 -0.999969  0.149158 0.305079 1 1 1.000000
body.045
0  4.577807 2.794346 1.142667  -0.003052 -0.001617 -0.999969  0.149158 0.305079 1 1 1.000000
0  2.662791 -4.887144 1.189489  -0.066256 0.021729 -0.997559  0.197885 0.137009 1 1 1.000000
0  2.577485 5.363191 1.142667  -0.017762 -0.034455 -0.999237  0.194496 0.363621 1 1 1.000000
body.045
0  4.572861 -2.680477 1.142667  -0.156560 0.071596 -0.985046  0.153283 0.185561 1 1 1.000000
0  5.345087 0.225500 1.142667  -0.056887 0.022462 -0.998108  0.131231 0.249748 1 1 1.000000
0  5.195737 -3.041231 0.930097  -0.165044 0.089541 -0.982208  0.138483 0.176651 1 1 1.000000
body.045
0  5.195737 -3.041231 0.930097  -0.165044 0.089541 -0.982208  0.138483 0.176651 1 1 1.000000
0  5.345087 0.225500 1.142667  -0.056887 0.022462 -0.998108  0.131231 0.249748 1 1 1.000000
0  6.595345 0.419924 1.033570  -0.004212 0.053987 -0.998505  0.102839 0.253569 1 1 1.000000
body.045
0  2.789723 6.546538 1.066884  -0.016663 0.046999 -0.998749  0.189681 0.390257 1 1 1.000000
0  6.150929 3.880100 1.020187  0.013001 -0.021546 -0.999664  0.115454 0.331458 1 1 1.000000
0  5.403532 3.339315 1.142667  -0.073122 -0.034211 -0.996704  0.131052 0.317798 1 1 1.000000
body.045
0  6.150929 3.880100 1.020187  0.013001 -0.021546 -0.999664  0.115454 0.331458 1 1 1.000000
0  2.789723 6.546538 1.066884  -0.016663 0.046999 -0.998749  0.189681 0.390257 1 1 1.000000
0  7.038331 5.771172 1.084972  0.045778 0.015534 -0.998810  0.086289 0.390035 1 1 1.000000
body.045
0  6.595345 0.419924 1.033570  -0.004212 0.053987 -0.998505  0.102839 0.253569 1 1 1.000000
0  8.343431 0.660749 1.218473  0.093539 0.082705 -0.992157  0.044995 0.259515 1 1 1.000000
0  7.803838 -1.959096 0.803509  -0.042451 0.092349 -0.994812  0.056099 0.201242 1 1 1.000000
body.045
0  6.595345 0.419924 1.033570  -0.004212 0.053987 -0.998505  0.102839 0.253569 1 1 1.000000
0  8.245322 3.072891 1.309722  0.128788 0.008972 -0.991607  0.050843 0.312494 1 1 1.000000
0  8.343431 0.660749 1.218473  0.093539 0.082705 -0.992157  0.044995 0.259515 1 1 1.000000
body.045
0  6.595345 0.419924 1.033570  -0.004212 0.053987 -0.998505  0.102839 0.253569 1 1 1.000000
0  5.403532 3.339315 1.142667  -0.073122 -0.034211 -0.996704  0.131052 0.317798 1 1 1.000000
0  6.150929 3.880100 1.020187  0.013001 -0.021546 -0.999664  0.115454 0.331458 1 1 1.000000
body.045
0  6.595345 0.419924 1.033570  -0.004212 0.053987 -0.998505  0.102839 0.253569 1 1 1.000000
0  6.150929 3.880100 1.020187  0.013001 -0.021546 -0.999664  0.115454 0.331458 1 1 1.000000
0  8.245322 3.072891 1.309722  0.128788 0.008972 -0.991607  0.050843 0.312494 1 1 1.000000
body.045
0  2.789723 6.546538 1.066884  -0.016663 0.046999 -0.998749  0.189681 0.390257 1 1 1.000000
0  5.403532 3.339315 1.142667  -0.073122 -0.034211 -0.996704  0.131052 0.317798 1 1 1.000000
0  2.577485 5.363191 1.142667  -0.017762 -0.034455 -0.999237  0.194496 0.363621 1 1 1.000000
body.045
0  2.577485 5.363191 1.142667  -0.017762 -0.034455 -0.999237  0.194496 0.363621 1 1 1.000000
0  5.403532 3.339315 1.142667  -0.073122 -0.034211 -0.996704  0.131052 0.317798 1 1 1.000000
0  4.577807 2.794346 1.142667  -0.003052 -0.001617 -0.999969  0.149158 0.305079 1 1 1.000000
body.045
0  7.803838 -1.959096 0.803509  -0.042451 0.092349 -0.994812  0.056099 0.201242 1 1 1.000000
0  5.195737 -3.041231 0.930097  -0.165044 0.089541 -0.982208  0.138483 0.176651 1 1 1.000000
0  6.595345 0.419924 1.033570  -0.004212 0.053987 -0.998505  0.102839 0.253569 1 1 1.000000
body.045
0  4.577807 2.794346 1.142667  -0.003052 -0.001617 -0.999969  0.149158 0.305079 1 1 1.000000
0  5.403532 3.339315 1.142667  -0.073122 -0.034211 -0.996704  0.131052 0.317798 1 1 1.000000
0  5.345087 0.225500 1.142667  -0.056887 0.022462 -0.998108  0.131231 0.249748 1 1 1.000000
body.045
0  5.345087 0.225500 1.142667  -0.056887 0.022462 -0.998108  0.131231 0.249748 1 1 1.000000
0  5.403532 3.339315 1.142667  -0.073122 -0.034211 -0.996704  0.131052 0.317798 1 1 1.000000
0  6.595345 0.419924 1.033570  -0.004212 0.053987 -0.998505  0.102839 0.253569 1 1 1.000000
body.045
0  4.572861 -2.680477 1.142667  -0.156560 0.071596 -0.985046  0.153283 0.185561 1 1 1.000000
0  4.577807 2.794346 1.142667  -0.003052 -0.001617 -0.999969  0.149158 0.305079 1 1 1.000000
0  5.345087 0.225500 1.142667  -0.056887 0.022462 -0.998108  0.131231 0.249748 1 1 1.000000
body.045
0  -4.572861 -2.680477 1.142667  0.156774 0.071718 -0.985015  0.345901 0.185909 1 1 1.000000
0  -2.662791 -4.887144 1.189489  0.066286 0.021729 -0.997559  0.301707 0.137104 1 1 1.000000
0  -5.196000 -3.041000 0.929726  0.165105 0.089572 -0.982177  0.360928 0.177599 1 1 1.000000
body.045
0  -5.196000 -3.041000 0.929726  0.165105 0.089572 -0.982177  0.360928 0.177599 1 1 1.000000
0  -2.662791 -4.887144 1.189489  0.066286 0.021729 -0.997559  0.301707 0.137104 1 1 1.000000
0  -3.194810 -5.565332 1.122564  0.114170 0.016144 -0.993316  0.320525 0.120150 1 1 1.000000
body.045
0  -2.662791 -4.887144 1.189489  0.066286 0.021729 -0.997559  0.301707 0.137104 1 1 1.000000
0  0.000000 -5.640430 1.307670  0.000000 -0.016480 -0.999847  0.249864 0.119774 1 1 1.000000
0  -3.194810 -5.565332 1.122564  0.114170 0.016144 -0.993316  0.320525 0.120150 1 1 1.000000
body.045
0  -5.196000 -3.041000 0.929726  0.165105 0.089572 -0.982177  0.360928 0.177599 1 1 1.000000
0  -3.194810 -5.565332 1.122564  0.114170 0.016144 -0.993316  0.320525 0.120150 1 1 1.000000
0  -6.671436 -4.380514 0.630181  0.127873 0.074709 -0.988952  0.412066 0.144432 1 1 1.000000
body.045
0  -6.671436 -4.380514 0.630181  0.127873 0.074709 -0.988952  0.412066 0.144432 1 1 1.000000
0  -3.194810 -5.565332 1.122564  0.114170 0.016144 -0.993316  0.320525 0.120150 1 1 1.000000
0  -4.396028 -6.836908 0.908912  0.153417 0.021027 -0.987915  0.355785 0.085239 1 1 1.000000
body.045
0  -5.196000 -3.041000 0.929726  0.165105 0.089572 -0.982177  0.360928 0.177599 1 1 1.000000
0  -6.671436 -4.380514 0.630181  0.127873 0.074709 -0.988952  0.412066 0.144432 1 1 1.000000
0  -7.803838 -1.959096 0.803509  0.042360 0.092349 -0.994812  0.441415 0.201866 1 1 1.000000
body.045
0  -4.572861 -2.680477 1.142667  0.156774 0.071718 -0.985015  0.345901 0.185909 1 1 1.000000
0  -5.196000 -3.041000 0.929726  0.165105 0.089572 -0.982177  0.360928 0.177599 1 1 1.000000
0  -5.345087 0.225500 1.142667  0.056917 0.022492 -0.998108  0.367663 0.250461 1 1 1.000000
body.045
0  -5.345087 0.225500 1.142667  0.056917 0.022492 -0.998108  0.367663 0.250461 1 1 1.000000
0  -5.196000 -3.041000 0.929726  0.165105 0.089572 -0.982177  0.360928 0.177599 1 1 1.000000
0  -6.595345 0.419924 1.033570  0.004181 0.054018 -0.998505  0.396004 0.255012 1 1 1.000000
body.045
0  -6.595345 0.419924 1.033570  0.004181 0.054018 -0.998505  0.396004 0.255012 1 1 1.000000
0  -7.803838 -1.959096 0.803509  0.042360 0.092349 -0.994812  0.441415 0.201866 1 1 1.000000
0  -8.343431 0.660749 1.218473  -0.093539 0.082705 -0.992157  0.453640 0.261461 1 1 1.000000
body.045
0  -6.595345 0.419924 1.033570  0.004181 0.054018 -0.998505  0.396004 0.255012 1 1 1.000000
0  -8.343431 0.660749 1.218473  -0.093539 0.082705 -0.992157  0.453640 0.261461 1 1 1.000000
0  -8.245322 3.072891 1.309722  -0.128788 0.008972 -0.991607  0.447159 0.314456 1 1 1.000000
body.045
0  -6.595345 0.419924 1.033570  0.004181 0.054018 -0.998505  0.396004 0.255012 1 1 1.000000
0  -6.150929 3.880100 1.020187  -0.008362 -0.017670 -0.999786  0.382329 0.332905 1 1 1.000000
0  -5.403532 3.339315 1.142667  0.074007 -0.029176 -0.996826  0.367304 0.318750 1 1 1.000000
body.045
0  -6.595345 0.419924 1.033570  0.004181 0.054018 -0.998505  0.396004 0.255012 1 1 1.000000
0  -8.245322 3.072891 1.309722  -0.128788 0.008972 -0.991607  0.447159 0.314456 1 1 1.000000
0  -6.150929 3.880100 1.020187  -0.008362 -0.017670 -0.999786  0.382329 0.332905 1 1 1.000000
body.045
0  -7.803838 -1.959096 0.803509  0.042360 0.092349 -0.994812  0.441415 0.201866 1 1 1.000000
0  -6.595345 0.419924 1.033570  0.004181 0.054018 -0.998505  0.396004 0.255012 1 1 1.000000
0  -5.196000 -3.041000 0.929726  0.165105 0.089572 -0.982177  0.360928 0.177599 1 1 1.000000
body.045
0  -4.577807 2.794346 1.142667  0.003052 -0.001617 -0.999969  0.352199 0.307260 1 1 1.000000
0  -4.572861 -2.680477 1.142667  0.156774 0.071718 -0.985015  0.345901 0.185909 1 1 1.000000
0  -5.345087 0.225500 1.142667  0.056917 0.022492 -0.998108  0.367663 0.250461 1 1 1.000000
body.045
0  -2.789723 6.546534 1.128716  0.009339 0.052248 -0.998566  0.307905 0.390711 1 1 1.000000
0  -7.038331 5.771172 1.084972  -0.035524 0.014893 -0.999237  0.411114 0.391353 1 1 1.000000
0  -5.287217 7.806808 1.147263  0.025208 0.064669 -0.997559  0.371015 0.434245 1 1 1.000000
body.045
0  -2.898074 8.970449 1.466280  0.019623 0.154363 -0.987793  0.317397 0.458738 1 1 1.000000
0  -2.789723 6.546534 1.128716  0.009339 0.052248 -0.998566  0.307905 0.390711 1 1 1.000000
0  -5.287217 7.806808 1.147263  0.025208 0.064669 -0.997559  0.371015 0.434245 1 1 1.000000
body.045
0  -2.789723 6.546534 1.128716  0.009339 0.052248 -0.998566  0.307905 0.390711 1 1 1.000000
0  -5.403532 3.339315 1.142667  0.074007 -0.029176 -0.996826  0.367304 0.318750 1 1 1.000000
0  -6.150929 3.880100 1.020187  -0.008362 -0.017670 -0.999786  0.382329 0.332905 1 1 1.000000
body.045
0  -6.150929 3.880100 1.020187  -0.008362 -0.017670 -0.999786  0.382329 0.332905 1 1 1.000000
0  -7.038331 5.771172 1.084972  -0.035524 0.014893 -0.999237  0.411114 0.391353 1 1 1.000000
0  -2.789723 6.546534 1.128716  0.009339 0.052248 -0.998566  0.307905 0.390711 1 1 1.000000
body.045
0  -2.789723 6.546534 1.128716  0.009339 0.052248 -0.998566  0.307905 0.390711 1 1 1.000000
0  -2.898074 8.970449 1.466280  0.019623 0.154363 -0.987793  0.317397 0.458738 1 1 1.000000
0  0.000000 6.953101 1.098675  -0.007233 0.074709 -0.997162  0.248750 0.399889 1 1 1.000000
body.045
0  0.000000 6.953101 1.098675  -0.007233 0.074709 -0.997162  0.248750 0.399889 1 1 1.000000
0  -2.898074 8.970449 1.466280  0.019623 0.154363 -0.987793  0.317397 0.458738 1 1 1.000000
0  0.000000 9.318753 1.574905  0.000000 0.197333 -0.980316  0.248550 0.467202 1 1 1.000000
body.045
0  0.000000 -5.640430 1.307670  0.000000 -0.016480 -0.999847  0.249864 0.119774 1 1 1.000000
0  -2.662791 -4.887144 1.189489  0.066286 0.021729 -0.997559  0.301707 0.137104 1 1 1.000000
0  0.000000 6.040318 1.142667  -0.005799 -0.028962 -0.999542  0.248884 0.378618 1 1 1.000000
body.045
0  0.000000 6.040318 1.142667  -0.005799 -0.028962 -0.999542  0.248884 0.378618 1 1 1.000000
0  -2.662791 -4.887144 1.189489  0.066286 0.021729 -0.997559  0.301707 0.137104 1 1 1.000000
0  -2.577485 5.363191 1.142667  0.004059 -0.007813 -0.999939  0.303378 0.364033 1 1 1.000000
body.045
0  -2.789723 6.546534 1.128716  0.009339 0.052248 -0.998566  0.307905 0.390711 1 1 1.000000
0  -2.577485 5.363191 1.142667  0.004059 -0.007813 -0.999939  0.303378 0.364033 1 1 1.000000
0  -5.403532 3.339315 1.142667  0.074007 -0.029176 -0.996826  0.367304 0.318750 1 1 1.000000
body.045
0  -5.403532 3.339315 1.142667  0.074007 -0.029176 -0.996826  0.367304 0.318750 1 1 1.000000
0  -2.577485 5.363191 1.142667  0.004059 -0.007813 -0.999939  0.303378 0.364033 1 1 1.000000
0  -4.577807 2.794346 1.142667  0.003052 -0.001617 -0.999969  0.352199 0.307260 1 1 1.000000
body.045
0  0.000000 6.953101 1.098675  -0.007233 0.074709 -0.997162  0.248750 0.399889 1 1 1.000000
0  0.000000 6.040318 1.142667  -0.005799 -0.028962 -0.999542  0.248884 0.378618 1 1 1.000000
0  -2.789723 6.546534 1.128716  0.009339 0.052248 -0.998566  0.307905 0.390711 1 1 1.000000
body.045
0  -2.789723 6.546534 1.128716  0.009339 0.052248 -0.998566  0.307905 0.390711 1 1 1.000000
0  0.000000 6.040318 1.142667  -0.005799 -0.028962 -0.999542  0.248884 0.378618 1 1 1.000000
0  -2.577485 5.363191 1.142667  0.004059 -0.007813 -0.999939  0.303378 0.364033 1 1 1.000000
body.045
0  -4.577807 2.794346 1.142667  0.003052 -0.001617 -0.999969  0.352199 0.307260 1 1 1.000000
0  -5.345087 0.225500 1.142667  0.056917 0.022492 -0.998108  0.367663 0.250461 1 1 1.000000
0  -5.403532 3.339315 1.142667  0.074007 -0.029176 -0.996826  0.367304 0.318750 1 1 1.000000
body.045
0  -5.403532 3.339315 1.142667  0.074007 -0.029176 -0.996826  0.367304 0.318750 1 1 1.000000
0  -5.345087 0.225500 1.142667  0.056917 0.022492 -0.998108  0.367663 0.250461 1 1 1.000000
0  -6.595345 0.419924 1.033570  0.004181 0.054018 -0.998505  0.396004 0.255012 1 1 1.000000
body.045
0  -4.572861 -2.680477 1.142667  0.156774 0.071718 -0.985015  0.345901 0.185909 1 1 1.000000
0  -4.577807 2.794346 1.142667  0.003052 -0.001617 -0.999969  0.352199 0.307260 1 1 1.000000
0  -2.662791 -4.887144 1.189489  0.066286 0.021729 -0.997559  0.301707 0.137104 1 1 1.000000
body.045
0  -2.662791 -4.887144 1.189489  0.066286 0.021729 -0.997559  0.301707 0.137104 1 1 1.000000
0  -4.577807 2.794346 1.142667  0.003052 -0.001617 -0.999969  0.352199 0.307260 1 1 1.000000
0  -2.577485 5.363191 1.142667  0.004059 -0.007813 -0.999939  0.303378 0.364033 1 1 1.000000
end
