# WaveFront *.obj file (generated by CINEMA 4D)

mtllib ./HarrysWand.mtl

v 0.40415954589844 39.50730895996094 0.43059635162354
v -0.01596069335938 39.86763381958008 0.01047622971237
v 0.57817077636719 39.50730895996094 0.01047611702234
v -0.01596069335938 39.50730895996094 0.60460758209229
v -0.43608093261719 39.50730895996094 0.43059635162354
v -0.61009216308594 39.50730895996094 0.01047611702234
v -0.43608093261719 39.50730895996094 -0.40964412689209
v -0.01596069335938 39.50730895996094 -0.58365535736084
v 0.40415954589844 39.50730895996094 -0.40964412689209
v 0.69114685058594 6.96804761886597 0.71757346391678
v 1.42044830322266 7.07348060607910 0.01046593487263
v 0.98403930664062 6.96804714202881 0.01046590227634
v 0.99973297119141 7.07348012924194 1.02616727352142
v 1.38041687011719 8.41844081878662 0.01046635769308
v 0.97142791748047 8.41844081878662 0.99785494804382
v 0.98403930664062 8.52426433563232 0.01046639028937
v 0.69114685058594 8.52426433563232 0.71757394075394
v -0.01596069335938 8.52426433563232 1.01046633720398
v -0.72306823730469 8.52426433563232 0.71757394075394
v -1.00334930419922 8.41844081878662 0.99785494804382
v -0.01596069335938 8.41844081878662 1.40684390068054
v -0.01596069335938 7.07348060607910 1.44688260555267
v -0.01596069335938 6.96804666519165 1.01046586036682
v -0.01596069335938 -4.44597434997559 1.01046228408813
v -0.72306823730469 -4.44597291946411 0.71756988763809
v -0.72306823730469 6.96804761886597 0.71757346391678
v -1.03165435791016 7.07348012924194 1.02616727352142
v 0.69114685058594 -4.44597291946411 0.71756988763809
v -0.01596069335938 -7.20201635360718 1.32975161075592
v 0.91691589355469 -7.20201635360718 0.94333803653717
v 0.98403930664062 -4.44597291946411 0.01046231854707
v 0.69114685058594 6.96804714202881 -0.69664162397385
v 0.99973297119141 7.07348108291626 -1.00522005558014
v 0.97142791748047 8.41844081878662 -0.97692227363586
v 0.69114685058594 8.52426433563232 -0.69664114713669
v -0.01596069335938 8.52426433563232 -0.98953360319138
v -0.01596069335938 8.41844081878662 -1.38591122627258
v -0.01596069335938 7.07348108291626 -1.42593538761139
v -0.01596069335938 6.96804761886597 -0.98953408002853
v -1.03165435791016 7.07348108291626 -1.00522005558014
v -1.00334930419922 8.41844081878662 -0.97692227363586
v -0.72306823730469 8.52426433563232 -0.69664114713669
v -1.01596069335938 8.52426433563232 0.01046639028937
v -1.41233825683594 8.41844081878662 0.01046635769308
v -1.45236968994141 7.07348060607910 0.01046593487263
v -1.01596069335938 6.96804714202881 0.01046590227634
v -1.01596069335938 -4.44597291946411 0.01046231854707
v -1.33524322509766 -7.20201539993286 0.01046145334840
v -0.94883728027344 -7.20201635360718 0.94333803653717
v -0.94883728027344 -7.20201492309570 -0.92241513729095
v -0.72306823730469 -4.44597387313843 -0.69664520025253
v -0.72306823730469 6.96804714202881 -0.69664162397385
v -0.01596069335938 -4.44597244262695 -0.98953765630722
v -0.01596069335938 -7.20201492309570 -1.30881345272064
v 0.91691589355469 -7.20201492309570 -0.92241513729095
v 0.69114685058594 -4.44597387313843 -0.69664520025253
v 1.30332183837891 -7.20201539993286 0.01046145334840
# 57 vertices

vn 0.51854342222214 0.00000000000000 0.85505133867264
vn 0.00000000000000 0.00000000000000 1.00000000000000
vn 0.36666503548622 -0.36666503548622 0.85505175590515
vn 0.00000000000000 -0.51854342222214 0.85505133867264
vn -0.36666503548622 -0.36666503548622 0.85505175590515
vn -0.51854342222214 0.00000000000000 0.85505133867264
vn -0.36666503548622 0.36666503548622 0.85505175590515
vn 0.00000000000000 0.51854342222214 0.85505133867264
vn 0.36666503548622 0.36666503548622 0.85505175590515
vn 0.76579892635345 -0.06303270906210 -0.63998347520828
vn 0.77463090419769 0.06375048309565 -0.62919223308563
vn 0.49690994620323 -0.58606690168381 -0.64000475406647
vn 0.59282231330872 -0.50266456604004 -0.62919789552689
vn 0.76530325412750 -0.05972046777606 0.64089345932007
vn 0.49891757965088 -0.58338826894760 0.64088952541351
vn 0.77029097080231 0.06012575700879 0.63485175371170
vn 0.58720356225967 -0.50213873386383 0.63486111164093
vn 0.99052029848099 -0.13675281405449 0.01296901609749
vn 0.60369795560837 -0.79710763692856 0.01296897511929
vn 0.06012575700879 -0.77029097080231 0.63485175371170
vn -0.13675281405449 -0.99052029848099 0.01296901609749
vn -0.35122925043106 -0.84799414873123 0.39691811800003
vn -0.38262924551964 -0.92382282018662 0.01209388487041
vn -0.23866243660450 -0.57617115974426 0.78170776367188
vn -0.05972046777606 -0.76530325412750 0.64089345932007
vn 0.06375048309565 -0.77463090419769 -0.62919223308563
vn -0.06303144991398 -0.76578360795975 -0.64000195264816
vn 0.00037500893814 -0.99833631515503 0.05765762552619
vn -0.38244381546974 -0.92329651117325 0.03550058603287
vn -0.23503792285919 -0.56745362281799 -0.78914737701416
vn -0.35467010736465 -0.85628342628479 -0.37548339366913
vn 0.70621162652969 -0.70564913749695 0.05765821784735
vn 0.13587771356106 -0.98414468765259 0.11400227993727
vn 0.79198932647705 -0.59979683160782 0.11400296539068
vn 0.99833631515503 0.00037500893814 0.05765762552619
vn 0.58607864379883 0.49691990017891 -0.63998627662659
vn 0.50266456604004 0.59282231330872 -0.62919789552689
vn 0.58338826894760 0.49891757965088 0.64088952541351
vn 0.50213873386383 0.58720356225967 0.63486111164093
vn 0.79710763692856 0.60369795560837 0.01296897511929
vn 0.13675281405449 0.99052029848099 0.01296901609749
vn -0.06012575700879 0.77029097080231 0.63485175371170
vn 0.05972046777606 0.76530325412750 0.64089345932007
vn -0.06375048309565 0.77463090419769 -0.62919223308563
vn 0.06303270906210 0.76579892635345 -0.63998347520828
vn -0.59282231330872 0.50266456604004 -0.62919789552689
vn -0.49891757965088 0.58338826894760 0.64088952541351
vn -0.58720356225967 0.50213873386383 0.63486111164093
vn -0.60369795560837 0.79710763692856 0.01296897511929
vn -0.99052029848099 0.13675281405449 0.01296901609749
vn -0.77029097080231 -0.06012575700879 0.63485175371170
vn -0.76530325412750 0.05972046777606 0.64089345932007
vn -0.77463239431381 -0.06371935456991 -0.62919348478317
vn -0.84374231100082 -0.34947851300240 0.40738639235497
vn -0.57240933179855 -0.23709501326084 -0.78494173288345
vn -0.76578360795975 0.06303144991398 -0.64000195264816
vn -0.84892255067825 -0.35163179039955 -0.39457008242607
vn -0.99833631515503 -0.00037500893814 0.05765762552619
vn -0.92155402898788 -0.38169690966606 0.07103300094604
vn -0.98414468765259 -0.13587771356106 0.11400227993727
vn -0.91863673925400 -0.38050484657288 0.10640761256218
vn -0.79198932647705 0.59979683160782 0.11400296539068
vn -0.70621162652969 0.70564913749695 0.05765821784735
vn -0.49691990017891 0.58607864379883 -0.63998627662659
vn -0.00037500893814 0.99833631515503 0.05765762552619
vn -0.13587771356106 0.98414468765259 0.11400227993727
vn 0.59979683160782 0.79198932647705 0.11400296539068
vn 0.70564913749695 0.70621162652969 0.05765821784735
vn 0.98414468765259 0.13587771356106 0.11400227993727
vn -0.92382282018662 -0.38262924551964 0.01209388487041
vn -0.57903587818146 -0.23984564840794 0.77922493219376
vn -0.38050484657288 -0.91863673925400 0.10640761256218
vn 0.00000000000000 0.00000000000000 -1.00000000000000
vn 0.00000000000000 0.00000000000000 -1.00000000000000
# 74 normals

vt 0.83233052492142 0.54019087553024 0.00000000000000
vt 0.73065167665482 0.54019087553024 0.00000000000000
vt 0.80255043506622 0.61300379037857 0.00000000000000
vt 0.00000000000000 1.00000000000000 0.00000000000000
vt 0.73065167665482 0.64316236972809 0.00000000000000
vt 0.65875279903412 0.61300379037857 0.00000000000000
vt 0.62897270917892 0.54019087553024 0.00000000000000
vt 0.65875279903412 0.46737813949585 0.00000000000000
vt 0.73065167665482 0.43721950054169 0.00000000000000
vt 0.80255043506622 0.46737813949585 0.00000000000000
vt 0.40065351128578 0.31690347194672 0.00000000000000
vt 0.40065929293633 0.31913113594055 0.00000000000000
vt 0.46303132176399 0.31674122810364 0.00000000000000
vt 0.46303722262383 0.31896948814392 0.00000000000000
vt 0.40073296427727 0.34736037254333 0.00000000000000
vt 0.46311077475548 0.34719836711884 0.00000000000000
vt 0.40073838829994 0.34955739974976 0.00000000000000
vt 0.46311619877815 0.34939539432526 0.00000000000000
vt 0.40248027443886 1.02300548553467 0.00000000000000
vt 0.46485885977745 1.02284395694733 0.00000000000000
vt 0.52544790506363 0.34923326969147 0.00000000000000
vt 0.52718991041183 1.02268171310425 0.00000000000000
vt 0.58776491880417 0.34907162189484 0.00000000000000
vt 0.58950728178024 1.02252089977264 0.00000000000000
vt 0.58775895833969 0.34687483310699 0.00000000000000
vt 0.52544224262238 0.34703648090363 0.00000000000000
vt 0.52536928653717 0.31880772113800 0.00000000000000
vt 0.52536320686340 0.31657969951630 0.00000000000000
vt 0.52475577592850 0.08337330818176 0.00000000000000
vt 0.58707219362259 0.08321142196655 0.00000000000000
vt 0.58767986297607 0.31641781330109 0.00000000000000
vt 0.58768564462662 0.31864571571350 0.00000000000000
vt 0.46242406964302 0.08353519439697 0.00000000000000
vt 0.52460557222366 0.02552747726440 0.00000000000000
vt 0.46227374672890 0.02568936347961 0.00000000000000
vt 0.40004602074623 0.08369708061218 0.00000000000000
vt 0.33833673596382 0.31706500053406 0.00000000000000
vt 0.33834257721901 0.31929337978363 0.00000000000000
vt 0.33841589093208 0.34752213954926 0.00000000000000
vt 0.33842173218727 0.34971916675568 0.00000000000000
vt 0.34016373753548 1.02316784858704 0.00000000000000
vt 0.27777105569839 1.02332913875580 0.00000000000000
vt 0.27602881193161 0.34988093376160 0.00000000000000
vt 0.27602311968803 0.34768390655518 0.00000000000000
vt 0.27594998478889 0.31945538520813 0.00000000000000
vt 0.27594390511513 0.31722712516785 0.00000000000000
vt 0.21363303065300 0.31961703300476 0.00000000000000
vt 0.21370640397072 0.34784591197968 0.00000000000000
vt 0.21371224522591 0.35004317760468 0.00000000000000
vt 0.21545410156250 1.02349138259888 0.00000000000000
vt 0.15312278270721 1.02365338802338 0.00000000000000
vt 0.15138038992882 0.35020494461060 0.00000000000000
vt 0.15137493610382 0.34800791740417 0.00000000000000
vt 0.15130165219307 0.31977903842926 0.00000000000000
vt 0.08899661153555 0.34816992282867 0.00000000000000
vt 0.08892353624105 0.31994104385376 0.00000000000000
vt 0.15129557251930 0.31755101680756 0.00000000000000
vt 0.08891811221838 0.31771278381348 0.00000000000000
vt 0.15068796277046 0.08434498310089 0.00000000000000
vt 0.08831029385328 0.08450686931610 0.00000000000000
vt 0.15053796768188 0.02649891376495 0.00000000000000
vt 0.08816000074148 0.02666115760803 0.00000000000000
vt 0.21286949515343 0.02633714675903 0.00000000000000
vt 0.21301966905594 0.08418285846710 0.00000000000000
vt 0.21362730860710 0.31738924980164 0.00000000000000
vt 0.27533647418022 0.08402109146118 0.00000000000000
vt 0.27518644928932 0.02617514133453 0.00000000000000
vt 0.33757907152176 0.02601313591003 0.00000000000000
vt 0.33772927522659 0.08385896682739 0.00000000000000
vt 0.39989569783211 0.02585148811340 0.00000000000000
vt 0.09074478596449 1.02381479740143 0.00000000000000
vt 0.08900245279074 0.35036695003510 0.00000000000000
vt 0.58692222833633 0.02536499500275 0.00000000000000
vt 0.76735186576843 0.64578890800476 0.00000000000000
vt 0.64442425966263 0.51279395818710 0.00000000000000
vt 0.81799721717834 0.59040117263794 0.00000000000000
vt 0.64461755752563 0.59092080593109 0.00000000000000
vt 0.69550663232803 0.64600992202759 0.00000000000000
vt 0.69506949186325 0.45740640163422 0.00000000000000
vt 0.81780391931534 0.51228529214859 0.00000000000000
vt 0.76689410209656 0.45719623565674 0.00000000000000
# 81 texture coordinates

o material_0
usemtl material_0
f 3/1/1 2/2/2 1/3/3
f 1/3/3 2/2/2 4/5/4
f 4/5/4 2/2/2 5/6/5
f 5/6/5 2/2/2 6/7/6
f 6/7/6 2/2/2 7/8/7
f 7/8/7 2/2/2 8/9/8
f 8/9/8 2/2/2 9/10/9
f 9/10/9 2/2/2 3/1/1
f 12/11/10 11/12/11 10/13/12
f 13/14/13 10/13/12 11/12/11
f 11/12/11 14/15/14 13/14/13
f 13/14/13 14/15/14 15/16/15
f 14/15/14 16/17/16 15/16/15
f 15/16/15 16/17/16 17/18/17
f 16/17/16 3/19/18 17/18/17
f 17/18/17 3/19/18 1/20/19
f 17/18/17 1/20/19 18/21/20
f 18/21/20 1/20/19 4/22/21
f 18/21/20 4/22/21 19/23/22
f 19/23/22 4/22/21 5/24/23
f 20/25/24 18/21/20 19/23/22
f 21/26/25 18/21/20 20/25/24
f 21/26/25 17/18/17 18/21/20
f 15/16/15 17/18/17 21/26/25
f 22/27/26 15/16/15 21/26/25
f 13/14/13 15/16/15 22/27/26
f 22/27/26 23/28/27 13/14/13
f 10/13/12 13/14/13 23/28/27
f 24/29/28 10/13/12 23/28/27
f 24/29/28 23/28/27 25/30/29
f 25/30/29 23/28/27 26/31/30
f 23/28/27 22/27/26 26/31/30
f 27/32/31 26/31/30 22/27/26
f 22/27/26 21/26/25 27/32/31
f 27/32/31 21/26/25 20/25/24
f 28/33/32 12/11/10 10/13/12
f 28/33/32 10/13/12 24/29/28
f 29/34/33 28/33/32 24/29/28
f 30/35/34 28/33/32 29/34/33
f 30/35/34 31/36/35 28/33/32
f 31/36/35 12/11/10 28/33/32
f 31/36/35 32/37/36 12/11/10
f 32/37/36 33/38/37 12/11/10
f 11/12/11 12/11/10 33/38/37
f 33/38/37 34/39/38 11/12/11
f 11/12/11 34/39/38 14/15/14
f 34/39/38 35/40/39 14/15/14
f 14/15/14 35/40/39 16/17/16
f 35/40/39 9/41/40 16/17/16
f 16/17/16 9/41/40 3/19/18
f 35/40/39 8/42/41 9/41/40
f 36/43/42 8/42/41 35/40/39
f 34/39/38 36/43/42 35/40/39
f 37/44/43 36/43/42 34/39/38
f 33/38/37 37/44/43 34/39/38
f 38/45/44 37/44/43 33/38/37
f 33/38/37 32/37/36 38/45/44
f 39/46/45 38/45/44 32/37/36
f 38/45/44 39/46/45 40/47/46
f 40/47/46 41/48/47 38/45/44
f 38/45/44 41/48/47 37/44/43
f 41/48/47 42/49/48 37/44/43
f 37/44/43 42/49/48 36/43/42
f 42/49/48 7/50/49 36/43/42
f 36/43/42 7/50/49 8/42/41
f 42/49/48 6/51/50 7/50/49
f 43/52/51 6/51/50 42/49/48
f 41/48/47 43/52/51 42/49/48
f 44/53/52 43/52/51 41/48/47
f 40/47/46 44/53/52 41/48/47
f 45/54/53 44/53/52 40/47/46
f 45/54/53 20/55/54 44/53/52
f 27/56/55 20/55/54 45/54/53
f 45/54/53 46/57/56 27/56/55
f 26/58/57 27/56/55 46/57/56
f 47/59/58 26/58/57 46/57/56
f 25/60/59 26/58/57 47/59/58
f 48/61/60 25/60/59 47/59/58
f 49/62/61 25/60/59 48/61/60
f 48/61/60 47/59/58 50/63/62
f 50/63/62 47/59/58 51/64/63
f 47/59/58 46/57/56 51/64/63
f 51/64/63 46/57/56 52/65/64
f 46/57/56 45/54/53 52/65/64
f 40/47/46 52/65/64 45/54/53
f 52/65/64 40/47/46 39/46/45
f 53/66/65 52/65/64 39/46/45
f 51/64/63 52/65/64 53/66/65
f 54/67/66 51/64/63 53/66/65
f 50/63/62 51/64/63 54/67/66
f 54/67/66 53/66/65 55/68/67
f 55/68/67 53/66/65 56/69/68
f 53/66/65 39/46/45 56/69/68
f 56/69/68 39/46/45 32/37/36
f 56/69/68 32/37/36 31/36/35
f 57/70/69 56/69/68 31/36/35
f 57/70/69 31/36/35 30/35/34
f 55/68/67 56/69/68 57/70/69
f 43/52/51 5/71/70 6/51/50
f 19/72/71 5/71/70 43/52/51
f 44/53/52 19/72/71 43/52/51
f 20/55/54 19/72/71 44/53/52
f 49/73/72 24/29/28 25/30/29
f 29/34/33 24/29/28 49/73/72
f 30/74/73 48/75/73 57/76/73
f 48/75/73 30/74/73 49/77/73
f 49/77/73 30/74/73 29/78/74
f 48/75/73 50/79/74 57/76/73
f 50/79/74 55/80/74 57/76/73
f 55/80/74 50/79/74 54/81/74

