# Blender MTL File: 'arrowlandrotatingobj.blend'
# Material Count: 3

newmtl None
collisionType 0 0 0
Ns 0
Ka 0.000000 0.000000 0.000000
Kd 0.8 0.8 0.8
Ks 0.8 0.8 0.8
d 1
illum 2
map_Kd ..\..\levels\PlayStation - Spyro the Dragon - Artisans Hub\high\High [www.imagesplitter.net]-0-4.png

newmtl None_High_[www.imagesplitter.net]-0-9.png
collisionType 13 0 0
Ns 0
Ka 0.000000 0.000000 0.000000
Kd 0.8 0.8 0.8
Ks 0.8 0.8 0.8
d 1
illum 2
map_Kd ..\..\levels\PlayStation - Spyro the Dragon - Artisans Hub\high\High [www.imagesplitter.net]-0-9.png

newmtl None_High_[www.imagesplitter.net]-2-12.png
collisionType 21 0 0
Ns 0
Ka 0.000000 0.000000 0.000000
Kd 0.8 0.8 0.8
Ks 0.8 0.8 0.8
d 1
illum 2
map_Kd ..\..\levels\PlayStation - Spyro the Dragon - Artisans Hub\high\High [www.imagesplitter.net]-2-12.png
