# Blender MTL File: 'desert level.blend'
# Material Count: 4

newmtl building
collisionType 0 0 0
Ns 96.078431
Ka 1.000000 1.000000 1.000000
Kd 0.640000 0.106911 0.044457
Ks 0.500000 0.500000 0.500000
Ke 0.000000 0.000000 0.000000
Ni 1.000000
d 1.000000
illum 2
map_Kd ..\..\ESA\Ridged Glass.jpg

newmtl climb
collisionType 21 0 0
Ns 96.078431
Ka 1.000000 1.000000 1.000000
Kd 0.054313 0.640000 0.165601
Ks 0.500000 0.500000 0.500000
Ke 0.000000 0.000000 0.000000
Ni 1.000000
d 1.000000
illum 2
map_Kd ..\..\ESA\Grass0066_1_270-0-0.png

newmtl normal
collisionType 0 0 0
Ns 96.078431
Ka 1.000000 1.000000 1.000000
Kd 0.595841 0.640000 0.340612
Ks 0.500000 0.500000 0.500000
Ke 0.000000 0.000000 0.000000
Ni 1.000000
d 1.000000
illum 2
map_Kd ..\..\ESA\Ridged Glass.jpg

newmtl slip
collisionType 19 0 0
Ns 96.078431
Ka 1.000000 1.000000 1.000000
Kd 0.640000 0.519050 0.033082
Ks 0.500000 0.500000 0.500000
Ke 0.000000 0.000000 0.000000
Ni 1.000000
d 1.000000
illum 2
map_Kd ..\..\ESA\DQ_Limestone_Ohio-Tan_Profile.jpg
