# Blender MTL File: 'desert level.blend'
# Material Count: 8

newmtl building
collisionType 48 0 0
Ns 96.078431
Ka 1.000000 1.000000 1.000000
Kd 0.640000 0.106911 0.044457
Ks 0.500000 0.500000 0.500000
Ke 0.000000 0.000000 0.000000
Ni 1.000000
d 1.000000
illum 2
map_Kd ..\..\ESA\Ridged Glass.jpg

newmtl building_siding-category-page-redesign-materials-vinyl.png.001
collisionType 48 0 0
Ns 96.078431
Ka 1.000000 1.000000 1.000000
Kd 0.640000 0.106911 0.044457
Ks 0.500000 0.500000 0.500000
Ke 0.000000 0.000000 0.000000
Ni 1.000000
d 1.000000
illum 2
map_Kd ..\..\ESA\siding-category-page-redesign-materials-vinyl.png

newmtl grass
collisionType 21 0 0
Ns 96.078431
Ka 1.000000 1.000000 1.000000
Kd 0.054313 0.640000 0.165601
Ks 0.500000 0.500000 0.500000
Ke 0.000000 0.000000 0.000000
Ni 1.000000
d 1.000000
illum 2
map_Kd ..\..\ESA\Grass0066_1_270-0-0.png

newmtl pyramid
collisionType 19 0 0
Ns 96.078431
Ka 1.000000 1.000000 1.000000
Kd 0.640000 0.519050 0.033082
Ks 0.500000 0.500000 0.500000
Ke 0.000000 0.000000 0.000000
Ni 1.000000
d 1.000000
illum 2
map_Kd ..\..\ESA\DQ_Limestone_Ohio-Tan_Profile.jpg

newmtl rock
collisionType 48 0 0
Ns 96.078431
Ka 1.000000 1.000000 1.000000
Kd 0.138684 0.045695 0.105231
Ks 0.500000 0.500000 0.500000
Ke 0.000000 0.000000 0.000000
Ni 1.000000
d 1.000000
illum 2
map_Kd ..\..\ESA\textures\brown rock-0-0.png

newmtl sand
collisionType 0 0 0
Ns 96.078431
Ka 1.000000 1.000000 1.000000
Kd 0.595841 0.640000 0.340612
Ks 0.500000 0.500000 0.500000
Ke 0.000000 0.000000 0.000000
Ni 1.000000
d 1.000000
illum 2
map_Kd ..\..\ESA\sand_1.jpg

newmtl walls
collisionType 48 0 0
Ns 96.078431
Ka 1.000000 1.000000 1.000000
Kd 0.300599 0.300599 0.300599
Ks 0.500000 0.500000 0.500000
Ke 0.000000 0.000000 0.000000
Ni 1.000000
d 1.000000
illum 2
map_Kd ..\..\rpg hack\levels\0 (22).png

newmtl water
collisionType 48 0 0
Ns 96.078431
Ka 1.000000 1.000000 1.000000
Kd 0.152950 0.452850 0.640000
Ks 0.500000 0.500000 0.500000
Ke 0.000000 0.000000 0.000000
Ni 1.000000
d 1.000000
illum 2
map_Kd ..\textures\watersand.jpg
