# Blender MTL File: 'jungle level.blend'
# Material Count: 9

newmtl bark
Ns 96.078431
Ka 1.000000 1.000000 1.000000
Kd 0.640000 0.083923 0.022301
Ks 0.500000 0.500000 0.500000
Ke 0.000000 0.000000 0.000000
Ni 1.000000
d 1.000000
illum 2
map_Kd ..\..\ESA\vine.png

newmtl bark_0dd7f20dc25cd497636f91dd065537fa.jpg
Ns 96.078431
Ka 1.000000 1.000000 1.000000
Kd 0.640000 0.083923 0.022301
Ks 0.500000 0.500000 0.500000
Ke 0.000000 0.000000 0.000000
Ni 1.000000
d 1.000000
illum 2
map_Kd ..\..\ESA\0dd7f20dc25cd497636f91dd065537fa.jpg

newmtl bark_54578135-wood-rings-texture-background-cracked-wooden-cut.jpg
Ns 96.078431
Ka 1.000000 1.000000 1.000000
Kd 0.640000 0.083923 0.022301
Ks 0.500000 0.500000 0.500000
Ke 0.000000 0.000000 0.000000
Ni 1.000000
d 1.000000
illum 2
map_Kd ..\..\ESA\54578135-wood-rings-texture-background-cracked-wooden-cut.jpg

newmtl bridge
Ns 96.078431
Ka 1.000000 1.000000 1.000000
Kd 0.640000 0.018709 0.036053
Ks 0.500000 0.500000 0.500000
Ke 0.000000 0.000000 0.000000
Ni 1.000000
d 1.000000
illum 2
map_Kd ..\..\ESA\tree grain.jpg

newmtl grass
Ns 96.078431
Ka 1.000000 1.000000 1.000000
Kd 0.560308 0.640000 0.204648
Ks 0.500000 0.500000 0.500000
Ke 0.000000 0.000000 0.000000
Ni 1.000000
d 1.000000
illum 2
map_Kd ..\..\ESA\jungle grass textures_www.artwallpaperhi.com_43.jpg

newmtl inside_tree
Ns 96.078431
Ka 1.000000 1.000000 1.000000
Kd 0.640000 0.385545 0.037451
Ks 0.500000 0.500000 0.500000
Ke 0.000000 0.000000 0.000000
Ni 1.000000
d 1.000000
illum 2
map_Kd ..\..\ESA\54578135-wood-rings-texture-background-cracked-wooden-cut.jpg

newmtl inside_tree_tree_grain.jpg
Ns 96.078431
Ka 1.000000 1.000000 1.000000
Kd 0.640000 0.385545 0.037451
Ks 0.500000 0.500000 0.500000
Ke 0.000000 0.000000 0.000000
Ni 1.000000
d 1.000000
illum 2
map_Kd ..\..\ESA\tree grain.jpg

newmtl leaves
Ns 96.078431
Ka 1.000000 1.000000 1.000000
Kd 0.248493 0.640000 0.080037
Ks 0.500000 0.500000 0.500000
Ke 0.000000 0.000000 0.000000
Ni 1.000000
d 1.000000
illum 2
map_Kd ..\..\ESA\Bumpy Textured Leaves.jpg

newmtl vine?
Ns 96.078431
Ka 1.000000 1.000000 1.000000
Kd 0.088376 0.640000 0.070321
Ks 0.500000 0.500000 0.500000
Ke 0.000000 0.000000 0.000000
Ni 1.000000
d 1.000000
illum 2
map_Kd ..\..\ESA\vine.png
