# Blender MTL File: 'level reset.blend'
# Material Count: 9

newmtl grass
collisionType 0 0 0
Ns 96.078431
Ka 1.000000 1.000000 1.000000
Kd 0.025653 0.640000 0.105480
Ks 0.500000 0.500000 0.500000
Ke 0.000000 0.000000 0.000000
Ni 1.000000
d 1.000000
illum 2
map_Kd ..\..\ESA\Grass0066_1_270-0-0.png

newmtl rock
collisionType 21 0 0
Ns 96.078431
Ka 1.000000 1.000000 1.000000
Kd 0.447680 0.233498 0.095790
Ks 0.500000 0.500000 0.500000
Ke 0.000000 0.000000 0.000000
Ni 1.000000
d 1.000000
illum 2
map_Kd ..\..\ESA\textures\amber.jpg

newmtl rock_0_(22).png.001
collisionType 0 0 0
Ns 96.078431
Ka 1.000000 1.000000 1.000000
Kd 0.447680 0.233498 0.095790
Ks 0.500000 0.500000 0.500000
Ke 0.000000 0.000000 0.000000
Ni 1.000000
d 1.000000
illum 2
map_Kd ..\..\levels\PlayStation - Spyro 3 Year of the Dragon - Molten Crater\Texture base [www.imagesplitter.net]\0 (22).png

newmtl shit_
collisionType 0 0 0
Ns 96.078431
Ka 1.000000 1.000000 1.000000
Kd 0.640000 0.509317 0.121820
Ks 0.500000 0.500000 0.500000
Ke 0.000000 0.000000 0.000000
Ni 1.000000
d 1.000000
illum 2
map_Kd ..\..\ESA\textures\RockGrassy0051_1_download600-0-0.jpg

newmtl slippery_rock
collisionType 19 0 0
Ns 96.078431
Ka 1.000000 1.000000 1.000000
Kd 0.640000 0.034037 0.027752
Ks 0.500000 0.500000 0.500000
Ke 0.000000 0.000000 0.000000
Ni 1.000000
d 1.000000
illum 2
map_Kd ..\..\ESA\textures\azurite.jpg

newmtl slippery_snow
collisionType 19 0 0
Ns 96.078431
Ka 1.000000 1.000000 1.000000
Kd 0.034818 0.092912 0.640000
Ks 0.500000 0.500000 0.500000
Ke 0.000000 0.000000 0.000000
Ni 1.000000
d 1.000000
illum 2
map_Kd ..\..\ESA\ice.jpg

newmtl slope
collisionType 19 0 0
Ns 96.078431
Ka 1.000000 1.000000 1.000000
Kd 0.640000 0.082371 0.225659
Ks 0.500000 0.500000 0.500000
Ke 0.000000 0.000000 0.000000
Ni 1.000000
d 1.000000
illum 2
map_Kd ..\..\ESA\Ridged Glass.jpg

newmtl snow
collisionType 21 0 0
Ns 96.078431
Ka 1.000000 1.000000 1.000000
Kd 0.156151 0.241865 0.640000
Ks 0.500000 0.500000 0.500000
Ke 0.000000 0.000000 0.000000
Ni 1.000000
d 1.000000
illum 2
map_Kd ..\..\ESA\0050-snow-texture-seamless-hr.jpg

newmtl wall
collisionType 0 0 0
Ns 96.078431
Ka 1.000000 1.000000 1.000000
Kd 0.191641 0.191641 0.191641
Ks 0.500000 0.500000 0.500000
Ke 0.000000 0.000000 0.000000
Ni 1.000000
d 1.000000
illum 2
map_Kd ..\..\levels\PlayStation - Spyro 3 Year of the Dragon - Molten Crater\Texture base [www.imagesplitter.net]\0 (22).png
