# Blender MTL File: 'p plant greenhouse.blend'
# Material Count: 12

newmtl black
collisionType 0 0 0
Ns 96.078431
Ka 1.000000 1.000000 1.000000
Kd 0.000000 0.000000 0.000000
Ks 0.500000 0.500000 0.500000
Ke 0.000000 0.000000 0.000000
Ni 1.000000
d 1.000000
illum 2
map_Kd ..\..\levels\Spyro 2- Autumn Plains\tex\0 (85).png

newmtl dirt
collisionType 0 0 0
Ns 96.078431
Ka 1.000000 1.000000 1.000000
Kd 0.640000 0.036935 0.024465
Ks 0.500000 0.500000 0.500000
Ke 0.000000 0.000000 0.000000
Ni 1.000000
d 1.000000
illum 2
map_Kd ..\..\levels\PlayStation - Spyro 3 Year of the Dragon - Molten Crater\Texture base [www.imagesplitter.net]\0 (3).png

newmtl dirt_0_(3).png
Ns 96.078431
Ka 1.000000 1.000000 1.000000
Kd 0.640000 0.036935 0.024465
Ks 0.500000 0.500000 0.500000
Ke 0.000000 0.000000 0.000000
Ni 1.000000
d 1.000000
illum 2
map_Kd ..\levels\PlayStation - Spyro 3 Year of the Dragon - Molten Crater\Texture base [www.imagesplitter.net]\0 (3).png

newmtl grass
collisionType 0 0 0
Ns 96.078431
Ka 1.000000 1.000000 1.000000
Kd 0.165690 0.640000 0.073323
Ks 0.500000 0.500000 0.500000
Ke 0.000000 0.000000 0.000000
Ni 1.000000
d 1.000000
illum 2
map_Kd ..\..\levels\PlayStation - Spyro the Dragon - Artisans Hub\high\High [www.imagesplitter.net]-4-0.png

newmtl greenhouse
collisionType 0 0 0
Ns 96.078431
Ka 1.000000 1.000000 1.000000
Kd 0.640000 0.640000 0.640000
Ks 0.500000 0.500000 0.500000
Ke 0.000000 0.000000 0.000000
Ni 1.000000
d 0.400000
illum 2
map_Kd ..\..\levels\PlayStation - Spyro the Dragon - Artisans Hub\high\High [www.imagesplitter.net]-3-10.png

newmtl mesh0048mat
collisionType 0 0 0
Ns 0.000000
Ka 0.000000 0.000000 0.000000
Kd 1.000000 1.000000 1.000000
Ks 0.000000 0.000000 0.000000
Ke 0.000000 0.000000 0.000000
Ni 1.000000
d 1.000000
illum 2
map_Kd ..\..\levels\Piranha Plant\spots.png

newmtl mesh0048mat_leaf.png
Ns 0.000000
Ka 0.000000 0.000000 0.000000
Kd 1.000000 1.000000 1.000000
Ks 0.000000 0.000000 0.000000
Ke 0.000000 0.000000 0.000000
Ni 1.000000
d 1.000000
illum 2
map_Kd ..\..\levels\Piranha Plant\leaf.png

newmtl mesh0048mat_white_n_green.png
collisionType 0 0 0
Ns 0.000000
Ka 0.000000 0.000000 0.000000
Kd 1.000000 1.000000 1.000000
Ks 0.000000 0.000000 0.000000
Ke 0.000000 0.000000 0.000000
Ni 1.000000
d 1.000000
illum 2
map_Kd ..\..\levels\Piranha Plant\white n green.png

newmtl mesh0152mat
collisionType 0 0 0
Ns 0.000000
Ka 0.000000 0.000000 0.000000
Kd 1.000000 1.000000 1.000000
Ks 0.000000 0.000000 0.000000
Ke 0.000000 0.000000 0.000000
Ni 1.000000
d 1.000000
illum 2
map_Kd ..\..\levels\Piranha Plant Capsule\t0152_0.png

newmtl pipe
collisionType 0 0 0
Ns 96.078431
Ka 1.000000 1.000000 1.000000
Kd 0.640000 0.238272 0.116047
Ks 0.500000 0.500000 0.500000
Ke 0.000000 0.000000 0.000000
Ni 1.000000
d 1.000000
illum 2
map_Kd ..\..\levels\Piranha Plant\white n green.png

newmtl walls
collisionType 0 0 0
Ns 96.078431
Ka 1.000000 1.000000 1.000000
Kd 0.640000 0.039706 0.105369
Ks 0.500000 0.500000 0.500000
Ke 0.000000 0.000000 0.000000
Ni 1.000000
d 1.000000
illum 2
map_Kd ..\..\levels\PlayStation - Spyro 3 Year of the Dragon - Molten Crater\Texture base [www.imagesplitter.net]\0 (70).png

newmtl wood
collisionType 0 0 0
Ns 96.078431
Ka 1.000000 1.000000 1.000000
Kd 0.640000 0.248748 0.065568
Ks 0.500000 0.500000 0.500000
Ke 0.000000 0.000000 0.000000
Ni 1.000000
d 1.000000
illum 2
map_Kd ..\..\levels\Spyro 2- Autumn Plains\tex\0 (84).png
