# Blender v2.79 (sub 0) OBJ File: 'midna.blend'
# www.blender.org
mtllib midna.mtl
o Plane.001_Plane
v -1.000000 -1.000000 -0.000000
v 1.000000 -1.000000 -0.000000
v -1.000000 1.000000 0.000000
v 1.000000 1.000000 0.000000
v -0.800000 -1.000000 -0.000000
v -0.600000 -1.000000 -0.000000
v -0.400000 -1.000000 -0.000000
v -0.200000 -1.000000 -0.000000
v 0.000000 -1.000000 -0.000000
v 0.200000 -1.000000 -0.000000
v 0.400000 -1.000000 -0.000000
v 0.600000 -1.000000 -0.000000
v 0.800000 -1.000000 -0.000000
v 0.800000 1.000000 0.000000
v 0.600000 1.000000 0.000000
v 0.400000 1.000000 0.000000
v 0.200000 1.000000 0.000000
v 0.000000 1.000000 0.000000
v -0.200000 1.000000 0.000000
v -0.400000 1.000000 0.000000
v -0.600000 1.000000 0.000000
v -0.800000 1.000000 0.000000
v -1.000000 0.800000 0.000000
v -1.000000 0.600000 0.000000
v -1.000000 0.400000 0.000000
v -1.000000 0.200000 0.000000
v -1.000000 0.000000 0.000000
v -1.000000 -0.200000 -0.000000
v -1.000000 -0.400000 -0.000000
v -1.000000 -0.600000 -0.000000
v -1.000000 -0.800000 -0.000000
v 1.000000 -0.800000 -0.000000
v 1.000000 -0.600000 -0.000000
v 1.000000 -0.400000 -0.000000
v 1.000000 -0.200000 -0.000000
v 1.000000 0.000000 0.000000
v 1.000000 0.200000 0.000000
v 1.000000 0.400000 0.000000
v 1.000000 0.600000 0.000000
v 1.000000 0.800000 0.000000
v -0.800000 -0.800000 -0.000000
v -0.800000 -0.600000 -0.000000
v -0.800000 -0.400000 -0.000000
v -0.800000 -0.200000 -0.000000
v -0.800000 0.000000 0.000000
v -0.800000 0.200000 0.000000
v -0.800000 0.400000 0.000000
v -0.800000 0.600000 0.000000
v -0.800000 0.800000 0.000000
v -0.600000 -0.800000 -0.000000
v -0.600000 -0.600000 -0.000000
v -0.600000 -0.400000 -0.000000
v -0.600000 -0.200000 -0.000000
v -0.600000 0.000000 0.000000
v -0.600000 0.200000 0.000000
v -0.600000 0.400000 0.000000
v -0.600000 0.600000 0.000000
v -0.600000 0.800000 0.000000
v -0.400000 -0.800000 -0.000000
v -0.400000 -0.600000 -0.000000
v -0.400000 -0.400000 -0.000000
v -0.400000 -0.200000 -0.000000
v -0.400000 0.000000 0.000000
v -0.400000 0.200000 0.000000
v -0.400000 0.400000 0.000000
v -0.400000 0.600000 0.000000
v -0.400000 0.800000 0.000000
v -0.200000 -0.800000 -0.000000
v -0.200000 -0.600000 -0.000000
v -0.200000 -0.400000 -0.000000
v -0.200000 -0.200000 -0.000000
v -0.200000 0.000000 0.000000
v -0.200000 0.200000 0.000000
v -0.200000 0.400000 0.000000
v -0.200000 0.600000 0.000000
v -0.200000 0.800000 0.000000
v 0.000000 -0.800000 -0.000000
v 0.000000 -0.600000 -0.000000
v 0.000000 -0.400000 -0.000000
v 0.000000 -0.200000 -0.000000
v 0.000000 0.000000 0.000000
v 0.000000 0.200000 0.000000
v 0.000000 0.400000 0.000000
v 0.000000 0.600000 0.000000
v 0.000000 0.800000 0.000000
v 0.200000 -0.800000 -0.000000
v 0.200000 -0.600000 -0.000000
v 0.200000 -0.400000 -0.000000
v 0.200000 -0.200000 -0.000000
v 0.200000 0.000000 0.000000
v 0.200000 0.200000 0.000000
v 0.200000 0.400000 0.000000
v 0.200000 0.600000 0.000000
v 0.200000 0.800000 0.000000
v 0.400000 -0.800000 -0.000000
v 0.400000 -0.600000 -0.000000
v 0.400000 -0.400000 -0.000000
v 0.400000 -0.200000 -0.000000
v 0.400000 0.000000 0.000000
v 0.400000 0.200000 0.000000
v 0.400000 0.400000 0.000000
v 0.400000 0.600000 0.000000
v 0.400000 0.800000 0.000000
v 0.600000 -0.800000 -0.000000
v 0.600000 -0.600000 -0.000000
v 0.600000 -0.400000 -0.000000
v 0.600000 -0.200000 -0.000000
v 0.600000 0.000000 0.000000
v 0.600000 0.200000 0.000000
v 0.600000 0.400000 0.000000
v 0.600000 0.600000 0.000000
v 0.600000 0.800000 0.000000
v 0.800000 -0.800000 -0.000000
v 0.800000 -0.600000 -0.000000
v 0.800000 -0.400000 -0.000000
v 0.800000 -0.200000 -0.000000
v 0.800000 0.000000 0.000000
v 0.800000 0.200000 0.000000
v 0.800000 0.400000 0.000000
v 0.800000 0.600000 0.000000
v 0.800000 0.800000 0.000000
v -1.000000 -0.900000 -0.000000
v 0.900000 -1.000000 -0.000000
v 1.000000 0.900000 0.000000
v -0.900000 1.000000 0.000000
v -0.900000 -1.000000 -0.000000
v -0.700000 -1.000000 -0.000000
v -0.500000 -1.000000 -0.000000
v -0.300000 -1.000000 -0.000000
v -0.100000 -1.000000 -0.000000
v 0.100000 -1.000000 -0.000000
v 0.300000 -1.000000 -0.000000
v 0.500000 -1.000000 -0.000000
v 0.700000 -1.000000 -0.000000
v 0.900000 1.000000 0.000000
v 0.700000 1.000000 0.000000
v 0.500000 1.000000 0.000000
v 0.300000 1.000000 0.000000
v 0.100000 1.000000 0.000000
v -0.100000 1.000000 0.000000
v -0.300000 1.000000 0.000000
v -0.500000 1.000000 0.000000
v -0.700000 1.000000 0.000000
v -0.800000 0.900000 0.000000
v -0.600000 0.900000 0.000000
v -0.400000 0.900000 0.000000
v -0.200000 0.900000 0.000000
v 0.000000 0.900000 0.000000
v 0.200000 0.900000 0.000000
v 0.400000 0.900000 0.000000
v 0.600000 0.900000 0.000000
v 0.800000 0.900000 0.000000
v -1.000000 0.900000 0.000000
v -1.000000 0.700000 0.000000
v -1.000000 0.500000 0.000000
v -1.000000 0.300000 0.000000
v -1.000000 0.100000 0.000000
v -1.000000 -0.100000 -0.000000
v -1.000000 -0.300000 -0.000000
v -1.000000 -0.500000 -0.000000
v -1.000000 -0.700000 -0.000000
v 1.000000 -0.900000 -0.000000
v 1.000000 -0.700000 -0.000000
v 1.000000 -0.500000 -0.000000
v 1.000000 -0.300000 -0.000000
v 1.000000 -0.100000 -0.000000
v 1.000000 0.100000 0.000000
v 1.000000 0.300000 0.000000
v 1.000000 0.500000 0.000000
v 1.000000 0.700000 0.000000
v -0.800000 -0.900000 -0.000000
v -0.800000 -0.700000 -0.000000
v -0.800000 -0.500000 -0.000000
v -0.800000 -0.300000 -0.000000
v -0.800000 -0.100000 -0.000000
v -0.800000 0.100000 0.000000
v -0.800000 0.300000 0.000000
v -0.800000 0.500000 0.000000
v -0.800000 0.700000 0.000000
v -0.600000 -0.900000 -0.000000
v -0.600000 -0.700000 -0.000000
v -0.600000 -0.500000 -0.000000
v -0.600000 -0.300000 -0.000000
v -0.600000 -0.100000 -0.000000
v -0.600000 0.100000 0.000000
v -0.600000 0.300000 0.000000
v -0.600000 0.500000 0.000000
v -0.600000 0.700000 0.000000
v -0.400000 -0.900000 -0.000000
v -0.400000 -0.700000 -0.000000
v -0.400000 -0.500000 -0.000000
v -0.400000 -0.300000 -0.000000
v -0.400000 -0.100000 -0.000000
v -0.400000 0.100000 0.000000
v -0.400000 0.300000 0.000000
v -0.400000 0.500000 0.000000
v -0.400000 0.700000 0.000000
v -0.200000 -0.900000 -0.000000
v -0.200000 -0.700000 -0.000000
v -0.200000 -0.500000 -0.000000
v -0.200000 -0.300000 -0.000000
v -0.200000 -0.100000 -0.000000
v -0.200000 0.100000 0.000000
v -0.200000 0.300000 0.000000
v -0.200000 0.500000 0.000000
v -0.200000 0.700000 0.000000
v 0.000000 -0.900000 -0.000000
v 0.000000 -0.700000 -0.000000
v 0.000000 -0.500000 -0.000000
v 0.000000 -0.300000 -0.000000
v 0.000000 -0.100000 -0.000000
v 0.000000 0.100000 0.000000
v 0.000000 0.300000 0.000000
v 0.000000 0.500000 0.000000
v 0.000000 0.700000 0.000000
v 0.200000 -0.900000 -0.000000
v 0.200000 -0.700000 -0.000000
v 0.200000 -0.500000 -0.000000
v 0.200000 -0.300000 -0.000000
v 0.200000 -0.100000 -0.000000
v 0.200000 0.100000 0.000000
v 0.200000 0.300000 0.000000
v 0.200000 0.500000 0.000000
v 0.200000 0.700000 0.000000
v 0.400000 -0.900000 -0.000000
v 0.400000 -0.700000 -0.000000
v 0.400000 -0.500000 -0.000000
v 0.400000 -0.300000 -0.000000
v 0.400000 -0.100000 -0.000000
v 0.400000 0.100000 0.000000
v 0.400000 0.300000 0.000000
v 0.400000 0.500000 0.000000
v 0.400000 0.700000 0.000000
v 0.600000 -0.900000 -0.000000
v 0.600000 -0.700000 -0.000000
v 0.600000 -0.500000 -0.000000
v 0.600000 -0.300000 -0.000000
v 0.600000 -0.100000 -0.000000
v 0.600000 0.100000 0.000000
v 0.600000 0.300000 0.000000
v 0.600000 0.500000 0.000000
v 0.600000 0.700000 0.000000
v 0.800000 -0.900000 -0.000000
v 0.800000 -0.700000 -0.000000
v 0.800000 -0.500000 -0.000000
v 0.800000 -0.300000 -0.000000
v 0.800000 -0.100000 -0.000000
v 0.800000 0.100000 0.000000
v 0.800000 0.300000 0.000000
v 0.800000 0.500000 0.000000
v 0.800000 0.700000 0.000000
v 0.700000 -0.800000 -0.000000
v 0.700000 -0.600000 -0.000000
v 0.700000 -0.400000 -0.000000
v 0.700000 -0.200000 -0.000000
v 0.700000 0.000000 0.000000
v 0.700000 0.200000 0.000000
v 0.700000 0.400000 0.000000
v 0.700000 0.600000 0.000000
v 0.700000 0.800000 0.000000
v 0.500000 -0.800000 -0.000000
v 0.500000 -0.600000 -0.000000
v 0.500000 -0.400000 -0.000000
v 0.500000 -0.200000 -0.000000
v 0.500000 0.000000 0.000000
v 0.500000 0.200000 0.000000
v 0.500000 0.400000 0.000000
v 0.500000 0.600000 0.000000
v 0.500000 0.800000 0.000000
v 0.300000 -0.800000 -0.000000
v 0.300000 -0.600000 -0.000000
v 0.300000 -0.400000 -0.000000
v 0.300000 -0.200000 -0.000000
v 0.300000 0.000000 0.000000
v 0.300000 0.200000 0.000000
v 0.300000 0.400000 0.000000
v 0.300000 0.600000 0.000000
v 0.300000 0.800000 0.000000
v 0.100000 -0.800000 -0.000000
v 0.100000 -0.600000 -0.000000
v 0.100000 -0.400000 -0.000000
v 0.100000 -0.200000 -0.000000
v 0.100000 0.000000 0.000000
v 0.100000 0.200000 0.000000
v 0.100000 0.400000 0.000000
v 0.100000 0.600000 0.000000
v 0.100000 0.800000 0.000000
v -0.100000 -0.800000 -0.000000
v -0.100000 -0.600000 -0.000000
v -0.100000 -0.400000 -0.000000
v -0.100000 -0.200000 -0.000000
v -0.100000 0.000000 0.000000
v -0.100000 0.200000 0.000000
v -0.100000 0.400000 0.000000
v -0.100000 0.600000 0.000000
v -0.100000 0.800000 0.000000
v -0.300000 -0.800000 -0.000000
v -0.300000 -0.600000 -0.000000
v -0.300000 -0.400000 -0.000000
v -0.300000 -0.200000 -0.000000
v -0.300000 0.000000 0.000000
v -0.300000 0.200000 0.000000
v -0.300000 0.400000 0.000000
v -0.300000 0.600000 0.000000
v -0.300000 0.800000 0.000000
v -0.500000 -0.800000 -0.000000
v -0.500000 -0.600000 -0.000000
v -0.500000 -0.400000 -0.000000
v -0.500000 -0.200000 -0.000000
v -0.500000 0.000000 0.000000
v -0.500000 0.200000 0.000000
v -0.500000 0.400000 0.000000
v -0.500000 0.600000 0.000000
v -0.500000 0.800000 0.000000
v -0.700000 -0.800000 -0.000000
v -0.700000 -0.600000 -0.000000
v -0.700000 -0.400000 -0.000000
v -0.700000 -0.200000 -0.000000
v -0.700000 0.000000 0.000000
v -0.700000 0.200000 0.000000
v -0.700000 0.400000 0.000000
v -0.700000 0.600000 0.000000
v -0.700000 0.800000 0.000000
v -0.900000 -0.800000 -0.000000
v -0.900000 -0.600000 -0.000000
v -0.900000 -0.400000 -0.000000
v -0.900000 -0.200000 -0.000000
v -0.900000 0.000000 0.000000
v -0.900000 0.200000 0.000000
v -0.900000 0.400000 0.000000
v -0.900000 0.600000 0.000000
v -0.900000 0.800000 0.000000
v 0.900000 -0.800000 -0.000000
v 0.900000 -0.600000 -0.000000
v 0.900000 -0.400000 -0.000000
v 0.900000 -0.200000 -0.000000
v 0.900000 0.000000 0.000000
v 0.900000 0.200000 0.000000
v 0.900000 0.400000 0.000000
v 0.900000 0.600000 0.000000
v 0.900000 0.800000 0.000000
v 0.900000 0.700000 0.000000
v 0.900000 0.500000 0.000000
v 0.900000 0.300000 0.000000
v 0.900000 0.100000 0.000000
v 0.900000 -0.100000 -0.000000
v 0.900000 -0.300000 -0.000000
v 0.900000 -0.500000 -0.000000
v 0.900000 -0.700000 -0.000000
v 0.900000 -0.900000 -0.000000
v -0.900000 0.700000 0.000000
v -0.900000 0.500000 0.000000
v -0.900000 0.300000 0.000000
v -0.900000 0.100000 0.000000
v -0.900000 -0.100000 -0.000000
v -0.900000 -0.300000 -0.000000
v -0.900000 -0.500000 -0.000000
v -0.900000 -0.700000 -0.000000
v -0.900000 -0.900000 -0.000000
v -0.700000 0.700000 0.000000
v -0.700000 0.500000 0.000000
v -0.700000 0.300000 0.000000
v -0.700000 0.100000 0.000000
v -0.700000 -0.100000 -0.000000
v -0.700000 -0.300000 -0.000000
v -0.700000 -0.500000 -0.000000
v -0.700000 -0.700000 -0.000000
v -0.700000 -0.900000 -0.000000
v -0.500000 0.700000 0.000000
v -0.500000 0.500000 0.000000
v -0.500000 0.300000 0.000000
v -0.500000 0.100000 0.000000
v -0.500000 -0.100000 -0.000000
v -0.500000 -0.300000 -0.000000
v -0.500000 -0.500000 -0.000000
v -0.500000 -0.700000 -0.000000
v -0.500000 -0.900000 -0.000000
v -0.300000 0.700000 0.000000
v -0.300000 0.500000 0.000000
v -0.300000 0.300000 0.000000
v -0.300000 0.100000 0.000000
v -0.300000 -0.100000 -0.000000
v -0.300000 -0.300000 -0.000000
v -0.300000 -0.500000 -0.000000
v -0.300000 -0.700000 -0.000000
v -0.300000 -0.900000 -0.000000
v -0.100000 0.700000 0.000000
v -0.100000 0.500000 0.000000
v -0.100000 0.300000 0.000000
v -0.100000 0.100000 0.000000
v -0.100000 -0.100000 -0.000000
v -0.100000 -0.300000 -0.000000
v -0.100000 -0.500000 -0.000000
v -0.100000 -0.700000 -0.000000
v -0.100000 -0.900000 -0.000000
v 0.100000 0.700000 0.000000
v 0.100000 0.500000 0.000000
v 0.100000 0.300000 0.000000
v 0.100000 0.100000 0.000000
v 0.100000 -0.100000 -0.000000
v 0.100000 -0.300000 -0.000000
v 0.100000 -0.500000 -0.000000
v 0.100000 -0.700000 -0.000000
v 0.100000 -0.900000 -0.000000
v 0.300000 0.700000 0.000000
v 0.300000 0.500000 0.000000
v 0.300000 0.300000 0.000000
v 0.300000 0.100000 0.000000
v 0.300000 -0.100000 -0.000000
v 0.300000 -0.300000 -0.000000
v 0.300000 -0.500000 -0.000000
v 0.300000 -0.700000 -0.000000
v 0.300000 -0.900000 -0.000000
v 0.500000 0.700000 0.000000
v 0.500000 0.500000 0.000000
v 0.500000 0.300000 0.000000
v 0.500000 0.100000 0.000000
v 0.500000 -0.100000 -0.000000
v 0.500000 -0.300000 -0.000000
v 0.500000 -0.500000 -0.000000
v 0.500000 -0.700000 -0.000000
v 0.500000 -0.900000 -0.000000
v 0.700000 0.700000 0.000000
v 0.700000 0.500000 0.000000
v 0.700000 0.300000 0.000000
v 0.700000 0.100000 0.000000
v 0.700000 -0.100000 -0.000000
v 0.700000 -0.300000 -0.000000
v 0.700000 -0.500000 -0.000000
v 0.700000 -0.700000 -0.000000
v 0.700000 -0.900000 -0.000000
v 0.700000 0.900000 0.000000
v 0.500000 0.900000 0.000000
v 0.300000 0.900000 0.000000
v 0.100000 0.900000 0.000000
v -0.100000 0.900000 0.000000
v -0.300000 0.900000 0.000000
v -0.500000 0.900000 0.000000
v -0.700000 0.900000 0.000000
v -0.900000 0.900000 0.000000
v 0.900000 0.900000 0.000000
vt 1.000000 -0.500000
vt 0.500000 0.000000
vt 0.500000 -0.500000
vt 0.000000 0.000000
vt 0.000000 -0.500000
vt 0.500000 -1.000000
vt 0.000000 -1.000000
vt 1.000000 -1.000000
vt 1.000000 0.000000
vt 1.000000 -0.500000
vt 0.500000 0.000000
vt 0.500000 -0.500000
vt 0.000000 0.000000
vt 0.000000 -0.500000
vt 0.500000 -1.000000
vt 0.000000 -1.000000
vt 1.000000 -1.000000
vt 1.000000 0.000000
vt 1.000000 -0.500000
vt 0.500000 0.000000
vt 0.500000 -0.500000
vt 0.000000 0.000000
vt 0.000000 -0.500000
vt 0.500000 -1.000000
vt 0.000000 -1.000000
vt 1.000000 -1.000000
vt 1.000000 0.000000
vt 1.000000 -0.500000
vt 0.500000 0.000000
vt 0.500000 -0.500000
vt 0.000000 0.000000
vt 0.000000 -0.500000
vt 0.500000 -1.000000
vt 0.000000 -1.000000
vt 1.000000 -1.000000
vt 1.000000 0.000000
vt 1.000000 -0.500000
vt 0.500000 0.000000
vt 0.500000 -0.500000
vt 0.000000 0.000000
vt 0.000000 -0.500000
vt 0.500000 -1.000000
vt 0.000000 -1.000000
vt 1.000000 -1.000000
vt 1.000000 0.000000
vt 1.000000 -0.500000
vt 0.500000 0.000000
vt 0.500000 -0.500000
vt 0.000000 0.000000
vt 0.000000 -0.500000
vt 0.500000 -1.000000
vt 0.000000 -1.000000
vt 1.000000 -1.000000
vt 1.000000 0.000000
vt 1.000000 -0.500000
vt 0.500000 0.000000
vt 0.500000 -0.500000
vt 0.000000 0.000000
vt 0.000000 -0.500000
vt 0.500000 -1.000000
vt 0.000000 -1.000000
vt 1.000000 -1.000000
vt 1.000000 0.000000
vt 1.000000 -0.500000
vt 0.500000 0.000000
vt 0.500000 -0.500000
vt 0.000000 0.000000
vt 0.000000 -0.500000
vt 0.500000 -1.000000
vt 0.000000 -1.000000
vt 1.000000 -1.000000
vt 1.000000 0.000000
vt 1.000000 -0.500000
vt 0.500000 0.000000
vt 0.500000 -0.500000
vt 0.000000 0.000000
vt 0.000000 -0.500000
vt 0.500000 -1.000000
vt 0.000000 -1.000000
vt 1.000000 -1.000000
vt 1.000000 0.000000
vt 1.000000 -0.500000
vt 0.500000 0.000000
vt 0.500000 -0.500000
vt 0.000000 0.000000
vt 0.000000 -0.500000
vt 0.500000 -1.000000
vt 0.000000 -1.000000
vt 1.000000 -1.000000
vt 1.000000 0.000000
vt 1.000000 -0.500000
vt 0.500000 0.000000
vt 0.500000 -0.500000
vt 0.000000 0.000000
vt 0.000000 -0.500000
vt 0.500000 -1.000000
vt 0.000000 -1.000000
vt 1.000000 -1.000000
vt 1.000000 0.000000
vt 1.000000 -0.500000
vt 0.500000 0.000000
vt 0.500000 -0.500000
vt 0.000000 0.000000
vt 0.000000 -0.500000
vt 0.500000 -1.000000
vt 0.000000 -1.000000
vt 1.000000 -1.000000
vt 1.000000 0.000000
vt 1.000000 -0.500000
vt 0.500000 0.000000
vt 0.500000 -0.500000
vt 0.000000 0.000000
vt 0.000000 -0.500000
vt 0.500000 -1.000000
vt 0.000000 -1.000000
vt 1.000000 -1.000000
vt 1.000000 0.000000
vt 1.000000 -0.500000
vt 0.500000 0.000000
vt 0.500000 -0.500000
vt 0.000000 0.000000
vt 0.000000 -0.500000
vt 0.500000 -1.000000
vt 0.000000 -1.000000
vt 1.000000 -1.000000
vt 1.000000 0.000000
vt 1.000000 -0.500000
vt 0.500000 0.000000
vt 0.500000 -0.500000
vt 0.000000 0.000000
vt 0.000000 -0.500000
vt 0.500000 -1.000000
vt 0.000000 -1.000000
vt 1.000000 -1.000000
vt 1.000000 0.000000
vt 1.000000 -0.500000
vt 0.500000 0.000000
vt 0.500000 -0.500000
vt 0.000000 0.000000
vt 0.000000 -0.500000
vt 0.500000 -1.000000
vt 0.000000 -1.000000
vt 1.000000 -1.000000
vt 1.000000 0.000000
vt 1.000000 -0.500000
vt 0.500000 0.000000
vt 0.500000 -0.500000
vt 0.000000 0.000000
vt 0.000000 -0.500000
vt 0.500000 -1.000000
vt 0.000000 -1.000000
vt 1.000000 -1.000000
vt 1.000000 0.000000
vt 1.000000 -0.500000
vt 0.500000 0.000000
vt 0.500000 -0.500000
vt 0.000000 0.000000
vt 0.000000 -0.500000
vt 0.500000 -1.000000
vt 0.000000 -1.000000
vt 1.000000 -1.000000
vt 1.000000 0.000000
vt 1.000000 -0.500000
vt 0.500000 0.000000
vt 0.500000 -0.500000
vt 0.000000 0.000000
vt 0.000000 -0.500000
vt 0.500000 -1.000000
vt 0.000000 -1.000000
vt 1.000000 -1.000000
vt 1.000000 0.000000
vt 1.000000 -0.500000
vt 0.500000 0.000000
vt 0.500000 -0.500000
vt 0.000000 0.000000
vt 0.000000 -0.500000
vt 0.500000 -1.000000
vt 0.000000 -1.000000
vt 1.000000 -1.000000
vt 1.000000 0.000000
vt 1.000000 -0.500000
vt 0.500000 0.000000
vt 0.500000 -0.500000
vt 0.000000 0.000000
vt 0.000000 -0.500000
vt 0.500000 -1.000000
vt 0.000000 -1.000000
vt 1.000000 -1.000000
vt 1.000000 0.000000
vt 1.000000 -0.500000
vt 0.500000 0.000000
vt 0.500000 -0.500000
vt 0.000000 0.000000
vt 0.000000 -0.500000
vt 0.500000 -1.000000
vt 0.000000 -1.000000
vt 1.000000 -1.000000
vt 1.000000 0.000000
vt 1.000000 -0.500000
vt 0.500000 0.000000
vt 0.500000 -0.500000
vt 0.000000 0.000000
vt 0.000000 -0.500000
vt 0.500000 -1.000000
vt 0.000000 -1.000000
vt 1.000000 -1.000000
vt 1.000000 0.000000
vt 1.000000 -0.500000
vt 0.500000 0.000000
vt 0.500000 -0.500000
vt 0.000000 0.000000
vt 0.000000 -0.500000
vt 0.500000 -1.000000
vt 0.000000 -1.000000
vt 1.000000 -1.000000
vt 1.000000 0.000000
vt 1.000000 -0.500000
vt 0.500000 0.000000
vt 0.500000 -0.500000
vt 0.000000 0.000000
vt 0.000000 -0.500000
vt 0.500000 -1.000000
vt 0.000000 -1.000000
vt 1.000000 -1.000000
vt 1.000000 0.000000
vt 1.000000 -0.500000
vt 0.500000 0.000000
vt 0.500000 -0.500000
vt 0.000000 0.000000
vt 0.000000 -0.500000
vt 0.500000 -1.000000
vt 0.000000 -1.000000
vt 1.000000 -1.000000
vt 1.000000 0.000000
vt 1.000000 -0.500000
vt 0.500000 0.000000
vt 0.500000 -0.500000
vt 0.000000 0.000000
vt 0.000000 -0.500000
vt 0.500000 -1.000000
vt 0.000000 -1.000000
vt 1.000000 -1.000000
vt 1.000000 0.000000
vt 1.000000 -0.500000
vt 0.500000 0.000000
vt 0.500000 -0.500000
vt 0.000000 0.000000
vt 0.000000 -0.500000
vt 0.500000 -1.000000
vt 0.000000 -1.000000
vt 1.000000 -1.000000
vt 1.000000 0.000000
vt 1.000000 -0.500000
vt 0.500000 0.000000
vt 0.500000 -0.500000
vt 0.000000 0.000000
vt 0.000000 -0.500000
vt 0.500000 -1.000000
vt 0.000000 -1.000000
vt 1.000000 -1.000000
vt 1.000000 0.000000
vt 1.000000 -0.500000
vt 0.500000 0.000000
vt 0.500000 -0.500000
vt 0.000000 0.000000
vt 0.000000 -0.500000
vt 0.500000 -1.000000
vt 0.000000 -1.000000
vt 1.000000 -1.000000
vt 1.000000 0.000000
vt 1.000000 -0.500000
vt 0.500000 0.000000
vt 0.500000 -0.500000
vt 0.000000 0.000000
vt 0.000000 -0.500000
vt 0.000000 -1.000000
vt 1.000000 -1.000000
vt 0.500000 -1.000000
vt 1.000000 0.000000
vt 1.000000 -0.500000
vt 0.500000 0.000000
vt 0.500000 -0.500000
vt 0.000000 0.000000
vt 0.000000 -0.500000
vt 0.500000 -1.000000
vt 0.000000 -1.000000
vt 1.000000 -1.000000
vt 1.000000 0.000000
vt 1.000000 -0.500000
vt 0.500000 0.000000
vt 0.500000 -0.500000
vt 0.000000 0.000000
vt 0.000000 -0.500000
vt 0.500000 -1.000000
vt 0.000000 -1.000000
vt 1.000000 -1.000000
vt 1.000000 0.000000
vt 1.000000 -0.500000
vt 0.500000 0.000000
vt 0.500000 -0.500000
vt 0.000000 0.000000
vt 0.000000 -0.500000
vt 0.500000 -1.000000
vt 0.000000 -1.000000
vt 1.000000 -1.000000
vt 1.000000 0.000000
vt 1.000000 -0.500000
vt 0.500000 0.000000
vt 0.500000 -0.500000
vt 0.000000 0.000000
vt 0.000000 -0.500000
vt 0.500000 -1.000000
vt 0.000000 -1.000000
vt 1.000000 -1.000000
vt 1.000000 0.000000
vt 1.000000 -0.500000
vt 0.500000 0.000000
vt 0.500000 -0.500000
vt 0.000000 0.000000
vt 0.000000 -0.500000
vt 0.500000 -1.000000
vt 0.000000 -1.000000
vt 1.000000 -1.000000
vt 1.000000 0.000000
vt 1.000000 -0.500000
vt 0.500000 0.000000
vt 0.500000 -0.500000
vt 0.000000 0.000000
vt 0.000000 -0.500000
vt 0.500000 -1.000000
vt 0.000000 -1.000000
vt 1.000000 -1.000000
vt 1.000000 0.000000
vt 1.000000 -0.500000
vt 0.500000 0.000000
vt 0.500000 -0.500000
vt 0.000000 0.000000
vt 0.000000 -0.500000
vt 0.500000 -1.000000
vt 0.000000 -1.000000
vt 1.000000 -1.000000
vt 1.000000 0.000000
vt 1.000000 -0.500000
vt 0.500000 0.000000
vt 0.500000 -0.500000
vt 0.000000 0.000000
vt 0.000000 -0.500000
vt 0.500000 -1.000000
vt 0.000000 -1.000000
vt 1.000000 -1.000000
vt 1.000000 0.000000
vt 1.000000 -0.500000
vt 0.500000 0.000000
vt 0.500000 -0.500000
vt 0.000000 0.000000
vt 0.000000 -0.500000
vt 0.500000 -1.000000
vt 0.000000 -1.000000
vt 1.000000 -1.000000
vt 1.000000 0.000000
vt 1.000000 -0.500000
vt 0.500000 0.000000
vt 0.500000 -0.500000
vt 0.000000 -0.500000
vt 0.000000 0.000000
vt 0.000000 -1.000000
vt 1.000000 -1.000000
vt 0.500000 -1.000000
vt 1.000000 0.000000
vt 1.000000 -0.500000
vt 0.500000 0.000000
vt 0.500000 -0.500000
vt 0.000000 0.000000
vt 0.000000 -0.500000
vt 0.500000 -1.000000
vt 0.000000 -1.000000
vt 1.000000 -1.000000
vt 1.000000 0.000000
vt 1.000000 -0.500000
vt 0.500000 0.000000
vt 0.500000 -0.500000
vt 0.000000 0.000000
vt 0.000000 -0.500000
vt 0.500000 -1.000000
vt 0.000000 -1.000000
vt 1.000000 -1.000000
vt 1.000000 0.000000
vt 1.000000 -0.500000
vt 0.500000 0.000000
vt 0.500000 -0.500000
vt 0.000000 0.000000
vt 0.000000 -0.500000
vt 0.500000 -1.000000
vt 0.000000 -1.000000
vt 1.000000 -1.000000
vt 1.000000 0.000000
vt 1.000000 -0.500000
vt 0.500000 0.000000
vt 0.500000 -0.500000
vt 0.000000 0.000000
vt 0.000000 -0.500000
vt 0.500000 -1.000000
vt 0.000000 -1.000000
vt 1.000000 -1.000000
vt 1.000000 0.000000
vt 1.000000 -0.500000
vt 0.500000 0.000000
vt 0.500000 -0.500000
vt 0.000000 0.000000
vt 0.000000 -0.500000
vt 0.500000 -1.000000
vt 0.000000 -1.000000
vt 1.000000 -1.000000
vt 1.000000 0.000000
vt 1.000000 -0.500000
vt 0.500000 0.000000
vt 0.500000 -0.500000
vt 0.000000 0.000000
vt 0.000000 -0.500000
vt 0.500000 -1.000000
vt 0.000000 -1.000000
vt 1.000000 -1.000000
vt 1.000000 0.000000
vt 1.000000 -0.500000
vt 0.500000 0.000000
vt 0.500000 -0.500000
vt 0.000000 0.000000
vt 0.000000 -0.500000
vt 0.500000 -1.000000
vt 0.000000 -1.000000
vt 1.000000 -1.000000
vt 1.000000 0.000000
vt 1.000000 -0.500000
vt 0.500000 0.000000
vt 0.500000 -0.500000
vt 0.000000 0.000000
vt 0.000000 -0.500000
vt 0.500000 -1.000000
vt 0.000000 -1.000000
vt 1.000000 -1.000000
vt 1.000000 0.000000
vt 1.000000 -0.500000
vt 0.500000 0.000000
vt 0.500000 -0.500000
vt 0.000000 0.000000
vt 0.000000 -0.500000
vt 0.500000 -1.000000
vt 0.000000 -1.000000
vt 1.000000 -1.000000
vt 1.000000 0.000000
vt 1.000000 -0.500000
vt 0.500000 0.000000
vt 0.500000 -0.500000
vt 0.000000 -0.500000
vt 0.000000 0.000000
vt 0.500000 -1.000000
vt 0.000000 -1.000000
vt 1.000000 -1.000000
vt 1.000000 0.000000
vt 1.000000 -0.500000
vt 0.500000 0.000000
vt 0.500000 -0.500000
vt 0.000000 0.000000
vt 0.000000 -0.500000
vt 0.500000 -1.000000
vt 0.000000 -1.000000
vt 1.000000 -1.000000
vt 1.000000 0.000000
vt 1.000000 -0.500000
vt 0.500000 0.000000
vt 0.500000 -0.500000
vt 0.000000 0.000000
vt 0.000000 -0.500000
vt 0.500000 -1.000000
vt 0.000000 -1.000000
vt 1.000000 -1.000000
vt 1.000000 0.000000
vt 1.000000 -0.500000
vt 0.500000 0.000000
vt 0.500000 -0.500000
vt 0.000000 0.000000
vt 0.000000 -0.500000
vt 0.500000 -1.000000
vt 0.000000 -1.000000
vt 1.000000 -1.000000
vt 1.000000 0.000000
vt 1.000000 -0.500000
vt 0.500000 0.000000
vt 0.500000 -0.500000
vt 0.000000 0.000000
vt 0.000000 -0.500000
vt 0.500000 -1.000000
vt 0.000000 -1.000000
vt 1.000000 -1.000000
vt 1.000000 0.000000
vt 1.000000 -0.500000
vt 0.500000 0.000000
vt 0.500000 -0.500000
vt 0.000000 0.000000
vt 0.000000 -0.500000
vt 0.500000 -1.000000
vt 0.000000 -1.000000
vt 1.000000 -1.000000
vt 1.000000 0.000000
vt 1.000000 -0.500000
vt 0.500000 0.000000
vt 0.500000 -0.500000
vt 0.000000 0.000000
vt 0.000000 -0.500000
vt 0.500000 -1.000000
vt 0.000000 -1.000000
vt 1.000000 -1.000000
vt 1.000000 0.000000
vt 1.000000 -0.500000
vt 0.500000 0.000000
vt 0.500000 -0.500000
vt 0.000000 0.000000
vt 0.000000 -0.500000
vt 0.500000 -1.000000
vt 0.000000 -1.000000
vt 1.000000 -1.000000
vt 1.000000 0.000000
vt 1.000000 -0.500000
vt 0.500000 0.000000
vt 0.500000 -0.500000
vt 0.000000 0.000000
vt 0.000000 -0.500000
vt 0.500000 -1.000000
vt 0.000000 -1.000000
vt 1.000000 -1.000000
vt 1.000000 0.000000
vt 1.000000 -0.500000
vt 0.500000 0.000000
vt 0.500000 -0.500000
vt 0.000000 0.000000
vt 0.000000 -0.500000
vt 0.500000 -1.000000
vt 0.000000 -1.000000
vt 1.000000 -1.000000
vt 1.000000 0.000000
vt 1.000000 -0.500000
vt 0.500000 0.000000
vt 0.500000 -0.500000
vt 0.000000 0.000000
vt 0.000000 -0.500000
vt 0.500000 -1.000000
vt 0.000000 -1.000000
vt 1.000000 -1.000000
vt 1.000000 0.000000
vt 1.000000 -0.500000
vt 0.500000 0.000000
vt 0.500000 -0.500000
vt 0.000000 0.000000
vt 0.000000 -0.500000
vt 0.500000 -1.000000
vt 0.000000 -1.000000
vt 1.000000 -1.000000
vt 1.000000 0.000000
vt 1.000000 -0.500000
vt 0.500000 0.000000
vt 0.500000 -0.500000
vt 0.000000 0.000000
vt 0.000000 -0.500000
vt 0.500000 -1.000000
vt 0.000000 -1.000000
vt 1.000000 -1.000000
vt 1.000000 0.000000
vt 1.000000 -0.500000
vt 0.500000 0.000000
vt 0.500000 -0.500000
vt 0.000000 0.000000
vt 0.000000 -0.500000
vt 0.500000 -1.000000
vt 0.000000 -1.000000
vt 1.000000 -1.000000
vt 1.000000 0.000000
vt 1.000000 -0.500000
vt 0.500000 0.000000
vt 0.500000 -0.500000
vt 0.000000 0.000000
vt 0.000000 -0.500000
vt 0.500000 -1.000000
vt 0.000000 -1.000000
vt 1.000000 -1.000000
vt 1.000000 0.000000
vt 1.000000 -0.500000
vt 0.500000 0.000000
vt 0.500000 -0.500000
vt 0.000000 0.000000
vt 0.000000 -0.500000
vt 0.500000 -1.000000
vt 0.000000 -1.000000
vt 1.000000 -1.000000
vt 1.000000 0.000000
vt 1.000000 -0.500000
vt 0.500000 0.000000
vt 0.500000 -0.500000
vt 0.000000 0.000000
vt 0.000000 -0.500000
vt 0.500000 -1.000000
vt 0.000000 -1.000000
vt 1.000000 -1.000000
vt 1.000000 0.000000
vt 1.000000 -0.500000
vt 0.500000 0.000000
vt 0.500000 -0.500000
vt 0.000000 0.000000
vt 0.000000 -0.500000
vt 0.500000 -1.000000
vt 0.000000 -1.000000
vt 1.000000 -1.000000
vt 1.000000 0.000000
vt 1.000000 -0.500000
vt 0.500000 0.000000
vt 0.500000 -0.500000
vt 0.000000 0.000000
vt 0.000000 -0.500000
vt 0.500000 -1.000000
vt 0.000000 -1.000000
vt 1.000000 -1.000000
vt 1.000000 0.000000
vt 1.000000 -0.500000
vt 0.500000 0.000000
vt 0.500000 -0.500000
vt 0.000000 0.000000
vt 0.000000 -0.500000
vt 0.500000 -1.000000
vt 0.000000 -1.000000
vt 1.000000 -1.000000
vt 1.000000 0.000000
vt 1.000000 -0.500000
vt 0.500000 0.000000
vt 0.500000 -0.500000
vt 0.000000 0.000000
vt 0.000000 -0.500000
vt 0.500000 -1.000000
vt 0.000000 -1.000000
vt 1.000000 -1.000000
vt 1.000000 0.000000
vt 1.000000 -0.500000
vt 0.500000 0.000000
vt 0.500000 -0.500000
vt 0.000000 0.000000
vt 0.000000 -0.500000
vt 0.500000 -1.000000
vt 0.000000 -1.000000
vt 1.000000 -1.000000
vt 1.000000 0.000000
vt 1.000000 -0.500000
vt 0.500000 0.000000
vt 0.500000 -0.500000
vt 0.000000 0.000000
vt 0.000000 -0.500000
vt 0.500000 -1.000000
vt 0.000000 -1.000000
vt 1.000000 -1.000000
vt 1.000000 0.000000
vt 1.000000 -0.500000
vt 0.500000 0.000000
vt 0.500000 -0.500000
vt 0.000000 0.000000
vt 0.000000 -0.500000
vt 0.500000 -1.000000
vt 0.000000 -1.000000
vt 1.000000 -1.000000
vt 1.000000 0.000000
vt 1.000000 -0.500000
vt 0.500000 0.000000
vt 0.500000 -0.500000
vt 0.000000 0.000000
vt 0.000000 -0.500000
vt 0.500000 -1.000000
vt 0.000000 -1.000000
vt 1.000000 -1.000000
vt 1.000000 0.000000
vt 1.000000 -0.500000
vt 0.500000 0.000000
vt 0.500000 -0.500000
vt 0.000000 0.000000
vt 0.000000 -0.500000
vt 0.500000 -1.000000
vt 0.000000 -1.000000
vt 1.000000 -1.000000
vt 1.000000 0.000000
vt 1.000000 -0.500000
vt 0.500000 0.000000
vt 0.500000 -0.500000
vt 0.000000 0.000000
vt 0.000000 -0.500000
vt 0.500000 -1.000000
vt 0.000000 -1.000000
vt 1.000000 -1.000000
vt 1.000000 0.000000
vt 1.000000 -0.500000
vt 0.500000 0.000000
vt 0.500000 -0.500000
vt 0.000000 0.000000
vt 0.000000 -0.500000
vt 0.500000 -1.000000
vt 0.000000 -1.000000
vt 1.000000 -1.000000
vt 1.000000 0.000000
vt 1.000000 -0.500000
vt 0.500000 0.000000
vt 0.500000 -0.500000
vt 0.000000 0.000000
vt 0.000000 -0.500000
vt 0.500000 -1.000000
vt 0.000000 -1.000000
vt 1.000000 -1.000000
vt 1.000000 0.000000
vt 1.000000 -0.500000
vt 0.500000 0.000000
vt 0.500000 -0.500000
vt 0.000000 0.000000
vt 0.000000 -0.500000
vt 0.500000 -1.000000
vt 0.000000 -1.000000
vt 1.000000 -1.000000
vt 1.000000 0.000000
vt 1.000000 -0.500000
vt 0.500000 0.000000
vt 0.500000 -0.500000
vt 0.000000 0.000000
vt 0.000000 -0.500000
vt 0.500000 -1.000000
vt 0.000000 -1.000000
vt 1.000000 -1.000000
vt 1.000000 0.000000
vt 1.000000 -0.500000
vt 0.500000 0.000000
vt 0.500000 -0.500000
vt 1.000000 -0.500000
vt 0.500000 0.000000
vt 0.500000 -0.500000
vt 1.000000 -0.500000
vt 0.500000 0.000000
vt 0.500000 -0.500000
vt 1.000000 -0.500000
vt 0.500000 0.000000
vt 0.500000 -0.500000
vt 1.000000 -0.500000
vt 0.500000 0.000000
vt 0.500000 -0.500000
vt 1.000000 -0.500000
vt 0.500000 0.000000
vt 0.500000 -0.500000
vt 1.000000 -0.500000
vt 0.500000 0.000000
vt 0.500000 -0.500000
vt 1.000000 -0.500000
vt 0.500000 0.000000
vt 0.500000 -0.500000
vt 1.000000 -0.500000
vt 0.500000 0.000000
vt 0.500000 -0.500000
vt 1.000000 -0.500000
vt 0.500000 0.000000
vt 0.500000 -0.500000
vt 1.000000 -0.500000
vt 0.500000 0.000000
vt 0.500000 -0.500000
vt 1.000000 -0.500000
vt 0.500000 0.000000
vt 0.500000 -0.500000
vt 0.500000 -0.500000
vt 1.000000 0.000000
vt 0.500000 0.000000
vt 1.000000 -0.500000
vt 0.500000 0.000000
vt 0.500000 -0.500000
vt 1.000000 -0.500000
vt 0.500000 0.000000
vt 0.500000 -0.500000
vt 1.000000 -0.500000
vt 0.500000 0.000000
vt 0.500000 -0.500000
vt 0.000000 0.000000
vt 0.000000 -0.500000
vt 0.500000 -1.000000
vt 0.000000 -1.000000
vt 1.000000 -1.000000
vt 0.000000 0.000000
vt 0.000000 -0.500000
vt 0.500000 -1.000000
vt 0.000000 -1.000000
vt 1.000000 -1.000000
vt 0.000000 0.000000
vt 0.000000 -0.500000
vt 0.500000 -1.000000
vt 0.000000 -1.000000
vt 0.000000 0.000000
vt 0.000000 -0.500000
vt 0.500000 -1.000000
vt 0.000000 -1.000000
vt 1.000000 -1.000000
vt 0.000000 0.000000
vt 0.000000 -0.500000
vt 0.500000 -1.000000
vt 0.000000 -1.000000
vt 1.000000 -1.000000
vt 0.000000 0.000000
vt 0.000000 -0.500000
vt 0.500000 -1.000000
vt 0.000000 -1.000000
vt 1.000000 -1.000000
vt 0.000000 0.000000
vt 0.000000 -0.500000
vt 0.500000 -1.000000
vt 0.000000 -1.000000
vt 1.000000 -1.000000
vt 0.000000 0.000000
vt 0.000000 -0.500000
vt 0.500000 -1.000000
vt 0.000000 -1.000000
vt 1.000000 -1.000000
vt 0.000000 0.000000
vt 0.000000 -0.500000
vt 0.500000 -1.000000
vt 0.000000 -1.000000
vt 1.000000 -1.000000
vt 0.000000 0.000000
vt 0.000000 -0.500000
vt 0.500000 -1.000000
vt 0.000000 -1.000000
vt 1.000000 -1.000000
vt 0.000000 0.000000
vt 0.000000 -0.500000
vt 0.500000 -1.000000
vt 0.000000 -1.000000
vt 1.000000 -1.000000
vt 0.000000 0.000000
vt 0.000000 -0.500000
vt 0.500000 -1.000000
vt 0.000000 -1.000000
vt 1.000000 -1.000000
vt 0.000000 0.000000
vt 0.000000 -0.500000
vt 0.500000 -1.000000
vt 0.000000 -1.000000
vt 1.000000 -1.000000
vt 0.000000 0.000000
vt 0.000000 -0.500000
vt 0.500000 -1.000000
vt 0.000000 -1.000000
vt 1.000000 -1.000000
vt 0.000000 0.000000
vt 0.000000 -0.500000
vt 0.500000 -1.000000
vt 0.000000 -1.000000
vt 1.000000 -1.000000
vt 0.000000 0.000000
vt 0.000000 -0.500000
vt 0.500000 -1.000000
vt 0.000000 -1.000000
vt 1.000000 -1.000000
vt 1.000000 0.000000
vt 1.000000 0.000000
vt 1.000000 0.000000
vt 1.000000 0.000000
vt 1.000000 0.000000
vt 1.000000 0.000000
vt 1.000000 0.000000
vt 1.000000 0.000000
vt 1.000000 0.000000
vt 1.000000 0.000000
vt 1.000000 0.000000
vt 1.000000 0.000000
vt 1.000000 -0.500000
vt 1.000000 0.000000
vt 1.000000 0.000000
vt 1.000000 0.000000
vt 1.000000 -1.000000
vt 1.000000 -0.500000
vt 0.500000 0.000000
vt 0.500000 -0.500000
vt 0.000000 0.000000
vt 0.000000 -0.500000
vt 0.500000 -1.000000
vt 0.000000 -1.000000
vt 1.000000 -1.000000
vt 1.000000 0.000000
vt 1.000000 -0.500000
vt 0.500000 0.000000
vt 0.500000 -0.500000
vt 0.000000 0.000000
vt 0.000000 -0.500000
vt 0.500000 -1.000000
vt 0.000000 -1.000000
vt 1.000000 -1.000000
vt 1.000000 0.000000
vt 1.000000 -0.500000
vt 0.500000 0.000000
vt 0.500000 -0.500000
vt 0.000000 0.000000
vt 0.000000 -0.500000
vt 0.500000 -1.000000
vt 0.000000 -1.000000
vt 1.000000 -1.000000
vt 1.000000 0.000000
vn 0.0000 -0.0000 1.0000
usemtl None
s off
f 147/1/1 141/2/1 437/3/1
f 437/3/1 20/4/1 146/5/1
f 305/6/1 146/5/1 67/7/1
f 76/8/1 437/3/1 305/6/1
f 147/1/1 19/9/1 141/2/1
f 437/3/1 141/2/1 20/4/1
f 305/6/1 437/3/1 146/5/1
f 76/8/1 147/1/1 437/3/1
usemtl None_image_part_005.jpg.001
f 148/10/1 140/11/1 436/12/1
f 436/12/1 19/13/1 147/14/1
f 296/15/1 147/14/1 76/16/1
f 85/17/1 436/12/1 296/15/1
f 148/10/1 18/18/1 140/11/1
f 436/12/1 140/11/1 19/13/1
f 296/15/1 436/12/1 147/14/1
f 85/17/1 148/10/1 436/12/1
usemtl None_image_part_025.jpg
f 214/19/1 295/20/1 388/21/1
f 388/21/1 75/22/1 205/23/1
f 294/24/1 205/23/1 74/25/1
f 83/26/1 388/21/1 294/24/1
f 214/19/1 84/27/1 295/20/1
f 388/21/1 295/20/1 75/22/1
f 294/24/1 388/21/1 205/23/1
f 83/26/1 214/19/1 388/21/1
usemtl None_image_part_026.jpg.001
f 223/28/1 286/29/1 397/30/1
f 397/30/1 84/31/1 214/32/1
f 285/33/1 214/32/1 83/34/1
f 92/35/1 397/30/1 285/33/1
f 223/28/1 93/36/1 286/29/1
f 397/30/1 286/29/1 84/31/1
f 285/33/1 397/30/1 214/32/1
f 92/35/1 223/28/1 397/30/1
usemtl None_image_part_027.jpg
f 232/37/1 277/38/1 406/39/1
f 406/39/1 93/40/1 223/41/1
f 276/42/1 223/41/1 92/43/1
f 101/44/1 406/39/1 276/42/1
f 232/37/1 102/45/1 277/38/1
f 406/39/1 277/38/1 93/40/1
f 276/42/1 406/39/1 223/41/1
f 101/44/1 232/37/1 406/39/1
usemtl None_image_part_028.jpg
f 241/46/1 268/47/1 415/48/1
f 415/48/1 102/49/1 232/50/1
f 267/51/1 232/50/1 101/52/1
f 110/53/1 415/48/1 267/51/1
f 241/46/1 111/54/1 268/47/1
f 415/48/1 268/47/1 102/49/1
f 267/51/1 415/48/1 232/50/1
f 110/53/1 241/46/1 415/48/1
usemtl None_image_part_029.jpg
f 250/55/1 259/56/1 424/57/1
f 424/57/1 111/58/1 241/59/1
f 258/60/1 241/59/1 110/61/1
f 119/62/1 424/57/1 258/60/1
f 250/55/1 120/63/1 259/56/1
f 424/57/1 259/56/1 111/58/1
f 258/60/1 424/57/1 241/59/1
f 119/62/1 250/55/1 424/57/1
usemtl None_image_part_030.jpg
f 169/64/1 340/65/1 343/66/1
f 343/66/1 120/67/1 250/68/1
f 339/69/1 250/68/1 119/70/1
f 38/71/1 343/66/1 339/69/1
f 169/64/1 39/72/1 340/65/1
f 343/66/1 340/65/1 120/67/1
f 339/69/1 343/66/1 250/68/1
f 38/71/1 169/64/1 343/66/1
usemtl None_image_part_031.jpg
f 176/73/1 329/74/1 354/75/1
f 354/75/1 26/76/1 157/77/1
f 328/78/1 157/77/1 27/79/1
f 45/80/1 354/75/1 328/78/1
f 176/73/1 46/81/1 329/74/1
f 354/75/1 329/74/1 26/76/1
f 328/78/1 354/75/1 157/77/1
f 45/80/1 176/73/1 354/75/1
usemtl None_image_part_017.jpg
f 233/82/1 278/83/1 405/84/1
f 405/84/1 94/85/1 224/86/1
f 277/87/1 224/86/1 93/88/1
f 102/89/1 405/84/1 277/87/1
f 233/82/1 103/90/1 278/83/1
f 405/84/1 278/83/1 94/85/1
f 277/87/1 405/84/1 224/86/1
f 102/89/1 233/82/1 405/84/1
usemtl None_image_part_018.jpg.001
f 242/91/1 269/92/1 414/93/1
f 414/93/1 103/94/1 233/95/1
f 268/96/1 233/95/1 102/97/1
f 111/98/1 414/93/1 268/96/1
f 242/91/1 112/99/1 269/92/1
f 414/93/1 269/92/1 103/94/1
f 268/96/1 414/93/1 233/95/1
f 111/98/1 242/91/1 414/93/1
usemtl None_image_part_023.jpg.001
f 195/100/1 312/101/1 371/102/1
f 371/102/1 56/103/1 186/104/1
f 311/105/1 186/104/1 55/106/1
f 64/107/1 371/102/1 311/105/1
f 195/100/1 65/108/1 312/101/1
f 371/102/1 312/101/1 56/103/1
f 311/105/1 371/102/1 186/104/1
f 64/107/1 195/100/1 371/102/1
usemtl None_image_part_024.jpg
f 205/109/1 304/110/1 379/111/1
f 379/111/1 66/112/1 196/113/1
f 303/114/1 196/113/1 65/115/1
f 74/116/1 379/111/1 303/114/1
f 205/109/1 75/117/1 304/110/1
f 379/111/1 304/110/1 66/112/1
f 303/114/1 379/111/1 196/113/1
f 74/116/1 205/109/1 379/111/1
usemtl None_image_part_007.jpg
f 150/118/1 138/119/1 434/120/1
f 434/120/1 17/121/1 149/122/1
f 278/123/1 149/122/1 94/124/1
f 103/125/1 434/120/1 278/123/1
f 150/118/1 16/126/1 138/119/1
f 434/120/1 138/119/1 17/121/1
f 278/123/1 434/120/1 149/122/1
f 103/125/1 150/118/1 434/120/1
usemtl None_image_part_032.jpg
f 185/127/1 320/128/1 363/129/1
f 363/129/1 46/130/1 176/131/1
f 319/132/1 176/131/1 45/133/1
f 54/134/1 363/129/1 319/132/1
f 185/127/1 55/135/1 320/128/1
f 363/129/1 320/128/1 46/130/1
f 319/132/1 363/129/1 176/131/1
f 54/134/1 185/127/1 363/129/1
usemtl None_image_part_033.jpg.001
f 194/136/1 311/137/1 372/138/1
f 372/138/1 55/139/1 185/140/1
f 310/141/1 185/140/1 54/142/1
f 63/143/1 372/138/1 310/141/1
f 194/136/1 64/144/1 311/137/1
f 372/138/1 311/137/1 55/139/1
f 310/141/1 372/138/1 185/140/1
f 63/143/1 194/136/1 372/138/1
usemtl None_image_part_034.jpg
f 204/145/1 303/146/1 380/147/1
f 380/147/1 65/148/1 195/149/1
f 302/150/1 195/149/1 64/151/1
f 73/152/1 380/147/1 302/150/1
f 204/145/1 74/153/1 303/146/1
f 380/147/1 303/146/1 65/148/1
f 302/150/1 380/147/1 195/149/1
f 73/152/1 204/145/1 380/147/1
usemtl None_image_part_035.jpg
f 213/154/1 294/155/1 389/156/1
f 389/156/1 74/157/1 204/158/1
f 293/159/1 204/158/1 73/160/1
f 82/161/1 389/156/1 293/159/1
f 213/154/1 83/162/1 294/155/1
f 389/156/1 294/155/1 74/157/1
f 293/159/1 389/156/1 204/158/1
f 82/161/1 213/154/1 389/156/1
usemtl None_image_part_036.jpg
f 222/163/1 285/164/1 398/165/1
f 398/165/1 83/166/1 213/167/1
f 284/168/1 213/167/1 82/169/1
f 91/170/1 398/165/1 284/168/1
f 222/163/1 92/171/1 285/164/1
f 398/165/1 285/164/1 83/166/1
f 284/168/1 398/165/1 213/167/1
f 91/170/1 222/163/1 398/165/1
usemtl None_image_part_037.jpg
f 231/172/1 276/173/1 407/174/1
f 407/174/1 92/175/1 222/176/1
f 275/177/1 222/176/1 91/178/1
f 100/179/1 407/174/1 275/177/1
f 231/172/1 101/180/1 276/173/1
f 407/174/1 276/173/1 92/175/1
f 275/177/1 407/174/1 222/176/1
f 100/179/1 231/172/1 407/174/1
usemtl None_image_part_038.jpg
f 240/181/1 267/182/1 416/183/1
f 416/183/1 101/184/1 231/185/1
f 266/186/1 231/185/1 100/187/1
f 109/188/1 416/183/1 266/186/1
f 240/181/1 110/189/1 267/182/1
f 416/183/1 267/182/1 101/184/1
f 266/186/1 416/183/1 231/185/1
f 109/188/1 240/181/1 416/183/1
usemtl None_image_part_039.jpg
f 249/190/1 258/191/1 425/192/1
f 425/192/1 110/193/1 240/194/1
f 257/195/1 240/194/1 109/196/1
f 118/197/1 425/192/1 257/195/1
f 249/190/1 119/198/1 258/191/1
f 425/192/1 258/191/1 110/193/1
f 257/195/1 425/192/1 240/194/1
f 118/197/1 249/190/1 425/192/1
usemtl None_image_part_040.jpg.001
f 168/199/1 339/200/1 344/201/1
f 344/201/1 119/202/1 249/203/1
f 338/204/1 249/203/1 118/205/1
f 37/206/1 344/201/1 338/204/1
f 168/199/1 38/207/1 339/200/1
f 344/201/1 339/200/1 119/202/1
f 338/204/1 344/201/1 249/203/1
f 37/206/1 168/199/1 344/201/1
usemtl None_image_part_044.jpg
f 203/208/1 302/209/1 381/210/1
f 381/210/1 64/211/1 194/212/1
f 301/213/1 194/212/1 63/214/1
f 72/215/1 381/210/1 301/213/1
f 203/208/1 73/216/1 302/209/1
f 381/210/1 302/209/1 64/211/1
f 301/213/1 381/210/1 194/212/1
f 72/215/1 203/208/1 381/210/1
usemtl None_image_part_045.jpg
f 212/217/1 293/218/1 390/219/1
f 390/219/1 73/220/1 203/221/1
f 292/222/1 203/221/1 72/223/1
f 81/224/1 390/219/1 292/222/1
f 212/217/1 82/225/1 293/218/1
f 390/219/1 293/218/1 73/220/1
f 292/222/1 390/219/1 203/221/1
f 81/224/1 212/217/1 390/219/1
usemtl None_image_part_046.jpg
f 221/226/1 284/227/1 399/228/1
f 399/228/1 82/229/1 212/230/1
f 283/231/1 212/230/1 81/232/1
f 90/233/1 399/228/1 283/231/1
f 221/226/1 91/234/1 284/227/1
f 399/228/1 284/227/1 82/229/1
f 283/231/1 399/228/1 212/230/1
f 90/233/1 221/226/1 399/228/1
usemtl None_image_part_047.jpg
f 230/235/1 275/236/1 408/237/1
f 408/237/1 91/238/1 221/239/1
f 274/240/1 221/239/1 90/241/1
f 99/242/1 408/237/1 274/240/1
f 230/235/1 100/243/1 275/236/1
f 408/237/1 275/236/1 91/238/1
f 274/240/1 408/237/1 221/239/1
f 99/242/1 230/235/1 408/237/1
usemtl None_image_part_048.jpg.001
f 239/244/1 266/245/1 417/246/1
f 417/246/1 100/247/1 230/248/1
f 265/249/1 230/248/1 99/250/1
f 108/251/1 417/246/1 265/249/1
f 239/244/1 109/252/1 266/245/1
f 417/246/1 266/245/1 100/247/1
f 265/249/1 417/246/1 230/248/1
f 108/251/1 239/244/1 417/246/1
usemtl None_image_part_049.jpg
f 248/253/1 257/254/1 426/255/1
f 426/255/1 109/256/1 239/257/1
f 256/258/1 239/257/1 108/259/1
f 117/260/1 426/255/1 256/258/1
f 248/253/1 118/261/1 257/254/1
f 426/255/1 257/254/1 109/256/1
f 256/258/1 426/255/1 239/257/1
f 117/260/1 248/253/1 426/255/1
usemtl None_image_part_050.jpg
f 167/262/1 338/263/1 345/264/1
f 345/264/1 118/265/1 248/266/1
f 337/267/1 248/266/1 117/268/1
f 36/269/1 345/264/1 337/267/1
f 167/262/1 37/270/1 338/263/1
f 345/264/1 338/263/1 118/265/1
f 337/267/1 345/264/1 248/266/1
f 36/269/1 167/262/1 345/264/1
usemtl None_image_part_051.jpg
f 175/271/1 328/272/1 355/273/1
f 355/273/1 27/274/1 158/275/1
f 28/276/1 355/273/1 158/275/1
f 44/277/1 355/273/1 327/278/1
f 175/271/1 45/279/1 328/272/1
f 355/273/1 328/272/1 27/274/1
f 28/276/1 327/278/1 355/273/1
f 44/277/1 175/271/1 355/273/1
usemtl None_image_part_052.jpg
f 184/280/1 319/281/1 364/282/1
f 364/282/1 45/283/1 175/284/1
f 318/285/1 175/284/1 44/286/1
f 53/287/1 364/282/1 318/285/1
f 184/280/1 54/288/1 319/281/1
f 364/282/1 319/281/1 45/283/1
f 318/285/1 364/282/1 175/284/1
f 53/287/1 184/280/1 364/282/1
usemtl None_image_part_053.jpg
f 193/289/1 310/290/1 373/291/1
f 373/291/1 54/292/1 184/293/1
f 309/294/1 184/293/1 53/295/1
f 62/296/1 373/291/1 309/294/1
f 193/289/1 63/297/1 310/290/1
f 373/291/1 310/290/1 54/292/1
f 309/294/1 373/291/1 184/293/1
f 62/296/1 193/289/1 373/291/1
usemtl None_image_part_054.jpg
f 202/298/1 301/299/1 382/300/1
f 382/300/1 63/301/1 193/302/1
f 300/303/1 193/302/1 62/304/1
f 71/305/1 382/300/1 300/303/1
f 202/298/1 72/306/1 301/299/1
f 382/300/1 301/299/1 63/301/1
f 300/303/1 382/300/1 193/302/1
f 71/305/1 202/298/1 382/300/1
usemtl None_image_part_055.jpg
f 211/307/1 292/308/1 391/309/1
f 391/309/1 72/310/1 202/311/1
f 291/312/1 202/311/1 71/313/1
f 80/314/1 391/309/1 291/312/1
f 211/307/1 81/315/1 292/308/1
f 391/309/1 292/308/1 72/310/1
f 291/312/1 391/309/1 202/311/1
f 80/314/1 211/307/1 391/309/1
usemtl None_image_part_056.jpg.001
f 220/316/1 283/317/1 400/318/1
f 400/318/1 81/319/1 211/320/1
f 282/321/1 211/320/1 80/322/1
f 89/323/1 400/318/1 282/321/1
f 220/316/1 90/324/1 283/317/1
f 400/318/1 283/317/1 81/319/1
f 282/321/1 400/318/1 211/320/1
f 89/323/1 220/316/1 400/318/1
usemtl None_image_part_057.jpg
f 229/325/1 274/326/1 409/327/1
f 409/327/1 90/328/1 220/329/1
f 273/330/1 220/329/1 89/331/1
f 98/332/1 409/327/1 273/330/1
f 229/325/1 99/333/1 274/326/1
f 409/327/1 274/326/1 90/328/1
f 273/330/1 409/327/1 220/329/1
f 98/332/1 229/325/1 409/327/1
usemtl None_image_part_058.jpg
f 238/334/1 265/335/1 418/336/1
f 418/336/1 99/337/1 229/338/1
f 264/339/1 229/338/1 98/340/1
f 107/341/1 418/336/1 264/339/1
f 238/334/1 108/342/1 265/335/1
f 418/336/1 265/335/1 99/337/1
f 264/339/1 418/336/1 229/338/1
f 107/341/1 238/334/1 418/336/1
usemtl None_image_part_059.jpg
f 247/343/1 256/344/1 427/345/1
f 427/345/1 108/346/1 238/347/1
f 255/348/1 238/347/1 107/349/1
f 116/350/1 427/345/1 255/348/1
f 247/343/1 117/351/1 256/344/1
f 427/345/1 256/344/1 108/346/1
f 255/348/1 427/345/1 238/347/1
f 116/350/1 247/343/1 427/345/1
usemtl None_image_part_060.jpg
f 166/352/1 337/353/1 346/354/1
f 346/354/1 117/355/1 247/356/1
f 336/357/1 247/356/1 116/358/1
f 35/359/1 346/354/1 336/357/1
f 166/352/1 36/360/1 337/353/1
f 346/354/1 337/353/1 117/355/1
f 336/357/1 346/354/1 247/356/1
f 35/359/1 166/352/1 346/354/1
usemtl None_image_part_061.jpg
f 174/361/1 327/362/1 356/363/1
f 159/364/1 327/362/1 28/365/1
f 29/366/1 356/363/1 159/364/1
f 43/367/1 356/363/1 326/368/1
f 174/361/1 44/369/1 327/362/1
f 159/364/1 356/363/1 327/362/1
f 29/366/1 326/368/1 356/363/1
f 43/367/1 174/361/1 356/363/1
usemtl None_image_part_062.jpg
f 183/370/1 318/371/1 365/372/1
f 365/372/1 44/373/1 174/374/1
f 317/375/1 174/374/1 43/376/1
f 52/377/1 365/372/1 317/375/1
f 183/370/1 53/378/1 318/371/1
f 365/372/1 318/371/1 44/373/1
f 317/375/1 365/372/1 174/374/1
f 52/377/1 183/370/1 365/372/1
usemtl None_image_part_063.jpg
f 192/379/1 309/380/1 374/381/1
f 374/381/1 53/382/1 183/383/1
f 308/384/1 183/383/1 52/385/1
f 61/386/1 374/381/1 308/384/1
f 192/379/1 62/387/1 309/380/1
f 374/381/1 309/380/1 53/382/1
f 308/384/1 374/381/1 183/383/1
f 61/386/1 192/379/1 374/381/1
usemtl None_image_part_064.jpg
f 201/388/1 300/389/1 383/390/1
f 383/390/1 62/391/1 192/392/1
f 299/393/1 192/392/1 61/394/1
f 70/395/1 383/390/1 299/393/1
f 201/388/1 71/396/1 300/389/1
f 383/390/1 300/389/1 62/391/1
f 299/393/1 383/390/1 192/392/1
f 70/395/1 201/388/1 383/390/1
usemtl None_image_part_065.jpg
f 210/397/1 291/398/1 392/399/1
f 392/399/1 71/400/1 201/401/1
f 290/402/1 201/401/1 70/403/1
f 79/404/1 392/399/1 290/402/1
f 210/397/1 80/405/1 291/398/1
f 392/399/1 291/398/1 71/400/1
f 290/402/1 392/399/1 201/401/1
f 79/404/1 210/397/1 392/399/1
usemtl None_image_part_066.jpg
f 219/406/1 282/407/1 401/408/1
f 401/408/1 80/409/1 210/410/1
f 281/411/1 210/410/1 79/412/1
f 88/413/1 401/408/1 281/411/1
f 219/406/1 89/414/1 282/407/1
f 401/408/1 282/407/1 80/409/1
f 281/411/1 401/408/1 210/410/1
f 88/413/1 219/406/1 401/408/1
usemtl None_image_part_067.jpg
f 228/415/1 273/416/1 410/417/1
f 410/417/1 89/418/1 219/419/1
f 272/420/1 219/419/1 88/421/1
f 97/422/1 410/417/1 272/420/1
f 228/415/1 98/423/1 273/416/1
f 410/417/1 273/416/1 89/418/1
f 272/420/1 410/417/1 219/419/1
f 97/422/1 228/415/1 410/417/1
usemtl None_image_part_068.jpg
f 237/424/1 264/425/1 419/426/1
f 419/426/1 98/427/1 228/428/1
f 263/429/1 228/428/1 97/430/1
f 106/431/1 419/426/1 263/429/1
f 237/424/1 107/432/1 264/425/1
f 419/426/1 264/425/1 98/427/1
f 263/429/1 419/426/1 228/428/1
f 106/431/1 237/424/1 419/426/1
usemtl None_image_part_069.jpg
f 246/433/1 255/434/1 428/435/1
f 428/435/1 107/436/1 237/437/1
f 254/438/1 237/437/1 106/439/1
f 115/440/1 428/435/1 254/438/1
f 246/433/1 116/441/1 255/434/1
f 428/435/1 255/434/1 107/436/1
f 254/438/1 428/435/1 237/437/1
f 115/440/1 246/433/1 428/435/1
usemtl None_image_part_070.jpg
f 165/442/1 336/443/1 347/444/1
f 347/444/1 116/445/1 246/446/1
f 335/447/1 246/446/1 115/448/1
f 34/449/1 347/444/1 335/447/1
f 165/442/1 35/450/1 336/443/1
f 347/444/1 336/443/1 116/445/1
f 335/447/1 347/444/1 246/446/1
f 34/449/1 165/442/1 347/444/1
usemtl None_image_part_071.jpg
f 173/451/1 326/452/1 357/453/1
f 160/454/1 326/452/1 29/455/1
f 325/456/1 160/454/1 30/457/1
f 42/458/1 357/453/1 325/456/1
f 173/451/1 43/459/1 326/452/1
f 160/454/1 357/453/1 326/452/1
f 325/456/1 357/453/1 160/454/1
f 42/458/1 173/451/1 357/453/1
usemtl None_image_part_072.jpg
f 182/460/1 317/461/1 366/462/1
f 366/462/1 43/463/1 173/464/1
f 316/465/1 173/464/1 42/466/1
f 51/467/1 366/462/1 316/465/1
f 182/460/1 52/468/1 317/461/1
f 366/462/1 317/461/1 43/463/1
f 316/465/1 366/462/1 173/464/1
f 51/467/1 182/460/1 366/462/1
usemtl None_image_part_073.jpg
f 191/469/1 308/470/1 375/471/1
f 375/471/1 52/472/1 182/473/1
f 307/474/1 182/473/1 51/475/1
f 60/476/1 375/471/1 307/474/1
f 191/469/1 61/477/1 308/470/1
f 375/471/1 308/470/1 52/472/1
f 307/474/1 375/471/1 182/473/1
f 60/476/1 191/469/1 375/471/1
usemtl None_image_part_074.jpg
f 200/478/1 299/479/1 384/480/1
f 384/480/1 61/481/1 191/482/1
f 298/483/1 191/482/1 60/484/1
f 69/485/1 384/480/1 298/483/1
f 200/478/1 70/486/1 299/479/1
f 384/480/1 299/479/1 61/481/1
f 298/483/1 384/480/1 191/482/1
f 69/485/1 200/478/1 384/480/1
usemtl None_image_part_075.jpg
f 209/487/1 290/488/1 393/489/1
f 393/489/1 70/490/1 200/491/1
f 289/492/1 200/491/1 69/493/1
f 78/494/1 393/489/1 289/492/1
f 209/487/1 79/495/1 290/488/1
f 393/489/1 290/488/1 70/490/1
f 289/492/1 393/489/1 200/491/1
f 78/494/1 209/487/1 393/489/1
usemtl None_image_part_076.jpg
f 218/496/1 281/497/1 402/498/1
f 402/498/1 79/499/1 209/500/1
f 280/501/1 209/500/1 78/502/1
f 87/503/1 402/498/1 280/501/1
f 218/496/1 88/504/1 281/497/1
f 402/498/1 281/497/1 79/499/1
f 280/501/1 402/498/1 209/500/1
f 87/503/1 218/496/1 402/498/1
usemtl None_image_part_077.jpg
f 227/505/1 272/506/1 411/507/1
f 411/507/1 88/508/1 218/509/1
f 271/510/1 218/509/1 87/511/1
f 96/512/1 411/507/1 271/510/1
f 227/505/1 97/513/1 272/506/1
f 411/507/1 272/506/1 88/508/1
f 271/510/1 411/507/1 218/509/1
f 96/512/1 227/505/1 411/507/1
usemtl None_image_part_078.jpg
f 236/514/1 263/515/1 420/516/1
f 420/516/1 97/517/1 227/518/1
f 262/519/1 227/518/1 96/520/1
f 105/521/1 420/516/1 262/519/1
f 236/514/1 106/522/1 263/515/1
f 420/516/1 263/515/1 97/517/1
f 262/519/1 420/516/1 227/518/1
f 105/521/1 236/514/1 420/516/1
usemtl None_image_part_079.jpg
f 245/523/1 254/524/1 429/525/1
f 429/525/1 106/526/1 236/527/1
f 253/528/1 236/527/1 105/529/1
f 114/530/1 429/525/1 253/528/1
f 245/523/1 115/531/1 254/524/1
f 429/525/1 254/524/1 106/526/1
f 253/528/1 429/525/1 236/527/1
f 114/530/1 245/523/1 429/525/1
usemtl None_image_part_080.jpg
f 164/532/1 335/533/1 348/534/1
f 348/534/1 115/535/1 245/536/1
f 334/537/1 245/536/1 114/538/1
f 33/539/1 348/534/1 334/537/1
f 164/532/1 34/540/1 335/533/1
f 348/534/1 335/533/1 115/535/1
f 334/537/1 348/534/1 245/536/1
f 33/539/1 164/532/1 348/534/1
usemtl None_image_part_081.jpg
f 172/541/1 325/542/1 358/543/1
f 358/543/1 30/544/1 161/545/1
f 324/546/1 161/545/1 31/547/1
f 41/548/1 358/543/1 324/546/1
f 172/541/1 42/549/1 325/542/1
f 358/543/1 325/542/1 30/544/1
f 324/546/1 358/543/1 161/545/1
f 41/548/1 172/541/1 358/543/1
usemtl None_image_part_082.jpg
f 181/550/1 316/551/1 367/552/1
f 367/552/1 42/553/1 172/554/1
f 315/555/1 172/554/1 41/556/1
f 50/557/1 367/552/1 315/555/1
f 181/550/1 51/558/1 316/551/1
f 367/552/1 316/551/1 42/553/1
f 315/555/1 367/552/1 172/554/1
f 50/557/1 181/550/1 367/552/1
usemtl None_image_part_083.jpg
f 190/559/1 307/560/1 376/561/1
f 376/561/1 51/562/1 181/563/1
f 306/564/1 181/563/1 50/565/1
f 59/566/1 376/561/1 306/564/1
f 190/559/1 60/567/1 307/560/1
f 376/561/1 307/560/1 51/562/1
f 306/564/1 376/561/1 181/563/1
f 59/566/1 190/559/1 376/561/1
usemtl None_image_part_084.jpg
f 199/568/1 298/569/1 385/570/1
f 385/570/1 60/571/1 190/572/1
f 297/573/1 190/572/1 59/574/1
f 68/575/1 385/570/1 297/573/1
f 199/568/1 69/576/1 298/569/1
f 385/570/1 298/569/1 60/571/1
f 297/573/1 385/570/1 190/572/1
f 68/575/1 199/568/1 385/570/1
usemtl None_image_part_085.jpg
f 208/577/1 289/578/1 394/579/1
f 394/579/1 69/580/1 199/581/1
f 288/582/1 199/581/1 68/583/1
f 77/584/1 394/579/1 288/582/1
f 208/577/1 78/585/1 289/578/1
f 394/579/1 289/578/1 69/580/1
f 288/582/1 394/579/1 199/581/1
f 77/584/1 208/577/1 394/579/1
usemtl None_image_part_086.jpg
f 217/586/1 280/587/1 403/588/1
f 403/588/1 78/589/1 208/590/1
f 279/591/1 208/590/1 77/592/1
f 86/593/1 403/588/1 279/591/1
f 217/586/1 87/594/1 280/587/1
f 403/588/1 280/587/1 78/589/1
f 279/591/1 403/588/1 208/590/1
f 86/593/1 217/586/1 403/588/1
usemtl None_image_part_087.jpg
f 226/595/1 271/596/1 412/597/1
f 412/597/1 87/598/1 217/599/1
f 270/600/1 217/599/1 86/601/1
f 95/602/1 412/597/1 270/600/1
f 226/595/1 96/603/1 271/596/1
f 412/597/1 271/596/1 87/598/1
f 270/600/1 412/597/1 217/599/1
f 95/602/1 226/595/1 412/597/1
usemtl None_image_part_088.jpg
f 235/604/1 262/605/1 421/606/1
f 421/606/1 96/607/1 226/608/1
f 261/609/1 226/608/1 95/610/1
f 104/611/1 421/606/1 261/609/1
f 235/604/1 105/612/1 262/605/1
f 421/606/1 262/605/1 96/607/1
f 261/609/1 421/606/1 226/608/1
f 104/611/1 235/604/1 421/606/1
usemtl None_image_part_089.jpg
f 244/613/1 253/614/1 430/615/1
f 430/615/1 105/616/1 235/617/1
f 252/618/1 235/617/1 104/619/1
f 113/620/1 430/615/1 252/618/1
f 244/613/1 114/621/1 253/614/1
f 430/615/1 253/614/1 105/616/1
f 252/618/1 430/615/1 235/617/1
f 113/620/1 244/613/1 430/615/1
usemtl None_image_part_090.jpg
f 163/622/1 334/623/1 349/624/1
f 349/624/1 114/625/1 244/626/1
f 333/627/1 244/626/1 113/628/1
f 32/629/1 349/624/1 333/627/1
f 163/622/1 33/630/1 334/623/1
f 349/624/1 334/623/1 114/625/1
f 333/627/1 349/624/1 244/626/1
f 32/629/1 163/622/1 349/624/1
usemtl None_image_part_091.jpg
f 171/631/1 324/632/1 359/633/1
f 359/633/1 31/634/1 122/635/1
f 126/636/1 122/635/1 1/637/1
f 5/638/1 359/633/1 126/636/1
f 171/631/1 41/639/1 324/632/1
f 359/633/1 324/632/1 31/634/1
f 126/636/1 359/633/1 122/635/1
f 5/638/1 171/631/1 359/633/1
usemtl None_image_part_092.jpg
f 180/640/1 315/641/1 368/642/1
f 368/642/1 41/643/1 171/644/1
f 127/645/1 171/644/1 5/646/1
f 6/647/1 368/642/1 127/645/1
f 180/640/1 50/648/1 315/641/1
f 368/642/1 315/641/1 41/643/1
f 127/645/1 368/642/1 171/644/1
f 6/647/1 180/640/1 368/642/1
usemtl None_image_part_093.jpg
f 189/649/1 306/650/1 377/651/1
f 377/651/1 50/652/1 180/653/1
f 128/654/1 180/653/1 6/655/1
f 7/656/1 377/651/1 128/654/1
f 189/649/1 59/657/1 306/650/1
f 377/651/1 306/650/1 50/652/1
f 128/654/1 377/651/1 180/653/1
f 7/656/1 189/649/1 377/651/1
usemtl None_image_part_094.jpg
f 198/658/1 297/659/1 386/660/1
f 386/660/1 59/661/1 189/662/1
f 129/663/1 189/662/1 7/664/1
f 8/665/1 386/660/1 129/663/1
f 198/658/1 68/666/1 297/659/1
f 386/660/1 297/659/1 59/661/1
f 129/663/1 386/660/1 189/662/1
f 8/665/1 198/658/1 386/660/1
usemtl None_image_part_095.jpg
f 207/667/1 288/668/1 395/669/1
f 395/669/1 68/670/1 198/671/1
f 130/672/1 198/671/1 8/673/1
f 9/674/1 395/669/1 130/672/1
f 207/667/1 77/675/1 288/668/1
f 395/669/1 288/668/1 68/670/1
f 130/672/1 395/669/1 198/671/1
f 9/674/1 207/667/1 395/669/1
usemtl None_image_part_096.jpg
f 216/676/1 279/677/1 404/678/1
f 404/678/1 77/679/1 207/680/1
f 131/681/1 207/680/1 9/682/1
f 10/683/1 404/678/1 131/681/1
f 216/676/1 86/684/1 279/677/1
f 404/678/1 279/677/1 77/679/1
f 131/681/1 404/678/1 207/680/1
f 10/683/1 216/676/1 404/678/1
usemtl None_image_part_097.jpg
f 225/685/1 270/686/1 413/687/1
f 413/687/1 86/688/1 216/689/1
f 132/690/1 216/689/1 10/691/1
f 11/692/1 413/687/1 132/690/1
f 225/685/1 95/693/1 270/686/1
f 413/687/1 270/686/1 86/688/1
f 132/690/1 413/687/1 216/689/1
f 11/692/1 225/685/1 413/687/1
usemtl None_image_part_098.jpg
f 234/694/1 261/695/1 422/696/1
f 422/696/1 95/697/1 225/698/1
f 133/699/1 225/698/1 11/700/1
f 12/701/1 422/696/1 133/699/1
f 234/694/1 104/702/1 261/695/1
f 422/696/1 261/695/1 95/697/1
f 133/699/1 422/696/1 225/698/1
f 12/701/1 234/694/1 422/696/1
usemtl None_image_part_099.jpg
f 243/703/1 252/704/1 431/705/1
f 431/705/1 104/706/1 234/707/1
f 134/708/1 234/707/1 12/709/1
f 13/710/1 431/705/1 134/708/1
f 243/703/1 113/711/1 252/704/1
f 431/705/1 252/704/1 104/706/1
f 134/708/1 431/705/1 234/707/1
f 13/710/1 243/703/1 431/705/1
usemtl None_image_part_100.jpg
f 162/712/1 333/713/1 350/714/1
f 350/714/1 113/715/1 243/716/1
f 123/717/1 243/716/1 13/718/1
f 2/719/1 350/714/1 123/717/1
f 162/712/1 32/720/1 333/713/1
f 350/714/1 333/713/1 113/715/1
f 123/717/1 350/714/1 243/716/1
f 2/719/1 162/712/1 350/714/1
usemtl None_image_part_006.jpg.001
f 149/721/1 139/722/1 435/723/1
f 435/723/1 18/724/1 148/725/1
f 287/726/1 148/725/1 85/727/1
f 94/728/1 435/723/1 287/726/1
f 149/721/1 17/729/1 139/722/1
f 435/723/1 139/722/1 18/724/1
f 287/726/1 435/723/1 148/725/1
f 94/728/1 149/721/1 435/723/1
usemtl None_image_part_001.jpg
f 124/730/1 135/731/1 441/732/1
f 144/733/1 125/734/1 440/735/1
f 145/736/1 143/737/1 439/738/1
f 146/739/1 142/740/1 438/741/1
f 151/742/1 137/743/1 433/744/1
f 152/745/1 136/746/1 432/747/1
f 251/748/1 260/749/1 423/750/1
f 196/751/1 313/752/1 370/753/1
f 197/754/1 314/755/1 369/756/1
f 186/757/1 321/758/1 362/759/1
f 187/760/1 322/761/1 361/762/1
f 188/763/1 323/764/1 360/765/1
f 353/766/1 47/767/1 330/768/1
f 178/769/1 331/770/1 352/771/1
f 179/772/1 332/773/1 351/774/1
f 170/775/1 341/776/1 342/777/1
f 342/777/1 121/778/1 251/779/1
f 340/780/1 251/779/1 120/781/1
f 39/782/1 342/777/1 340/780/1
f 351/774/1 23/783/1 154/784/1
f 331/785/1 154/784/1 24/786/1
f 48/787/1 351/774/1 331/785/1
f 352/771/1 24/788/1 155/789/1
f 330/790/1 155/789/1 25/791/1
f 330/790/1 178/769/1 352/771/1
f 353/766/1 25/792/1 156/793/1
f 329/794/1 156/793/1 26/795/1
f 46/796/1 353/766/1 329/794/1
f 360/765/1 49/797/1 179/798/1
f 322/799/1 179/798/1 48/800/1
f 57/801/1 360/765/1 322/799/1
f 361/762/1 48/802/1 178/803/1
f 321/804/1 178/803/1 47/805/1
f 56/806/1 361/762/1 321/804/1
f 362/759/1 47/807/1 177/808/1
f 320/809/1 177/808/1 46/810/1
f 55/811/1 362/759/1 320/809/1
f 369/756/1 58/812/1 188/813/1
f 313/814/1 188/813/1 57/815/1
f 66/816/1 369/756/1 313/814/1
f 370/753/1 57/817/1 187/818/1
f 312/819/1 187/818/1 56/820/1
f 65/821/1 370/753/1 312/819/1
f 423/750/1 112/822/1 242/823/1
f 259/824/1 242/823/1 111/825/1
f 120/826/1 423/750/1 259/824/1
f 432/747/1 15/827/1 151/828/1
f 260/829/1 151/828/1 112/830/1
f 121/831/1 432/747/1 260/829/1
f 433/744/1 16/832/1 150/833/1
f 269/834/1 150/833/1 103/835/1
f 112/836/1 433/744/1 269/834/1
f 438/741/1 21/837/1 145/838/1
f 314/839/1 145/838/1 58/840/1
f 67/841/1 438/741/1 314/839/1
f 439/738/1 22/842/1 144/843/1
f 323/844/1 144/843/1 49/845/1
f 58/846/1 439/738/1 323/844/1
f 440/735/1 3/847/1 153/848/1
f 332/849/1 153/848/1 23/850/1
f 49/851/1 440/735/1 332/849/1
f 441/732/1 14/852/1 152/853/1
f 341/854/1 152/853/1 121/855/1
f 40/856/1 441/732/1 341/854/1
f 124/730/1 4/857/1 135/731/1
f 144/733/1 22/858/1 125/734/1
f 145/736/1 21/859/1 143/737/1
f 146/739/1 20/860/1 142/740/1
f 151/742/1 15/861/1 137/743/1
f 152/745/1 14/862/1 136/746/1
f 251/748/1 121/863/1 260/749/1
f 196/751/1 66/864/1 313/752/1
f 197/754/1 67/865/1 314/755/1
f 186/757/1 56/866/1 321/758/1
f 187/760/1 57/867/1 322/761/1
f 188/763/1 58/868/1 323/764/1
f 353/766/1 177/869/1 47/767/1
f 178/769/1 48/870/1 331/770/1
f 179/772/1 49/871/1 332/773/1
f 170/775/1 40/872/1 341/776/1
f 342/777/1 341/776/1 121/778/1
f 340/780/1 342/777/1 251/779/1
f 39/782/1 170/775/1 342/777/1
f 351/774/1 332/773/1 23/783/1
f 331/785/1 351/774/1 154/784/1
f 48/787/1 179/772/1 351/774/1
f 352/771/1 331/770/1 24/788/1
f 330/790/1 352/771/1 155/789/1
f 330/790/1 47/873/1 178/769/1
f 353/766/1 330/768/1 25/792/1
f 329/794/1 353/766/1 156/793/1
f 46/796/1 177/869/1 353/766/1
f 360/765/1 323/764/1 49/797/1
f 322/799/1 360/765/1 179/798/1
f 57/801/1 188/763/1 360/765/1
f 361/762/1 322/761/1 48/802/1
f 321/804/1 361/762/1 178/803/1
f 56/806/1 187/760/1 361/762/1
f 362/759/1 321/758/1 47/807/1
f 320/809/1 362/759/1 177/808/1
f 55/811/1 186/757/1 362/759/1
f 369/756/1 314/755/1 58/812/1
f 313/814/1 369/756/1 188/813/1
f 66/816/1 197/754/1 369/756/1
f 370/753/1 313/752/1 57/817/1
f 312/819/1 370/753/1 187/818/1
f 65/821/1 196/751/1 370/753/1
f 423/750/1 260/749/1 112/822/1
f 259/824/1 423/750/1 242/823/1
f 120/826/1 251/748/1 423/750/1
f 432/747/1 136/746/1 15/827/1
f 260/829/1 432/747/1 151/828/1
f 121/831/1 152/745/1 432/747/1
f 433/744/1 137/743/1 16/832/1
f 269/834/1 433/744/1 150/833/1
f 112/836/1 151/742/1 433/744/1
f 438/741/1 142/740/1 21/837/1
f 314/839/1 438/741/1 145/838/1
f 67/841/1 146/739/1 438/741/1
f 439/738/1 143/737/1 22/842/1
f 323/844/1 439/738/1 144/843/1
f 58/846/1 145/736/1 439/738/1
f 440/735/1 125/734/1 3/847/1
f 332/849/1 440/735/1 153/848/1
f 49/851/1 144/733/1 440/735/1
f 441/732/1 135/731/1 14/852/1
f 341/854/1 441/732/1 152/853/1
f 40/856/1 124/730/1 441/732/1
usemtl None_image_part_014.jpg
f 206/874/1 305/875/1 378/876/1
f 378/876/1 67/877/1 197/878/1
f 304/879/1 197/878/1 66/880/1
f 75/881/1 378/876/1 304/879/1
f 206/874/1 76/882/1 305/875/1
f 378/876/1 305/875/1 67/877/1
f 304/879/1 378/876/1 197/878/1
f 75/881/1 206/874/1 378/876/1
usemtl None_image_part_015.jpg.001
f 215/883/1 296/884/1 387/885/1
f 387/885/1 76/886/1 206/887/1
f 295/888/1 206/887/1 75/889/1
f 84/890/1 387/885/1 295/888/1
f 215/883/1 85/891/1 296/884/1
f 387/885/1 296/884/1 76/886/1
f 295/888/1 387/885/1 206/887/1
f 84/890/1 215/883/1 387/885/1
usemtl None_image_part_016.jpg
f 224/892/1 287/893/1 396/894/1
f 396/894/1 85/895/1 215/896/1
f 286/897/1 215/896/1 84/898/1
f 93/899/1 396/894/1 286/897/1
f 224/892/1 94/900/1 287/893/1
f 396/894/1 287/893/1 85/895/1
f 286/897/1 396/894/1 215/896/1
f 93/899/1 224/892/1 396/894/1
