# Blender MTL File: 'nico.blend'
# Material Count: 67

newmtl None
Ns 0
Ka 0.000000 0.000000 0.000000
Kd 0.8 0.8 0.8
Ks 0.8 0.8 0.8
d 1
illum 2
map_Kd wendys\cut_images_sPIMkWgzGW0\image_part_080.jpg

newmtl None_image_part_001.jpg
Ns 0
Ka 0.000000 0.000000 0.000000
Kd 0.8 0.8 0.8
Ks 0.8 0.8 0.8
d 1
illum 2
map_Kd wendys\cut_images_sPIMkWgzGW0\image_part_001.jpg

newmtl None_image_part_003.jpg
Ns 0
Ka 0.000000 0.000000 0.000000
Kd 0.8 0.8 0.8
Ks 0.8 0.8 0.8
d 1
illum 2
map_Kd wendys\cut_images_sPIMkWgzGW0\image_part_003.jpg

newmtl None_image_part_004.jpg.001
Ns 0
Ka 0.000000 0.000000 0.000000
Kd 0.8 0.8 0.8
Ks 0.8 0.8 0.8
d 1
illum 2
map_Kd wendys\cut_images_sPIMkWgzGW0\image_part_004.jpg

newmtl None_image_part_005.jpg.001
Ns 0
Ka 0.000000 0.000000 0.000000
Kd 0.8 0.8 0.8
Ks 0.8 0.8 0.8
d 1
illum 2
map_Kd wendys\cut_images_sPIMkWgzGW0\image_part_005.jpg

newmtl None_image_part_006.jpg.001
Ns 0
Ka 0.000000 0.000000 0.000000
Kd 0.8 0.8 0.8
Ks 0.8 0.8 0.8
d 1
illum 2
map_Kd wendys\cut_images_sPIMkWgzGW0\image_part_006.jpg

newmtl None_image_part_013.jpg
Ns 0
Ka 0.000000 0.000000 0.000000
Kd 0.8 0.8 0.8
Ks 0.8 0.8 0.8
d 1
illum 2
map_Kd wendys\cut_images_sPIMkWgzGW0\image_part_013.jpg

newmtl None_image_part_014.jpg
Ns 0
Ka 0.000000 0.000000 0.000000
Kd 0.8 0.8 0.8
Ks 0.8 0.8 0.8
d 1
illum 2
map_Kd wendys\cut_images_sPIMkWgzGW0\image_part_014.jpg

newmtl None_image_part_015.jpg.001
Ns 0
Ka 0.000000 0.000000 0.000000
Kd 0.8 0.8 0.8
Ks 0.8 0.8 0.8
d 1
illum 2
map_Kd wendys\cut_images_sPIMkWgzGW0\image_part_015.jpg

newmtl None_image_part_016.jpg
Ns 0
Ka 0.000000 0.000000 0.000000
Kd 0.8 0.8 0.8
Ks 0.8 0.8 0.8
d 1
illum 2
map_Kd wendys\cut_images_sPIMkWgzGW0\image_part_016.jpg

newmtl None_image_part_017.jpg
Ns 0
Ka 0.000000 0.000000 0.000000
Kd 0.8 0.8 0.8
Ks 0.8 0.8 0.8
d 1
illum 2
map_Kd wendys\cut_images_sPIMkWgzGW0\image_part_017.jpg

newmtl None_image_part_023.jpg.001
Ns 0
Ka 0.000000 0.000000 0.000000
Kd 0.8 0.8 0.8
Ks 0.8 0.8 0.8
d 1
illum 2
map_Kd wendys\cut_images_sPIMkWgzGW0\image_part_023.jpg

newmtl None_image_part_024.jpg
Ns 0
Ka 0.000000 0.000000 0.000000
Kd 0.8 0.8 0.8
Ks 0.8 0.8 0.8
d 1
illum 2
map_Kd wendys\cut_images_sPIMkWgzGW0\image_part_024.jpg

newmtl None_image_part_025.jpg
Ns 0
Ka 0.000000 0.000000 0.000000
Kd 0.8 0.8 0.8
Ks 0.8 0.8 0.8
d 1
illum 2
map_Kd wendys\cut_images_sPIMkWgzGW0\image_part_025.jpg

newmtl None_image_part_026.jpg.001
Ns 0
Ka 0.000000 0.000000 0.000000
Kd 0.8 0.8 0.8
Ks 0.8 0.8 0.8
d 1
illum 2
map_Kd wendys\cut_images_sPIMkWgzGW0\image_part_026.jpg

newmtl None_image_part_027.jpg
Ns 0
Ka 0.000000 0.000000 0.000000
Kd 0.8 0.8 0.8
Ks 0.8 0.8 0.8
d 1
illum 2
map_Kd wendys\cut_images_sPIMkWgzGW0\image_part_027.jpg

newmtl None_image_part_033.jpg.001
Ns 0
Ka 0.000000 0.000000 0.000000
Kd 0.8 0.8 0.8
Ks 0.8 0.8 0.8
d 1
illum 2
map_Kd wendys\cut_images_sPIMkWgzGW0\image_part_033.jpg

newmtl None_image_part_034.jpg
Ns 0
Ka 0.000000 0.000000 0.000000
Kd 0.8 0.8 0.8
Ks 0.8 0.8 0.8
d 1
illum 2
map_Kd wendys\cut_images_sPIMkWgzGW0\image_part_034.jpg

newmtl None_image_part_035.jpg
Ns 0
Ka 0.000000 0.000000 0.000000
Kd 0.8 0.8 0.8
Ks 0.8 0.8 0.8
d 1
illum 2
map_Kd wendys\cut_images_sPIMkWgzGW0\image_part_035.jpg

newmtl None_image_part_036.jpg
Ns 0
Ka 0.000000 0.000000 0.000000
Kd 0.8 0.8 0.8
Ks 0.8 0.8 0.8
d 1
illum 2
map_Kd wendys\cut_images_sPIMkWgzGW0\image_part_036.jpg

newmtl None_image_part_037.jpg
Ns 0
Ka 0.000000 0.000000 0.000000
Kd 0.8 0.8 0.8
Ks 0.8 0.8 0.8
d 1
illum 2
map_Kd wendys\cut_images_sPIMkWgzGW0\image_part_037.jpg

newmtl None_image_part_043.jpg
Ns 0
Ka 0.000000 0.000000 0.000000
Kd 0.8 0.8 0.8
Ks 0.8 0.8 0.8
d 1
illum 2
map_Kd wendys\cut_images_sPIMkWgzGW0\image_part_043.jpg

newmtl None_image_part_044.jpg
Ns 0
Ka 0.000000 0.000000 0.000000
Kd 0.8 0.8 0.8
Ks 0.8 0.8 0.8
d 1
illum 2
map_Kd wendys\cut_images_sPIMkWgzGW0\image_part_044.jpg

newmtl None_image_part_045.jpg
Ns 0
Ka 0.000000 0.000000 0.000000
Kd 0.8 0.8 0.8
Ks 0.8 0.8 0.8
d 1
illum 2
map_Kd wendys\cut_images_sPIMkWgzGW0\image_part_045.jpg

newmtl None_image_part_046.jpg
Ns 0
Ka 0.000000 0.000000 0.000000
Kd 0.8 0.8 0.8
Ks 0.8 0.8 0.8
d 1
illum 2
map_Kd wendys\cut_images_sPIMkWgzGW0\image_part_046.jpg

newmtl None_image_part_047.jpg
Ns 0
Ka 0.000000 0.000000 0.000000
Kd 0.8 0.8 0.8
Ks 0.8 0.8 0.8
d 1
illum 2
map_Kd wendys\cut_images_sPIMkWgzGW0\image_part_047.jpg

newmtl None_image_part_048.jpg.001
Ns 0
Ka 0.000000 0.000000 0.000000
Kd 0.8 0.8 0.8
Ks 0.8 0.8 0.8
d 1
illum 2
map_Kd wendys\cut_images_sPIMkWgzGW0\image_part_048.jpg

newmtl None_image_part_053.jpg
Ns 0
Ka 0.000000 0.000000 0.000000
Kd 0.8 0.8 0.8
Ks 0.8 0.8 0.8
d 1
illum 2
map_Kd wendys\cut_images_sPIMkWgzGW0\image_part_053.jpg

newmtl None_image_part_054.jpg
Ns 0
Ka 0.000000 0.000000 0.000000
Kd 0.8 0.8 0.8
Ks 0.8 0.8 0.8
d 1
illum 2
map_Kd wendys\cut_images_sPIMkWgzGW0\image_part_054.jpg

newmtl None_image_part_055.jpg
Ns 0
Ka 0.000000 0.000000 0.000000
Kd 0.8 0.8 0.8
Ks 0.8 0.8 0.8
d 1
illum 2
map_Kd wendys\cut_images_sPIMkWgzGW0\image_part_055.jpg

newmtl None_image_part_056.jpg.001
Ns 0
Ka 0.000000 0.000000 0.000000
Kd 0.8 0.8 0.8
Ks 0.8 0.8 0.8
d 1
illum 2
map_Kd wendys\cut_images_sPIMkWgzGW0\image_part_056.jpg

newmtl None_image_part_057.jpg
Ns 0
Ka 0.000000 0.000000 0.000000
Kd 0.8 0.8 0.8
Ks 0.8 0.8 0.8
d 1
illum 2
map_Kd wendys\cut_images_sPIMkWgzGW0\image_part_057.jpg

newmtl None_image_part_058.jpg
Ns 0
Ka 0.000000 0.000000 0.000000
Kd 0.8 0.8 0.8
Ks 0.8 0.8 0.8
d 1
illum 2
map_Kd wendys\cut_images_sPIMkWgzGW0\image_part_058.jpg

newmtl None_image_part_061.jpg
Ns 0
Ka 0.000000 0.000000 0.000000
Kd 0.8 0.8 0.8
Ks 0.8 0.8 0.8
d 1
illum 2
map_Kd wendys\cut_images_sPIMkWgzGW0\image_part_061.jpg

newmtl None_image_part_062.jpg
Ns 0
Ka 0.000000 0.000000 0.000000
Kd 0.8 0.8 0.8
Ks 0.8 0.8 0.8
d 1
illum 2
map_Kd wendys\cut_images_sPIMkWgzGW0\image_part_062.jpg

newmtl None_image_part_063.jpg
Ns 0
Ka 0.000000 0.000000 0.000000
Kd 0.8 0.8 0.8
Ks 0.8 0.8 0.8
d 1
illum 2
map_Kd wendys\cut_images_sPIMkWgzGW0\image_part_063.jpg

newmtl None_image_part_064.jpg
Ns 0
Ka 0.000000 0.000000 0.000000
Kd 0.8 0.8 0.8
Ks 0.8 0.8 0.8
d 1
illum 2
map_Kd wendys\cut_images_sPIMkWgzGW0\image_part_064.jpg

newmtl None_image_part_065.jpg
Ns 0
Ka 0.000000 0.000000 0.000000
Kd 0.8 0.8 0.8
Ks 0.8 0.8 0.8
d 1
illum 2
map_Kd wendys\cut_images_sPIMkWgzGW0\image_part_065.jpg

newmtl None_image_part_066.jpg
Ns 0
Ka 0.000000 0.000000 0.000000
Kd 0.8 0.8 0.8
Ks 0.8 0.8 0.8
d 1
illum 2
map_Kd wendys\cut_images_sPIMkWgzGW0\image_part_066.jpg

newmtl None_image_part_067.jpg
Ns 0
Ka 0.000000 0.000000 0.000000
Kd 0.8 0.8 0.8
Ks 0.8 0.8 0.8
d 1
illum 2
map_Kd wendys\cut_images_sPIMkWgzGW0\image_part_067.jpg

newmtl None_image_part_068.jpg
Ns 0
Ka 0.000000 0.000000 0.000000
Kd 0.8 0.8 0.8
Ks 0.8 0.8 0.8
d 1
illum 2
map_Kd wendys\cut_images_sPIMkWgzGW0\image_part_068.jpg

newmtl None_image_part_069.jpg
Ns 0
Ka 0.000000 0.000000 0.000000
Kd 0.8 0.8 0.8
Ks 0.8 0.8 0.8
d 1
illum 2
map_Kd wendys\cut_images_sPIMkWgzGW0\image_part_069.jpg

newmtl None_image_part_071.jpg
Ns 0
Ka 0.000000 0.000000 0.000000
Kd 0.8 0.8 0.8
Ks 0.8 0.8 0.8
d 1
illum 2
map_Kd wendys\cut_images_sPIMkWgzGW0\image_part_071.jpg

newmtl None_image_part_072.jpg
Ns 0
Ka 0.000000 0.000000 0.000000
Kd 0.8 0.8 0.8
Ks 0.8 0.8 0.8
d 1
illum 2
map_Kd wendys\cut_images_sPIMkWgzGW0\image_part_072.jpg

newmtl None_image_part_073.jpg
Ns 0
Ka 0.000000 0.000000 0.000000
Kd 0.8 0.8 0.8
Ks 0.8 0.8 0.8
d 1
illum 2
map_Kd wendys\cut_images_sPIMkWgzGW0\image_part_073.jpg

newmtl None_image_part_074.jpg
Ns 0
Ka 0.000000 0.000000 0.000000
Kd 0.8 0.8 0.8
Ks 0.8 0.8 0.8
d 1
illum 2
map_Kd wendys\cut_images_sPIMkWgzGW0\image_part_074.jpg

newmtl None_image_part_075.jpg
Ns 0
Ka 0.000000 0.000000 0.000000
Kd 0.8 0.8 0.8
Ks 0.8 0.8 0.8
d 1
illum 2
map_Kd wendys\cut_images_sPIMkWgzGW0\image_part_075.jpg

newmtl None_image_part_076.jpg
Ns 0
Ka 0.000000 0.000000 0.000000
Kd 0.8 0.8 0.8
Ks 0.8 0.8 0.8
d 1
illum 2
map_Kd wendys\cut_images_sPIMkWgzGW0\image_part_076.jpg

newmtl None_image_part_077.jpg
Ns 0
Ka 0.000000 0.000000 0.000000
Kd 0.8 0.8 0.8
Ks 0.8 0.8 0.8
d 1
illum 2
map_Kd wendys\cut_images_sPIMkWgzGW0\image_part_077.jpg

newmtl None_image_part_078.jpg
Ns 0
Ka 0.000000 0.000000 0.000000
Kd 0.8 0.8 0.8
Ks 0.8 0.8 0.8
d 1
illum 2
map_Kd wendys\cut_images_sPIMkWgzGW0\image_part_078.jpg

newmtl None_image_part_079.jpg
Ns 0
Ka 0.000000 0.000000 0.000000
Kd 0.8 0.8 0.8
Ks 0.8 0.8 0.8
d 1
illum 2
map_Kd wendys\cut_images_sPIMkWgzGW0\image_part_079.jpg

newmtl None_image_part_081.jpg
Ns 0
Ka 0.000000 0.000000 0.000000
Kd 0.8 0.8 0.8
Ks 0.8 0.8 0.8
d 1
illum 2
map_Kd wendys\cut_images_sPIMkWgzGW0\image_part_081.jpg

newmtl None_image_part_082.jpg
Ns 0
Ka 0.000000 0.000000 0.000000
Kd 0.8 0.8 0.8
Ks 0.8 0.8 0.8
d 1
illum 2
map_Kd wendys\cut_images_sPIMkWgzGW0\image_part_082.jpg

newmtl None_image_part_083.jpg
Ns 0
Ka 0.000000 0.000000 0.000000
Kd 0.8 0.8 0.8
Ks 0.8 0.8 0.8
d 1
illum 2
map_Kd wendys\cut_images_sPIMkWgzGW0\image_part_083.jpg

newmtl None_image_part_084.jpg
Ns 0
Ka 0.000000 0.000000 0.000000
Kd 0.8 0.8 0.8
Ks 0.8 0.8 0.8
d 1
illum 2
map_Kd wendys\cut_images_sPIMkWgzGW0\image_part_084.jpg

newmtl None_image_part_085.jpg
Ns 0
Ka 0.000000 0.000000 0.000000
Kd 0.8 0.8 0.8
Ks 0.8 0.8 0.8
d 1
illum 2
map_Kd wendys\cut_images_sPIMkWgzGW0\image_part_085.jpg

newmtl None_image_part_086.jpg
Ns 0
Ka 0.000000 0.000000 0.000000
Kd 0.8 0.8 0.8
Ks 0.8 0.8 0.8
d 1
illum 2
map_Kd wendys\cut_images_sPIMkWgzGW0\image_part_086.jpg

newmtl None_image_part_087.jpg
Ns 0
Ka 0.000000 0.000000 0.000000
Kd 0.8 0.8 0.8
Ks 0.8 0.8 0.8
d 1
illum 2
map_Kd wendys\cut_images_sPIMkWgzGW0\image_part_087.jpg

newmtl None_image_part_088.jpg
Ns 0
Ka 0.000000 0.000000 0.000000
Kd 0.8 0.8 0.8
Ks 0.8 0.8 0.8
d 1
illum 2
map_Kd wendys\cut_images_sPIMkWgzGW0\image_part_088.jpg

newmtl None_image_part_089.jpg
Ns 0
Ka 0.000000 0.000000 0.000000
Kd 0.8 0.8 0.8
Ks 0.8 0.8 0.8
d 1
illum 2
map_Kd wendys\cut_images_sPIMkWgzGW0\image_part_089.jpg

newmtl None_image_part_090.jpg
Ns 0
Ka 0.000000 0.000000 0.000000
Kd 0.8 0.8 0.8
Ks 0.8 0.8 0.8
d 1
illum 2
map_Kd wendys\cut_images_sPIMkWgzGW0\image_part_090.jpg

newmtl None_image_part_091.jpg
Ns 0
Ka 0.000000 0.000000 0.000000
Kd 0.8 0.8 0.8
Ks 0.8 0.8 0.8
d 1
illum 2
map_Kd wendys\cut_images_sPIMkWgzGW0\image_part_091.jpg

newmtl None_image_part_092.jpg
Ns 0
Ka 0.000000 0.000000 0.000000
Kd 0.8 0.8 0.8
Ks 0.8 0.8 0.8
d 1
illum 2
map_Kd wendys\cut_images_sPIMkWgzGW0\image_part_092.jpg

newmtl None_image_part_093.jpg
Ns 0
Ka 0.000000 0.000000 0.000000
Kd 0.8 0.8 0.8
Ks 0.8 0.8 0.8
d 1
illum 2
map_Kd wendys\cut_images_sPIMkWgzGW0\image_part_093.jpg

newmtl None_image_part_094.jpg
Ns 0
Ka 0.000000 0.000000 0.000000
Kd 0.8 0.8 0.8
Ks 0.8 0.8 0.8
d 1
illum 2
map_Kd wendys\cut_images_sPIMkWgzGW0\image_part_094.jpg

newmtl None_image_part_097.jpg
Ns 0
Ka 0.000000 0.000000 0.000000
Kd 0.8 0.8 0.8
Ks 0.8 0.8 0.8
d 1
illum 2
map_Kd wendys\cut_images_sPIMkWgzGW0\image_part_097.jpg

newmtl None_image_part_098.jpg
Ns 0
Ka 0.000000 0.000000 0.000000
Kd 0.8 0.8 0.8
Ks 0.8 0.8 0.8
d 1
illum 2
map_Kd wendys\cut_images_sPIMkWgzGW0\image_part_098.jpg
