# Blender MTL File: 'course 1 packed.blend'
# Material Count: 11

newmtl Material.001
collisionType 0 0 0
Ns 96.078431
Ka 1.000000 1.000000 1.000000
Kd 0.012296 0.011774 0.640000
Ks 0.500000 0.500000 0.500000
Ke 0.000000 0.000000 0.000000
Ni 1.000000
d 1.000000
illum 2
map_Kd ..\textures\tex1_128x128_42db5ea5a2fe8e67_14.png

newmtl Material.001_tex1_128x128_54f94b727b155bc4_14.png
collisionType 0 0 0
Ns 96.078431
Ka 1.000000 1.000000 1.000000
Kd 0.012296 0.011774 0.640000
Ks 0.500000 0.500000 0.500000
Ke 0.000000 0.000000 0.000000
Ni 1.000000
d 1.000000
illum 2
map_Kd ..\textures\tex1_128x128_54f94b727b155bc4_14.png

newmtl Material.002
collisionType 80 0 0
Ns 96.078431
Ka 1.000000 1.000000 1.000000
Kd 0.005096 0.005096 0.005096
Ks 0.500000 0.500000 0.500000
Ke 0.000000 0.000000 0.000000
Ni 1.000000
d 1.000000
illum 2
map_Kd ..\textures\nothing.png

newmtl Material.002_skate_rail_poles.png
collisionType 80 0 0
Ns 96.078431
Ka 1.000000 1.000000 1.000000
Kd 0.005096 0.005096 0.005096
Ks 0.500000 0.500000 0.500000
Ke 0.000000 0.000000 0.000000
Ni 1.000000
d 1.000000
illum 2
map_Kd ..\textures\skate rail poles.png

newmtl Material.003
collisionType 0 0 0
Ns 96.078431
Ka 1.000000 1.000000 1.000000
Kd 0.293789 0.293789 0.293789
Ks 0.500000 0.500000 0.500000
Ke 0.000000 0.000000 0.000000
Ni 1.000000
d 1.000000
illum 2
map_Kd ..\textures\black.png

newmtl Material.004
collisionType 20 0 0
Ns 96.078431
Ka 1.000000 1.000000 1.000000
Kd 0.640000 0.345010 0.196916
Ks 0.500000 0.500000 0.500000
Ke 0.000000 0.000000 0.000000
Ni 1.000000
d 1.000000
illum 2
map_Kd ..\textures\tex1_128x128_4be39a6ec6097ab2_14.png

newmtl Material.005
collisionType 0 0 0
Ns 96.078431
Ka 1.000000 1.000000 1.000000
Kd 0.640000 0.141729 0.005152
Ks 0.500000 0.500000 0.500000
Ke 0.000000 0.000000 0.000000
Ni 1.000000
d 1.000000
illum 2
map_Kd ..\textures\tex1_128x128_08d0295294d4f4dc_14.png

newmtl Material.006
collisionType 0 0 0
Ns 96.078431
Ka 1.000000 1.000000 1.000000
Kd 0.640000 0.036516 0.021493
Ks 0.500000 0.500000 0.500000
Ke 0.000000 0.000000 0.000000
Ni 1.000000
d 1.000000
illum 2
map_Kd ..\textures\tex1_128x128_5f78682ce7ea2ca1_14.png

newmtl Material.007
collisionType 80 0 0
Ns 96.078431
Ka 1.000000 1.000000 1.000000
Kd 0.003438 0.640000 0.002866
Ks 0.500000 0.500000 0.500000
Ke 0.000000 0.000000 0.000000
Ni 1.000000
d 1.000000
illum 2
map_Kd ..\textures\tex1_128x128_2d0c3be388c84aec_14.png

newmtl Material.008
collisionType 0 0 0
Ns 96.078431
Ka 1.000000 1.000000 1.000000
Kd 0.640000 0.343438 0.140839
Ks 0.500000 0.500000 0.500000
Ke 0.000000 0.000000 0.000000
Ni 1.000000
d 1.000000
illum 2
map_Kd ..\textures\tex1_128x128_7da305e393306c1c_14.png

newmtl Material.009
collisionType 0 0 0
Ns 96.078431
Ka 1.000000 1.000000 1.000000
Kd 0.640000 0.429747 0.023530
Ks 0.500000 0.500000 0.500000
Ke 0.000000 0.000000 0.000000
Ni 1.000000
d 1.000000
illum 2
map_Kd ..\textures\tex1_128x128_42db5ea5a2fe8e67_14.png
