# Blender MTL File: 'diamond slide.blend'
# Material Count: 29

newmtl Material.001
collisionType 19 0 0
Ns 96.078431
Ka 1.000000 1.000000 1.000000
Kd 0.640000 0.640000 0.640000
Ks 0.500000 0.500000 0.500000
Ke 0.000000 0.000000 0.000000
Ni 1.000000
d 1.000000
illum 2
map_Kd C:\Users\Issa Cardona\Desktop\meme hack\other textures\marb079.jpg

newmtl Material.003
collisionType 80 0 0
Ns 96.078431
Ka 1.000000 1.000000 1.000000
Kd 0.640000 0.640000 0.640000
Ks 0.500000 0.500000 0.500000
Ke 0.000000 0.000000 0.000000
Ni 1.000000
d 1.000000
illum 2
map_Kd C:\Users\Issa Cardona\Desktop\meme hack\Sonic Unleashed Textures Rip by FireMario74\Sonic Unleashed Re-Sized N64\Cloudy 1.png

newmtl Material.004
collisionType 10 0 0
Ns 96.078431
Ka 1.000000 1.000000 1.000000
Kd 0.640000 0.640000 0.640000
Ks 0.500000 0.500000 0.500000
Ke 0.000000 0.000000 0.000000
Ni 1.000000
d 1.000000
illum 2
map_Kd C:\Users\Issa Cardona\Desktop\meme hack\other textures\nothing.png

newmtl None
collisionType 0 0 0
Ns 0
Ka 0.000000 0.000000 0.000000
Kd 0.8 0.8 0.8
Ks 0.8 0.8 0.8
d 1
illum 2
map_Kd C:\Users\Issa Cardona\Desktop\meme hack\hi res split up\Carlton [www.imagesplitter.net]\Carlton [www.imagesplitter.net]-0-0.png

newmtl None_Carlton_[www.imagesplitter.net]-0-1.png
collisionType 0 0 0
Ns 0
Ka 0.000000 0.000000 0.000000
Kd 0.8 0.8 0.8
Ks 0.8 0.8 0.8
d 1
illum 2
map_Kd C:\Users\Issa Cardona\Desktop\meme hack\hi res split up\Carlton [www.imagesplitter.net]\Carlton [www.imagesplitter.net]-0-1.png

newmtl None_Carlton_[www.imagesplitter.net]-0-2.png
collisionType 0 0 0
Ns 0
Ka 0.000000 0.000000 0.000000
Kd 0.8 0.8 0.8
Ks 0.8 0.8 0.8
d 1
illum 2
map_Kd C:\Users\Issa Cardona\Desktop\meme hack\hi res split up\Carlton [www.imagesplitter.net]\Carlton [www.imagesplitter.net]-0-2.png

newmtl None_Carlton_[www.imagesplitter.net]-0-3.png
collisionType 0 0 0
Ns 0
Ka 0.000000 0.000000 0.000000
Kd 0.8 0.8 0.8
Ks 0.8 0.8 0.8
d 1
illum 2
map_Kd C:\Users\Issa Cardona\Desktop\meme hack\hi res split up\Carlton [www.imagesplitter.net]\Carlton [www.imagesplitter.net]-0-3.png

newmtl None_Carlton_[www.imagesplitter.net]-1-0.png
collisionType 0 0 0
Ns 0
Ka 0.000000 0.000000 0.000000
Kd 0.8 0.8 0.8
Ks 0.8 0.8 0.8
d 1
illum 2
map_Kd C:\Users\Issa Cardona\Desktop\meme hack\hi res split up\Carlton [www.imagesplitter.net]\Carlton [www.imagesplitter.net]-1-0.png

newmtl None_Carlton_[www.imagesplitter.net]-1-1.png
collisionType 0 0 0
Ns 0
Ka 0.000000 0.000000 0.000000
Kd 0.8 0.8 0.8
Ks 0.8 0.8 0.8
d 1
illum 2
map_Kd C:\Users\Issa Cardona\Desktop\meme hack\hi res split up\Carlton [www.imagesplitter.net]\Carlton [www.imagesplitter.net]-1-1.png

newmtl None_Carlton_[www.imagesplitter.net]-1-2.png
collisionType 0 0 0
Ns 0
Ka 0.000000 0.000000 0.000000
Kd 0.8 0.8 0.8
Ks 0.8 0.8 0.8
d 1
illum 2
map_Kd C:\Users\Issa Cardona\Desktop\meme hack\hi res split up\Carlton [www.imagesplitter.net]\Carlton [www.imagesplitter.net]-1-2.png

newmtl None_Carlton_[www.imagesplitter.net]-1-3.png
collisionType 0 0 0
Ns 0
Ka 0.000000 0.000000 0.000000
Kd 0.8 0.8 0.8
Ks 0.8 0.8 0.8
d 1
illum 2
map_Kd C:\Users\Issa Cardona\Desktop\meme hack\hi res split up\Carlton [www.imagesplitter.net]\Carlton [www.imagesplitter.net]-1-3.png

newmtl None_Carlton_[www.imagesplitter.net]-2-0.png
collisionType 0 0 0
Ns 0
Ka 0.000000 0.000000 0.000000
Kd 0.8 0.8 0.8
Ks 0.8 0.8 0.8
d 1
illum 2
map_Kd C:\Users\Issa Cardona\Desktop\meme hack\hi res split up\Carlton [www.imagesplitter.net]\Carlton [www.imagesplitter.net]-2-0.png

newmtl None_Carlton_[www.imagesplitter.net]-2-1.png
collisionType 0 0 0
Ns 0
Ka 0.000000 0.000000 0.000000
Kd 0.8 0.8 0.8
Ks 0.8 0.8 0.8
d 1
illum 2
map_Kd C:\Users\Issa Cardona\Desktop\meme hack\hi res split up\Carlton [www.imagesplitter.net]\Carlton [www.imagesplitter.net]-2-1.png

newmtl None_Carlton_[www.imagesplitter.net]-2-2.png
collisionType 0 0 0
Ns 0
Ka 0.000000 0.000000 0.000000
Kd 0.8 0.8 0.8
Ks 0.8 0.8 0.8
d 1
illum 2
map_Kd C:\Users\Issa Cardona\Desktop\meme hack\hi res split up\Carlton [www.imagesplitter.net]\Carlton [www.imagesplitter.net]-2-2.png

newmtl None_Carlton_[www.imagesplitter.net]-2-3.png
collisionType 0 0 0
Ns 0
Ka 0.000000 0.000000 0.000000
Kd 0.8 0.8 0.8
Ks 0.8 0.8 0.8
d 1
illum 2
map_Kd C:\Users\Issa Cardona\Desktop\meme hack\hi res split up\Carlton [www.imagesplitter.net]\Carlton [www.imagesplitter.net]-2-3.png

newmtl None_Carlton_[www.imagesplitter.net]-3-0.png
collisionType 0 0 0
Ns 0
Ka 0.000000 0.000000 0.000000
Kd 0.8 0.8 0.8
Ks 0.8 0.8 0.8
d 1
illum 2
map_Kd C:\Users\Issa Cardona\Desktop\meme hack\hi res split up\Carlton [www.imagesplitter.net]\Carlton [www.imagesplitter.net]-3-0.png

newmtl None_Carlton_[www.imagesplitter.net]-3-1.png
collisionType 0 0 0
Ns 0
Ka 0.000000 0.000000 0.000000
Kd 0.8 0.8 0.8
Ks 0.8 0.8 0.8
d 1
illum 2
map_Kd C:\Users\Issa Cardona\Desktop\meme hack\hi res split up\Carlton [www.imagesplitter.net]\Carlton [www.imagesplitter.net]-3-1.png

newmtl None_Carlton_[www.imagesplitter.net]-3-2.png
collisionType 0 0 0
Ns 0
Ka 0.000000 0.000000 0.000000
Kd 0.8 0.8 0.8
Ks 0.8 0.8 0.8
d 1
illum 2
map_Kd C:\Users\Issa Cardona\Desktop\meme hack\hi res split up\Carlton [www.imagesplitter.net]\Carlton [www.imagesplitter.net]-3-2.png

newmtl None_Carlton_[www.imagesplitter.net]-3-3.png
collisionType 0 0 0
Ns 0
Ka 0.000000 0.000000 0.000000
Kd 0.8 0.8 0.8
Ks 0.8 0.8 0.8
d 1
illum 2
map_Kd C:\Users\Issa Cardona\Desktop\meme hack\hi res split up\Carlton [www.imagesplitter.net]\Carlton [www.imagesplitter.net]-3-3.png

newmtl None_copy_that_[www.imagesplitter.net]-0-0.png
collisionType 51 0 0
Ns 0
Ka 0.000000 0.000000 0.000000
Kd 0.8 0.8 0.8
Ks 0.8 0.8 0.8
d 1
illum 2
map_Kd C:\Users\Issa Cardona\Desktop\meme hack\hi res split up\copy_that [www.imagesplitter.net]\copy_that [www.imagesplitter.net]-0-0.png

newmtl None_copy_that_[www.imagesplitter.net]-0-1.png
collisionType 51 0 0
Ns 0
Ka 0.000000 0.000000 0.000000
Kd 0.8 0.8 0.8
Ks 0.8 0.8 0.8
d 1
illum 2
map_Kd C:\Users\Issa Cardona\Desktop\meme hack\hi res split up\copy_that [www.imagesplitter.net]\copy_that [www.imagesplitter.net]-0-1.png

newmtl None_copy_that_[www.imagesplitter.net]-1-0.png
collisionType 51 0 0
Ns 0
Ka 0.000000 0.000000 0.000000
Kd 0.8 0.8 0.8
Ks 0.8 0.8 0.8
d 1
illum 2
map_Kd C:\Users\Issa Cardona\Desktop\meme hack\hi res split up\copy_that [www.imagesplitter.net]\copy_that [www.imagesplitter.net]-1-0.png

newmtl None_copy_that_[www.imagesplitter.net]-1-1.png
collisionType 51 0 0
Ns 0
Ka 0.000000 0.000000 0.000000
Kd 0.8 0.8 0.8
Ks 0.8 0.8 0.8
d 1
illum 2
map_Kd C:\Users\Issa Cardona\Desktop\meme hack\hi res split up\copy_that [www.imagesplitter.net]\copy_that [www.imagesplitter.net]-1-1.png

newmtl None_corey_64.jpg
collisionType 0 0 0
Ns 0
Ka 0.000000 0.000000 0.000000
Kd 0.8 0.8 0.8
Ks 0.8 0.8 0.8
d 1
illum 2
map_Kd C:\Users\Issa Cardona\Desktop\meme hack\smug textures\corey 64.jpg

newmtl None_hoy64_[www.imagesplitter.net]-0-0.png
collisionType 52 0 0
Ns 0
Ka 0.000000 0.000000 0.000000
Kd 0.8 0.8 0.8
Ks 0.8 0.8 0.8
d 1
illum 2
map_Kd C:\Users\Issa Cardona\Desktop\meme hack\hi res split up\hoy64 [www.imagesplitter.net]\hoy64 [www.imagesplitter.net]-0-0.png

newmtl None_hoy64_[www.imagesplitter.net]-0-1.png
collisionType 52 0 0
Ns 0
Ka 0.000000 0.000000 0.000000
Kd 0.8 0.8 0.8
Ks 0.8 0.8 0.8
d 1
illum 2
map_Kd C:\Users\Issa Cardona\Desktop\meme hack\hi res split up\hoy64 [www.imagesplitter.net]\hoy64 [www.imagesplitter.net]-0-1.png

newmtl None_hoy64_[www.imagesplitter.net]-1-0.png
collisionType 52 0 0
Ns 0
Ka 0.000000 0.000000 0.000000
Kd 0.8 0.8 0.8
Ks 0.8 0.8 0.8
d 1
illum 2
map_Kd C:\Users\Issa Cardona\Desktop\meme hack\hi res split up\hoy64 [www.imagesplitter.net]\hoy64 [www.imagesplitter.net]-1-0.png

newmtl None_hoy64_[www.imagesplitter.net]-1-1.png
collisionType 52 0 0
Ns 0
Ka 0.000000 0.000000 0.000000
Kd 0.8 0.8 0.8
Ks 0.8 0.8 0.8
d 1
illum 2
map_Kd C:\Users\Issa Cardona\Desktop\meme hack\hi res split up\hoy64 [www.imagesplitter.net]\hoy64 [www.imagesplitter.net]-1-1.png

newmtl None_marb079.jpg
collisionType 0 0 0
Ns 0
Ka 0.000000 0.000000 0.000000
Kd 0.8 0.8 0.8
Ks 0.8 0.8 0.8
d 1
illum 2
map_Kd C:\Users\Issa Cardona\Desktop\meme hack\other textures\marb079.jpg
