# Blender MTL File: 'food land packed.blend'
# Material Count: 35

newmtl Material
Ns 96.078431
Ka 1.000000 1.000000 1.000000
Kd 0.640000 0.126625 0.141439
Ks 0.500000 0.500000 0.500000
Ke 0.000000 0.000000 0.000000
Ni 1.000000
d 1.000000
illum 2
map_Kd ..\textures\pink bowl.png

newmtl Material.001
Ns 96.078431
Ka 1.000000 1.000000 1.000000
Kd 0.640000 0.104337 0.131839
Ks 0.500000 0.500000 0.500000
Ke 0.000000 0.000000 0.000000
Ni 1.000000
d 1.000000
illum 2
map_Kd ..\textures\starberry ice cream.png

newmtl Material.002
Ns 96.078431
Ka 1.000000 1.000000 1.000000
Kd 0.640000 0.209706 0.063144
Ks 0.500000 0.500000 0.500000
Ke 0.000000 0.000000 0.000000
Ni 1.000000
d 1.000000
illum 2
map_Kd ..\textures\bun color.png

newmtl Material.003
Ns 96.078431
Ka 1.000000 1.000000 1.000000
Kd 0.640000 0.342589 0.031971
Ks 0.500000 0.500000 0.500000
Ke 0.000000 0.000000 0.000000
Ni 1.000000
d 1.000000
illum 2
map_Kd ..\textures\donut color.png

newmtl Material.004
Ns 96.078431
Ka 1.000000 1.000000 1.000000
Kd 0.640000 0.640000 0.640000
Ks 0.500000 0.500000 0.500000
Ke 0.000000 0.000000 0.000000
Ni 1.000000
d 1.000000
illum 2
map_Kd ..\textures\vanilla frosting.png

newmtl Material.005
Ns 96.078431
Ka 1.000000 1.000000 1.000000
Kd 0.640000 0.271162 0.049561
Ks 0.500000 0.500000 0.500000
Ke 0.000000 0.000000 0.000000
Ni 1.000000
d 1.000000
illum 2
map_Kd ..\textures\bun color.png

newmtl Material.006
Ns 96.078431
Ka 1.000000 1.000000 1.000000
Kd 0.254831 0.005532 0.011280
Ks 0.500000 0.500000 0.500000
Ke 0.000000 0.000000 0.000000
Ni 1.000000
d 1.000000
illum 2
map_Kd ..\textures\burger.png

newmtl Material.007
Ns 96.078431
Ka 1.000000 1.000000 1.000000
Kd 0.640000 0.431170 0.000000
Ks 0.500000 0.500000 0.500000
Ke 0.000000 0.000000 0.000000
Ni 1.000000
d 1.000000
illum 2
map_Kd ..\textures\yellow.png

newmtl Material.009
Ns 96.078431
Ka 1.000000 1.000000 1.000000
Kd 0.121860 0.031518 0.018465
Ks 0.500000 0.500000 0.500000
Ke 0.000000 0.000000 0.000000
Ni 1.000000
d 1.000000
illum 2
map_Kd ..\textures\chocolate.png

newmtl Material.010
Ns 96.078431
Ka 1.000000 1.000000 1.000000
Kd 0.640000 0.546659 0.000000
Ks 0.500000 0.500000 0.500000
Ke 0.000000 0.000000 0.000000
Ni 1.000000
d 1.000000
illum 2
map_Kd ..\textures\yellow foil.jpg

newmtl Material.011
Ns 96.078431
Ka 1.000000 1.000000 1.000000
Kd 0.640000 0.125246 0.005160
Ks 0.500000 0.500000 0.500000
Ke 0.000000 0.000000 0.000000
Ni 1.000000
d 1.000000
illum 2
map_Kd ..\textures\topaz.png

newmtl Material.012
Ns 96.078431
Ka 1.000000 1.000000 1.000000
Kd 0.007561 0.001558 0.640000
Ks 0.500000 0.500000 0.500000
Ke 0.000000 0.000000 0.000000
Ni 1.000000
d 1.000000
illum 2
map_Kd ..\textures\soda.jpg

newmtl Material.013
Ns 96.078431
Ka 1.000000 1.000000 1.000000
Kd 0.156790 0.156790 0.156790
Ks 0.500000 0.500000 0.500000
Ke 0.000000 0.000000 0.000000
Ni 1.000000
d 0.600000
illum 2
map_Kd ..\textures\light grey.png

newmtl Material.014
Ns 96.078431
Ka 1.000000 1.000000 1.000000
Kd 0.640000 0.000646 0.000000
Ks 0.500000 0.500000 0.500000
Ke 0.000000 0.000000 0.000000
Ni 1.000000
d 0.750000
illum 2
map_Kd ..\textures\star texture.png

newmtl Material.015
Ns 96.078431
Ka 1.000000 1.000000 1.000000
Kd 0.640000 0.640000 0.640000
Ks 0.500000 0.500000 0.500000
Ke 0.000000 0.000000 0.000000
Ni 1.000000
d 1.000000
illum 2

newmtl Material.017
Ns 96.078431
Ka 1.000000 1.000000 1.000000
Kd 0.640000 0.378899 0.064786
Ks 0.500000 0.500000 0.500000
Ke 0.000000 0.000000 0.000000
Ni 1.000000
d 1.000000
illum 2
map_Kd ..\textures\oatmeal_main_0.jpg

newmtl Material.018
Ns 96.078431
Ka 1.000000 1.000000 1.000000
Kd 0.581714 0.640000 0.000000
Ks 0.500000 0.500000 0.500000
Ke 0.000000 0.000000 0.000000
Ni 1.000000
d 0.600000
illum 2
map_Kd ..\textures\bun color.png

newmtl Material.019
Ns 96.078431
Ka 1.000000 1.000000 1.000000
Kd 0.166332 0.029426 0.006126
Ks 0.500000 0.500000 0.500000
Ke 0.000000 0.000000 0.000000
Ni 1.000000
d 1.000000
illum 2
map_Kd ..\textures\tobl dark.png

newmtl Material.020
Ns 96.078431
Ka 1.000000 1.000000 1.000000
Kd 0.405653 0.068081 0.023961
Ks 0.500000 0.500000 0.500000
Ke 0.000000 0.000000 0.000000
Ni 1.000000
d 1.000000
illum 2
map_Kd ..\textures\tobl light.png

newmtl Material.021
Ns 96.078431
Ka 1.000000 1.000000 1.000000
Kd 0.640000 0.005288 0.000000
Ks 0.500000 0.500000 0.500000
Ke 0.000000 0.000000 0.000000
Ni 1.000000
d 1.000000
illum 2
map_Kd ..\textures\hot doggo.png

newmtl None
Ns 0
Ka 0.000000 0.000000 0.000000
Kd 0.8 0.8 0.8
Ks 0.8 0.8 0.8
d 1
illum 2
map_Kd ..\textures\muddy grey.png

newmtl None_blue.png
Ns 0
Ka 0.000000 0.000000 0.000000
Kd 0.8 0.8 0.8
Ks 0.8 0.8 0.8
d 1
illum 2
map_Kd ..\textures\blue.png

newmtl None_blue_with_sugar.png
Ns 0
Ka 0.000000 0.000000 0.000000
Kd 0.8 0.8 0.8
Ks 0.8 0.8 0.8
d 1
illum 2
map_Kd ..\textures\blue with sugar.png

newmtl None_conc_niji.png
Ns 0
Ka 0.000000 0.000000 0.000000
Kd 0.8 0.8 0.8
Ks 0.8 0.8 0.8
d 1
illum 2
map_Kd ..\textures\conc_niji.png

newmtl None_cookie.png
Ns 0
Ka 0.000000 0.000000 0.000000
Kd 0.8 0.8 0.8
Ks 0.8 0.8 0.8
d 1
illum 2
map_Kd ..\textures\cookie.png

newmtl None_cookie_brown.png
Ns 0
Ka 0.000000 0.000000 0.000000
Kd 0.8 0.8 0.8
Ks 0.8 0.8 0.8
d 1
illum 2
map_Kd ..\textures\cookie brown.png

newmtl None_green.png
Ns 0
Ka 0.000000 0.000000 0.000000
Kd 0.8 0.8 0.8
Ks 0.8 0.8 0.8
d 1
illum 2
map_Kd ..\textures\green.png

newmtl None_green_with_sugar.png
Ns 0
Ka 0.000000 0.000000 0.000000
Kd 0.8 0.8 0.8
Ks 0.8 0.8 0.8
d 1
illum 2
map_Kd ..\textures\green with sugar.png

newmtl None_orange.png
Ns 0
Ka 0.000000 0.000000 0.000000
Kd 0.8 0.8 0.8
Ks 0.8 0.8 0.8
d 1
illum 2
map_Kd ..\textures\orange.png

newmtl None_orange_gumdrop_w_sugar.png
Ns 0
Ka 0.000000 0.000000 0.000000
Kd 0.8 0.8 0.8
Ks 0.8 0.8 0.8
d 1
illum 2
map_Kd ..\textures\orange gumdrop w sugar.png

newmtl None_rainbow.jpg
Ns 0
Ka 0.000000 0.000000 0.000000
Kd 0.8 0.8 0.8
Ks 0.8 0.8 0.8
d 1
illum 2
map_Kd ..\textures\rainbow.jpg

newmtl None_red.png
Ns 0
Ka 0.000000 0.000000 0.000000
Kd 0.8 0.8 0.8
Ks 0.8 0.8 0.8
d 1
illum 2
map_Kd ..\textures\red.png

newmtl None_red_w_sugar.png
Ns 0
Ka 0.000000 0.000000 0.000000
Kd 0.8 0.8 0.8
Ks 0.8 0.8 0.8
d 1
illum 2
map_Kd ..\textures\red w sugar.png

newmtl None_xd.png
Ns 0
Ka 0.000000 0.000000 0.000000
Kd 0.8 0.8 0.8
Ks 0.8 0.8 0.8
d 1
illum 2
map_Kd ..\textures\xd.png

newmtl SVGMat.001
Ns 96.078431
Ka 1.000000 1.000000 1.000000
Kd 0.059872 1.000000 0.087224
Ks 0.500000 0.500000 0.500000
Ke 0.000000 0.000000 0.000000
Ni 1.000000
d 1.000000
illum 2
map_Kd ..\textures\noisy green.png
