# Blender MTL File: 'ice level.blend'
# Material Count: 32

newmtl Material
collisionType 0 0 0
Ns 96.078431
Ka 1.000000 1.000000 1.000000
Kd 0.640000 0.483658 0.422361
Ks 0.500000 0.500000 0.500000
Ke 0.000000 0.000000 0.000000
Ni 1.000000
d 1.000000
illum 2
map_Kd C:\Users\Issa Cardona\Desktop\meme hack\SM64DS Textures\Textures\isikabe_b.png

newmtl Material.001
collisionType 19 0 0
Ns 96.078431
Ka 1.000000 1.000000 1.000000
Kd 0.097118 0.551462 0.640000
Ks 0.500000 0.500000 0.500000
Ke 0.000000 0.000000 0.000000
Ni 1.000000
d 1.000000
illum 2
map_Kd C:\Users\Issa Cardona\Desktop\meme hack\SM64DS Textures\Textures\mado_ice.png

newmtl Material.002
collisionType 0 0 0
Ns 96.078431
Ka 1.000000 1.000000 1.000000
Kd 0.106291 0.106291 0.106291
Ks 0.500000 0.500000 0.500000
Ke 0.000000 0.000000 0.000000
Ni 1.000000
d 1.000000
illum 2
map_Kd C:\Users\Issa Cardona\Desktop\meme hack\SM64DS Textures\Textures\isikabe_b.png

newmtl Material.002_rock_a.png
collisionType 0 0 0
Ns 96.078431
Ka 1.000000 1.000000 1.000000
Kd 0.106291 0.106291 0.106291
Ks 0.500000 0.500000 0.500000
Ke 0.000000 0.000000 0.000000
Ni 1.000000
d 1.000000
illum 2
map_Kd C:\Users\Issa Cardona\Desktop\meme hack\SM64DS Textures\Textures\rock_a.png

newmtl Material.002_snow.png
collisionType 0 0 0
Ns 96.078431
Ka 1.000000 1.000000 1.000000
Kd 0.106291 0.106291 0.106291
Ks 0.500000 0.500000 0.500000
Ke 0.000000 0.000000 0.000000
Ni 1.000000
d 1.000000
illum 2
map_Kd C:\Users\Issa Cardona\Desktop\meme hack\SM64DS Textures\Textures\snow.png

newmtl Material.003
collisionType 0 0 0
Ns 96.078431
Ka 1.000000 1.000000 1.000000
Kd 0.640000 0.010641 0.007568
Ks 0.500000 0.500000 0.500000
Ke 0.000000 0.000000 0.000000
Ni 1.000000
d 1.000000
illum 2
map_Kd C:\Users\Issa Cardona\Desktop\meme hack\SM64DS Textures\Textures\isikabe_b.png

newmtl Material.003_mc_roof.png
collisionType 21 0 0
Ns 96.078431
Ka 1.000000 1.000000 1.000000
Kd 0.640000 0.010641 0.007568
Ks 0.500000 0.500000 0.500000
Ke 0.000000 0.000000 0.000000
Ni 1.000000
d 1.000000
illum 2
map_Kd C:\Users\Issa Cardona\Desktop\meme hack\SM64DS Textures\Textures\mc_roof.png

newmtl Material.004
collisionType 0 0 0
Ns 96.078431
Ka 1.000000 1.000000 1.000000
Kd 0.573572 0.640000 0.039741
Ks 0.500000 0.500000 0.500000
Ke 0.000000 0.000000 0.000000
Ni 1.000000
d 1.000000
illum 2
map_Kd C:\Users\Issa Cardona\Desktop\meme hack\SM64DS Textures\Textures\pr_block.png

newmtl Material.005
collisionType 0 0 0
Ns 96.078431
Ka 1.000000 1.000000 1.000000
Kd 0.640000 0.072863 0.424310
Ks 0.500000 0.500000 0.500000
Ke 0.000000 0.000000 0.000000
Ni 1.000000
d 1.000000
illum 2
map_Kd C:\Users\Issa Cardona\Desktop\meme hack\SM64DS Textures\Textures\snow.png

newmtl Material.005_tex1_128x128_7f4be1b1e796210a_14.png
collisionType 21 0 0
Ns 96.078431
Ka 1.000000 1.000000 1.000000
Kd 0.640000 0.072863 0.424310
Ks 0.500000 0.500000 0.500000
Ke 0.000000 0.000000 0.000000
Ni 1.000000
d 1.000000
illum 2
map_Kd C:\Users\Issa Cardona\Desktop\meme hack\Super Mario Galaxy 2 Textures\Super Mario Galaxy 2 - Textures\tex1_128x128_7f4be1b1e796210a_14.png

newmtl Material.006
collisionType 0 0 0
Ns 96.078431
Ka 1.000000 1.000000 1.000000
Kd 0.640000 0.147031 0.059431
Ks 0.500000 0.500000 0.500000
Ke 0.000000 0.000000 0.000000
Ni 1.000000
d 1.000000
illum 2
map_Kd C:\Users\Issa Cardona\Desktop\meme hack\SM64DS Textures\Textures\ishi.png

newmtl Material.007
collisionType 0 0 0
Ns 96.078431
Ka 1.000000 1.000000 1.000000
Kd 0.002339 0.000000 0.640000
Ks 0.500000 0.500000 0.500000
Ke 0.000000 0.000000 0.000000
Ni 1.000000
d 1.000000
illum 2
map_Kd C:\Users\Issa Cardona\Desktop\meme hack\SM64DS Textures\Textures\isikabe_b.png

newmtl Material.007_snow.png
collisionType 0 0 0
Ns 96.078431
Ka 1.000000 1.000000 1.000000
Kd 0.002339 0.000000 0.640000
Ks 0.500000 0.500000 0.500000
Ke 0.000000 0.000000 0.000000
Ni 1.000000
d 1.000000
illum 2
map_Kd C:\Users\Issa Cardona\Desktop\meme hack\SM64DS Textures\Textures\snow.png

newmtl Material.007_suisyou.png
collisionType 19 0 0
Ns 96.078431
Ka 1.000000 1.000000 1.000000
Kd 0.002339 0.000000 0.640000
Ks 0.500000 0.500000 0.500000
Ke 0.000000 0.000000 0.000000
Ni 1.000000
d 1.000000
illum 2
map_Kd C:\Users\Issa Cardona\Desktop\meme hack\SM64DS Textures\Textures\suisyou.png

newmtl Material.008
collisionType 0 0 0
Ns 96.078431
Ka 1.000000 1.000000 1.000000
Kd 0.026482 0.026482 0.026482
Ks 0.500000 0.500000 0.500000
Ke 0.000000 0.000000 0.000000
Ni 1.000000
d 1.000000
illum 2
map_Kd C:\Users\Issa Cardona\Desktop\meme hack\SM64DS Textures\Textures\isikabe_b.png

newmtl Material.009
collisionType 0 0 0
Ns 96.078431
Ka 1.000000 1.000000 1.000000
Kd 0.640000 0.031034 0.504919
Ks 0.500000 0.500000 0.500000
Ke 0.000000 0.000000 0.000000
Ni 1.000000
d 1.000000
illum 2
map_Kd C:\Users\Issa Cardona\Desktop\meme hack\Super Mario Galaxy 2 Textures\Super Mario Galaxy 2 - Textures\tex1_256x256_8c219cccc79cd16a_14.png

newmtl Material.010
collisionType 0 0 0
Ns 96.078431
Ka 1.000000 1.000000 1.000000
Kd 0.010887 0.640000 0.001491
Ks 0.500000 0.500000 0.500000
Ke 0.000000 0.000000 0.000000
Ni 1.000000
d 0.500000
illum 2
map_Kd C:\Users\Issa Cardona\Desktop\meme hack\other textures\emerald.png

newmtl Material.011
collisionType 0 0 0
Ns 96.078431
Ka 1.000000 1.000000 1.000000
Kd 0.640000 0.008853 0.000000
Ks 0.500000 0.500000 0.500000
Ke 0.000000 0.000000 0.000000
Ni 1.000000
d 0.500000
illum 2
map_Kd C:\Users\Issa Cardona\Desktop\meme hack\other textures\red.png

newmtl Material.012
collisionType 0 0 0
Ns 96.078431
Ka 1.000000 1.000000 1.000000
Kd 0.000000 0.057859 0.640000
Ks 0.500000 0.500000 0.500000
Ke 0.000000 0.000000 0.000000
Ni 1.000000
d 0.500000
illum 2
map_Kd C:\Users\Issa Cardona\Desktop\meme hack\other textures\sapphire.png

newmtl Material.013
collisionType 0 0 0
Ns 96.078431
Ka 1.000000 1.000000 1.000000
Kd 0.640000 0.167176 0.000000
Ks 0.500000 0.500000 0.500000
Ke 0.000000 0.000000 0.000000
Ni 1.000000
d 0.500000
illum 2
map_Kd C:\Users\Issa Cardona\Desktop\meme hack\other textures\topaz.png

newmtl Material.014
collisionType 0 0 0
Ns 96.078431
Ka 1.000000 1.000000 1.000000
Kd 0.000000 0.640000 0.589386
Ks 0.500000 0.500000 0.500000
Ke 0.000000 0.000000 0.000000
Ni 1.000000
d 0.500000
illum 2
map_Kd C:\Users\Issa Cardona\Desktop\meme hack\other textures\diamond color.png

newmtl Material.015
collisionType 0 0 0
Ns 96.078431
Ka 1.000000 1.000000 1.000000
Kd 0.156790 0.156790 0.156790
Ks 0.500000 0.500000 0.500000
Ke 0.000000 0.000000 0.000000
Ni 1.000000
d 1.000000
illum 2
map_Kd C:\Users\Issa Cardona\Desktop\meme hack\other textures\matte black.png

newmtl Material.016
collisionType 0 0 0
Ns 96.078431
Ka 1.000000 1.000000 1.000000
Kd 0.119622 0.640000 0.155603
Ks 0.500000 0.500000 0.500000
Ke 0.000000 0.000000 0.000000
Ni 1.000000
d 1.000000
illum 2
map_Kd C:\Users\Issa Cardona\Desktop\meme hack\SM64DS Textures\Textures\th_yuka01.png

newmtl Material.017
collisionType 0 0 0
Ns 96.078431
Ka 1.000000 1.000000 1.000000
Kd 0.640000 0.322999 0.468294
Ks 0.500000 0.500000 0.500000
Ke 0.000000 0.000000 0.000000
Ni 1.000000
d 1.000000
illum 2
map_Kd C:\Users\Issa Cardona\Desktop\meme hack\Super Mario Galaxy 2 Textures\Super Mario Galaxy 2 - Textures\tex1_256x256_086fba22e5cd518e_14.png

newmtl Material_snow.png
collisionType 0 0 0
Ns 96.078431
Ka 1.000000 1.000000 1.000000
Kd 0.640000 0.483658 0.422361
Ks 0.500000 0.500000 0.500000
Ke 0.000000 0.000000 0.000000
Ni 1.000000
d 1.000000
illum 2
map_Kd C:\Users\Issa Cardona\Desktop\meme hack\SM64DS Textures\Textures\snow.png

newmtl None
collisionType 0 0 0
Ns 0
Ka 0.000000 0.000000 0.000000
Kd 0.8 0.8 0.8
Ks 0.8 0.8 0.8
d 1
illum 2
map_Kd C:\Users\Issa Cardona\Desktop\meme hack\other textures\misty cloud text.png

newmtl None_Cloudy_2.png
collisionType 80 0 0
Ns 0
Ka 0.000000 0.000000 0.000000
Kd 0.8 0.8 0.8
Ks 0.8 0.8 0.8
d 1
illum 2
map_Kd C:\Users\Issa Cardona\Desktop\meme hack\other textures\Cloudy 2.png

newmtl None_corey_64.jpg
collisionType 10 0 0
Ns 0
Ka 0.000000 0.000000 0.000000
Kd 0.8 0.8 0.8
Ks 0.8 0.8 0.8
d 1
illum 2
map_Kd C:\Users\Issa Cardona\Desktop\meme hack\smug textures\corey 64.jpg

newmtl None_kumo.png
collisionType 0 0 0
Ns 0
Ka 0.000000 0.000000 0.000000
Kd 0.8 0.8 0.8
Ks 0.8 0.8 0.8
d 1
illum 2
map_Kd C:\Users\Issa Cardona\Desktop\meme hack\SM64DS Textures\Textures\kumo.png

newmtl None_rock_a.png
collisionType 21 0 0
Ns 0
Ka 0.000000 0.000000 0.000000
Kd 0.8 0.8 0.8
Ks 0.8 0.8 0.8
d 1
illum 2
map_Kd C:\Users\Issa Cardona\Desktop\meme hack\SM64DS Textures\Textures\rock_a.png

newmtl None_snow.png
collisionType 0 0 0
Ns 0
Ka 0.000000 0.000000 0.000000
Kd 0.8 0.8 0.8
Ks 0.8 0.8 0.8
d 1
illum 2
map_Kd C:\Users\Issa Cardona\Desktop\meme hack\SM64DS Textures\Textures\snow.png

newmtl None_suisyou.png
collisionType 19 0 0
Ns 0
Ka 0.000000 0.000000 0.000000
Kd 0.8 0.8 0.8
Ks 0.8 0.8 0.8
d 1
illum 2
map_Kd C:\Users\Issa Cardona\Desktop\meme hack\SM64DS Textures\Textures\suisyou.png
