# Blender MTL File: 'new ice mountain.blend'
# Material Count: 25

newmtl BUILDING
collisionType 0 0 0
Ns 96.078431
Ka 1.000000 1.000000 1.000000
Kd 0.640000 0.161064 0.062688
Ks 0.500000 0.500000 0.500000
Ke 0.000000 0.000000 0.000000
Ni 1.000000
d 1.000000
illum 2
map_Kd ..\..\..\tex\SM64DS Textures\Textures\vmc_roof.png

newmtl BUILDING_wc_renga2.png
collisionType 0 0 0
Ns 96.078431
Ka 1.000000 1.000000 1.000000
Kd 0.640000 0.161064 0.062688
Ks 0.500000 0.500000 0.500000
Ke 0.000000 0.000000 0.000000
Ni 1.000000
d 1.000000
illum 2
map_Kd ..\..\..\tex\SM64DS Textures\Textures\wc_renga2.png

newmtl BUILDING_wc_renga2_01.png
collisionType 0 0 0
Ns 96.078431
Ka 1.000000 1.000000 1.000000
Kd 0.640000 0.161064 0.062688
Ks 0.500000 0.500000 0.500000
Ke 0.000000 0.000000 0.000000
Ni 1.000000
d 1.000000
illum 2
map_Kd ..\..\..\tex\SM64DS Textures\Textures\wc_renga2_01.png

newmtl None
collisionType 0 0 0
Ns 0
Ka 0.000000 0.000000 0.000000
Kd 0.8 0.8 0.8
Ks 0.8 0.8 0.8
d 1
illum 2
map_Kd ..\..\textures\emerald.png

newmtl None_j_oakgrain01.png
collisionType 0 0 0
Ns 0
Ka 0.000000 0.000000 0.000000
Kd 0.8 0.8 0.8
Ks 0.8 0.8 0.8
d 1
illum 2
map_Kd ..\..\..\tex\SM64DS Textures\Textures\j_oakgrain01.png

newmtl None_mokume.png
collisionType 0 0 0
Ns 0
Ka 0.000000 0.000000 0.000000
Kd 0.8 0.8 0.8
Ks 0.8 0.8 0.8
d 1
illum 2
map_Kd ..\..\..\tex\SM64DS Textures\Textures\mokume.png

newmtl death_floor
collisionType 0 0 0
Ns 96.078431
Ka 1.000000 1.000000 1.000000
Kd 0.448363 0.640000 0.064166
Ks 0.500000 0.500000 0.500000
Ke 0.000000 0.000000 0.000000
Ni 1.000000
d 1.000000
illum 2
map_Kd ..\..\..\tex\SM64DS Textures\Textures\kumo.png

newmtl flat
collisionType 0 0 0
Ns 96.078431
Ka 1.000000 1.000000 1.000000
Kd 0.106291 0.106291 0.106291
Ks 0.500000 0.500000 0.500000
Ke 0.000000 0.000000 0.000000
Ni 1.000000
d 1.000000
illum 2
map_Kd ..\..\..\tex\SM64DS Textures\Textures\iwa3.png

newmtl flat_kabe.png
collisionType 0 0 0
Ns 96.078431
Ka 1.000000 1.000000 1.000000
Kd 0.106291 0.106291 0.106291
Ks 0.500000 0.500000 0.500000
Ke 0.000000 0.000000 0.000000
Ni 1.000000
d 1.000000
illum 2
map_Kd ..\..\..\tex\SM64DS Textures\Textures\kabe.png

newmtl jewel
collisionType 0 0 0
Ns 96.078431
Ka 1.000000 1.000000 1.000000
Kd 0.010887 0.640000 0.001491
Ks 0.500000 0.500000 0.500000
Ke 0.000000 0.000000 0.000000
Ni 1.000000
d 0.500000
illum 2
map_Kd ..\..\textures\diamond.jpg

newmtl jewel_emerald.png.001
collisionType 0 0 0
Ns 96.078431
Ka 1.000000 1.000000 1.000000
Kd 0.010887 0.640000 0.001491
Ks 0.500000 0.500000 0.500000
Ke 0.000000 0.000000 0.000000
Ni 1.000000
d 0.500000
illum 2
map_Kd ..\..\textures\emerald.png

newmtl jewel_hol,.der
collisionType 0 0 0
Ns 96.078431
Ka 1.000000 1.000000 1.000000
Kd 0.640000 0.147031 0.059431
Ks 0.500000 0.500000 0.500000
Ke 0.000000 0.000000 0.000000
Ni 1.000000
d 1.000000
illum 2
map_Kd ..\..\..\tex\SM64DS Textures\Textures\isikabe_b.png

newmtl jewel_ruby.jpg
collisionType 0 0 0
Ns 96.078431
Ka 1.000000 1.000000 1.000000
Kd 0.010887 0.640000 0.001491
Ks 0.500000 0.500000 0.500000
Ke 0.000000 0.000000 0.000000
Ni 1.000000
d 0.500000
illum 2
map_Kd ..\..\textures\ruby.jpg

newmtl jewel_sapphire.jpg
collisionType 0 0 0
Ns 96.078431
Ka 1.000000 1.000000 1.000000
Kd 0.010887 0.640000 0.001491
Ks 0.500000 0.500000 0.500000
Ke 0.000000 0.000000 0.000000
Ni 1.000000
d 0.500000
illum 2
map_Kd ..\..\textures\sapphire.jpg

newmtl jewel_topaz.jpg
collisionType 0 0 0
Ns 96.078431
Ka 1.000000 1.000000 1.000000
Kd 0.010887 0.640000 0.001491
Ks 0.500000 0.500000 0.500000
Ke 0.000000 0.000000 0.000000
Ni 1.000000
d 0.500000
illum 2
map_Kd ..\..\textures\topaz.jpg

newmtl mountain_bottom
collisionType 0 0 0
Ns 96.078431
Ka 1.000000 1.000000 1.000000
Kd 0.579979 0.640000 0.247557
Ks 0.500000 0.500000 0.500000
Ke 0.000000 0.000000 0.000000
Ni 1.000000
d 1.000000
illum 2
map_Kd ..\..\..\tex\SM64DS Textures\Textures\f_yuki.png

newmtl mountain_bottom_ice.png
collisionType 0 0 0
Ns 96.078431
Ka 1.000000 1.000000 1.000000
Kd 0.579979 0.640000 0.247557
Ks 0.500000 0.500000 0.500000
Ke 0.000000 0.000000 0.000000
Ni 1.000000
d 1.000000
illum 2
map_Kd ..\..\..\tex\SM64DS Textures\Textures\ice.png

newmtl mountain_top
collisionType 0 0 0
Ns 96.078431
Ka 1.000000 1.000000 1.000000
Kd 0.640000 0.483658 0.422361
Ks 0.500000 0.500000 0.500000
Ke 0.000000 0.000000 0.000000
Ni 1.000000
d 1.000000
illum 2
map_Kd ..\..\..\tex\SM64DS Textures\Textures\ice.png

newmtl path
collisionType 0 0 0
Ns 96.078431
Ka 1.000000 1.000000 1.000000
Kd 0.640000 0.010641 0.007568
Ks 0.500000 0.500000 0.500000
Ke 0.000000 0.000000 0.000000
Ni 1.000000
d 1.000000
illum 2
map_Kd ..\..\..\Sorted Textures\Sorted Textures\Snow_Ice\tempImgEd004A.bmp

newmtl pillar
collisionType 0 0 0
Ns 96.078431
Ka 1.000000 1.000000 1.000000
Kd 0.002339 0.000000 0.640000
Ks 0.500000 0.500000 0.500000
Ke 0.000000 0.000000 0.000000
Ni 1.000000
d 1.000000
illum 2
map_Kd ..\..\..\tex\SM64DS Textures\Textures\mokume.png

newmtl slide
collisionType 0 0 0
Ns 96.078431
Ka 1.000000 1.000000 1.000000
Kd 0.166081 0.640000 0.484740
Ks 0.500000 0.500000 0.500000
Ke 0.000000 0.000000 0.000000
Ni 1.000000
d 1.000000
illum 2
map_Kd ..\..\..\tex\SM64DS Textures\Textures\ice_slider.png

newmtl slope
collisionType 0 0 0
Ns 96.078431
Ka 1.000000 1.000000 1.000000
Kd 0.640000 0.055125 0.421167
Ks 0.500000 0.500000 0.500000
Ke 0.000000 0.000000 0.000000
Ni 1.000000
d 1.000000
illum 2
map_Kd ..\..\..\tex\SM64DS Textures\Textures\icy_wall.png

newmtl very_bottom_mountaiun
collisionType 0 0 0
Ns 96.078431
Ka 1.000000 1.000000 1.000000
Kd 0.640000 0.640000 0.640000
Ks 0.500000 0.500000 0.500000
Ke 0.000000 0.000000 0.000000
Ni 1.000000
d 1.000000
illum 2
map_Kd ..\..\..\tex\SM64DS Textures\Textures\ice_kabe.png

newmtl wall
collisionType 0 0 0
Ns 96.078431
Ka 1.000000 1.000000 1.000000
Kd 0.097118 0.551462 0.640000
Ks 0.500000 0.500000 0.500000
Ke 0.000000 0.000000 0.000000
Ni 1.000000
d 1.000000
illum 2
map_Kd ..\..\..\tex\SM64DS Textures\Textures\iwa3.png

newmtl window
collisionType 0 0 0
Ns 96.078431
Ka 1.000000 1.000000 1.000000
Kd 0.640000 0.031034 0.504919
Ks 0.500000 0.500000 0.500000
Ke 0.000000 0.000000 0.000000
Ni 1.000000
d 1.000000
illum 2
map_Kd ..\..\..\tex\SM64DS Textures\Textures\mg_window.png
