# Blender v2.78 (sub 0) OBJ File: 'bad level.blend'
# www.blender.org
mtllib ascended level.mtl
o Cube.004_Cube.007
v -14.946330 -1.995778 11.831404
v -14.946330 0.004222 11.831404
v -14.946330 -1.995778 1.995787
v -14.946330 0.004222 1.995787
v -7.779251 -1.995778 11.831404
v -7.779251 0.004222 11.831404
v -7.779251 -1.995778 1.995787
v -7.779251 0.004222 1.995787
v -14.946330 -0.995778 11.831404
v -14.946330 -0.995778 1.995787
v -7.779251 -0.995778 1.995787
v -7.779251 -0.995778 11.831404
v -6.111139 -0.995778 1.995787
v -6.111139 -1.995778 1.995787
v -6.111139 -1.995778 11.831404
v -6.111139 -0.995778 11.831404
v -14.946330 0.004222 6.913595
v -11.362791 0.004222 1.995787
v -7.779251 0.004222 6.913595
v -11.362791 0.004222 11.831404
v -11.362791 0.004222 6.913595
v -14.946330 0.004222 4.454691
v -9.571021 0.004222 1.995787
v -7.779251 0.004222 9.372499
v -13.154560 0.004222 11.831404
v -14.946330 0.004222 9.372499
v -13.154560 0.004222 1.995787
v -7.779251 0.004222 4.454691
v -9.571021 0.004222 11.831404
v -11.362791 0.004222 9.372499
v -11.362791 0.004222 4.454691
v -9.571021 0.004222 6.913595
v -13.154560 0.004222 6.913595
v -13.154560 0.004222 4.454691
v -9.571021 0.004222 4.454691
v -9.571021 0.004222 9.372499
v -13.154560 0.004222 9.372499
v -10.466906 0.004222 11.831404
v -10.466906 0.004222 1.995787
v -10.466906 0.004222 6.913595
v -10.466906 0.004222 4.454691
v -10.466906 0.004222 9.372499
v -14.946330 0.004222 8.322897
v -7.779251 0.004222 8.322897
v -11.362791 0.004222 8.322897
v -9.571021 0.004222 8.322897
v -13.154560 0.004222 8.322897
v -10.466906 0.004222 8.322897
v -7.779251 0.004222 5.684143
v -11.362791 0.004222 5.684143
v -14.946330 0.004222 5.684143
v -13.154560 0.004222 5.684143
v -9.571021 0.004222 5.684143
v -10.466906 0.004222 5.684143
v -7.779251 0.004222 10.499437
v -11.362791 0.004222 10.499437
v -14.946330 0.004222 10.499437
v -9.571021 0.004222 10.499437
v -13.154560 0.004222 10.499437
v -10.466906 0.004222 10.499437
v -9.571021 0.648412 1.995787
v -7.779251 0.648412 1.995787
v -13.154560 0.648412 11.831404
v -14.946330 0.648412 11.831404
v -13.154560 0.648412 1.995787
v -11.362791 0.648412 1.995787
v -7.779251 0.648412 5.684143
v -7.779251 0.648412 6.913595
v -11.362791 0.648412 10.499437
v -11.362791 0.648412 11.831404
v -11.362791 0.648412 5.684143
v -11.362791 0.648412 6.913595
v -9.571021 0.648412 6.913595
v -13.154560 0.648412 6.913595
v -14.946330 0.648412 5.684143
v -14.946330 0.648412 4.454691
v -7.779251 0.648412 8.322897
v -7.779251 0.648412 9.372499
v -14.946330 0.648412 10.499437
v -14.946330 0.648412 9.372499
v -7.779251 0.648412 4.454691
v -11.362791 0.648412 8.322897
v -11.362791 0.648412 9.372499
v -11.362791 0.648412 4.454691
v -10.466906 0.648412 6.913595
v -13.154560 0.648412 5.684143
v -13.154560 0.648412 4.454691
v -9.571021 0.648412 5.684143
v -9.571021 0.648412 4.454691
v -10.466906 0.648412 4.454691
v -9.571021 0.648412 10.499437
v -9.571021 0.648412 11.831404
v -9.571021 0.648412 8.322897
v -9.571021 0.648412 9.372499
v -10.466906 0.648412 9.372499
v -13.154560 0.648412 10.499437
v -13.154560 0.648412 9.372499
v -10.466906 0.648412 11.831404
v -10.466906 0.648412 1.995787
v -10.466906 0.648412 8.322897
v -10.466906 0.648412 5.684143
v -10.466906 0.648412 10.499437
v -14.946330 1.722061 8.322897
v -14.946330 1.722061 6.913595
v -13.154560 1.722061 6.913595
v -13.154560 1.722061 8.322897
v -13.154560 0.128481 7.015536
v -13.154560 0.128481 8.220956
v -13.154560 1.597802 7.015536
v -13.154560 1.597802 8.220956
v -13.573618 0.128481 7.015536
v -13.573618 0.128481 8.220956
v -13.573618 1.597802 7.015536
v -13.573618 1.597802 8.220956
v -13.573618 0.642143 7.314250
v -13.573618 0.642143 7.922242
v -13.573618 1.383242 7.314250
v -13.573618 1.383242 7.922242
v -14.138144 0.642143 7.314250
v -14.138144 0.642143 7.922242
v -14.138144 1.383242 7.314250
v -14.138144 1.383242 7.922242
v -13.571161 1.722061 6.913595
v -13.582063 1.722059 7.314467
v -14.137984 1.722059 7.314467
v -14.143435 1.722059 7.927971
v -13.554811 1.722059 7.922521
vt -4.6647 -0.2524
vt -4.9017 -0.2524
vt -5.6125 -1.1899
vt -9.4032 1.9563
vt -9.4032 1.1164
vt -8.4557 -0.5636
vt -4.0542 3.7022
vt -4.0542 3.4874
vt -3.1064 3.2333
vt -10.6242 2.7963
vt -10.6242 4.4762
vt -11.5720 6.1561
vt -7.5081 -0.5636
vt -5.6125 6.1561
vt -7.5081 6.1561
vt -10.0137 4.4762
vt -11.5720 -0.5636
vt -12.5198 6.1561
vt -12.5198 -0.5636
vt -7.5081 -2.1275
vt -8.4557 6.1561
vt -3.7169 -1.1900
vt -5.6125 -2.1275
vt -3.7169 -2.1275
vt -3.9844 7.4328
vt -3.0366 5.5580
vt -3.0366 7.4327
vt -3.0837 3.2333
vt -4.6647 1.3582
vt -3.0837 1.3582
vt -11.5720 -2.1275
vt -5.6125 -2.1275
vt -5.6125 -0.5636
vt -4.9214 4.7180
vt -4.6647 5.5580
vt -4.9214 5.5580
vt -2.1892 8.0778
vt -2.4262 7.2379
vt -2.1892 7.2379
vt -2.2362 3.0381
vt -2.4731 1.3582
vt -2.2362 1.3582
vt -9.4032 2.7963
vt -10.0136 1.9563
vt -4.0542 3.9023
vt -4.6647 3.7023
vt -2.5627 7.2379
vt -3.0366 5.5580
vt -2.5627 5.5580
vt -10.0136 6.1561
vt -10.6242 6.1561
vt -11.0981 8.4399
vt -10.8266 7.8360
vt -10.8266 8.4400
vt -9.3394 7.8360
vt -9.9498 6.1561
vt -9.3394 6.1561
vt -5.8297 7.8360
vt -6.0864 6.1561
vt -5.8297 6.1561
vt -8.1185 7.8360
vt -8.7289 6.1561
vt -8.1185 6.1561
vt -10.6242 1.1163
vt -10.0137 1.9563
vt -10.6242 1.9563
vt -9.3394 6.1561
vt -8.7289 7.8360
vt -9.3394 7.8360
vt -5.3409 3.0381
vt -5.1386 4.7180
vt -5.3409 4.7180
vt -5.3409 1.3582
vt -5.1386 3.0381
vt -2.9041 0.3923
vt -3.1064 -0.4476
vt -2.9041 -0.4476
vt -2.6325 1.2323
vt -3.1064 0.3923
vt -2.6325 0.3923
vt -5.1386 0.3516
vt -5.1386 -0.2524
vt -2.6325 4.9132
vt -3.1064 5.5172
vt -3.1064 4.9133
vt -2.6325 0.3923
vt -2.6325 -0.4476
vt -4.3931 -0.2524
vt -4.6647 1.3582
vt -5.6125 3.0381
vt -5.6125 4.7180
vt -12.2829 7.8360
vt -12.5198 8.4400
vt -12.5198 7.8360
vt -2.9041 -2.1275
vt -2.6325 -2.1275
vt -3.1064 3.2333
vt -2.4958 4.9132
vt -3.1064 4.9132
vt -1.9992 3.0381
vt -2.2362 1.3582
vt -1.9992 1.3582
vt -6.2872 7.8360
vt -6.8976 6.1561
vt -6.2872 6.1561
vt -11.8436 8.4400
vt -11.5720 7.8360
vt -11.5720 8.4400
vt -1.9523 8.0778
vt -1.9523 7.2379
vt -3.1370 7.4328
vt -3.3739 8.0368
vt -3.3739 7.4328
vt -5.6125 7.8360
vt -5.6125 6.1561
vt -5.1386 5.5580
vt -1.9984 -1.1153
vt -2.2353 -0.5114
vt -2.2353 -1.1153
vt -3.9844 7.4328
vt -3.3739 8.2728
vt -3.9844 8.2728
vt -7.5081 6.1561
vt -6.8976 7.8360
vt -7.5081 7.8360
vt -11.5720 8.4400
vt -11.0981 7.8360
vt -11.0981 8.4400
vt -3.9736 -0.2524
vt -4.1908 0.3516
vt -4.1908 -0.2524
vt -3.7169 0.3923
vt -3.1064 1.2323
vt -3.7169 1.2323
vt -10.8921 6.1561
vt -10.2815 7.8360
vt -10.8921 7.8360
vt -5.6125 7.2379
vt -5.0020 8.0778
vt -5.6125 8.0778
vt -2.4262 8.0778
vt -3.0366 7.2379
vt -2.4262 7.2379
vt -4.0542 5.1082
vt -4.6647 4.6397
vt -4.0542 4.6395
vt -10.6243 7.8361
vt -10.6243 8.4400
vt -9.4032 4.4762
vt -10.0136 2.7963
vt -10.1669 7.8360
vt -10.4235 8.4399
vt -10.4235 7.8360
vt -7.5081 7.8360
vt -8.1185 6.1561
vt -7.5081 6.1561
vt -9.0022 7.8361
vt -9.4760 8.4399
vt -9.4760 7.8360
vt -3.7169 -0.2524
vt -3.9736 0.3516
vt -4.0542 4.4052
vt -4.6647 4.1710
vt -4.0542 4.1709
vt -1.9632 5.5580
vt -2.1655 6.1619
vt -2.1655 5.5580
vt -12.0459 8.4400
vt -11.8436 7.8360
vt -12.0459 7.8360
vt -12.2829 8.4400
vt -9.9498 7.8361
vt -10.1669 8.4400
vt -3.0837 1.3582
vt -2.4731 3.0381
vt -3.0837 3.0381
vt -9.4760 7.8361
vt -9.7129 8.4400
vt -9.7129 7.8360
vt -2.1586 4.9132
vt -2.4153 5.5172
vt -2.4153 4.9132
vt -10.0136 -0.5635
vt -9.4032 -0.5636
vt -2.0181 -0.5113
vt -2.2353 0.0926
vt -2.2353 -0.5113
vt -4.3916 7.8418
vt -4.1349 7.2379
vt -4.1349 7.8419
vt -4.3916 8.0778
vt -5.0020 7.2379
vt -4.3916 7.2379
vt -3.7169 -0.4476
vt -3.1064 0.3923
vt -3.7169 0.3923
vt -2.6325 5.5172
vt -2.6325 4.9133
vt -9.9498 8.4399
vt -9.9498 7.8360
vt -3.7169 -2.1275
vt -3.1064 -0.4476
vt -10.0270 6.5569
vt -10.1442 6.5313
vt -9.9498 6.1561
vt -2.2243 4.8439
vt -2.2439 3.3499
vt -2.2243 3.2334
vt -10.8921 7.8360
vt -12.5198 6.5467
vt -10.8921 6.1561
vt -5.6125 5.5580
vt -3.9844 7.2379
vt -5.6125 7.2379
vt -4.2001 5.1083
vt -4.4324 5.5012
vt -4.4324 5.1083
vt -2.4762 3.3498
vt -2.4958 3.2333
vt -2.4958 4.8439
vt -2.2439 4.7274
vt -2.4762 4.7274
vt -4.0823 5.3381
vt -4.2000 5.1653
vt -4.0823 5.1083
vt -2.1655 6.9352
vt -2.5627 5.5580
vt -2.1655 5.5580
vt -4.4324 5.1083
vt -4.6647 5.5012
vt -4.6647 5.1083
vt -2.6325 -1.1153
vt -2.2353 0.2623
vt -2.6325 0.2623
vt -2.6325 0.5800
vt -2.0974 1.2748
vt -2.6325 1.2748
vt -2.2243 3.3547
vt -2.1667 4.2506
vt -2.2243 4.7322
vt -2.0496 4.2507
vt -1.9920 4.7322
vt -6.0865 6.1561
vt -6.2036 6.8509
vt -6.2037 6.1561
vt -6.0876 7.1686
vt -6.2048 7.6979
vt -6.2048 7.1686
vt -2.6146 -2.1275
vt -2.0796 -1.4329
vt -2.6146 -1.4329
vt -2.6245 0.2623
vt -2.0974 0.5800
vt -2.1665 3.2381
vt -2.1667 3.5558
vt -6.0864 6.8509
vt -6.0864 7.1685
vt -10.2214 6.1561
vt -10.1453 7.0832
vt -10.2214 7.8360
vt -10.0270 7.0781
vt -9.9498 7.8360
vt -9.9498 6.5467
vt -2.0746 -1.1153
vt -1.9920 3.3547
vt -2.0496 3.5559
vt -2.0976 0.2623
vt -6.2048 7.1686
vt -2.6325 -1.1153
vt -2.6146 -1.2331
vt -5.6125 -0.2524
vt -9.4032 6.1561
vt -3.1064 5.1080
vt -4.0542 3.2335
vt -10.6242 -0.5636
vt -10.0137 2.7963
vt -8.4557 -2.1275
vt -3.9844 5.5582
vt -4.6647 3.2333
vt -12.5198 -2.1275
vt -4.6647 4.7180
vt -2.4262 8.0778
vt -2.4731 3.0381
vt -4.6647 3.9024
vt -3.0366 7.2379
vt -11.0981 7.8360
vt -9.9498 7.8360
vt -6.0864 7.8360
vt -8.7289 7.8360
vt -10.0137 1.1163
vt -8.7289 6.1561
vt -5.1386 1.3582
vt -3.1064 0.3923
vt -3.1064 1.2323
vt -4.9017 0.3516
vt -2.6325 5.5172
vt -4.3931 1.3582
vt -2.4958 3.2333
vt -2.2362 3.0381
vt -6.8976 7.8360
vt -3.1370 8.0368
vt -4.9214 3.0381
vt -1.9984 -0.5113
vt -3.3739 7.4328
vt -6.8976 6.1561
vt -11.5720 7.8360
vt -3.1064 0.3923
vt -10.2815 6.1561
vt -5.0020 7.2379
vt -3.0366 8.0778
vt -4.6647 5.1083
vt -10.0136 4.4762
vt -8.1185 7.8360
vt -9.0022 8.4400
vt -3.7169 0.3516
vt -4.6647 4.4053
vt -1.9632 6.1619
vt -12.0459 7.8360
vt -12.0459 8.4400
vt -9.9498 8.4400
vt -2.4731 1.3582
vt -9.4760 8.4400
vt -2.1586 5.5172
vt -10.0136 1.1164
vt -2.0181 0.0927
vt -4.3916 7.2379
vt -5.0020 8.0778
vt -3.1064 -2.1275
vt -12.5198 6.1561
vt -12.5198 7.8360
vt -3.9844 5.5580
vt -4.2001 5.5012
vt -4.2001 5.2813
vt -2.5627 6.9352
vt -4.4324 5.5012
vt -2.2353 -1.1153
vt -6.0876 7.6979
vt -2.0795 -2.1275
vt -2.0499 3.2384
vt -2.0366 3.2333
vt 2.5757 -2.1275
vt 3.5298 2.0995
vt 2.5757 2.0995
vt -0.8734 4.2130
vt -1.7540 -0.0140
vt -0.8734 -0.0140
vt 1.7685 4.2130
vt 0.0073 -0.0140
vt 1.7685 -0.0140
vt 4.4104 -0.0140
vt 5.2910 4.2130
vt 4.4104 4.2130
vt 7.0523 2.0995
vt 5.2910 -2.1275
vt 7.0523 -2.1275
vt 0.0073 -2.1275
vt 1.7685 -2.1275
vt 7.0523 -0.0140
vt 7.8041 4.2130
vt 7.0523 4.2130
vt 6.0429 4.2130
vt 5.2910 2.0995
vt 6.0429 2.0995
vt 3.5298 6.3265
vt 2.5757 6.3265
vt 4.4104 -2.1275
vt 5.2910 -0.0140
vt 8.0064 -0.0140
vt 7.0523 -2.1275
vt 8.0064 -2.1275
vt 7.0523 4.2130
vt 7.0523 2.0995
vt 3.5298 -2.1275
vt 3.5298 -0.0140
vt 0.0073 4.2130
vt 0.0073 8.4400
vt 8.8136 -0.0140
vt 8.8136 -2.1275
vt 1.7685 -2.1275
vt 1.7685 2.0995
vt 3.5298 -2.1275
vt -1.7540 4.2130
vt 5.2910 2.0995
vt 7.8041 -0.0140
vt 5.2910 4.2130
vt 5.2910 -2.1275
vt 7.0523 -0.0140
vt -0.8734 8.4400
vn -1.0000 0.0000 0.0000
vn 0.0000 0.0000 -1.0000
vn 1.0000 0.0000 0.0000
vn 0.0000 0.0000 1.0000
vn 0.0000 -1.0000 0.0000
vn 0.0000 1.0000 0.0000
vn -0.9977 -0.0678 0.0000
vn 0.0000 -0.0006 1.0000
vn 0.9995 0.0249 0.0179
vn 1.0000 -0.0005 0.0000
vn 0.0000 0.0169 -0.9999
vn 0.9998 0.0155 0.0089
vn -0.0036 -0.9231 -0.3846
vn -0.9672 0.2505 0.0433
vn -0.0093 0.0013 -1.0000
vn 0.0036 0.9231 0.3846
vn 0.9977 -0.0554 0.0398
usemtl Material.006
s off
f 17/1/1 51/2/1 10/3/1
f 39/4/2 23/5/2 11/6/2
f 24/7/3 55/8/3 12/9/3
f 20/10/4 25/11/4 9/12/4
f 7/13/5 1/14/5 3/15/5
f 20/10/4 63/16/4 25/11/4
f 12/17/4 1/18/4 5/19/4
f 11/6/2 14/20/2 7/13/2
f 10/21/2 7/13/2 3/15/2
f 9/22/1 3/23/1 1/24/1
f 13/25/3 15/26/3 14/27/3
f 12/28/6 13/29/6 11/30/6
f 5/19/4 16/31/4 12/17/4
f 7/13/5 15/32/5 5/33/5
f 56/34/6 38/35/6 60/36/6
f 50/37/6 40/38/6 54/39/6
f 51/40/6 33/41/6 52/42/6
f 18/43/2 99/44/2 39/4/2
f 44/45/3 78/46/3 24/7/3
f 4/47/6 34/48/6 27/49/6
f 25/11/4 64/50/4 2/51/4
f 40/52/3 100/53/3 48/54/3
f 22/55/2 87/56/2 34/57/2
f 58/58/6 6/59/6 55/60/6
f 53/61/2 67/62/2 49/63/2
f 29/64/4 98/65/4 38/66/4
f 26/67/2 97/68/2 37/69/2
f 47/70/6 30/71/6 45/72/6
f 43/73/6 37/74/6 47/70/6
f 48/75/6 36/76/6 46/77/6
f 39/78/6 35/79/6 23/80/6
f 51/2/1 76/81/1 22/82/1
f 34/83/1 65/84/1 27/85/1
f 40/86/6 46/77/6 32/87/6
f 43/88/1 104/89/1 17/1/1
f 33/90/6 45/72/6 21/91/6
f 54/92/1 90/93/1 41/94/1
f 32/87/6 44/95/6 19/96/6
f 21/97/4 74/98/4 33/99/4
f 35/100/6 49/101/6 28/102/6
f 59/103/2 69/104/2 56/105/2
f 45/106/1 72/107/1 21/108/1
f 31/109/6 54/39/6 41/110/6
f 33/111/1 86/112/1 52/113/1
f 37/74/6 56/34/6 30/71/6
f 36/114/6 55/60/6 24/115/6
f 30/71/6 60/36/6 42/116/6
f 35/117/3 88/118/3 53/119/3
f 21/120/2 85/121/2 40/122/2
f 52/123/4 75/124/4 51/125/4
f 35/126/1 61/127/1 23/128/1
f 57/129/1 80/130/1 26/131/1
f 41/132/4 84/133/4 31/134/4
f 28/135/4 89/136/4 35/137/4
f 42/138/4 83/139/4 30/140/4
f 41/141/2 89/142/2 35/143/2
f 8/144/3 81/145/3 28/146/3
f 48/54/3 95/147/3 42/148/3
f 27/149/2 66/150/2 18/43/2
f 58/151/3 92/152/3 29/153/3
f 46/154/2 77/155/2 44/156/2
f 39/157/3 90/158/3 41/159/3
f 2/160/1 79/161/1 57/129/1
f 49/162/3 68/163/3 19/164/3
f 36/165/1 93/166/1 46/167/1
f 30/168/1 82/169/1 45/106/1
f 40/170/1 101/171/1 54/92/1
f 36/172/3 91/173/3 58/151/3
f 24/174/4 94/175/4 36/176/4
f 31/177/3 71/178/3 50/179/3
f 38/180/1 102/181/1 60/182/1
f 23/5/2 62/183/2 8/184/2
f 37/185/3 96/186/3 59/187/3
f 56/188/3 70/189/3 20/190/3
f 42/191/2 94/192/2 36/193/2
f 32/194/4 85/195/4 40/196/4
f 60/182/1 95/197/1 42/198/1
f 50/179/3 72/199/3 21/200/3
f 19/201/4 73/202/4 32/194/4
f 124/203/6 127/204/6 105/205/6
f 105/206/3 107/207/3 33/208/3
f 17/209/2 123/210/2 33/211/2
f 47/212/4 103/213/4 43/214/4
f 107/215/6 112/216/6 108/217/6
f 33/208/3 108/218/3 47/219/3
f 106/220/3 109/221/3 105/206/3
f 47/219/3 110/222/3 106/220/3
f 114/223/7 124/224/7 113/225/7
f 108/226/2 114/227/2 110/228/2
f 110/229/5 113/230/5 109/231/5
f 109/232/4 111/233/4 107/234/4
f 117/235/4 119/236/4 115/237/4
f 113/238/3 115/239/3 111/240/3
f 111/240/3 116/241/3 112/242/3
f 119/243/3 122/244/3 120/245/3
f 115/246/6 120/247/6 116/248/6
f 116/249/2 122/250/2 118/251/2
f 124/252/8 121/253/8 117/235/8
f 113/238/9 124/254/9 117/255/9
f 121/256/10 125/257/10 122/244/10
f 106/258/6 126/259/6 103/260/6
f 126/259/6 125/261/6 104/262/6
f 104/262/6 124/203/6 123/263/6
f 126/264/11 118/251/11 122/250/11
f 114/265/3 116/241/3 118/266/3
f 124/252/8 125/267/8 121/253/8
f 122/244/12 125/257/12 126/268/12
f 126/264/13 127/269/13 114/270/13
f 10/3/1 9/22/1 17/1/1
f 57/129/1 26/131/1 9/22/1
f 9/22/1 2/160/1 57/129/1
f 22/82/1 4/271/1 10/3/1
f 43/88/1 17/1/1 9/22/1
f 51/2/1 22/82/1 10/3/1
f 9/22/1 26/131/1 43/88/1
f 11/6/2 18/43/2 39/4/2
f 27/149/2 18/43/2 10/21/2
f 10/21/2 4/272/2 27/149/2
f 23/5/2 8/184/2 11/6/2
f 10/21/2 18/43/2 11/6/2
f 12/9/3 11/273/3 19/164/3
f 28/146/3 49/162/3 11/273/3
f 11/273/3 8/144/3 28/146/3
f 55/8/3 6/274/3 12/9/3
f 44/45/3 24/7/3 12/9/3
f 11/273/3 49/162/3 19/164/3
f 19/164/3 44/45/3 12/9/3
f 9/12/4 12/17/4 20/10/4
f 29/64/4 38/66/4 12/17/4
f 12/17/4 6/275/4 29/64/4
f 25/11/4 2/51/4 9/12/4
f 12/17/4 38/66/4 20/10/4
f 7/13/5 5/33/5 1/14/5
f 20/10/4 70/276/4 63/16/4
f 12/17/4 9/12/4 1/18/4
f 11/6/2 13/277/2 14/20/2
f 10/21/2 11/6/2 7/13/2
f 9/22/1 10/3/1 3/23/1
f 13/25/3 16/278/3 15/26/3
f 12/28/6 16/279/6 13/29/6
f 5/19/4 15/280/4 16/31/4
f 7/13/5 14/20/5 15/32/5
f 56/34/6 20/281/6 38/35/6
f 50/37/6 21/282/6 40/38/6
f 51/40/6 17/283/6 33/41/6
f 18/43/2 66/150/2 99/44/2
f 44/45/3 77/284/3 78/46/3
f 4/47/6 22/285/6 34/48/6
f 25/11/4 63/16/4 64/50/4
f 40/52/3 85/286/3 100/53/3
f 22/55/2 76/287/2 87/56/2
f 58/58/6 29/288/6 6/59/6
f 53/61/2 88/289/2 67/62/2
f 29/64/4 92/290/4 98/65/4
f 26/67/2 80/291/2 97/68/2
f 47/70/6 37/74/6 30/71/6
f 43/73/6 26/292/6 37/74/6
f 48/75/6 42/293/6 36/76/6
f 39/78/6 41/294/6 35/79/6
f 51/2/1 75/295/1 76/81/1
f 34/83/1 87/296/1 65/84/1
f 40/86/6 48/75/6 46/77/6
f 43/88/1 103/297/1 104/89/1
f 33/90/6 47/70/6 45/72/6
f 54/92/1 101/171/1 90/93/1
f 32/87/6 46/77/6 44/95/6
f 21/97/4 72/298/4 74/98/4
f 35/100/6 53/299/6 49/101/6
f 59/103/2 96/300/2 69/104/2
f 45/106/1 82/169/1 72/107/1
f 31/109/6 50/37/6 54/39/6
f 33/111/1 74/301/1 86/112/1
f 37/74/6 59/302/6 56/34/6
f 36/114/6 58/58/6 55/60/6
f 30/71/6 56/34/6 60/36/6
f 35/117/3 89/303/3 88/118/3
f 21/120/2 72/304/2 85/121/2
f 52/123/4 86/305/4 75/124/4
f 35/126/1 89/306/1 61/127/1
f 57/129/1 79/161/1 80/130/1
f 41/132/4 90/307/4 84/133/4
f 28/135/4 81/308/4 89/136/4
f 42/138/4 95/309/4 83/139/4
f 41/141/2 90/310/2 89/142/2
f 8/144/3 62/311/3 81/145/3
f 48/54/3 100/53/3 95/147/3
f 27/149/2 65/312/2 66/150/2
f 58/151/3 91/173/3 92/152/3
f 46/154/2 93/313/2 77/155/2
f 39/157/3 99/314/3 90/158/3
f 2/160/1 64/315/1 79/161/1
f 49/162/3 67/316/3 68/163/3
f 36/165/1 94/317/1 93/166/1
f 30/168/1 83/318/1 82/169/1
f 40/170/1 85/319/1 101/171/1
f 36/172/3 94/320/3 91/173/3
f 24/174/4 78/321/4 94/175/4
f 31/177/3 84/322/3 71/178/3
f 38/180/1 98/323/1 102/181/1
f 23/5/2 61/324/2 62/183/2
f 37/185/3 97/325/3 96/186/3
f 56/188/3 69/326/3 70/189/3
f 42/191/2 95/327/2 94/192/2
f 32/194/4 73/202/4 85/195/4
f 60/182/1 102/181/1 95/197/1
f 50/179/3 71/178/3 72/199/3
f 19/201/4 68/328/4 73/202/4
f 106/258/6 105/205/6 127/204/6
f 123/263/6 124/203/6 105/205/6
f 105/206/3 109/221/3 107/207/3
f 105/329/2 33/211/2 123/210/2
f 17/209/2 104/330/2 123/210/2
f 47/212/4 106/331/4 103/213/4
f 107/215/6 111/332/6 112/216/6
f 33/208/3 107/207/3 108/218/3
f 106/220/3 110/222/3 109/221/3
f 47/219/3 108/218/3 110/222/3
f 114/223/14 127/333/14 124/224/14
f 108/226/2 112/334/2 114/227/2
f 110/229/5 114/335/5 113/230/5
f 109/232/4 113/336/4 111/233/4
f 117/235/4 121/253/4 119/236/4
f 113/238/3 117/255/3 115/239/3
f 111/240/3 115/239/3 116/241/3
f 119/243/3 121/256/3 122/244/3
f 115/246/6 119/337/6 120/247/6
f 116/249/2 120/338/2 122/250/2
f 106/258/6 127/204/6 126/259/6
f 104/262/6 103/260/6 126/259/6
f 125/261/6 124/203/6 104/262/6
f 126/264/15 127/269/15 118/251/15
f 127/339/16 126/340/16 114/265/16
f 114/265/3 112/242/3 116/241/3
f 118/266/17 127/339/17 114/265/17
usemtl Material.004
f 79/341/6 63/342/6 96/343/6
f 86/344/6 72/345/6 71/346/6
f 65/347/6 84/348/6 66/349/6
f 88/350/6 68/351/6 67/352/6
f 61/353/6 81/354/6 62/355/6
f 66/349/6 90/356/6 99/357/6
f 93/358/6 78/359/6 77/360/6
f 82/361/6 95/362/6 100/363/6
f 96/343/6 70/364/6 69/365/6
f 101/366/6 73/367/6 88/350/6
f 102/368/6 92/369/6 91/370/6
f 72/371/6 100/363/6 85/372/6
f 90/373/6 88/350/6 89/374/6
f 87/375/6 71/346/6 84/348/6
f 76/376/6 86/344/6 87/375/6
f 95/377/6 91/370/6 94/378/6
f 80/379/6 96/343/6 97/380/6
f 79/341/6 64/381/6 63/342/6
f 86/344/6 74/382/6 72/345/6
f 65/347/6 87/375/6 84/348/6
f 88/350/6 73/367/6 68/351/6
f 61/353/6 89/383/6 81/354/6
f 66/349/6 84/348/6 90/356/6
f 93/358/6 94/384/6 78/359/6
f 82/361/6 83/385/6 95/362/6
f 96/343/6 63/342/6 70/364/6
f 101/366/6 85/386/6 73/367/6
f 102/368/6 98/387/6 92/369/6
f 72/371/6 82/361/6 100/363/6
f 90/373/6 101/366/6 88/350/6
f 87/375/6 86/344/6 71/346/6
f 76/376/6 75/388/6 86/344/6
f 95/377/6 102/368/6 91/370/6
f 80/379/6 79/341/6 96/343/6
o Cube.006_Cube.002
v 7.498752 -5.877837 9.368425
v 7.498752 -1.375529 9.368425
v 7.498752 -5.877837 7.498481
v 7.498752 -1.375529 7.498481
v 9.368696 -5.877837 9.368425
v 9.368696 -1.375529 9.368425
v 9.368696 -5.877837 7.498481
v 9.368696 -1.375529 7.498481
v 9.368696 -3.626683 7.498481
v 9.368696 -5.877837 8.433454
v 9.368696 -1.375529 8.433454
v 9.368696 -3.626683 9.368425
v 9.368696 -3.626683 8.433454
v 9.368696 -4.752260 7.498481
v 9.368696 -4.752260 9.368425
v 9.368696 -4.752260 8.433454
v 10.847155 -4.525251 6.969016
v 10.847155 -6.288231 6.969016
v 10.847155 -6.288231 8.433454
v 10.847155 -4.525251 9.897891
v 10.847155 -6.288231 9.897891
v 10.847155 -4.525251 8.433454
v 13.251613 -4.525251 6.969016
v 13.251613 -6.288231 6.969016
v 13.251613 -6.288231 8.433454
v 13.251613 -4.525251 9.897891
v 13.251613 -6.288231 9.897891
v 13.251613 -4.525251 8.433454
v 10.847155 -7.467538 8.433454
v 10.847155 -7.467538 6.969016
v 10.847155 -7.467538 9.897891
v 13.251613 -7.467538 8.433454
v 13.251613 -7.467538 6.969016
v 13.251613 -7.467538 9.897891
v 15.625376 -6.288231 8.433454
v 15.625376 -6.288231 6.969016
v 15.625376 -6.288231 9.897891
v 15.625376 -7.467538 9.897891
v 15.625376 -7.467538 8.433454
v 15.625376 -7.467538 6.969016
v 16.973995 -6.288231 8.433454
v 16.973995 -6.288231 6.969016
v 16.973995 -6.288231 9.897891
v 16.973995 -7.467538 9.897891
v 16.973995 -7.467538 8.433454
v 16.973995 -7.467538 6.969016
v 15.625376 -2.385365 8.433454
v 15.625376 -2.385365 6.969016
v 15.625376 -2.385365 9.897891
v 16.973995 -2.385365 8.433454
v 16.973995 -2.385365 6.969016
v 16.973995 -2.385365 9.897891
v 16.973995 -4.389112 9.897891
v 16.973995 -3.252631 9.897891
v 16.973995 -3.252631 8.433454
v 16.973995 -4.389112 8.433454
v 15.625376 -4.389112 9.897891
v 15.625376 -3.252631 9.897891
v 15.625376 -4.389112 6.969016
v 15.625376 -3.252631 6.969016
v 15.625376 -3.252631 8.433454
v 15.625376 -4.389112 8.433454
v 16.973995 -3.252631 6.969016
v 16.973995 -4.389112 6.969016
v 13.664523 -4.389112 9.897891
v 13.664523 -3.252631 9.897891
v 13.664523 -4.389112 6.969016
v 13.664523 -3.252631 6.969016
v 13.664523 -3.252631 8.433454
v 13.664523 -4.389112 8.433454
v 6.980932 -1.375529 9.799943
v 6.980932 -1.375529 7.066965
v 9.713910 -1.375529 9.799943
v 9.713910 -1.375529 7.066965
v 9.713910 -1.375529 8.433454
v 6.980932 -1.733412 9.799943
v 6.980932 -1.733412 7.066965
v 9.713910 -1.733412 9.799943
v 9.713910 -1.733412 7.066965
v 9.713910 -1.733412 8.433454
v 6.980932 -2.430342 9.799943
v 6.980932 -2.430342 7.066965
v 9.713910 -2.430342 9.799943
v 9.713910 -2.430342 7.066965
v 9.713910 -2.430342 8.433454
vt 3.7156 1.0467
vt 2.1968 4.6207
vt 2.1968 1.0467
vt -1.8202 -0.4371
vt 0.0082 -0.4371
vt 0.0082 1.0467
vt 5.9341 2.8337
vt 6.6935 1.0467
vt 6.6935 2.8337
vt 4.9562 -6.4838
vt 4.9562 -5.0000
vt 3.1278 -5.0000
vt 1.7668 1.0467
vt 1.0074 2.5302
vt 0.2480 1.0467
vt 7.4529 1.0467
vt 7.4529 2.8337
vt 6.6935 3.7272
vt 7.4529 3.7272
vt 5.9341 3.7272
vt -3.6487 -0.4371
vt -2.5501 -1.6222
vt -2.7344 -0.4371
vt -0.6121 4.1331
vt -1.3715 2.9545
vt -0.1821 2.9545
vt 7.3351 -6.4838
vt 8.2929 -5.3213
vt 7.3351 -5.3213
vt -0.1821 1.0467
vt -2.1309 4.1331
vt -1.3715 4.1331
vt 1.7668 2.5302
vt 1.0074 3.7142
vt 1.2994 -5.0000
vt 2.3980 -3.8150
vt 0.9660 -3.8150
vt 0.2480 2.5302
vt -0.1821 3.7142
vt -1.1290 6.4581
vt -2.5610 5.2956
vt -1.1290 5.2956
vt -2.5610 4.1331
vt -1.1290 4.1331
vt 0.9660 -1.9070
vt 0.0082 -3.8150
vt -2.5610 2.9545
vt -1.3715 1.0467
vt -3.9820 -1.6222
vt -2.5501 -3.5301
vt 4.9562 -1.6230
vt 6.1456 -3.5306
vt 6.1456 -1.6230
vt 7.3351 -3.5306
vt 7.3351 -1.6230
vt 8.2929 -4.1588
vt 7.3351 -4.1588
vt 0.0082 -0.0235
vt 0.0082 -1.9070
vt 4.9562 -3.5306
vt 6.1456 -5.4139
vt -4.9398 -3.5301
vt -3.9820 -3.5301
vt 4.9562 -5.4139
vt 6.1456 -6.4838
vt -4.9398 -5.4137
vt -3.9820 -6.4838
vt -3.9820 -5.4137
vt 4.9562 -0.4605
vt 6.8833 0.7020
vt 4.9562 0.7020
vt 7.3351 -5.4139
vt 4.9562 -1.6230
vt 6.8833 -0.4605
vt -3.7504 4.1449
vt -4.9398 5.0810
vt -4.9398 4.1449
vt -2.5610 4.1449
vt -3.7504 5.0810
vt 0.9660 -0.0235
vt 0.0082 1.0467
vt 3.4316 -0.0235
vt 4.1360 1.0467
vt 3.4316 1.0467
vt 7.3351 -6.4838
vt -4.9398 1.7351
vt -3.7504 1.0467
vt -3.7504 1.7351
vt 7.9782 0.7020
vt 6.8833 -0.4605
vt 7.9782 -0.4605
vt 6.8833 -1.6230
vt 7.9782 -1.6230
vt 1.4097 3.7142
vt 2.1141 4.8767
vt 1.4097 4.8767
vt 2.1141 6.0392
vt 1.4097 6.0392
vt -2.5610 1.0467
vt -2.5610 1.7351
vt -1.5164 -6.4838
vt -0.8120 -5.4137
vt -1.5164 -5.4137
vt -2.4395 -5.4137
vt -2.4395 -6.4838
vt -2.5610 2.6373
vt -3.7504 2.6373
vt 7.4766 4.8897
vt 5.9341 3.7272
vt 7.4766 3.7272
vt 5.3075 5.5412
vt 3.7156 4.3787
vt 5.3075 4.3787
vt 7.4766 6.0522
vt 5.9341 4.8897
vt 3.7156 3.2162
vt 5.3075 3.2162
vt -4.9398 2.6373
vt 2.5085 1.0467
vt 0.9660 1.0467
vt 2.5085 -0.0235
vt 7.3351 -2.9963
vt 8.2581 -1.8338
vt 7.3351 -1.8338
vt 7.3351 -4.1588
vt 8.2581 -2.9963
vt 1.4097 6.0392
vt -0.1821 4.8767
vt 1.4097 4.8767
vt -2.4395 -3.8577
vt 3.4316 -1.5794
vt -0.1821 3.7142
vt 1.4097 3.7142
vt 3.9958 2.8736
vt 3.7156 2.1314
vt 3.9958 2.1314
vt 5.5138 2.8736
vt 5.9341 1.0467
vt 5.9341 3.2162
vt 3.7156 3.2162
vt 5.5138 1.3892
vt 3.7156 1.0467
vt 3.9958 1.3892
vt -1.1290 4.1331
vt -0.8384 6.3026
vt -1.1290 6.3026
vt 8.3333 5.8958
vt 8.0427 3.7272
vt 8.3333 3.7272
vt 2.1968 4.6207
vt 2.4875 6.7893
vt 2.1968 6.7893
vt 7.4529 2.1314
vt 7.7436 3.2162
vt 7.4529 3.2162
vt 7.4529 1.0467
vt 7.7436 2.1314
vt 2.4875 4.6207
vt 3.0535 6.7893
vt 8.3096 3.2162
vt 7.7436 1.0467
vt 8.3096 2.1314
vt -0.8384 4.1331
vt -0.2723 6.3026
vt 8.0427 5.8958
vt 7.4766 3.7272
vt 3.7156 4.6207
vt -3.6487 1.0467
vt 5.9341 1.0467
vt 2.2136 -5.0000
vt 1.2994 -6.4838
vt 8.2929 -6.4838
vt 2.1968 3.7142
vt -2.5610 6.4581
vt -2.5610 1.0467
vt 2.3980 -1.9070
vt -4.9398 -1.6222
vt 4.9562 -6.4838
vt -4.9398 -6.4838
vt 6.8833 -1.6230
vt -2.5610 5.0810
vt 4.1360 -0.0235
vt -4.9398 1.0467
vt 6.8833 0.7020
vt 2.1141 3.7142
vt -0.8120 -6.4838
vt 3.7156 5.5412
vt 5.9341 6.0522
vt 8.2581 -4.1588
vt -0.1821 6.0392
vt -1.5164 -3.8577
vt 2.5085 -1.5794
vt 3.0535 4.6207
vt 8.3096 1.0467
vt -0.2723 4.1331
vt 7.4766 5.8958
vn 1.0000 0.0000 0.0000
vn 0.0000 0.0000 1.0000
vn -1.0000 0.0000 0.0000
vn 0.0000 0.0000 -1.0000
vn 0.0000 1.0000 0.0000
vn 0.3372 0.0000 0.9414
vn 0.1518 -0.9884 0.0000
vn 0.0000 -1.0000 0.0000
vn 0.2675 0.9636 0.0000
vn 0.3372 0.0000 -0.9415
vn 0.3372 0.0000 0.9415
usemtl Material.006
s off
f 130/389/18 129/390/18 128/391/18
f 136/392/19 135/393/19 131/394/19
f 139/395/20 138/396/20 140/397/20
f 129/398/21 133/399/21 139/400/21
f 128/401/22 137/402/22 130/403/22
f 140/397/20 135/404/20 136/405/20
f 143/406/20 136/405/20 141/407/20
f 142/408/20 140/397/20 143/406/20
f 134/409/23 144/410/23 141/411/23
f 142/412/24 149/413/24 147/414/24
f 148/415/18 156/416/18 146/417/18
f 149/413/25 153/418/25 147/414/25
f 141/419/24 149/413/24 143/420/24
f 132/421/26 146/422/26 137/402/26
f 132/423/27 147/424/27 148/425/27
f 134/426/26 146/422/26 145/427/26
f 154/428/20 155/429/20 152/430/20
f 152/430/20 150/431/20 151/432/20
f 154/433/21 158/434/21 148/425/21
f 144/435/25 155/436/25 149/413/25
f 147/424/21 154/433/21 148/425/21
f 145/437/19 150/438/19 144/410/19
f 158/439/22 159/440/22 156/441/22
f 156/441/22 160/442/22 157/443/22
f 146/417/18 157/444/18 145/445/18
f 154/433/21 165/446/21 161/447/21
f 161/448/22 166/449/22 159/440/22
f 145/437/19 160/450/19 151/451/19
f 165/452/22 172/453/22 166/449/22
f 167/454/19 169/455/19 163/456/19
f 152/457/25 164/458/25 154/459/25
f 159/440/22 167/460/22 160/442/22
f 160/450/19 163/456/19 151/451/19
f 151/461/25 162/462/25 152/457/25
f 168/463/20 171/464/20 170/465/20
f 169/466/20 172/467/20 168/463/20
f 164/468/21 171/469/21 165/446/21
f 185/470/21 179/471/21 181/472/21
f 166/449/22 173/473/22 167/460/22
f 181/474/20 177/475/20 182/476/20
f 175/477/25 177/478/25 174/479/25
f 174/479/25 179/480/25 176/481/25
f 187/482/18 174/483/18 188/484/18
f 188/484/18 176/485/18 185/486/18
f 182/476/20 178/487/20 190/488/20
f 190/489/19 175/490/19 187/491/19
f 169/455/19 186/492/19 163/456/19
f 191/493/19 187/491/19 186/492/19
f 168/463/20 191/494/20 169/466/20
f 183/495/20 190/488/20 191/494/20
f 162/496/18 184/497/18 164/498/18
f 185/499/25 196/500/25 188/501/25
f 163/502/18 189/503/18 162/496/18
f 188/501/25 195/504/25 187/505/25
f 170/465/20 183/495/20 168/463/20
f 180/506/20 182/476/20 183/495/20
f 164/468/21 180/507/21 170/508/21
f 184/509/21 181/472/21 180/507/21
f 197/510/18 193/511/18 192/512/18
f 194/513/18 196/514/18 197/510/18
f 186/515/22 197/516/22 189/517/22
f 187/491/19 194/518/19 186/492/19
f 184/509/21 193/519/21 185/470/21
f 189/517/22 192/520/22 184/521/22
f 133/522/22 202/523/22 138/524/22
f 129/525/22 199/526/22 198/527/22
f 129/525/22 200/528/22 133/522/22
f 131/529/22 201/530/22 199/526/22
f 135/531/22 202/523/22 201/530/22
f 199/532/20 203/533/20 198/534/20
f 198/535/19 205/536/19 200/537/19
f 201/538/21 204/539/21 199/540/21
f 202/541/18 206/542/18 201/543/18
f 200/544/18 207/545/18 202/541/18
f 206/546/21 209/547/21 204/539/21
f 207/545/18 211/548/18 206/542/18
f 205/549/18 212/550/18 207/545/18
f 204/551/20 208/552/20 203/533/20
f 203/553/19 210/554/19 205/536/19
f 130/389/18 131/555/18 129/390/18
f 131/394/19 130/556/19 136/392/19
f 141/411/19 136/392/19 130/556/19
f 130/556/19 134/409/19 141/411/19
f 139/395/20 133/557/20 138/396/20
f 142/558/21 132/423/21 128/559/21
f 128/559/21 129/398/21 139/400/21
f 139/400/21 142/558/21 128/559/21
f 134/426/22 130/403/22 137/402/22
f 128/401/22 132/421/22 137/402/22
f 140/397/20 138/396/20 135/404/20
f 143/406/20 140/397/20 136/405/20
f 142/408/20 139/395/20 140/397/20
f 134/409/28 145/437/28 144/410/28
f 142/412/24 143/420/24 149/413/24
f 148/415/18 158/560/18 156/416/18
f 149/413/25 155/436/25 153/418/25
f 141/419/24 144/435/24 149/413/24
f 132/421/26 148/561/26 146/422/26
f 132/423/27 142/558/27 147/424/27
f 134/426/26 137/402/26 146/422/26
f 154/428/20 153/562/20 155/429/20
f 152/430/20 155/429/20 150/431/20
f 154/433/21 161/447/21 158/434/21
f 144/435/25 150/563/25 155/436/25
f 147/424/21 153/564/21 154/433/21
f 145/437/19 151/451/19 150/438/19
f 158/439/22 161/448/22 159/440/22
f 156/441/22 159/440/22 160/442/22
f 146/417/18 156/416/18 157/444/18
f 154/433/21 164/468/21 165/446/21
f 161/448/22 165/452/22 166/449/22
f 145/437/19 157/565/19 160/450/19
f 165/452/22 171/566/22 172/453/22
f 167/454/19 173/567/19 169/455/19
f 152/457/25 162/462/25 164/458/25
f 159/440/22 166/449/22 167/460/22
f 160/450/19 167/454/19 163/456/19
f 151/461/25 163/568/25 162/462/25
f 168/463/20 172/467/20 171/464/20
f 169/466/20 173/569/20 172/467/20
f 164/468/21 170/508/21 171/469/21
f 185/470/21 176/570/21 179/471/21
f 166/449/22 172/453/22 173/473/22
f 181/474/20 179/571/20 177/475/20
f 175/477/25 178/572/25 177/478/25
f 174/479/25 177/478/25 179/480/25
f 187/482/18 175/573/18 174/483/18
f 188/484/18 174/483/18 176/485/18
f 182/476/20 177/475/20 178/487/20
f 190/489/19 178/574/19 175/490/19
f 169/455/19 191/493/19 186/492/19
f 191/493/19 190/489/19 187/491/19
f 168/463/20 183/495/20 191/494/20
f 183/495/20 182/476/20 190/488/20
f 162/496/18 189/503/18 184/497/18
f 185/499/25 193/575/25 196/500/25
f 163/502/18 186/576/18 189/503/18
f 188/501/25 196/500/25 195/504/25
f 170/465/20 180/506/20 183/495/20
f 180/506/20 181/474/20 182/476/20
f 164/468/21 184/509/21 180/507/21
f 184/509/21 185/470/21 181/472/21
f 197/510/18 196/514/18 193/511/18
f 194/513/18 195/577/18 196/514/18
f 186/515/22 194/578/22 197/516/22
f 187/491/19 195/579/19 194/518/19
f 184/509/21 192/580/21 193/519/21
f 189/517/22 197/516/22 192/520/22
f 133/522/22 200/528/22 202/523/22
f 129/525/22 131/529/22 199/526/22
f 129/525/22 198/527/22 200/528/22
f 131/529/22 135/531/22 201/530/22
f 135/531/22 138/524/22 202/523/22
f 199/532/20 204/551/20 203/533/20
f 198/535/19 203/553/19 205/536/19
f 201/538/21 206/546/21 204/539/21
f 202/541/18 207/545/18 206/542/18
f 200/544/18 205/549/18 207/545/18
f 206/546/21 211/581/21 209/547/21
f 207/545/18 212/550/18 211/548/18
f 205/549/18 210/582/18 212/550/18
f 204/551/20 209/583/20 208/552/20
f 203/553/19 208/584/19 210/554/19
o Cube.005_Cube.001
v 3.685110 -2.354672 -5.327571
v 3.685110 -0.515000 -5.327571
v 3.685110 -2.354672 -8.672429
v 3.685110 -0.515000 -8.672429
v 7.029968 -2.354672 -5.327571
v 7.029968 0.990186 -5.327571
v 7.029968 -2.354672 -8.672429
v 7.029968 0.990186 -8.672429
v 8.702396 0.990186 -8.672429
v 8.702396 -2.354672 -8.672429
v 8.702396 -2.354672 -5.327571
v 8.702396 0.990186 -5.327571
v 10.374825 3.498829 -8.672429
v 10.374825 -2.354672 -8.672429
v 10.374825 -2.354672 -5.327571
v 10.374825 3.498829 -5.327571
v 12.047255 -2.354672 -8.672429
v 12.047255 -2.354672 -5.327571
v 14.016227 3.498829 -5.327571
v 12.047255 -2.354672 -7.000000
v 14.081740 0.572079 -8.645267
v 14.081740 0.572079 -5.327571
v 3.685110 -2.354672 -7.557476
v 3.685110 -2.354672 -6.442524
v 3.685110 -0.515000 -6.442524
v 3.685110 -0.515000 -7.557476
v 7.029968 -2.354672 -6.442524
v 7.029968 -2.354672 -7.557476
v 7.029968 0.990186 -7.557476
v 7.029968 0.990186 -6.442524
v 8.702396 -2.354672 -6.442524
v 8.702396 -2.354672 -7.557476
v 8.702396 0.990186 -7.557476
v 8.702396 0.990186 -6.442524
v 10.374825 -2.354672 -6.442524
v 10.374825 -2.354672 -7.557476
v 10.374825 3.498829 -7.557476
v 10.374825 3.498829 -6.442524
v 2.252063 -2.354672 -6.442524
v 2.252063 -2.354672 -5.327571
v 2.252063 -1.821451 -5.327571
v 2.252063 -1.821451 -7.557476
v 2.252063 -1.821451 -8.672429
v 2.252063 -2.354672 -8.672429
v 2.252063 -2.354672 -7.557476
v 2.252063 -1.821451 -6.442524
v 14.016227 3.498829 -7.418107
v 14.016227 3.498829 -6.163785
v 12.195526 3.498829 -7.487792
v 14.016227 3.498829 -7.418107
v 14.016227 3.498829 -8.618107
v 12.195526 3.498829 -5.327571
v 12.195526 3.498829 -8.645267
v 12.195526 3.479230 -6.303154
v 14.016227 4.698829 -6.163785
v 14.016227 4.698829 -5.327571
v 12.195526 4.698829 -6.303154
v 12.195526 4.698829 -5.327571
v 12.299566 3.498829 -7.482646
v 13.938197 3.498829 -7.419930
v 13.938197 3.498829 -6.291040
v 12.299566 3.498829 -6.416472
v 13.938197 3.498829 -7.419930
v 13.938197 3.498829 -8.499929
v 12.299566 3.498829 -8.524374
v 12.299566 2.498829 -7.482646
v 13.938197 2.498829 -7.419930
v 13.938197 2.498829 -6.291040
v 12.299566 2.498829 -6.416472
v 13.938197 2.498829 -7.419930
v 13.938197 2.498829 -8.499929
v 12.299566 2.498829 -8.524374
v 12.195526 3.463121 -8.103155
v 14.016227 3.498829 -8.163786
v 12.195526 4.698829 -8.103155
v 14.016227 4.698829 -8.163786
v 12.299566 1.498829 -7.482646
v 13.938197 1.598829 -7.219930
v 13.938197 1.498829 -6.291040
v 12.299566 1.498829 -6.416472
v 12.299566 0.798829 -7.482646
v 13.938197 0.798829 -7.219930
v 13.938197 0.798829 -6.291040
v 12.299566 0.798829 -6.416472
v 12.341637 1.498829 -8.581841
v 13.980267 1.598829 -8.519125
v 12.341637 0.798829 -8.581841
v 13.980267 0.798829 -8.519125
v 15.936733 0.798829 -7.343439
v 15.978804 0.798829 -8.442634
v 14.076696 0.797396 -8.643177
v 14.059326 1.573403 -8.635976
v 14.076614 0.801149 -7.292422
v 14.059922 1.546768 -7.299992
v 14.076696 0.797396 -8.443177
v 14.059326 1.573403 -8.435976
v 13.974369 0.797396 -8.443177
v 13.956998 1.573403 -8.435976
v 13.951295 0.801149 -7.292422
v 13.934603 1.546768 -7.299992
v 13.951295 0.801149 -7.088351
v 13.934603 1.546768 -7.095921
v 13.974369 0.797396 -8.590792
v 13.956998 1.573403 -8.583590
v 13.958467 1.573403 -8.635976
v 13.959062 1.546768 -7.299992
v 13.958467 1.667036 -8.635976
v 13.959062 1.640401 -7.299992
vt -5.2195 -0.0052
vt -2.6190 1.7284
vt -5.2195 1.7284
vt -5.2195 3.4621
vt -10.4204 5.1957
vt -10.4204 3.4621
vt -2.6190 -0.0052
vt -0.0186 1.7284
vt 2.5819 2.5953
vt -0.0186 3.4621
vt -2.6190 3.4621
vt -0.0186 5.1957
vt -2.6190 5.1957
vt -3.9301 5.2008
vt -1.3297 6.9344
vt -3.9301 6.9344
vt -1.3297 5.2008
vt 3.3583 6.9344
vt -9.6334 6.9344
vt -10.4204 1.7284
vt -10.4204 -0.0052
vt -5.2195 5.1957
vt -12.6486 -0.0052
vt -12.6486 5.2008
vt -9.6334 5.2008
vt -12.6486 1.7284
vt -12.6486 3.4621
vt -10.4820 -5.1518
vt -10.4118 -2.8807
vt -11.5779 -3.9086
vt -8.4367 -1.2696
vt -9.5468 -0.0103
vt -8.7928 -7.0681
vt -9.3160 -4.1239
vt -11.4826 -1.6661
vt -12.6486 -2.6939
vt -9.2458 -1.8529
vt -7.6268 -6.0402
vt -8.1499 -3.0961
vt -4.6374 -3.2582
vt -7.3337 -2.3766
vt -5.6445 -4.2929
vt -6.4607 -5.0124
vt -6.1778 -1.1890
vt -3.1820 -1.8567
vt -4.9392 -0.0103
vt -0.7230 -7.0681
vt 0.9873 -4.5136
vt -1.0338 -4.5017
vt -2.2775 -5.2874
vt -1.0389 -4.1087
vt -0.0186 -0.0052
vt 2.5819 5.1957
vt 2.5819 -0.0052
vt 3.3583 5.2008
vt -12.6486 6.9344
vt -12.6486 5.1957
vt -8.4149 -1.2500
vt 0.9873 -7.0681
vt -0.1514 -6.8876
vt 0.9464 -3.2820
vt -0.1470 -3.2782
vt 0.9539 -1.6437
vt -0.0164 1.4466
vt -0.1350 -1.6279
vt -1.2458 -3.2762
vt -2.3527 -1.6264
vt -2.3463 -3.2782
vt -1.2422 -1.6224
vt -2.3874 1.3899
vt -2.3453 -6.8874
vt 0.9450 -8.7952
vt 0.9451 -6.8879
vt -1.2484 -8.7951
vt -2.3452 -9.3197
vt -1.2484 -9.3196
vt -0.1517 -9.3196
vt 0.9450 -9.3197
vt -0.1516 -8.7951
vt -1.2482 -6.8874
vt -1.2187 1.4510
vt -2.5612 3.2837
vt 2.9103 5.9564
vt 2.2751 3.9788
vt 3.5497 5.3710
vt -1.3034 3.5472
vt 0.4145 4.0513
vt 1.0375 1.3014
vt 1.6437 2.9612
vt 1.5486 4.6555
vt 1.3368 7.3588
vt 1.0086 6.1391
vt -2.4595 3.4169
vt -0.3306 4.2638
vt -1.3417 3.6598
vt -1.0315 6.0794
vt 0.0186 7.2230
vt 0.6279 6.1262
vt -2.3452 -8.7951
vt -1.1126 5.9330
vt 0.0000 0.0000
vt 0.0000 0.0000
vt 0.0000 0.0000
vt 0.0000 0.0000
vt 0.0000 0.0000
vt 0.0000 0.0000
vt 0.0000 0.0000
vt 0.0000 0.0000
vt 0.0000 0.0000
vt 0.0000 0.0000
vt 0.0000 0.0000
vt 4.3063 -0.0610
vt 6.3272 0.8116
vt 4.1273 2.3981
vt -0.0141 -0.0152
vt -9.6737 -2.5139
vt -12.1116 -3.2512
vt -11.2340 -4.1094
vt -0.1671 3.9715
vt -1.9838 0.2042
vt -10.4890 -0.1558
vt -11.2692 -0.9535
vt -8.1134 -0.9184
vt -8.0554 2.0509
vt -10.9055 1.8122
vt -2.1034 3.6586
vt -3.6331 0.5059
vt -12.1569 -4.5442
vt -11.9025 -4.7929
vt -7.5666 4.2624
vt -6.7547 4.5973
vt -7.5854 4.3015
vt -8.4447 3.8583
vt -9.5346 4.2232
vt -9.0028 3.4949
vt -6.3925 3.1683
vt -3.8149 5.4861
vt -5.3477 5.2088
vt -5.0945 0.7241
vt -6.3962 2.9923
vt -7.5677 4.2678
vt -7.5855 4.3100
vt -10.6070 3.3875
vt -10.0562 2.6807
vt -5.4797 5.2385
vt -7.0987 5.3703
vt -8.3848 3.9561
vt -6.7103 4.4949
vt -8.7018 4.6695
vt -8.3244 5.6059
vt -9.0187 5.3828
vt -7.8950 5.0324
vt -7.8964 5.0273
vt -7.7458 5.5527
vt -9.0072 4.6152
vt -8.5779 6.1766
vt -9.2405 5.8822
vt -6.3861 3.4322
vt -6.1931 3.6050
vt -6.3633 3.2645
vt -6.2333 3.5525
vt -6.3274 3.3185
vt -6.1972 3.3163
vt -6.3530 3.4150
vt -6.3137 3.4012
vt -6.2662 3.5054
vt -6.3001 3.3788
vt -6.3692 3.4277
vt -6.2276 3.5800
vt -6.3498 3.4314
vt -6.2504 3.5495
vt 6.5150 0.0107
vt -8.8935 -1.7161
vt -7.3332 -0.1206
vt -5.0945 0.7241
vt -5.8603 5.9942
vt -7.1833 4.7958
vt -6.1478 3.2781
vt -6.2432 3.5261
vt -6.2325 3.3538
vn 0.0000 -1.0000 0.0000
vn 0.0000 1.0000 0.0000
vn -0.8321 0.5547 0.0000
vn -0.4104 0.9119 0.0000
vn -0.6737 0.7390 0.0000
vn 1.0000 0.0000 0.0000
vn 0.0763 0.0000 -0.9971
vn 0.0606 -0.9982 0.0020
vn -0.8320 0.5547 0.0000
vn 0.0000 0.0000 1.0000
vn 0.0608 -0.9981 0.0023
vn -1.0000 0.0000 0.0000
vn 0.0095 0.9998 0.0165
vn 0.0000 0.9998 -0.0201
vn -0.0222 0.9883 0.1506
vn -0.0333 0.0000 -0.9994
vn 0.0108 -0.9999 0.0000
vn 0.0108 0.9999 0.0000
vn -0.1679 0.9857 0.0163
vn 0.0199 -0.9998 0.0089
vn -0.0373 0.2168 0.9755
vn -0.0382 0.0000 0.9993
vn 0.9993 0.0000 0.0382
vn -0.1583 0.0000 0.9874
vn -0.0000 0.0000 -1.0000
vn 0.0149 0.0096 -0.9998
vn 0.8211 -0.5708 0.0000
vn -0.0149 0.0000 0.9999
vn 0.9997 0.0224 -0.0000
vn 0.0000 -0.0093 1.0000
vn 0.0000 -0.0102 -0.9999
vn -0.9997 -0.0224 0.0000
vn 0.0000 -0.9998 -0.0199
vn -1.0000 0.0000 0.0004
vn 0.0073 0.0000 -1.0000
vn 0.0000 0.0093 -1.0000
usemtl Material.002
s off
f 219/585/29 244/586/29 240/587/29
f 239/588/29 213/589/29 236/590/29
f 222/591/29 248/592/29 244/586/29
f 248/592/29 232/593/29 247/594/29
f 243/595/29 227/596/29 223/597/29
f 244/586/29 247/594/29 243/595/29
f 242/598/30 245/599/30 241/600/30
f 246/601/31 249/602/31 245/599/31
f 238/603/32 242/598/32 241/600/32
f 219/585/29 235/604/29 215/605/29
f 240/587/29 236/590/29 235/604/29
f 239/588/29 223/597/29 217/606/29
f 240/587/29 243/595/29 239/588/29
f 235/604/29 256/607/29 215/605/29
f 238/603/33 258/608/33 237/609/33
f 236/590/29 257/610/29 235/604/29
f 213/589/29 251/611/29 236/590/29
f 274/612/34 278/613/34 271/614/34
f 278/613/30 279/615/30 283/616/30
f 273/617/35 281/618/35 274/612/35
f 271/614/34 284/619/34 277/620/34
f 281/618/34 289/621/34 278/613/34
f 280/622/35 292/623/35 281/618/35
f 294/624/30 296/625/30 295/626/30
f 291/627/35 296/625/35 292/623/35
f 293/628/30 300/629/30 299/630/30
f 289/631/36 298/632/36 290/633/36
f 300/629/30 301/634/30 302/635/30
f 219/585/29 222/591/29 244/586/29
f 239/588/29 217/606/29 213/589/29
f 222/591/29 226/636/29 248/592/29
f 230/637/29 227/596/29 247/594/29
f 248/592/29 226/636/29 229/638/29
f 230/637/29 247/594/29 232/593/29
f 248/592/29 229/638/29 232/593/29
f 243/595/29 247/594/29 227/596/29
f 244/586/29 248/592/29 247/594/29
f 242/598/30 246/601/30 245/599/30
f 246/601/37 250/639/37 249/602/37
f 238/603/32 237/609/32 242/598/32
f 219/585/29 240/587/29 235/604/29
f 240/587/29 239/588/29 236/590/29
f 239/588/29 243/595/29 223/597/29
f 240/587/29 244/586/29 243/595/29
f 235/604/29 257/610/29 256/607/29
f 238/603/33 254/640/33 258/608/33
f 236/590/29 251/611/29 257/610/29
f 213/589/29 252/641/29 251/611/29
f 274/612/34 281/618/34 278/613/34
f 283/616/30 284/619/30 278/613/30
f 279/615/38 282/642/38 283/616/38
f 273/617/35 280/622/35 281/618/35
f 271/614/34 278/613/34 284/619/34
f 281/618/34 292/623/34 289/621/34
f 280/622/35 291/627/35 292/623/35
f 294/624/30 293/628/30 296/625/30
f 291/627/35 295/626/35 296/625/35
f 293/628/30 294/624/30 300/629/30
f 289/631/39 297/643/39 298/632/39
f 300/629/30 294/624/30 301/634/30
usemtl Material
f 237/644/32 218/645/32 242/646/32
f 224/647/31 250/648/31 246/649/31
f 218/645/30 246/649/30 242/646/30
f 241/650/30 221/651/30 220/652/30
f 245/653/31 225/654/31 221/651/31
f 216/655/32 241/650/32 220/652/32
f 237/644/33 253/656/33 214/657/33
f 254/658/40 256/659/40 257/660/40
f 253/656/40 251/661/40 252/662/40
f 258/663/40 257/660/40 251/661/40
f 216/655/33 254/658/33 238/664/33
f 249/665/30 265/666/30 225/654/30
f 267/667/30 270/668/30 268/669/30
f 261/670/41 250/648/41 266/671/41
f 266/671/42 228/672/42 264/673/42
f 269/674/30 288/675/30 287/676/30
f 264/673/40 269/674/40 266/671/40
f 261/670/30 277/677/30 265/666/30
f 261/670/30 274/678/30 271/679/30
f 260/680/43 274/678/43 266/671/43
f 286/681/44 287/676/44 288/675/44
f 266/671/45 286/681/45 260/680/45
f 266/671/40 287/676/40 285/682/40
f 237/644/32 214/657/32 218/645/32
f 224/647/37 228/672/37 250/648/37
f 218/645/30 224/647/30 246/649/30
f 241/650/30 245/653/30 221/651/30
f 245/653/37 249/665/37 225/654/37
f 216/655/32 238/664/32 241/650/32
f 237/644/33 258/663/33 253/656/33
f 254/658/40 255/683/40 256/659/40
f 253/656/40 258/663/40 251/661/40
f 258/663/40 254/658/40 257/660/40
f 216/655/33 255/683/33 254/658/33
f 249/665/30 261/670/30 265/666/30
f 267/667/30 269/674/30 270/668/30
f 261/670/30 249/665/30 250/648/30
f 266/671/46 250/648/46 228/672/46
f 269/674/30 267/667/30 288/675/30
f 264/673/40 270/668/40 269/674/40
f 261/670/30 271/679/30 277/677/30
f 261/670/47 266/671/47 274/678/47
f 260/680/30 273/684/30 274/678/30
f 286/681/44 285/682/44 287/676/44
f 266/671/48 285/682/48 286/681/48
f 266/671/40 269/674/40 287/676/40
usemtl Material_NONE
f 292/685/34 293/686/34 289/687/34
f 278/688/49 290/689/49 279/690/49
f 297/691/50 300/692/50 298/693/50
f 293/686/51 297/691/51 289/687/51
f 292/685/34 296/694/34 293/686/34
f 278/688/52 289/687/52 290/689/52
f 297/691/50 299/695/50 300/692/50
f 293/686/51 299/695/51 297/691/51
usemtl Material.006
f 215/696/53 255/697/53 216/698/53
f 216/698/53 219/699/53 215/696/53
f 217/700/38 214/701/38 213/702/38
f 220/703/53 222/704/53 219/699/53
f 217/700/38 224/705/38 218/706/38
f 227/707/38 234/708/38 228/709/38
f 221/710/53 226/711/53 222/704/53
f 224/705/38 227/707/38 228/709/38
f 213/702/38 253/712/38 252/713/38
f 262/714/30 276/715/30 275/716/30
f 260/717/34 268/718/34 231/719/34
f 303/720/54 225/721/54 265/722/54
f 232/723/55 233/724/55 234/708/55
f 259/725/38 275/716/38 272/726/38
f 231/719/38 270/727/38 264/728/38
f 277/729/56 283/730/56 276/715/56
f 259/725/30 273/731/30 260/717/30
f 263/732/30 277/729/30 276/715/30
f 280/733/40 290/734/40 291/735/40
f 272/726/38 282/736/38 279/737/38
f 276/715/40 282/736/40 275/716/40
f 272/726/40 280/733/40 273/731/40
f 260/717/34 288/738/34 267/739/34
f 291/735/40 294/740/40 295/741/40
f 234/708/57 306/742/57 260/717/57
f 304/743/57 307/744/57 303/720/57
f 308/745/58 309/746/58 307/744/58
f 306/742/59 311/747/59 312/748/59
f 311/747/60 314/749/60 312/748/60
f 309/746/60 316/750/60 315/751/60
f 304/743/61 318/752/61 317/753/61
f 317/753/62 320/754/62 319/755/62
f 215/696/53 256/756/53 255/697/53
f 216/698/53 220/703/53 219/699/53
f 217/700/38 218/706/38 214/701/38
f 220/703/53 221/710/53 222/704/53
f 217/700/38 223/757/38 224/705/38
f 264/728/38 228/709/38 234/708/38
f 227/707/38 230/758/38 234/708/38
f 234/708/38 231/719/38 264/728/38
f 221/710/53 225/721/53 226/711/53
f 224/705/38 223/757/38 227/707/38
f 213/702/38 214/701/38 253/712/38
f 262/714/30 263/732/30 276/715/30
f 260/717/34 267/739/34 268/718/34
f 226/711/63 225/721/63 233/724/63
f 265/722/54 263/732/54 304/743/54
f 304/743/54 303/720/54 265/722/54
f 233/724/64 229/759/64 226/711/64
f 225/721/54 303/720/54 233/724/54
f 234/708/55 230/758/55 232/723/55
f 232/723/55 229/759/55 233/724/55
f 259/725/38 262/714/38 275/716/38
f 231/719/38 268/718/38 270/727/38
f 277/729/56 284/760/56 283/730/56
f 259/725/30 272/726/30 273/731/30
f 263/732/30 265/722/30 277/729/30
f 280/733/40 279/737/40 290/734/40
f 272/726/38 275/716/38 282/736/38
f 276/715/40 283/730/40 282/736/40
f 272/726/40 279/737/40 280/733/40
f 260/717/34 286/761/34 288/738/34
f 291/735/40 290/734/40 294/740/40
f 260/717/57 231/719/57 234/708/57
f 234/708/57 233/724/57 305/762/57
f 233/724/57 303/720/57 305/762/57
f 259/725/57 260/717/57 306/742/57
f 263/732/38 262/714/38 259/725/38
f 234/708/57 305/762/57 306/742/57
f 306/742/57 304/743/57 259/725/57
f 263/732/57 259/725/57 304/743/57
f 304/743/57 308/745/57 307/744/57
f 308/745/58 310/763/58 309/746/58
f 306/742/59 305/762/59 311/747/59
f 311/747/60 313/764/60 314/749/60
f 309/746/60 310/763/60 316/750/60
f 304/743/61 306/742/61 318/752/61
f 317/753/62 318/752/62 320/754/62
o Plane
v -15.000000 -2.000000 15.000000
v 15.000000 -1.700000 15.000000
v -15.000000 0.300000 -15.000000
v 15.000000 -2.600000 -15.000000
v -15.000000 -2.000000 0.000000
v 0.000000 -2.000000 15.000000
v 15.000000 -2.000000 0.000000
v 0.000000 -2.000000 -15.000000
v 0.000000 -2.000000 0.000000
v -15.000000 -2.000000 7.500000
v 7.500000 -1.800000 15.000000
v 15.000000 -2.400000 -7.500000
v -7.500000 -2.000000 -15.000000
v -15.000000 -0.700000 -7.500000
v -7.500000 -2.000000 15.000000
v 15.000000 -1.800000 7.500000
v 7.500000 -2.400000 -15.000000
v 0.000000 -1.700000 -7.500000
v 0.000000 -2.000000 7.500000
v -7.500000 -2.000000 0.000000
v 7.500000 -2.100000 0.000000
v 7.500000 -1.900000 7.500000
v -7.500000 -1.900000 7.500000
v -7.500000 -1.800000 -7.500000
v 7.500000 -2.300000 -7.500000
v -15.000000 -2.000000 11.250000
v 11.250000 -1.700000 15.000000
v 15.000000 -2.600000 -11.250000
v -11.250000 -1.700000 -15.000000
v -15.000000 -0.700000 -3.750000
v -3.750000 -2.000000 15.000000
v 15.000000 -2.000000 3.750000
v 3.750000 -2.000000 -15.000000
v 0.000000 -2.000000 -11.250000
v 0.000000 -2.000000 3.750000
v -11.250000 -2.000000 0.000000
v 3.750000 -2.100000 0.000000
v -15.000000 -2.000000 3.750000
v 3.750000 -2.000000 15.000000
v 15.000000 -2.000000 -3.750000
v -3.750000 -2.000000 -15.000000
v -15.000000 0.300000 -11.250000
v -11.250000 -2.000000 15.000000
v 15.000000 -1.700000 11.250000
v 11.250000 -2.600000 -15.000000
v 0.000000 -1.700000 -3.750000
v 0.000000 -2.000000 11.250000
v -3.750000 -2.000000 0.000000
v 11.250000 -2.000000 0.000000
v 7.500000 -2.200000 3.750000
v 7.500000 -1.800000 11.250000
v 3.750000 -2.000000 7.500000
v 11.250000 -1.900000 7.500000
v -7.500000 -2.000000 3.750000
v -7.500000 -1.900000 11.250000
v -11.250000 -2.000000 7.500000
v -3.750000 -1.900000 7.500000
v -7.500000 -1.800000 -11.250000
v -7.500000 -2.000000 -3.750000
v -11.250000 -1.500000 -7.500000
v -3.750000 -1.700000 -7.500000
v 7.500000 -2.400000 -11.250000
v 7.500000 -1.900000 -3.750000
v 3.750000 -2.000000 -7.500000
v 11.250000 -2.300000 -7.500000
v 11.250000 -1.900000 -3.750000
v 3.750000 -2.000000 -3.750000
v 3.750000 -2.000000 -11.250000
v -3.750000 -1.700000 -3.750000
v -11.250000 -1.700000 -3.750000
v -11.250000 -1.500000 -11.250000
v -3.750000 -1.900000 11.250000
v -11.250000 -2.000000 11.250000
v -11.250000 -2.000000 3.750000
v 11.250000 -1.700000 11.250000
v 3.750000 -2.000000 11.250000
v 3.750000 -2.100000 3.750000
v 11.250000 -2.100000 3.750000
v -3.750000 -2.000000 3.750000
v -3.750000 -2.000000 -11.250000
v 11.250000 -2.600000 -11.250000
v 7.500000 -1.850000 9.375000
v 9.375000 -1.900000 7.500000
v 11.250000 -1.800000 9.375000
v 9.375000 -1.750000 11.250000
v 9.375000 -1.825000 9.375000
vt -1.7532 3.5549
vt -2.5033 2.8072
vt -1.7546 2.8063
vt -1.7553 0.5513
vt -2.5092 -0.1965
vt -1.7578 -0.2005
vt 1.2524 0.5537
vt 0.5037 -0.2008
vt 1.2554 -0.1971
vt 1.2464 3.5506
vt 0.4983 2.8017
vt 1.2472 2.8020
vt 1.2502 1.3042
vt 0.4991 2.0524
vt 0.5001 1.3027
vt 2.3731 2.0566
vt 1.9987 2.0554
vt 2.0002 1.3061
vt 1.9957 3.5525
vt 1.9966 2.8039
vt 2.3713 2.8051
vt 1.2598 -0.9480
vt 0.5143 -1.7071
vt 1.2660 -1.6987
vt 2.7593 -0.9382
vt 2.0155 -1.6924
vt 2.7644 -1.6870
vt 2.7518 0.5594
vt 2.0060 -0.1934
vt 2.7551 -0.1896
vt -1.7597 -0.9558
vt -2.5233 -1.7002
vt -1.7669 -1.7171
vt -0.2448 -1.7185
vt -1.0034 -0.9587
vt -1.0058 -1.7183
vt -0.2521 0.5484
vt -1.0029 -0.2032
vt -0.2507 -0.2024
vt -1.7544 2.0564
vt -2.5044 1.3029
vt -1.7542 1.3020
vt -0.2514 2.0526
vt -1.0030 1.3020
vt -0.2513 1.3019
vt -0.2502 3.5505
vt -1.0035 2.8039
vt -0.2505 2.8018
vt -1.0050 2.0549
vt -1.0021 0.5486
vt 0.5014 0.5512
vt -2.5060 0.5534
vt -0.2464 -0.9580
vt 0.5080 -0.9534
vt -0.2617 -2.4984
vt -1.0100 -2.4893
vt 0.5263 -2.4559
vt -2.5287 -2.5477
vt -1.7817 -2.5561
vt 2.0103 -0.9429
vt 3.5036 -0.1857
vt 3.5079 -0.9338
vt 2.0215 -2.4410
vt 2.7697 -2.4354
vt 3.5128 -1.6820
vt 3.5180 -2.4302
vt 1.2736 -2.4474
vt 2.3722 2.4309
vt 1.9977 2.4297
vt 3.4940 2.8079
vt 2.7467 2.4320
vt 3.4957 2.0596
vt 3.4923 3.5561
vt 2.7460 2.8063
vt 2.7492 1.3082
vt 2.0025 0.5565
vt 3.4976 1.3105
vt 3.5003 0.5624
vt 1.2480 2.0536
vt -2.5146 -0.9472
vt -2.5039 2.0568
vt -1.0031 3.5531
vt 2.7475 2.0578
vt -2.5021 3.5561
vt 0.4982 3.5503
vt 2.7441 3.5544
vn 0.0000 1.0000 0.0000
vn -0.0266 0.9993 0.0266
vn -0.0266 0.9993 -0.0266
vn -0.0266 0.9982 -0.0532
vn -0.0267 0.9996 0.0000
vn 0.0267 0.9996 0.0000
vn 0.0796 0.9954 -0.0531
vn 0.0796 0.9954 0.0531
vn 0.1061 0.9944 0.0000
vn 0.0265 0.9940 -0.1060
vn 0.0000 0.9944 -0.1061
vn -0.0266 0.9982 0.0532
vn 0.0266 0.9993 0.0266
vn 0.0797 0.9968 0.0000
vn 0.0795 0.9937 0.0795
vn 0.0000 0.9996 0.0267
vn 0.0795 0.9937 -0.0795
vn -0.0796 0.9954 0.0531
vn 0.0000 0.9968 0.0797
vn 0.2086 0.9780 0.0000
vn 0.2443 0.9162 0.3176
vn 0.4327 0.9015 0.0000
vn 0.4207 0.8765 0.2337
vn 0.0000 0.9992 -0.0400
vn -0.0533 0.9986 0.0000
vn -0.0266 0.9974 -0.0665
vn 0.0000 0.9996 -0.0267
vn 0.0266 0.9993 -0.0266
vn 0.0532 0.9972 -0.0532
vn 0.0000 0.9968 -0.0797
vn 0.0533 0.9986 0.0000
vn 0.0266 0.9965 -0.0797
vn -0.0133 0.9996 -0.0267
vn -0.0133 0.9991 -0.0400
vn -0.0400 0.9992 0.0000
vn -0.0532 0.9982 -0.0266
vn 0.0000 0.9986 -0.0533
vn 0.0793 0.9912 -0.1057
vn 0.1060 0.9940 -0.0265
vn -0.0795 0.9937 0.0795
vn 0.2573 0.9650 0.0515
vn 0.4701 0.8814 -0.0470
vn -0.0133 0.9985 -0.0533
vn 0.0531 0.9954 -0.0796
vn -0.0266 0.9988 -0.0400
usemtl Material.001
s off
f 348/765/65 365/766/65 401/767/65
f 354/768/65 361/769/65 400/770/65
f 355/771/65 368/772/65 399/773/65
f 352/774/66 369/775/66 398/776/66
f 397/777/65 341/778/65 357/779/65
f 402/780/67 342/781/67 372/782/67
f 336/783/68 373/784/68 404/785/68
f 374/786/65 356/787/65 394/788/65
f 375/789/69 376/790/69 393/791/69
f 367/792/70 377/793/70 392/794/70
f 378/795/71 349/796/71 391/797/71
f 390/798/72 344/799/72 380/800/72
f 366/801/65 381/802/65 389/803/65
f 382/804/73 353/805/73 388/806/73
f 383/807/69 384/808/69 387/809/69
f 360/810/74 385/811/74 386/812/74
f 386/812/75 345/813/75 383/807/75
f 369/775/76 383/807/76 341/778/76
f 369/775/77 360/810/77 386/812/77
f 387/809/78 338/814/78 366/801/78
f 329/815/79 387/809/79 366/801/79
f 341/778/80 387/809/80 357/779/80
f 388/806/65 328/816/65 354/768/65
f 384/808/81 354/768/81 338/814/81
f 345/813/78 388/806/78 384/808/78
f 389/803/82 344/799/82 379/817/82
f 368/772/65 379/817/65 340/818/65
f 329/815/83 389/803/83 368/772/83
f 350/819/84 380/800/84 334/820/84
f 325/821/85 390/798/85 350/819/85
f 356/787/79 379/817/79 390/798/79
f 391/797/86 323/822/86 362/823/86
f 334/820/87 391/797/87 362/823/87
f 344/799/78 391/797/78 380/800/78
f 392/794/65 343/824/65 375/789/65
f 351/825/80 375/789/80 335/826/80
f 351/825/77 367/792/77 392/794/77
f 393/791/65 330/827/65 346/828/65
f 363/829/65 346/828/65 321/830/65
f 335/826/65 393/791/65 363/829/65
f 394/788/65 325/821/65 358/831/65
f 376/790/65 358/831/65 330/827/65
f 376/790/65 374/786/65 394/788/65
f 406/832/88 373/784/88 403/833/88
f 347/834/69 405/835/69 331/836/69
f 322/837/65 395/838/65 347/834/65
f 396/839/65 339/840/65 367/792/65
f 359/841/65 367/792/65 326/842/65
f 331/836/89 396/839/89 359/841/89
f 397/777/70 329/815/70 355/771/70
f 372/782/65 355/771/65 339/840/65
f 342/781/67 397/777/67 372/782/67
f 398/776/66 341/778/66 370/843/66
f 403/833/90 398/776/90 370/843/90
f 373/784/68 352/774/68 398/776/68
f 399/773/65 340/818/65 374/786/65
f 377/793/91 374/786/91 343/824/91
f 339/840/92 399/773/92 377/793/92
f 400/770/93 333/844/93 378/795/93
f 381/802/69 378/795/69 344/799/69
f 338/814/94 400/770/94 381/802/94
f 401/767/95 337/845/95 382/804/95
f 385/811/91 382/804/91 345/813/91
f 332/846/96 401/767/96 385/811/96
f 371/847/97 406/832/97 402/780/97
f 405/835/98 404/785/98 406/832/98
f 348/765/65 324/848/65 365/766/65
f 354/768/65 328/816/65 361/769/65
f 355/771/65 329/815/65 368/772/65
f 352/774/65 327/849/65 369/775/65
f 397/777/77 370/843/77 341/778/77
f 372/782/99 396/839/99 402/780/99
f 371/847/100 402/780/100 396/839/100
f 404/785/101 395/838/101 364/850/101
f 364/850/97 336/783/97 404/785/97
f 374/786/65 340/818/65 356/787/65
f 375/789/69 343/824/69 376/790/69
f 367/792/70 339/840/70 377/793/70
f 378/795/71 333/844/71 349/796/71
f 390/798/72 379/817/72 344/799/72
f 366/801/65 338/814/65 381/802/65
f 382/804/73 337/845/73 353/805/73
f 383/807/102 345/813/102 384/808/102
f 360/810/74 332/846/74 385/811/74
f 386/812/75 385/811/75 345/813/75
f 369/775/80 386/812/80 383/807/80
f 369/775/65 327/849/65 360/810/65
f 387/809/78 384/808/78 338/814/78
f 329/815/77 357/779/77 387/809/77
f 341/778/76 383/807/76 387/809/76
f 388/806/65 353/805/65 328/816/65
f 384/808/65 388/806/65 354/768/65
f 345/813/103 382/804/103 388/806/103
f 389/803/69 381/802/69 344/799/69
f 368/772/104 389/803/104 379/817/104
f 329/815/83 366/801/83 389/803/83
f 350/819/105 390/798/105 380/800/105
f 325/821/83 356/787/83 390/798/83
f 356/787/65 340/818/65 379/817/65
f 391/797/106 349/796/106 323/822/106
f 334/820/84 380/800/84 391/797/84
f 344/799/78 378/795/78 391/797/78
f 392/794/65 377/793/65 343/824/65
f 351/825/80 392/794/80 375/789/80
f 351/825/65 326/842/65 367/792/65
f 393/791/65 376/790/65 330/827/65
f 363/829/65 393/791/65 346/828/65
f 335/826/66 375/789/66 393/791/66
f 394/788/65 356/787/65 325/821/65
f 376/790/65 394/788/65 358/831/65
f 376/790/67 343/824/67 374/786/67
f 406/832/107 404/785/107 373/784/107
f 371/847/69 331/836/69 405/835/69
f 347/834/69 395/838/69 405/835/69
f 322/837/65 364/850/65 395/838/65
f 396/839/65 372/782/65 339/840/65
f 359/841/65 396/839/65 367/792/65
f 331/836/89 371/847/89 396/839/89
f 397/777/70 357/779/70 329/815/70
f 372/782/92 397/777/92 355/771/92
f 342/781/96 370/843/96 397/777/96
f 398/776/66 369/775/66 341/778/66
f 370/843/94 342/781/94 403/833/94
f 403/833/101 373/784/101 398/776/101
f 373/784/68 336/783/68 352/774/68
f 399/773/65 368/772/65 340/818/65
f 377/793/91 399/773/91 374/786/91
f 339/840/65 355/771/65 399/773/65
f 400/770/65 361/769/65 333/844/65
f 381/802/108 400/770/108 378/795/108
f 338/814/94 354/768/94 400/770/94
f 401/767/95 365/766/95 337/845/95
f 385/811/108 401/767/108 382/804/108
f 332/846/101 348/765/101 401/767/101
f 371/847/109 405/835/109 406/832/109
f 405/835/68 395/838/68 404/785/68
o Cube.003_Cube.006
v 0.800000 4.500000 1.000000
v 5.400000 4.900000 1.000000
v 0.800000 4.500000 -1.000000
v 5.400000 4.900000 -1.000000
v 5.400000 4.500000 1.000000
v 0.800000 4.900000 1.000000
v 5.400000 4.500000 -1.000000
v 0.800000 4.900000 -1.000000
vt -5.7370 0.0837
vt -2.4496 0.0837
vt -2.4496 3.3711
vt 0.9617 3.3492
vt -2.3250 3.4179
vt -2.3938 0.1313
vt -5.6600 -3.2807
vt -2.3726 -3.2807
vt -2.3726 0.0067
vt -2.3084 -3.3963
vt 0.9790 -3.3963
vt 0.9790 -0.1089
vt 1.0946 -0.0576
vt 4.3820 -0.0576
vt 4.3820 3.2298
vt 4.4064 3.3595
vt 1.1190 3.3570
vt 1.1215 0.0696
vt 1.1973 -3.4862
vt 4.4847 -3.4862
vt 4.4847 -0.1988
vt 4.4660 -0.1694
vt 1.1793 -0.1033
vt 1.1132 -3.3900
vt -2.7903 -0.0638
vt -6.0775 -0.0258
vt -6.1154 -3.3130
vt -2.4833 3.4402
vt -5.7676 3.5814
vt -5.9088 0.2971
vt 0.9676 -0.0294
vt -2.3196 -0.0600
vt -2.2890 -3.3472
vt -2.2955 -0.0190
vt 0.9918 -0.0190
vt 0.9918 3.2683
vn -1.0000 0.0000 0.0000
vn 0.0000 0.0000 -1.0000
vn 0.0000 1.0000 0.0000
vn 0.0000 -1.0000 0.0000
vn 1.0000 0.0000 0.0000
vn 0.0000 0.0000 1.0000
usemtl Material.002
s off
f 407/851/110 414/852/110 409/853/110
f 409/854/111 414/855/111 413/856/111
f 414/857/112 412/858/112 410/859/112
f 407/860/113 413/861/113 411/862/113
f 409/863/113 413/864/113 407/865/113
f 412/866/112 408/867/112 410/868/112
f 413/869/114 408/870/114 411/871/114
f 411/872/115 408/873/115 407/874/115
f 407/875/115 408/876/115 412/877/115
f 414/878/110 407/879/110 412/880/110
f 413/881/111 414/882/111 410/883/111
f 408/884/114 413/885/114 410/886/114
o Cube.002_Cube.005
v 6.400000 1.500000 1.000000
v 8.400000 1.800000 1.000000
v 6.400000 1.500000 -1.000000
v 8.400000 1.800000 -1.000000
v 8.400000 1.500000 1.000000
v 6.400000 1.800000 1.000000
v 8.400000 1.500000 -1.000000
v 6.400000 1.800000 -1.000000
vt 1.7135 0.9922
vt 2.0646 -0.8806
vt 2.0646 0.9922
vt 2.4158 -0.8806
vt 2.0646 0.9922
vt 1.0112 0.9922
vt -1.3299 0.9922
vt 1.0112 -0.8806
vt 1.0112 0.9922
vt -1.3299 2.8650
vt -1.3299 0.9922
vt 1.0112 2.8650
vt -1.3299 -0.8806
vt 1.7135 -0.8806
vt 1.3623 0.9922
vt 1.3623 -0.8806
vt 1.3623 -0.8806
vt 1.0112 -0.8806
vt 1.7135 -0.8806
vt 2.4158 0.9922
vt 1.7135 0.9922
vt 1.3623 0.9922
vn -1.0000 0.0000 0.0000
vn 0.0000 0.0000 -1.0000
vn 0.0000 1.0000 0.0000
vn 0.0000 -1.0000 0.0000
vn 1.0000 0.0000 0.0000
vn 0.0000 0.0000 1.0000
usemtl Material.002
s off
f 420/887/116 417/888/116 415/889/116
f 422/890/117 421/891/117 417/888/117
f 422/892/118 420/893/118 418/894/118
f 415/895/119 421/896/119 419/897/119
f 417/898/119 421/896/119 415/895/119
f 420/893/118 416/899/118 418/894/118
f 418/900/120 419/901/120 421/902/120
f 416/903/121 415/895/121 419/904/121
f 420/887/116 422/905/116 417/888/116
f 422/890/117 418/906/117 421/891/117
f 418/900/120 416/907/120 419/901/120
f 416/903/121 420/908/121 415/895/121
o Cube.001_Cube.004
v 0.800000 1.500000 0.810000
v 0.800000 4.500000 0.810000
v 0.800000 1.500000 -0.810000
v 0.800000 4.500000 -0.810000
v 6.370000 1.500000 0.810000
v 6.370000 4.500000 0.810000
v 6.370000 1.500000 -0.810000
v 6.370000 4.500000 -0.810000
v 0.800000 1.500000 0.972000
v 0.800000 4.500000 0.972000
v 6.370000 4.500000 0.972000
v 6.370000 1.500000 0.972000
v 0.800000 4.500000 -0.972000
v 0.800000 1.500000 -0.972000
v 6.370000 1.500000 -0.972000
v 6.370000 4.500000 -0.972000
vt 1.0717 -1.7318
vt 3.8351 -1.7318
vt 3.8351 1.0316
vt -4.5739 -1.6670
vt -1.8105 -1.6670
vt -1.8105 1.0964
vt -4.6279 -4.5923
vt -1.8645 -4.5923
vt -1.8645 -1.8289
vt -1.8321 -4.6895
vt 0.9313 -4.6895
vt 0.9313 -1.9261
vt 1.1040 -4.6247
vt 3.8674 -4.6247
vt 3.8674 -1.8613
vt 1.0393 1.0424
vt 3.8027 1.0424
vt 3.8027 3.8058
vt 3.8161 1.0614
vt 1.0527 1.0450
vt 1.0690 -1.7183
vt -1.8767 1.1517
vt -4.6400 1.1273
vt -4.6156 -1.6360
vt -1.9945 -1.7212
vt -4.7572 -1.7863
vt -4.6921 -4.5489
vt 0.9795 -1.8447
vt -1.7839 -1.8348
vt -1.7939 -4.5981
vt 3.8181 -1.8444
vt 1.0547 -1.8351
vt 1.0454 -4.5985
vt 3.7879 3.8961
vt 1.0245 3.9098
vt 1.0109 1.1464
vt 3.9970 -1.6994
vt 6.7604 -1.6994
vt 6.7604 1.0640
vt 1.0177 -1.7534
vt -1.7457 1.0100
vt -1.7457 -1.7534
vt 3.8674 1.1720
vt 6.6309 1.1720
vt 6.6309 3.9354
vt 0.9637 1.0640
vt -1.7997 3.8274
vt -1.7997 1.0640
vt 4.0833 -4.7003
vt 6.8468 -4.7003
vt 6.8468 -1.9369
vt 6.6667 1.1145
vt 3.9033 1.0998
vt 3.9180 -1.6635
vt 6.7885 -1.8681
vt 4.0253 -1.8332
vt 3.9905 -4.5964
vt -4.6387 1.1828
vt -1.8753 1.1828
vt -1.8753 3.9462
vt 6.6937 4.1315
vt 3.9304 4.1061
vt 3.9558 1.3428
vt -1.9678 3.9630
vt -4.7311 3.9939
vt -4.7620 1.2307
vt 1.0177 1.0100
vt 0.9637 3.8274
vn 0.0000 0.0000 1.0000
vn 0.0000 0.0000 -1.0000
vn 0.0000 -1.0000 0.0000
vn -1.0000 0.0000 0.0000
vn 0.0000 1.0000 0.0000
vn 1.0000 0.0000 0.0000
usemtl Material.002
s off
f 425/909/122 429/910/122 430/911/122
f 427/912/123 423/913/123 428/914/123
f 434/915/122 433/916/122 431/917/122
f 423/918/123 424/919/123 428/920/123
f 430/921/122 426/922/122 425/923/122
f 431/924/122 433/925/122 432/926/122
f 423/927/124 427/928/124 431/929/124
f 424/930/125 423/931/125 432/932/125
f 428/933/126 424/934/126 433/935/126
f 427/936/127 428/937/127 434/938/127
f 436/939/123 438/940/123 437/941/123
f 438/942/123 436/943/123 435/944/123
f 430/945/127 429/946/127 438/947/127
f 425/948/124 437/949/124 429/950/124
f 426/951/126 430/952/126 435/953/126
f 426/954/125 436/955/125 425/956/125
f 434/957/127 428/958/127 433/959/127
f 438/960/127 429/961/127 437/962/127
f 433/963/126 424/964/126 432/965/126
f 435/966/126 430/967/126 438/968/126
f 431/969/124 427/970/124 434/971/124
f 432/972/125 423/973/125 431/974/125
f 425/948/124 436/975/124 437/949/124
f 426/954/125 435/976/125 436/955/125
o Cube_Cube.003
v -1.000000 -2.000000 1.000000
v -1.000000 0.000000 1.000000
v -2.200000 -1.000000 -1.000000
v -2.200000 -2.000000 -1.000000
v 1.000000 -2.000000 1.000000
v -1.000000 -1.000000 -1.000000
v 1.000000 1.500000 -1.000000
v 0.000000 1.500000 -1.000000
v 0.000000 0.000000 1.000000
v 0.000000 0.000000 -1.000000
v 0.000000 1.500000 1.000000
v 1.000000 1.500000 1.000000
v 1.000000 -2.000000 -1.000000
v -1.000000 -1.000000 1.000000
v -2.200000 -2.000000 1.000000
v -1.000000 0.000000 -1.000000
v -1.000000 -2.000000 -1.000000
v -2.200000 -1.000000 1.000000
v 1.000000 0.000000 -1.000000
vt -2.4195 1.2842
vt -2.8766 1.2842
vt -2.4195 -0.0237
vt -3.5165 -2.2036
vt -4.2021 -0.0237
vt -4.2021 -2.2036
vt 1.0085 2.1561
vt -0.8197 2.1561
vt -0.8197 -0.0237
vt -2.4195 3.4640
vt -3.3336 2.3741
vt -1.5053 -2.2036
vt -1.5053 -0.0237
vt -2.4195 -2.2036
vt -0.5912 -0.0237
vt -0.5912 -2.2036
vt 0.3229 -2.2036
vt -4.0192 1.2842
vt -4.0192 3.4640
vt -4.4763 3.4640
vt -1.9624 1.2842
vt -2.4195 3.4640
vt -2.4195 1.2842
vt -2.4195 -0.0237
vt -1.9624 -0.0237
vt -1.5053 1.2842
vt -1.5053 2.3741
vt -3.3336 1.2842
vt -2.8766 -0.0237
vt 1.0085 3.4640
vt -0.8197 3.4640
vt -1.5053 -0.0237
vt -1.5053 -2.2036
vt -0.5912 -0.0237
vt -3.5165 -0.0237
vt -3.5164 -2.2036
vt -2.4195 -0.0237
vt -4.2021 -2.2036
vt -4.6591 -0.0237
vt -4.6591 -2.2036
vt -4.0192 2.3741
vt -4.0192 3.4640
vt -1.5053 3.4640
vt -0.8197 2.3741
vt -0.8197 3.4640
vt 1.0085 -0.0237
vt 1.0085 -2.2036
vt -0.5912 -2.2036
vt -2.4195 -0.0237
vt -2.4195 -2.2036
vt -4.2021 -0.0237
vt -4.4763 1.2842
vt -3.5165 -0.0237
vt 1.0085 -0.0237
vn 0.0000 0.0000 1.0000
vn -1.0000 0.0000 0.0000
vn 0.0000 -1.0000 0.0000
vn 0.0000 1.0000 0.0000
vn 1.0000 0.0000 0.0000
vn 0.0000 0.0000 -1.0000
usemtl Material
s off
f 439/977/128 452/978/128 453/979/128
f 449/980/129 448/981/129 447/982/129
f 439/983/130 455/984/130 451/985/130
f 443/986/128 447/987/128 452/978/128
f 450/988/131 445/989/131 449/990/131
f 443/991/132 451/992/132 457/993/132
f 456/994/129 441/995/129 442/996/129
f 444/997/133 451/998/133 455/999/133
f 442/1000/133 441/1001/133 444/997/133
f 444/997/133 454/1002/133 448/1003/133
f 451/998/133 444/997/133 448/1003/133
f 455/999/133 442/1000/133 444/997/133
f 452/978/128 447/987/128 440/1004/128
f 453/979/128 452/978/128 456/1005/128
f 453/1006/130 442/1007/130 439/983/130
f 452/978/128 439/977/128 443/986/128
f 447/1008/131 448/1009/131 440/1010/131
f 452/1011/131 444/1012/131 456/1013/131
f 440/1014/129 444/1015/129 452/1016/129
f 449/1017/128 447/987/128 450/1018/128
f 450/1018/128 447/987/128 443/986/128
f 451/998/133 448/1003/133 457/1019/133
f 446/1020/133 445/1021/133 448/1003/133
f 457/1019/133 448/1003/133 445/1021/133
f 443/991/132 457/993/132 450/1022/132
f 445/1023/132 450/1022/132 457/993/132
f 440/1010/131 448/1009/131 454/1024/131
f 449/990/131 445/989/131 446/1025/131
f 456/1013/131 444/1012/131 441/1026/131
f 444/1015/129 440/1014/129 454/1027/129
f 442/996/129 453/1028/129 456/994/129
f 448/981/129 449/980/129 446/1029/129
f 451/985/130 443/1030/130 439/983/130
f 439/983/130 442/1007/130 455/984/130
