# Blender MTL File: 'level 2.blend'
# Material Count: 10

newmtl Material
collisionType 0 0 0
Ns 96.078431
Ka 1.000000 1.000000 1.000000
Kd 0.640000 0.079959 0.039046
Ks 0.500000 0.500000 0.500000
Ke 0.000000 0.000000 0.000000
Ni 1.000000
d 1.000000
illum 2
map_Kd smug textures\corey 64.jpg

newmtl Material.001
collisionType 0 0 0
Ns 96.078431
Ka 1.000000 1.000000 1.000000
Kd 0.091948 0.091948 0.091948
Ks 0.500000 0.500000 0.500000
Ke 0.000000 0.000000 0.000000
Ni 1.000000
d 1.000000
illum 2
map_Kd rock side.png

newmtl Material.002
collisionType 0 0 0
Ns 96.078431
Ka 1.000000 1.000000 1.000000
Kd 0.640000 0.138451 0.037988
Ks 0.500000 0.500000 0.500000
Ke 0.000000 0.000000 0.000000
Ni 1.000000
d 1.000000
illum 2
map_Kd dirty dirrt.png

newmtl Material.002_beautiful_flowr.png
collisionType 0 0 0
Ns 96.078431
Ka 1.000000 1.000000 1.000000
Kd 0.640000 0.138451 0.037988
Ks 0.500000 0.500000 0.500000
Ke 0.000000 0.000000 0.000000
Ni 1.000000
d 1.000000
illum 2
map_Kd beautiful flowr.png

newmtl Material.003
collisionType 0 0 0
Ns 96.078431
Ka 1.000000 1.000000 1.000000
Kd 0.016015 0.640000 0.004095
Ks 0.500000 0.500000 0.500000
Ke 0.000000 0.000000 0.000000
Ni 1.000000
d 1.000000
illum 2
map_Kd beautiful flowr.png

newmtl Material.004
collisionType 21 0 0
Ns 96.078431
Ka 1.000000 1.000000 1.000000
Kd 0.640000 0.492439 0.050865
Ks 0.500000 0.500000 0.500000
Ke 0.000000 0.000000 0.000000
Ni 1.000000
d 1.000000
illum 2
map_Kd idk lol.png

newmtl Material.005
collisionType 1 0 0
Ns 96.078431
Ka 1.000000 1.000000 1.000000
Kd 0.640000 0.013932 0.006001
Ks 0.500000 0.500000 0.500000
Ke 0.000000 0.000000 0.000000
Ni 1.000000
d 1.000000
illum 2
map_Kd lava.png

newmtl Material.006
collisionType 0 0 0
Ns 96.078431
Ka 1.000000 1.000000 1.000000
Kd 0.640000 0.152276 0.013724
Ks 0.500000 0.500000 0.500000
Ke 0.000000 0.000000 0.000000
Ni 1.000000
d 1.000000
illum 2
map_Kd orange star.png

newmtl Material.007
collisionType 19 0 0
Ns 96.078431
Ka 1.000000 1.000000 1.000000
Kd 0.033694 0.640000 0.551540
Ks 0.500000 0.500000 0.500000
Ke 0.000000 0.000000 0.000000
Ni 1.000000
d 1.000000
illum 2
map_Kd wet thing.png

newmtl Material.008
collisionType 0 0 0
Ns 96.078431
Ka 1.000000 1.000000 1.000000
Kd 0.640000 0.640000 0.640000
Ks 0.500000 0.500000 0.500000
Ke 0.000000 0.000000 0.000000
Ni 1.000000
d 1.000000
illum 2
map_Kd smug textures\17.png
