# Blender v2.78 (sub 0) OBJ File: 'overworld.blend'
# www.blender.org
mtllib overworld.mtl
o Cube
v 5.932172 -0.090833 -5.889544
v 6.370847 -0.090833 7.698158
v -6.742325 -0.090833 7.965445
v -5.932170 -0.090833 -5.889546
v 5.932175 1.026525 -5.889541
v 6.370843 1.026525 7.698161
v -6.742326 1.026525 7.965445
v -5.932171 1.026525 -5.889544
v 1.977391 -0.090833 -7.950757
v -1.977389 -0.090833 -7.950757
v 1.977391 -0.090833 8.452004
v -1.977391 -0.090833 8.456105
v 1.977392 1.026525 -7.950754
v -1.977389 1.026525 -7.950755
v 1.977387 1.026525 8.252006
v -1.977393 1.026525 8.456106
v 7.230501 -0.090833 -1.963181
v 7.230501 -0.090833 1.963182
v -7.827402 -0.090833 1.963180
v -7.827401 -0.090833 -1.963184
v 7.230502 0.746016 -1.963178
v 7.230500 0.746016 1.963185
v -7.827404 0.746016 1.963180
v -7.827403 0.746016 -1.963182
v 1.977391 1.647417 -3.337320
v 1.977389 1.647417 1.276113
v -1.977391 1.647417 -3.337322
v -1.977392 1.647417 1.276111
v 1.977391 -0.674026 1.276110
v 1.977391 -0.674026 -3.337323
v -1.977391 -0.674026 1.276110
v -1.977390 -0.674026 -3.337323
v 7.020012 -0.090833 3.926363
v 7.020010 1.026525 3.926366
v 1.977388 1.521791 4.276936
v -1.977393 1.521791 4.276935
v -7.689939 -0.090833 3.926362
v -7.689941 1.026525 3.926361
v 1.977391 -1.611844 4.276935
v -1.977391 -1.611844 4.276934
v -6.879785 -0.090833 -3.926365
v -6.879787 1.026525 -3.926363
v 1.977391 -0.382430 -5.644040
v -1.977389 -0.382430 -5.644040
v 6.581337 -0.090833 -3.926363
v 6.581338 1.026525 -3.926360
v 1.977391 1.521791 -5.644037
v -1.977390 1.521791 -5.644038
v 1.977392 -0.090817 -10.590489
v -1.977388 -0.090817 -10.590489
v 1.977393 1.026541 -10.590487
v -1.977389 1.026541 -10.590488
v 4.571133 -0.090809 -15.129537
v 0.616353 -0.090809 -15.129537
v 4.571134 1.026549 -15.129534
v 0.616353 1.026549 -15.129535
v 2.892832 -0.090802 -17.837708
v -1.061949 -0.090802 -17.837708
v 2.892833 1.026555 -17.837706
v -1.061949 1.026555 -17.837706
v 0.502041 -0.090799 -20.812880
v -3.452740 -0.090799 -20.812880
v 0.502041 1.026559 -20.812876
v -3.452740 1.026559 -20.812880
v 2.358827 -0.090795 -24.703491
v -1.595953 -0.090795 -24.703491
v 2.358828 1.026562 -24.703489
v -1.595954 1.026562 -24.703491
v 3.544836 -0.068846 -29.671778
v -2.781959 -0.068846 -29.671778
v 3.544837 1.004620 -29.671776
v -2.781960 1.004620 -29.671778
v 3.482486 -0.090778 -36.337273
v -2.719608 -0.090778 -36.337273
v 3.423440 0.891669 -36.374702
v -2.597875 0.891669 -36.374706
v 3.423440 5.879123 -36.374702
v -2.597875 5.879123 -36.374706
v 9.932875 -0.090832 -1.963180
v 9.932875 -0.090832 1.963182
v 9.932876 0.746017 -1.963178
v 9.932874 0.746017 1.963186
v 13.953478 1.556958 -1.963179
v 13.953478 1.556958 1.963184
v 13.953480 2.393807 -1.963176
v 13.953477 2.393807 1.963187
v 16.721762 1.556958 -1.963178
v 16.721762 1.556958 1.963185
v 16.721764 2.393807 -1.963175
v 16.721762 2.393807 1.963188
v 20.017338 3.929767 -1.963176
v 20.017338 3.929767 1.963186
v 20.017340 4.766616 -1.963174
v 20.017338 4.766616 1.963189
v 23.972031 4.720697 -1.963175
v 23.972031 4.720697 1.963188
v 23.972033 5.557546 -1.963172
v 23.972031 5.557546 1.963191
v 27.597164 3.468373 -1.963174
v 27.597164 3.468373 1.963189
v 27.597168 4.305222 -1.963171
v 27.597164 4.305222 1.963192
v 30.035894 1.754668 -1.963173
v 30.035894 1.754668 1.963190
v 30.035896 2.591517 -1.963170
v 30.035894 2.591517 1.963193
v 32.408710 0.370522 -1.963172
v 32.408710 0.370522 1.963191
v 32.408710 1.207371 -1.963169
v 32.408710 1.207371 1.963194
v 36.616058 0.863372 -4.485875
v 36.616058 0.863372 4.485894
v 36.616062 1.485640 -4.485868
v 36.616058 1.485640 4.485899
v 44.778591 0.863353 -4.485874
v 44.778591 0.863353 4.485894
v 44.778591 1.359247 -4.521975
v 44.778591 1.359247 4.449793
v 44.778591 10.259110 -4.521975
v 44.778591 10.259110 4.449793
v -12.111650 -0.090844 1.963179
v -12.111650 -0.090844 -1.963184
v -12.111653 0.746005 1.963179
v -12.111652 0.746005 -1.963183
v -15.341317 -0.090852 -0.673283
v -15.341317 -0.090852 -4.599646
v -15.341320 0.745997 -0.673283
v -15.341319 0.745997 -4.599645
v -18.307335 2.018307 -0.673283
v -18.307335 2.018307 -4.599647
v -18.307339 2.855156 -0.673283
v -18.307337 2.855156 -4.599645
v -23.843904 2.018292 -0.673285
v -23.843904 2.018292 -4.599648
v -23.843904 2.855141 -0.673285
v -23.843904 2.855141 -4.599647
v -26.282631 0.040947 -0.673285
v -26.282631 0.040947 -4.599648
v -26.282631 0.877795 -0.673285
v -26.282631 0.877795 -4.599647
v -30.369146 0.040947 -0.673285
v -30.369146 0.040947 -4.599648
v -30.369146 0.877795 -0.673285
v -30.369146 0.877795 -4.599647
v -33.994282 0.040947 -0.673285
v -33.994282 0.040947 -4.599648
v -33.994282 0.877795 -0.673285
v -33.994282 0.877795 -4.599647
v -30.369146 -4.996070 -0.673285
v -30.369146 -4.996070 -4.599648
v -33.994282 -4.996070 -0.673285
v -33.994282 -4.996070 -4.599648
v -30.369146 -6.994975 -0.673285
v -30.369146 -6.994975 -4.599648
v -33.994282 -6.994975 -0.673285
v -33.994282 -6.994975 -4.599648
v -25.626034 -4.996070 -0.673285
v -25.626034 -4.996070 -4.599648
v -25.626034 -6.994975 -0.673285
v -25.626034 -6.994975 -4.599648
v -21.655319 -4.996070 -0.673285
v -21.655319 -4.996070 -4.599648
v -21.655319 -6.994975 -0.673285
v -21.655319 -6.994975 -4.599648
v -19.407076 -4.996070 -0.673285
v -19.407076 -4.996070 -4.599648
v -19.407076 -6.994975 -0.673285
v -19.407076 -6.994975 -4.599648
v -21.655319 -11.104075 -0.673285
v -21.655319 -11.104075 -4.599648
v -19.407076 -11.104075 -0.673285
v -19.407076 -11.104075 -4.599648
v -21.655319 -12.636568 -0.673285
v -21.655319 -12.636568 -4.599648
v -19.407076 -12.636568 -0.673285
v -19.407076 -12.636568 -4.599648
v -25.763834 -11.104075 -0.673285
v -25.763834 -11.104075 -4.599648
v -25.763834 -12.636568 -0.673285
v -25.763834 -12.636568 -4.599648
v -32.258327 -11.104075 -0.673285
v -32.258327 -11.104075 -4.599648
v -32.258327 -12.636568 -0.673285
v -32.258327 -12.636568 -4.599648
v -35.310188 -10.627748 1.168697
v -35.310188 -10.627748 -6.441631
v -35.310188 -11.946693 1.168697
v -35.310188 -11.946693 -6.441631
v -42.627968 -10.770309 1.288914
v -42.627968 -10.770309 -6.700538
v -42.627968 -11.946693 1.168697
v -42.627968 -11.946693 -6.441631
v -42.627968 -2.809234 1.288914
v -42.627968 -2.809234 -6.700538
v -30.369146 3.302866 2.375993
v -30.369146 3.302866 -7.648927
v -30.369146 6.195252 2.375993
v -30.369146 6.195252 -7.648923
v -30.369146 -11.786627 2.375993
v -30.369146 -11.786627 -7.648927
v -21.585941 0.877795 -0.673285
v -21.585941 0.877795 -4.599647
v -21.585941 0.040947 -0.673285
v -21.585941 0.040947 -4.599648
v -21.585941 -4.996070 -4.599648
v -21.585941 -4.996070 -0.673285
v -21.585941 6.195252 2.375993
v -21.585941 6.195252 -7.648923
v -21.585941 3.302866 2.375993
v -21.585941 3.302866 -7.648927
v -21.585941 -11.786627 -7.648927
v -21.585941 -11.786627 2.375993
v -30.369146 5.444820 -0.673285
v -30.369146 5.444820 -4.599647
v -21.585941 5.444820 -0.673285
v -21.585941 5.444820 -4.599647
v 1.980504 -3.007234 7.254678
v -1.974278 -3.007234 7.198684
v 1.980504 -3.298831 4.397588
v -1.974277 -3.298831 4.397587
v 1.984043 -4.925086 7.532042
v -1.970739 -4.925086 7.576047
v 1.984043 -5.216682 4.534752
v -1.970738 -5.216682 4.534752
v 2.063106 -2.892610 10.092690
v -1.891676 -2.892610 10.096790
v 2.066645 -4.810462 10.229855
v -1.888136 -4.810462 10.233955
v 1.978945 -0.706553 7.221034
v 1.978945 -2.454182 4.337179
v -1.975836 -2.454182 4.337178
v -1.975837 -0.706553 7.225136
v -16.407076 -4.996070 -0.673285
v -16.407076 -4.996070 -4.599648
v -16.407076 -6.994975 -0.673285
v -16.407076 -6.994975 -4.599648
v -14.407077 -11.104075 -0.673285
v -14.407077 -11.104075 -4.599648
v -14.407077 -12.636568 -0.673285
v -14.407077 -12.636568 -4.599648
v 44.778591 1.359247 -0.036091
v 44.778591 10.259110 -0.036091
v 44.778591 5.809179 -4.521975
v 44.778591 5.809178 4.449793
v 44.778591 5.809178 -0.036091
v 44.778591 1.359247 2.206851
v 44.778591 10.259110 2.206851
v 44.778591 3.584213 -4.521975
v 44.778591 8.034144 4.449793
v 44.778591 1.359247 -2.279032
v 44.778591 10.259110 -2.279032
v 44.778591 8.034145 -4.521975
v 44.778591 3.584213 4.449793
v 44.778591 8.034144 -0.036091
v 44.778591 3.584213 -0.036091
v 44.778591 5.809179 -2.279032
v 44.778591 5.809178 2.206851
v 44.778591 3.584213 2.206851
v 44.778591 3.584213 -2.279032
v 44.778591 8.034145 -2.279032
v 44.778591 8.034144 2.206851
v 44.778591 1.359247 3.328322
v 44.778591 10.259110 3.328322
v 44.778591 2.471730 -4.521975
v 44.778591 9.146627 4.449793
v 44.778591 1.359247 -1.157562
v 44.778591 10.259110 -1.157562
v 44.778591 6.921662 -4.521975
v 44.778591 4.696696 4.449793
v 44.778591 9.146627 -0.036091
v 44.778591 4.696696 -0.036091
v 44.778591 5.809179 -3.400503
v 44.778591 5.809178 1.085381
v 44.778591 1.359247 1.085381
v 44.778591 10.259110 1.085381
v 44.778591 4.696696 -4.521975
v 44.778591 6.921661 4.449793
v 44.778591 1.359247 -3.400503
v 44.778591 10.259110 -3.400503
v 44.778591 9.146628 -4.521975
v 44.778591 2.471730 4.449793
v 44.778591 6.921661 -0.036091
v 44.778591 2.471730 -0.036091
v 44.778591 5.809179 -1.157562
v 44.778591 5.809178 3.328322
v 44.778591 4.696696 2.206851
v 44.778591 2.471730 2.206851
v 44.778591 3.584213 1.085381
v 44.778591 3.584213 3.328322
v 44.778591 4.696696 -2.279032
v 44.778591 2.471730 -2.279032
v 44.778591 3.584213 -3.400503
v 44.778591 3.584213 -1.157562
v 44.778591 9.146628 -2.279032
v 44.778591 6.921662 -2.279032
v 44.778591 8.034145 -3.400503
v 44.778591 8.034145 -1.157562
v 44.778591 9.146627 2.206851
v 44.778591 6.921661 2.206851
v 44.778591 8.034144 1.085381
v 44.778591 8.034144 3.328322
v 44.778591 6.921661 3.328322
v 44.778591 6.921661 1.085381
v 44.778591 9.146627 1.085381
v 44.778591 6.921662 -1.157562
v 44.778591 6.921662 -3.400503
v 44.778591 9.146628 -3.400503
v 44.778591 2.471730 -1.157562
v 44.778591 2.471730 -3.400503
v 44.778591 4.696696 -3.400503
v 44.778591 2.471730 3.328322
v 44.778591 2.471730 1.085381
v 44.778591 4.696696 1.085381
v 44.778591 4.696696 3.328322
v 44.778591 4.696696 -1.157562
v 44.778591 9.146628 -1.157562
v 44.778591 9.146627 3.328322
v 0.412783 0.891669 -36.374706
v 0.412783 5.879123 -36.374706
v -2.597875 3.385396 -36.374706
v 3.423440 3.385396 -36.374702
v 0.412783 3.385396 -36.374706
v -42.627968 -10.770309 -2.705812
v -42.627968 -2.809234 -2.705812
v -42.627968 -6.789772 1.288914
v -42.627968 -6.789772 -6.700538
v -42.627968 -6.789772 -2.705812
v -19.407076 -6.994975 -2.636467
v -19.407076 -11.104075 -2.636467
v -19.407076 -9.049525 -4.599648
v -19.407076 -9.049525 -0.673285
v -19.407076 -9.049525 -2.636467
vt 0.3952 -1.9878
vt 0.0629 -0.7898
vt -0.0011 -0.7907
vt 2.2222 0.0900
vt 1.9617 -0.7896
vt 2.2222 -0.7894
vt 0.3848 0.0898
vt 0.3888 -0.7897
vt 1.1430 -0.7895
vt 1.0054 0.0898
vt 1.0054 -0.7897
vt 3.2332 -1.9878
vt 2.9626 -1.1080
vt 2.9626 -1.9875
vt 3.7744 -1.1080
vt 3.5038 -1.9878
vt 3.7745 -1.9875
vt 3.9217 0.0906
vt 3.7398 0.9701
vt 3.7398 0.0906
vt 0.9602 -0.7898
vt 0.6554 0.0898
vt 0.6594 -0.7897
vt 0.6658 -1.9877
vt 1.0054 -0.7905
vt 4.3162 2.2643
vt 4.1178 1.8290
vt 4.3162 1.5995
vt 3.5038 -0.8784
vt 3.2333 -0.6486
vt 3.2332 -0.8784
vt -3.4577 0.7347
vt -3.7283 0.6787
vt -3.4577 0.6787
vt 2.7630 -0.7895
vt 2.7190 -1.2496
vt 2.8780 -1.0201
vt 2.6282 -0.7894
vt 2.4011 -1.2496
vt 1.6858 -0.7894
vt 1.5509 -0.1307
vt 1.5509 -0.7894
vt -2.8316 0.5525
vt -2.6742 0.4879
vt -2.5765 0.5366
vt 2.6282 -0.1307
vt 1.1716 -1.2495
vt 1.0128 -1.0200
vt 1.4894 -1.2496
vt 1.2805 -0.7893
vt 1.9617 0.0899
vt 1.9617 -0.7896
vt 4.9811 0.0900
vt 4.7105 0.8286
vt 4.7105 0.0900
vt 2.3576 -0.7894
vt 2.3576 -0.1307
vt 3.2331 -1.1082
vt 2.8978 0.0898
vt 2.8978 -0.7897
vt 3.5037 -1.1082
vt 1.2805 -0.1306
vt 1.7799 0.9701
vt 1.4610 0.0901
vt 1.7799 0.0906
vt 1.9617 0.9700
vt 1.9617 0.0905
vt -3.4023 0.6787
vt -3.6633 0.6443
vt -3.3931 0.6467
vt 3.4250 0.0900
vt 3.2397 0.9699
vt 3.2397 0.0904
vt -3.4702 0.5908
vt -3.1999 0.5932
vt 3.0364 0.0910
vt -3.3051 0.5594
vt 1.4610 0.9696
vt 1.2785 0.0904
vt 1.0794 0.9704
vt 0.8069 0.0906
vt 1.0794 0.0909
vt -3.5754 0.5569
vt -3.4580 0.5218
vt 1.2785 0.9699
vt 2.7669 0.9700
vt 2.4236 0.1076
vt 2.7669 0.0906
vt 3.0364 0.9704
vt -3.5878 0.4734
vt -3.3175 0.4758
vt -3.6514 0.4123
vt -3.1999 0.3354
vt -3.2190 0.4162
vt 0.8069 0.9701
vt 0.4676 0.1081
vt 3.8189 -0.2884
vt 3.8273 -1.0618
vt 4.0333 -1.0618
vt 0.4676 0.9531
vt 0.0083 0.0909
vt 1.9643 0.9698
vt 1.9617 0.1965
vt -3.9130 1.8033
vt -4.0115 1.1633
vt -3.8296 0.5054
vt -3.9102 2.4628
vt -3.7283 1.8048
vt -2.4738 0.6002
vt -2.6587 0.6478
vt -2.6587 0.6002
vt -6.2684 -1.3298
vt -6.6350 -1.9862
vt -6.4503 -1.9878
vt -6.3697 -0.0302
vt -6.7408 -0.6866
vt -6.5516 -0.6882
vt -6.4531 -1.3282
vt 5.1857 -1.9878
vt 5.4563 -0.6899
vt 5.1857 -0.6899
vt -4.0188 0.5038
vt -3.9102 -0.7057
vt -3.7283 -1.3636
vt -2.4693 0.5525
vt -2.6587 0.6002
vt -2.6587 0.5525
vt -6.5589 -0.0286
vt -6.4503 1.1810
vt 5.5314 0.0900
vt 5.8004 1.9584
vt 5.5298 1.9584
vt -6.5486 1.8052
vt -6.8867 1.4807
vt -7.0686 0.8227
vt -6.2684 1.8390
vt 5.8020 2.5819
vt 5.5314 2.5819
vt -4.0086 -1.3298
vt -3.8267 -1.9878
vt -4.5285 -0.3474
vt -4.8858 0.3405
vt -4.3466 -1.0053
vt 5.2545 3.5159
vt 4.9811 2.5294
vt 5.2516 2.5294
vt -7.6078 -0.5233
vt -7.8889 -0.9523
vt -8.0708 -1.6103
vt -7.4259 0.1347
vt 4.9833 1.1800
vt 5.2537 1.1800
vt -8.2511 -1.2200
vt 4.9840 0.0900
vt 5.2545 0.0901
vt -5.0677 0.9985
vt -5.3488 1.4274
vt -5.7105 1.6948
vt -6.1606 1.3002
vt -5.5752 1.2056
vt -1.6759 0.3311
vt -1.2287 0.7200
vt -1.8471 0.7200
vt -2.2335 0.3311
vt -2.1562 0.3312
vt -2.4654 0.7214
vt -8.7011 -0.8253
vt -8.8089 -1.2152
vt -2.6414 0.4405
vt -3.1999 0.3316
vt -2.6414 0.3316
vt -1.4963 -1.3285
vt -1.7167 -1.9878
vt -1.4963 -1.9872
vt -3.7283 -1.9878
vt -3.4352 -1.3290
vt -3.7283 -1.3290
vt -1.2031 -1.3285
vt -1.2031 -1.9872
vt 4.6447 -1.9878
vt 4.9151 -0.3270
vt 4.6447 -0.3270
vt -2.8316 0.4564
vt -2.5765 0.4405
vt -3.4352 -1.9878
vt -3.2141 -1.3287
vt -3.0111 -0.3272
vt -2.6323 0.3316
vt -3.0111 0.3316
vt -1.7167 -1.3291
vt -1.9197 -0.3276
vt -2.2985 -0.3276
vt -2.4654 -1.2253
vt -2.4654 -1.8840
vt -1.9197 0.3311
vt -2.6587 0.5525
vt -2.9293 0.6192
vt -2.9293 0.5525
vt 4.9151 -0.4309
vt 5.1857 -1.9878
vt 5.1857 -0.4309
vt -2.6323 -0.3272
vt -2.4654 -1.2250
vt -12.1757 -0.4144
vt -12.3296 -1.9878
vt -12.1757 -1.9878
vt -12.3295 -0.4144
vt -12.5348 -1.9878
vt -10.3980 2.4533
vt -10.3980 0.8360
vt -10.2441 2.4533
vt -10.2442 4.0268
vt -12.1756 2.8200
vt -12.3294 2.8200
vt -12.3295 1.2028
vt -3.1999 0.5279
vt -2.9293 0.5008
vt -2.9293 0.5279
vt -10.3979 -0.7814
vt -10.2441 -1.9878
vt -10.2441 -0.7814
vt -12.3294 4.0262
vt -12.6716 2.8200
vt -9.9630 -1.9878
vt -9.5186 -0.7814
vt -9.9630 -0.7814
vt -3.1999 0.5774
vt -11.8944 4.0263
vt -12.1755 4.0263
vt -11.4501 2.8200
vt -11.2408 3.4829
vt -11.4500 4.0263
vt -11.8944 2.8200
vt -2.9293 0.5774
vt -3.1999 0.6557
vt -2.6992 0.7481
vt -3.1999 0.6557
vt -2.6992 0.6557
vt 3.2895 -0.6486
vt 2.8978 -0.1050
vt 3.0191 -0.6486
vt -9.3097 -1.4445
vt -9.3097 -0.4062
vt 4.0941 -1.0618
vt 3.8398 -1.9878
vt 4.3640 -1.9878
vt -8.8089 -0.5184
vt -10.7401 2.5569
vt -10.7401 3.4829
vt -0.0011 -1.3291
vt -0.6021 -1.9878
vt -0.0011 -1.9878
vt -0.6021 1.9774
vt -1.2031 -1.9878
vt -0.6021 -1.9878
vt -0.6021 2.6361
vt -1.2031 1.9774
vt -0.0011 2.6357
vt -0.6021 -1.3291
vt 4.9811 1.4917
vt 4.7105 2.1566
vt 4.7105 1.4917
vt 4.7105 1.9502
vt 4.5161 2.3856
vt 4.5030 0.5747
vt 4.3740 -0.3874
vt 4.6433 -0.1573
vt 4.3727 -0.1573
vt 4.9811 2.1566
vt 4.7105 3.6664
vt 4.3162 0.0900
vt 4.7105 4.1246
vt 4.4996 3.8952
vt 4.3740 -1.9878
vt 4.6399 -0.4782
vt 4.3692 -0.4782
vt 4.3162 2.2954
vt 4.6447 -0.3874
vt 4.1082 0.3195
vt 3.9217 1.9192
vt 3.9217 0.4097
vt 0.3914 -1.2746
vt 0.6620 -1.2746
vt 4.7105 1.2872
vt 4.4152 0.0900
vt 4.9811 0.8286
vt 4.3162 2.9273
vt 4.1088 3.6398
vt -10.3980 4.0268
vt -10.6033 2.4533
vt -3.1999 0.5008
vt -2.9293 0.4405
vt -10.7401 -1.9878
vt -10.3979 -1.9878
vt 1.9617 0.0899
vt 0.0588 0.0896
vt 1.1430 0.0900
vt 3.9217 0.9701
vt 0.9562 0.0897
vt 3.5039 -0.6486
vt -3.7283 0.7347
vt 1.6858 0.0901
vt -2.9293 0.5038
vt 2.7630 0.0899
vt 2.1942 -1.9878
vt 1.6961 -1.9878
vt 2.8978 -1.1077
vt 3.8189 -1.1077
vt -3.6726 0.6763
vt 3.4250 0.9695
vt -3.7283 0.5194
vt 2.4236 0.9525
vt -3.6238 0.3316
vt 4.2393 -1.0618
vt 4.2433 -0.2884
vt 0.0054 0.8642
vt -4.0949 2.4612
vt -2.4738 0.6478
vt 5.4563 -1.9878
vt -4.2007 1.1617
vt -2.4693 0.6002
vt 5.8020 0.0900
vt -6.3667 2.4632
vt 4.9840 3.5158
vt -8.1158 -0.7307
vt -5.5307 2.0853
vt -6.2684 1.6901
vt -1.4053 0.3311
vt -1.8471 0.7215
vt -2.3881 0.3311
vt -2.3108 0.3311
vt -2.4654 0.3311
vt -1.9243 0.3312
vt -1.8471 0.3312
vt -2.0789 0.3312
vt -2.0016 0.3312
vt -3.1999 0.4405
vt 4.9151 -1.9878
vt -3.2141 -1.9875
vt -2.2985 0.3311
vt -2.6587 0.6192
vt 4.9151 -1.9878
vt -2.4654 -1.8837
vt -12.5348 -0.4144
vt -12.6715 4.0262
vt -9.5186 -1.9878
vt -11.2408 2.4447
vt -2.9293 0.6557
vt -3.1999 0.7481
vt 3.4220 -0.1050
vt 4.3692 -1.0618
vt 3.8189 -1.0618
vt -8.8089 -1.4445
vt -1.2031 2.6361
vt -0.6021 2.6357
vt 4.7105 2.6151
vt 4.9811 3.6664
vt 4.6447 -1.9877
vt 4.3162 3.8050
vt 4.0209 4.1244
vt -10.6033 4.0268
vt -3.1999 0.4405
vt -10.7401 -0.7814
vt 0.8717 0.0001
vt 0.0001 0.9999
vt 0.1363 0.0001
vt 0.9942 0.9999
vt 0.8125 0.0001
vt 0.0020 0.9965
vt 0.1875 0.0001
vt 0.9359 -0.0019
vt 0.0000 1.0000
vt 0.0594 0.0000
vt 1.0019 0.9965
vt 0.9953 0.9980
vt -1.6015 0.3793
vt -0.7026 -0.3670
vt -0.5397 0.4872
vt -1.7217 -0.3038
vt -0.7674 -0.8056
vt -1.4823 -3.0123
vt -0.4204 -3.1396
vt -0.4955 -5.0574
vt -1.4291 -5.0583
vt -0.2504 -8.8895
vt -2.7497 1.4717
vt -2.0319 -3.5085
vt -1.7077 1.4717
vt -1.7076 3.2815
vt -3.0740 -3.5513
vt -2.0319 -6.1888
vt 0.0130 -3.0859
vt 0.9979 1.0014
vt 0.0126 1.0014
vt -0.1467 -10.5109
vt -1.1839 -8.8904
vt -1.0802 -10.5118
vt -3.0740 -6.1888
vt -2.0318 -10.5118
vt -0.1400 -6.2239
vt 0.8452 -8.5764
vt 0.8452 -6.2025
vt 0.9982 -3.0859
vt -0.1400 -8.5764
vt 0.8453 -10.5118
vt -1.7009 -0.8065
vt -2.7497 3.2815
vt -3.0739 -10.5118
vt -0.1399 -10.5118
vt -5.9852 -3.0313
vt -4.8162 -1.7470
vt -6.0891 -1.7221
vt -7.0434 -3.0244
vt -8.3261 -1.7331
vt -8.5156 -1.8595
vt -7.1482 -1.7221
vt 3.4692 -3.3777
vt 2.6945 -2.1181
vt 2.4187 -3.3097
vt -0.0043 1.0053
vt 1.0540 -0.0046
vt 1.0540 1.0053
vt -2.2525 -1.8340
vt -2.5329 0.0974
vt -2.7241 -2.7425
vt -3.7762 0.0974
vt -3.7822 -2.7425
vt 0.8807 -2.4050
vt 0.3287 -4.2606
vt 0.9630 -3.1071
vt 0.3687 -1.1222
vt -0.9131 -4.2606
vt -7.0755 -4.2537
vt -4.3714 -1.8404
vt -1.2445 -2.3919
vt -1.7075 -3.1071
vt 4.2759 -4.2606
vt 3.2137 -4.2431
vt 1.1243 -4.0566
vt 0.9630 -3.9974
vt 2.1632 -4.1751
vt -4.5795 -1.8852
vt 3.7451 -2.1861
vt -0.0043 -0.0046
vt -1.9059 -1.0574
vt -0.6882 -1.1222
vt -6.0173 -4.2606
vt -4.5795 -1.0574
vt 4.5388 -4.2289
vt 4.0191 -14.7335
vt 0.0011 -10.9009
vt 0.0011 -14.7335
vt 4.0191 -10.9009
vt 0.0012 -6.8855
vt 4.0189 -3.0158
vt 0.0012 -3.0158
vt 4.0183 1.0043
vt 0.0005 4.9376
vt 0.0008 1.0043
vt 4.0175 8.8642
vt -0.0000 8.8642
vt 4.0165 12.8367
vt -0.0013 12.8367
vt -0.0025 16.7345
vt 4.0189 -6.8855
vt 4.0181 4.9376
vt 4.0152 16.7345
vt -7.2292 0.9979
vt -4.2025 -2.0697
vt -4.2025 0.9979
vt 1.0019 0.9833
vt 4.1070 -1.9856
vt 4.1070 1.0003
vt 7.5183 -1.9065
vt 7.5183 0.9626
vt 11.9792 0.7020
vt -7.2292 -2.0697
vt 1.0019 -2.0493
vt 11.9792 -1.9685
vt 14.0733 -2.6805
vt 12.9698 -2.7100
vt 14.0733 -2.7100
vt 11.7659 -2.4401
vt 12.9698 -2.8478
vt 12.9698 -2.4401
vt -0.0320 -2.8478
vt 1.0715 -2.4401
vt -0.0320 -2.4401
vt 11.7660 0.0138
vt -2.9196 -2.4401
vt -4.0231 -2.8478
vt -2.9196 -2.8478
vt -2.9196 0.0138
vt -4.0231 0.9876
vt -4.0231 0.0138
vt -4.0231 -2.4401
vt -0.0320 0.0138
vt 14.1736 -2.7371
vt 12.9698 -2.7100
vt 12.9698 -2.7371
vt 12.9698 0.0138
vt 11.7660 0.9876
vt 1.0715 0.0138
vt -0.0320 0.9876
vt -1.4758 0.9876
vt -2.9196 0.9876
vt 14.1736 -2.7725
vt -1.4758 0.0138
vt -6.6967 -1.8069
vt -4.0231 5.5442
vt -6.6967 5.5442
vt -6.6967 -2.8478
vt -4.0231 -1.8069
vt -9.3703 -1.8043
vt -10.3052 2.2387
vt -10.3052 -0.2152
vt -10.3052 -0.6229
vt -11.5091 2.2387
vt -12.4440 -1.8043
vt -11.5091 -0.2152
vt -11.5091 -0.6229
vt -12.4440 -2.8452
vt 3.7451 0.4604
vt 1.0715 -2.8478
vt 3.7451 -2.8478
vt -15.5177 -2.8452
vt -12.4440 -2.8452
vt -13.3789 -0.6229
vt -6.6967 5.5442
vt -9.3703 -1.8069
vt -6.6967 -1.8069
vt 6.4187 -0.6229
vt 9.0923 -2.8478
vt 9.0923 -0.6229
vt -9.3703 -2.8478
vt -6.6967 -2.8478
vt 3.7451 -2.8478
vt 6.4187 0.4604
vt 3.7451 0.4604
vt 15.6434 -2.7725
vt 12.9698 -2.8478
vt 15.6434 -2.8478
vt 9.0923 -0.6229
vt 11.7659 -2.8478
vt 11.7659 -0.6229
vt -14.5828 -0.6229
vt -13.3790 -2.8478
vt -10.3052 -2.8478
vt -9.3703 -2.8452
vt -11.5091 -2.8478
vt 0.3511 -1.8541
vt 1.4593 1.1241
vt -0.1334 1.1241
vt 12.9698 -2.6805
vt 11.7659 -2.8478
vt 1.0715 -2.8478
vt 14.1736 -2.7100
vt 12.9698 0.9876
vt 1.0715 0.9876
vt -1.4758 0.0138
vt 12.9698 -2.7725
vt -1.4758 0.9876
vt -4.0231 -2.8478
vt -9.3703 5.5468
vt -12.4440 5.5468
vt 1.0715 0.4604
vt -14.5828 -0.2152
vt -15.5177 -1.8043
vt -14.5828 2.2387
vt -15.5176 5.5468
vt -12.4440 -1.8043
vt -12.4440 5.5468
vt -13.3789 2.2387
vt -13.3789 -0.2152
vt -9.3703 5.5442
vt 6.4187 -2.8478
vt 6.4187 -2.8478
vt 12.9698 -2.7725
vt 9.0923 -2.8478
vt -14.5828 -2.8478
vt 0.9749 -1.8541
vt 1.4593 -1.6675
vt 2.8448 -1.8541
vt 2.8448 -1.6675
vt 2.8448 -1.4271
vt 2.8448 -1.2405
vt 1.4593 -1.4271
vt -2.1943 3.5580
vt -0.5985 3.4095
vt -0.5985 3.5580
vt 1.0300 -5.3481
vt 4.2478 -5.6093
vt 4.2637 -5.3481
vt -2.1943 3.2113
vt -0.5985 -5.4112
vt -0.5985 3.2113
vt -1.3965 -5.6093
vt -2.1944 -5.4112
vt -2.1943 3.4095
vt -0.5945 1.0013
vt 1.0013 -5.6093
vt 1.0014 1.0013
vt 0.2034 1.3316
vt 1.0054 -5.6093
vt -2.1944 -5.6093
vt -0.5985 -5.6093
vt -0.5945 -5.6093
vt 1.0014 1.3316
vt -0.5945 1.3316
vt 0.9953 0.0048
vt 0.9953 0.0048
vt 0.0001 1.0020
vt 0.9953 0.0048
vt 0.9953 0.9983
vt 0.9953 0.0048
vt 0.0001 0.0086
vt 0.9952 -0.0024
vt 0.9954 0.0048
vt 0.9953 0.0048
vt 0.9953 0.0048
vt 0.0001 0.9999
vt 0.9917 -0.0048
vt 1.0100 0.9950
vt -0.0025 1.0048
vt 0.3398 0.0001
vt 0.9892 1.0048
vt 0.9918 0.0056
vt 0.0121 0.0105
vt 0.9994 0.0050
vt 0.0001 0.0001
vt 1.0000 0.0000
vt 0.0000 1.0000
vt 0.0000 0.0000
vt 1.0000 1.0000
vt 1.0000 0.0000
vt 0.0000 1.0000
vt 0.0000 0.0000
vt 1.0000 1.0000
vt 1.0000 0.0000
vt 0.0000 1.0000
vt 0.0000 0.0000
vt 1.0000 1.0000
vt 1.0000 0.0000
vt 0.0000 1.0000
vt 0.0000 0.0000
vt 1.0000 1.0000
vt 1.0000 0.0000
vt 0.0000 1.0000
vt -0.0000 0.0000
vt 1.0000 1.0000
vt 1.0000 0.0000
vt 0.0000 1.0000
vt 0.0000 0.0000
vt 1.0000 1.0000
vt 1.0000 0.0000
vt 0.0000 1.0000
vt 0.0000 0.0000
vt 1.0000 1.0000
vt 1.0000 -0.0000
vt 0.0000 1.0000
vt 0.0000 0.0000
vt 1.0000 1.0000
vt 0.0000 1.0000
vt 1.0000 0.0000
vt 1.0000 1.0000
vt 0.0000 0.0000
vt 1.0000 0.0000
vt 0.0000 1.0000
vt 0.0000 0.0000
vt 1.0000 1.0000
vt 1.0000 0.0000
vt 0.0000 1.0000
vt 0.0000 0.0000
vt 1.0000 1.0000
vt 0.0000 0.0000
vt 1.0000 1.0000
vt 0.0000 1.0000
vt 1.0000 0.0000
vt 1.0000 0.0000
vt 0.0000 1.0000
vt 0.0000 0.0000
vt 1.0000 1.0000
vt 1.0000 0.0000
vt 0.0000 1.0000
vt 0.0000 0.0000
vt 1.0000 1.0000
vt 1.0000 0.0000
vt 0.0000 1.0000
vt 0.0000 0.0000
vt 1.0000 1.0000
vt 1.0000 0.0000
vt 0.0000 1.0000
vt 0.0000 0.0000
vt 1.0000 1.0000
vt 1.0000 0.0000
vt 0.0000 1.0000
vt 0.0000 0.0000
vt 1.0000 1.0000
vt 1.0000 0.0000
vt 0.0000 0.0000
vt 1.0000 1.0000
vt 1.0000 0.0000
vt 0.0000 1.0000
vt 0.0000 0.0000
vt 1.0000 1.0000
vt 0.0000 0.0000
vt 1.0000 1.0000
vt 0.0000 1.0000
vt 1.0000 0.0000
vt 1.0000 0.0000
vt 0.0000 1.0000
vt 0.0000 0.0000
vt 1.0000 1.0000
vt 0.0000 1.0000
vt 1.0000 1.0000
vt 1.0000 0.0000
vt 0.0000 1.0000
vt 0.0000 0.0000
vt 1.0000 1.0000
vt 1.0000 0.0000
vt 0.0000 1.0000
vt 0.0000 0.0000
vt 1.0000 1.0000
vt 1.0000 0.0000
vt 0.0000 1.0000
vt 0.0000 0.0000
vt 1.0000 1.0000
vt 1.0000 0.0000
vt 0.0000 1.0000
vt 0.0000 0.0000
vt 1.0000 1.0000
vt 1.0000 0.0000
vt 0.0000 1.0000
vt 0.0000 0.0000
vt 1.0000 1.0000
vt 0.0000 0.0000
vt 1.0000 1.0000
vt 0.0000 1.0000
vt 1.0000 0.0000
vt 1.0000 0.0000
vt 0.0000 1.0000
vt 0.0000 0.0000
vt 1.0000 0.0000
vt 0.0000 1.0000
vt 0.0000 0.0000
vt 1.0000 1.0000
vt 1.0000 0.0000
vt 0.0000 0.0000
vt 1.0000 1.0000
vt 1.0000 0.0000
vt 0.0000 1.0000
vt 0.0000 0.0000
vt 1.0000 1.0000
vt 1.0000 0.0000
vt 0.0000 1.0000
vt 0.0000 0.0000
vt 1.0000 1.0000
vt 1.0000 0.0000
vt 0.0000 1.0000
vt 0.0000 0.0000
vt 1.0000 1.0000
vt 1.0000 0.0000
vt 0.0000 1.0000
vt 0.0000 0.0000
vt 1.0000 1.0000
vt 0.0000 0.0000
vt 1.0000 1.0000
vt 0.0000 1.0000
vt 1.0000 0.0000
vt 1.0000 0.0000
vt 0.0000 1.0000
vt 0.0000 0.0000
vt 1.0000 1.0000
vt 1.0000 0.0000
vt 0.0000 1.0000
vt 0.0000 0.0000
vt 1.0000 1.0000
vt 1.0000 0.0000
vt 0.0000 1.0000
vt 0.0000 0.0000
vt 1.0000 1.0000
vt 1.0000 0.0000
vt 0.0000 1.0000
vt 0.0000 0.0000
vt 1.0000 1.0000
vt 1.0000 0.0000
vt 0.0000 1.0000
vt 0.0000 0.0000
vt 1.0000 1.0000
vt 1.0000 0.0000
vt 0.0000 1.0000
vt 0.0000 0.0000
vt 1.0000 1.0000
vt 1.0000 0.0000
vt 0.0000 1.0000
vt 0.0000 0.0000
vt 1.0000 1.0000
vt 0.0000 0.0000
vt 1.0000 1.0000
vt 0.0000 1.0000
vt 1.0000 0.0000
vt 1.0000 0.0000
vt 0.0000 1.0000
vt 0.0000 0.0000
vt 1.0000 1.0000
vt 1.0000 0.0000
vt 0.0000 1.0000
vt 0.0000 0.0000
vt 1.0000 1.0000
vt 1.0000 0.0000
vt 0.0000 1.0000
vt 0.0000 0.0000
vt 1.0000 1.0000
vt 1.0000 0.0000
vt 0.0000 1.0000
vt 0.0000 0.0000
vt 1.0000 1.0000
vt 1.0000 0.0000
vt 0.0000 1.0000
vt 0.0000 0.0000
vt 1.0000 1.0000
vt 1.0000 0.0000
vt 0.0000 1.0000
vt 0.0000 0.0000
vt 1.0000 1.0000
vt 0.0000 0.0000
vt 1.0000 1.0000
vt 0.0000 1.0000
vt 1.0000 0.0000
vt 1.0000 0.0000
vt 0.0000 1.0000
vt 0.0000 0.0000
vt 1.0000 1.0000
vt 1.0000 0.0000
vt 0.0000 1.0000
vt 0.0000 0.0000
vt 1.0000 1.0000
vt 1.0000 0.0000
vt 0.0000 1.0000
vt 0.0000 0.0000
vt 1.0000 1.0000
vt 1.0000 0.0000
vt 0.0000 1.0000
vt 0.0000 0.0000
vt 1.0000 1.0000
vt 1.0000 0.0000
vt 0.0000 1.0000
vt 0.0000 0.0000
vt 1.0000 1.0000
vt 1.0000 0.0000
vt 0.0000 1.0000
vt 0.0000 0.0000
vt 1.0000 1.0000
vt 1.0000 0.0000
vt 0.0000 1.0000
vt 0.0000 0.0000
vt 1.0000 1.0000
vt 0.0000 0.0000
vt 1.0000 1.0000
vt 0.0000 1.0000
vt 1.0000 0.0000
vt 1.0000 0.0000
vt 0.0000 1.0000
vt 0.0000 0.0000
vt 1.0000 1.0000
vt 1.0000 0.0000
vt 0.0000 1.0000
vt -0.0000 0.0000
vt 1.0000 1.0000
vt 1.0000 0.0000
vt 0.0000 1.0000
vt 0.0000 0.0000
vt 1.0000 1.0000
vt 1.0000 0.0000
vt 0.0000 1.0000
vt 0.0000 0.0000
vt 1.0000 1.0000
vt 1.0000 0.0000
vt 0.0000 1.0000
vt 0.0000 0.0000
vt 1.0000 1.0000
vt 1.0000 0.0000
vt 0.0000 1.0000
vt 0.0000 0.0000
vt 1.0000 1.0000
vt 1.0000 0.0000
vt 0.0000 1.0000
vt 0.0000 0.0000
vt 1.0000 1.0000
vt 1.0000 0.0000
vt 0.0000 1.0000
vt 0.0000 0.0000
vt 1.0000 1.0000
vt 1.0000 0.0000
vt 0.0000 1.0000
vt 0.0000 0.0000
vt 1.0000 1.0000
vt 1.0000 0.0000
vt 0.0000 1.0000
vt 0.0000 0.0000
vt 1.0000 1.0000
vt 1.0000 0.0000
vt 0.0000 1.0000
vt 0.0000 0.0000
vt 1.0000 1.0000
vt 1.0000 0.0000
vt 0.0000 1.0000
vt 0.0000 0.0000
vt 1.0000 1.0000
vt 1.0000 0.0000
vt 0.0000 1.0000
vt 0.0000 0.0000
vt 1.0000 1.0000
vt 0.9982 1.0000
vt 0.0010 0.0000
vt 0.9983 0.0000
vt 0.0010 1.0000
vt 0.0000 1.0000
vt 1.0000 0.0000
vt 1.0000 1.0000
vt 0.0000 0.0000
vt 0.0000 1.0000
vt 1.0000 0.0000
vt 1.0000 1.0000
vt 0.0000 0.0000
vt 0.0000 1.0000
vt 1.0000 0.0000
vt 1.0000 1.0000
vt 0.0000 0.0000
vt 0.0000 1.0000
vt 1.0000 0.0000
vt 1.0000 1.0000
vt 0.0000 0.0000
vn -0.2603 -0.9636 0.0611
vn 0.9855 0.0000 0.1696
vn -0.1024 -0.0000 0.9947
vn -0.9006 -0.0000 -0.4347
vn -0.4622 0.0000 -0.8868
vn 0.4622 0.0000 -0.8868
vn 1.0000 -0.0000 0.0000
vn 0.1665 0.1737 0.9706
vn 0.0010 -0.0000 1.0000
vn 0.2916 -0.9552 0.0502
vn 1.0000 0.0018 -0.0002
vn 0.0000 -0.9921 -0.1254
vn 0.0000 -1.0000 -0.0000
vn 0.1090 -0.9862 -0.1247
vn 0.1103 -0.9939 0.0000
vn -0.9976 -0.0000 0.0698
vn 0.9494 -0.0000 -0.3140
vn -0.1024 -0.9869 -0.1248
vn -0.0992 -0.9951 0.0000
vn -0.9736 0.0000 0.2284
vn 0.0000 -0.9545 -0.2983
vn 0.1088 -0.9940 0.0117
vn 0.9943 0.0000 0.1066
vn -0.0984 -0.9951 0.0069
vn -0.0652 -0.9900 -0.1251
vn 0.0652 -0.9900 -0.1251
vn -0.8682 0.0000 -0.4961
vn -1.0000 0.0000 -0.0000
vn 0.8500 0.0000 -0.5268
vn 0.8682 -0.0000 0.4961
vn 0.7795 0.0000 -0.6264
vn -0.8500 -0.0000 0.5268
vn -0.9025 -0.0000 -0.4307
vn -0.7795 -0.0000 0.6264
vn 0.9727 -0.0000 0.2322
vn 0.9025 -0.0000 0.4307
vn 0.0000 -1.0000 0.0033
vn 0.0000 -1.0000 -0.0044
vn -0.9727 -0.0000 0.2322
vn 0.0000 -0.0381 -0.9993
vn -1.0000 -0.0000 -0.0094
vn 0.9981 0.0593 -0.0191
vn 0.0000 -0.0000 1.0000
vn 0.0000 0.0000 -1.0000
vn 0.3792 -0.9253 0.0000
vn 0.5843 -0.8115 0.0000
vn 0.1961 -0.9806 0.0000
vn -0.3265 -0.9452 0.0000
vn -0.5749 -0.8182 0.0000
vn -0.5142 0.0000 -0.8576
vn -0.5039 -0.8638 0.0000
vn 0.0044 -0.0000 1.0000
vn 0.1163 -0.9932 0.0000
vn -0.5142 -0.0000 0.8576
vn 1.0000 0.0001 0.0000
vn -0.0000 -0.0726 -0.9974
vn -0.6324 -0.0000 0.7747
vn -0.5795 -0.8150 0.0000
vn 0.6324 0.0000 -0.7747
vn 0.6298 -0.7768 0.0000
vn 0.5167 0.0000 0.8561
vn -0.2205 -0.9754 0.0000
vn 0.5167 0.0000 -0.8561
vn 0.0354 0.0000 -0.9994
vn 0.0000 -0.1017 0.9948
vn 0.0000 -0.0713 -0.9975
vn -1.0000 -0.0007 0.0004
vn 0.0000 -0.9953 0.0968
vn -1.0000 -0.0018 0.0002
vn 0.0010 0.0713 0.9975
vn -0.9996 0.0037 0.0283
vn 0.0005 -0.9991 0.0431
vn 0.9995 -0.0003 -0.0306
vn 0.0005 -0.8944 0.4474
vn -1.0000 -0.0093 0.0034
vn 1.0000 0.0018 -0.0011
vn -0.0352 -0.9391 0.3418
vn 0.1251 -0.0000 0.9921
vn 0.0507 0.1760 0.9831
vn 0.0586 -0.9380 0.3417
vn 1.0000 0.0007 -0.0004
vn 0.1205 -0.9919 -0.0399
vn -0.1116 -0.9923 -0.0539
vn 0.2581 -0.9221 -0.2882
vn -0.2295 -0.9290 -0.2903
vn -0.0714 -0.9969 -0.0344
vn 0.0720 -0.9971 -0.0238
vn -0.9921 0.1218 -0.0293
vn 1.0000 -0.0000 -0.0094
vn 0.0000 0.0726 0.9974
vn -0.0044 0.0000 -1.0000
vn 0.0000 -0.2149 -0.9766
vn 0.0164 0.0000 0.9999
vn 0.0011 -0.9954 0.0954
vn -0.9995 0.0004 0.0310
vn 0.0000 -0.9991 0.0424
vn 0.9996 -0.0023 -0.0290
vn -1.0000 -0.0018 0.0011
vn 1.0000 0.0093 -0.0034
vn -0.0660 0.9978 0.0000
vn 0.0000 1.0000 -0.0044
vn 0.1542 0.9880 0.0000
vn -0.0000 1.0000 0.0000
vn 0.5795 0.8150 0.0000
vn -0.6298 0.7768 0.0000
vn -0.0121 0.9930 0.1177
vn 0.0989 0.9950 0.0170
vn -0.0000 0.9923 0.1236
vn 0.0000 0.9985 -0.0544
vn 0.1447 0.9851 0.0929
vn 0.1691 0.9856 0.0000
vn -0.1191 0.9914 -0.0540
vn -0.1523 0.9883 -0.0000
vn -0.0000 0.9991 0.0418
vn 0.1831 0.9758 -0.1198
vn -0.0888 0.9952 0.0417
vn -0.1088 0.9719 -0.2087
vn 0.1217 0.9918 -0.0402
vn 0.0000 0.9777 -0.2099
vn -0.0876 0.9959 0.0206
vn 0.0156 0.9922 0.1236
vn 0.0061 0.9930 0.1177
vn 0.1267 0.9905 -0.0539
vn -0.1343 0.9880 0.0763
vn 0.1005 0.9941 0.0416
vn -0.1657 0.9778 -0.1281
vn -0.1205 0.9910 -0.0582
vn 0.1088 0.9719 -0.2087
vn -0.3792 0.9253 -0.0000
vn -0.1961 0.9806 0.0000
vn -0.5843 0.8115 -0.0000
vn 0.3265 0.9452 0.0000
vn 0.5749 0.8182 0.0000
vn 0.5039 0.8638 0.0000
vn 0.0000 -0.4096 0.9122
vn 0.0000 -0.4096 -0.9122
vn 0.0000 -0.9710 0.2390
vn 0.0000 -0.9710 -0.2390
vn -0.0000 0.9992 -0.0404
vn 0.0006 0.9992 -0.0395
vn 0.0155 0.9999 0.0000
vn 0.0000 0.9999 -0.0168
vn -0.0195 0.9998 0.0000
vn -0.0142 0.0146 0.9998
vn 0.0010 -0.0115 0.9999
usemtl Material
s off
f 40/1/1 3/2/1 37/3/1
f 34/4/2 2/5/2 33/6/2
f 16/7/3 3/2/3 12/8/3
f 41/9/4 8/10/4 4/11/4
f 14/12/5 4/13/5 8/14/5
f 1/15/6 13/16/6 5/17/6
f 13/18/7 49/19/7 51/20/7
f 2/21/8 15/22/8 11/23/8
f 11/23/9 16/7/9 12/8/9
f 2/21/10 39/24/10 33/25/10
f 230/26/11 217/27/11 219/28/11
f 43/29/12 32/30/12 44/31/12
f 29/32/13 32/33/13 30/34/13
f 45/35/14 30/36/14 43/37/14
f 17/38/15 29/39/15 30/36/15
f 37/40/16 23/41/16 19/42/16
f 19/43/13 122/44/13 20/45/13
f 45/35/17 21/46/17 17/38/17
f 32/47/18 41/9/18 44/48/18
f 31/49/19 20/50/19 32/47/19
f 7/51/20 37/40/20 3/52/20
f 29/53/21 40/54/21 31/55/21
f 33/6/22 29/39/22 18/56/22
f 22/57/23 33/6/23 18/56/23
f 31/49/24 37/40/24 19/42/24
f 44/31/25 4/13/25 10/58/25
f 5/59/17 45/35/17 1/60/17
f 1/15/26 43/29/26 9/61/26
f 43/29/12 10/58/12 9/61/12
f 24/62/4 41/9/4 20/50/4
f 52/63/27 54/64/27 50/65/27
f 14/66/28 50/65/28 10/67/28
f 9/68/13 50/69/13 49/70/13
f 55/71/29 57/72/29 59/73/29
f 49/19/30 55/71/30 51/20/30
f 49/70/13 54/74/13 53/75/13
f 57/72/31 63/76/31 59/73/31
f 54/74/13 57/77/13 53/75/13
f 56/78/32 58/79/32 54/64/32
f 64/80/33 66/81/33 62/82/33
f 58/83/13 61/84/13 57/77/13
f 60/85/34 62/82/34 58/79/34
f 65/86/35 71/87/35 67/88/35
f 61/89/36 67/88/36 63/76/36
f 61/84/13 66/90/13 65/91/13
f 70/92/37 73/93/37 69/94/37
f 65/91/38 70/92/38 69/94/38
f 68/95/39 70/96/39 66/81/39
f 74/97/40 76/98/40 318/99/40
f 72/100/41 74/101/41 70/96/41
f 71/87/42 73/102/42 75/103/42
f 82/104/43 84/105/43 86/106/43
f 18/107/43 82/104/43 22/108/43
f 18/109/13 79/110/13 80/111/13
f 21/112/44 79/113/44 17/114/44
f 85/115/44 87/116/44 83/117/44
f 81/118/44 83/117/44 79/113/44
f 80/119/45 83/120/45 84/121/45
f 90/122/43 92/123/43 94/124/43
f 84/125/13 87/126/13 88/127/13
f 84/105/43 90/122/43 86/106/43
f 89/128/44 91/129/44 87/116/44
f 88/130/46 91/131/46 92/132/46
f 95/133/44 101/134/44 99/135/44
f 93/136/44 95/133/44 91/129/44
f 92/132/47 95/137/47 96/138/47
f 94/124/43 96/139/43 98/140/43
f 100/141/43 106/142/43 102/143/43
f 96/144/48 99/145/48 100/146/48
f 96/139/43 102/143/43 98/140/43
f 103/147/44 109/148/44 107/149/44
f 99/135/44 105/150/44 103/147/44
f 100/146/49 103/151/49 104/152/49
f 109/148/50 111/153/50 107/149/50
f 104/152/51 107/154/51 108/155/51
f 104/156/43 110/157/43 106/142/43
f 112/158/52 118/159/52 114/160/52
f 108/161/53 111/162/53 112/163/53
f 110/157/54 112/158/54 114/160/54
f 266/164/55 241/165/55 115/166/55
f 111/153/56 117/167/56 115/168/56
f 111/169/13 116/170/13 112/171/13
f 123/172/57 125/173/57 121/174/57
f 20/175/44 124/176/44 24/177/44
f 23/178/43 121/174/43 19/179/43
f 126/180/58 129/181/58 130/182/58
f 122/44/13 125/183/13 126/184/13
f 122/185/59 128/186/59 124/176/59
f 130/187/44 136/188/44 132/189/44
f 128/186/44 130/187/44 132/189/44
f 127/190/43 129/191/43 125/173/43
f 133/192/43 139/193/43 137/194/43
f 131/195/43 133/192/43 129/191/43
f 129/196/13 134/197/13 130/198/13
f 133/199/60 138/200/60 134/201/60
f 134/202/44 140/203/44 136/188/44
f 163/204/43 165/205/43 161/206/43
f 167/207/43 233/208/43 165/205/43
f 168/209/44 330/210/44 164/211/44
f 162/212/44 168/209/44 164/211/44
f 169/213/43 171/214/43 331/215/43
f 174/216/13 175/217/13 173/218/13
f 172/219/44 174/220/44 170/221/44
f 175/222/43 237/223/43 171/214/43
f 169/213/43 175/222/43 171/214/43
f 180/224/44 182/225/44 178/226/44
f 174/220/44 178/226/44 170/221/44
f 173/218/13 180/227/13 174/216/13
f 169/213/43 179/228/43 173/229/43
f 181/230/61 187/231/61 183/232/61
f 177/233/43 183/232/43 179/228/43
f 179/234/13 184/235/13 180/227/13
f 187/236/13 192/237/13 188/238/13
f 183/239/62 188/240/62 184/241/62
f 182/225/63 188/242/63 186/243/63
f 323/244/28 192/245/28 191/246/28
f 188/242/64 190/247/64 186/243/64
f 187/231/65 189/248/65 191/249/65
f 142/250/43 202/251/43 144/252/43
f 141/253/44 206/254/44 149/255/44
f 143/256/44 203/257/44 141/253/44
f 150/258/43 204/259/43 142/250/43
f 230/260/66 220/261/66 231/262/66
f 231/263/67 218/264/67 232/265/67
f 221/266/68 224/267/68 223/268/68
f 219/269/66 224/270/66 220/261/66
f 217/27/11 223/271/11 219/28/11
f 218/264/69 224/272/69 222/273/69
f 225/274/70 228/275/70 227/276/70
f 222/273/71 226/277/71 218/264/71
f 221/266/72 228/275/72 222/278/72
f 221/279/73 225/280/73 227/281/73
f 11/23/74 232/282/74 229/283/74
f 40/284/75 232/265/75 12/285/75
f 39/286/66 231/262/66 40/54/66
f 39/287/76 229/288/76 230/26/76
f 166/289/44 236/290/44 168/209/44
f 176/291/13 239/292/13 175/217/13
f 172/219/44 240/293/44 176/294/44
f 40/1/77 12/8/77 3/2/77
f 34/4/2 6/295/2 2/5/2
f 16/7/3 7/296/3 3/2/3
f 41/9/4 42/297/4 8/10/4
f 14/12/5 10/58/5 4/13/5
f 1/15/6 9/61/6 13/16/6
f 13/18/7 9/298/7 49/19/7
f 2/21/78 6/299/78 15/22/78
f 11/23/79 15/22/79 16/7/79
f 2/21/80 11/23/80 39/24/80
f 230/26/81 229/288/81 217/27/81
f 43/29/12 30/300/12 32/30/12
f 29/32/13 31/301/13 32/33/13
f 45/35/82 17/38/82 30/36/82
f 17/38/15 18/56/15 29/39/15
f 37/40/16 38/302/16 23/41/16
f 19/43/13 121/303/13 122/44/13
f 45/35/17 46/304/17 21/46/17
f 32/47/83 20/50/83 41/9/83
f 31/49/19 19/42/19 20/50/19
f 7/51/20 38/302/20 37/40/20
f 29/53/21 39/286/21 40/54/21
f 33/6/84 39/305/84 29/39/84
f 22/57/23 34/4/23 33/6/23
f 31/49/85 40/306/85 37/40/85
f 44/31/86 41/307/86 4/13/86
f 5/59/17 46/304/17 45/35/17
f 1/15/87 45/308/87 43/29/87
f 43/29/12 44/31/12 10/58/12
f 24/62/4 42/297/4 41/9/4
f 52/63/27 56/78/27 54/64/27
f 14/66/28 52/63/28 50/65/28
f 9/68/13 10/309/13 50/69/13
f 55/71/29 53/310/29 57/72/29
f 49/19/30 53/310/30 55/71/30
f 49/70/13 50/69/13 54/74/13
f 57/72/31 61/89/31 63/76/31
f 54/74/13 58/83/13 57/77/13
f 56/78/32 60/85/32 58/79/32
f 64/80/33 68/95/33 66/81/33
f 58/83/13 62/311/13 61/84/13
f 60/85/34 64/80/34 62/82/34
f 65/86/35 69/312/35 71/87/35
f 61/89/36 65/86/36 67/88/36
f 61/84/13 62/311/13 66/90/13
f 70/92/37 74/313/37 73/93/37
f 65/91/38 66/90/38 70/92/38
f 68/95/39 72/100/39 70/96/39
f 318/99/40 75/314/40 73/315/40
f 73/315/40 74/97/40 318/99/40
f 72/100/88 76/316/88 74/101/88
f 71/87/89 69/312/89 73/102/89
f 82/104/43 80/317/43 84/105/43
f 18/107/43 80/317/43 82/104/43
f 18/109/13 17/318/13 79/110/13
f 21/112/44 81/118/44 79/113/44
f 85/115/44 89/128/44 87/116/44
f 81/118/44 85/115/44 83/117/44
f 80/119/45 79/319/45 83/120/45
f 90/122/43 88/320/43 92/123/43
f 84/125/13 83/321/13 87/126/13
f 84/105/43 88/320/43 90/122/43
f 89/128/44 93/136/44 91/129/44
f 88/130/46 87/322/46 91/131/46
f 95/133/44 97/323/44 101/134/44
f 93/136/44 97/323/44 95/133/44
f 92/132/47 91/131/47 95/137/47
f 94/124/43 92/123/43 96/139/43
f 100/141/43 104/156/43 106/142/43
f 96/144/48 95/324/48 99/145/48
f 96/139/43 100/141/43 102/143/43
f 103/147/44 105/150/44 109/148/44
f 99/135/44 101/134/44 105/150/44
f 100/146/49 99/145/49 103/151/49
f 109/148/50 113/325/50 111/153/50
f 104/152/51 103/151/51 107/154/51
f 104/156/43 108/326/43 110/157/43
f 112/158/90 116/327/90 118/159/90
f 108/161/53 107/328/53 111/162/53
f 110/157/54 108/326/54 112/158/54
f 116/329/7 115/166/7 241/165/7
f 278/330/7 250/331/7 115/166/7
f 115/166/7 117/332/7 278/330/7
f 262/333/7 118/334/7 116/329/7
f 241/165/7 274/335/7 116/329/7
f 246/336/7 262/333/7 116/329/7
f 115/166/7 250/331/7 266/164/7
f 274/335/7 246/336/7 116/329/7
f 111/153/91 113/325/91 117/167/91
f 111/169/13 115/337/13 116/170/13
f 123/172/57 127/190/57 125/173/57
f 20/175/44 122/185/44 124/176/44
f 23/178/43 123/172/43 121/174/43
f 126/180/58 125/338/58 129/181/58
f 122/44/13 121/303/13 125/183/13
f 122/185/59 126/339/59 128/186/59
f 130/187/44 134/202/44 136/188/44
f 128/186/44 126/339/44 130/187/44
f 127/190/43 131/195/43 129/191/43
f 133/192/43 135/340/43 139/193/43
f 131/195/43 135/340/43 133/192/43
f 129/196/13 133/341/13 134/197/13
f 133/199/60 137/342/60 138/200/60
f 134/202/44 138/343/44 140/203/44
f 163/204/43 167/207/43 165/205/43
f 167/207/43 235/344/43 233/208/43
f 170/221/44 164/211/44 330/210/44
f 330/210/44 172/219/44 170/221/44
f 162/212/44 166/289/44 168/209/44
f 331/215/43 167/207/43 163/204/43
f 163/204/43 169/213/43 331/215/43
f 174/216/13 176/291/13 175/217/13
f 172/219/44 176/294/44 174/220/44
f 175/222/43 239/345/43 237/223/43
f 169/213/43 173/229/43 175/222/43
f 180/224/44 184/346/44 182/225/44
f 174/220/44 180/224/44 178/226/44
f 173/218/13 179/234/13 180/227/13
f 169/213/43 177/233/43 179/228/43
f 181/230/61 185/347/61 187/231/61
f 177/233/43 181/230/43 183/232/43
f 179/234/13 183/348/13 184/235/13
f 187/236/13 191/349/13 192/237/13
f 183/239/62 187/350/62 188/240/62
f 182/225/63 184/346/63 188/242/63
f 191/246/28 189/351/28 323/244/28
f 323/244/28 190/352/28 192/245/28
f 188/242/92 192/353/92 190/247/92
f 187/231/93 185/347/93 189/248/93
f 142/250/43 204/259/43 202/251/43
f 141/253/44 203/257/44 206/254/44
f 143/256/44 201/354/44 203/257/44
f 150/258/43 205/355/43 204/259/43
f 230/260/66 219/269/66 220/261/66
f 231/263/69 220/356/69 218/264/69
f 221/266/94 222/278/94 224/267/94
f 219/269/66 223/357/66 224/270/66
f 217/27/11 221/279/11 223/271/11
f 218/264/69 220/356/69 224/272/69
f 225/274/70 226/358/70 228/275/70
f 222/273/95 228/359/95 226/277/95
f 221/266/96 227/276/96 228/275/96
f 221/279/97 217/27/97 225/280/97
f 11/23/74 12/8/74 232/282/74
f 40/284/98 231/263/98 232/265/98
f 39/286/66 230/260/66 231/262/66
f 39/287/99 11/360/99 229/288/99
f 166/289/44 234/361/44 236/290/44
f 176/291/13 240/362/13 239/292/13
f 172/219/44 238/363/44 240/293/44
usemtl Material.005
f 110/364/100 113/365/100 109/366/100
f 110/364/100 114/367/100 113/365/100
usemtl Material.005_ct_moji9.png
f 67/368/101 72/369/101 68/370/101
f 182/371/102 185/372/102 181/373/102
f 67/368/101 71/374/101 72/369/101
f 182/371/102 186/375/102 185/372/102
usemtl Material.004
f 24/376/103 123/377/103 23/378/103
f 124/379/103 127/380/103 123/377/103
f 127/380/104 132/381/104 131/382/104
f 132/381/103 135/383/103 131/382/103
f 136/384/105 139/385/105 135/383/105
f 141/386/7 150/387/7 142/388/7
f 144/389/7 141/386/7 142/388/7
f 149/390/103 158/391/103 150/387/103
f 164/392/28 161/393/28 162/394/28
f 137/395/28 140/396/28 138/397/28
f 157/398/7 160/399/7 158/391/7
f 170/400/103 177/401/103 169/402/103
f 164/392/28 169/402/28 163/403/28
f 178/404/103 181/405/103 177/401/103
f 24/376/103 124/379/103 123/377/103
f 124/379/103 128/406/103 127/380/103
f 127/380/104 128/406/104 132/381/104
f 132/381/103 136/384/103 135/383/103
f 136/384/105 140/396/105 139/385/105
f 141/386/7 149/390/7 150/387/7
f 144/389/7 143/407/7 141/386/7
f 149/390/103 157/398/103 158/391/103
f 164/392/28 163/403/28 161/393/28
f 137/395/28 139/385/28 140/396/28
f 157/398/7 159/408/7 160/399/7
f 170/400/103 178/404/103 177/401/103
f 164/392/28 170/400/28 169/402/28
f 178/404/103 182/409/103 181/405/103
usemtl Material.003
f 36/410/106 7/411/106 16/412/106
f 35/413/107 6/414/107 34/415/107
f 36/410/108 15/416/108 35/413/108
f 48/417/109 25/418/109 47/419/109
f 27/420/103 26/421/103 25/422/103
f 46/423/110 25/424/110 21/425/110
f 21/425/111 26/426/111 22/427/111
f 42/428/112 27/429/112 48/430/112
f 24/431/113 28/432/113 27/429/113
f 26/433/114 36/410/114 35/413/114
f 26/426/115 34/434/115 22/427/115
f 28/432/116 38/435/116 36/436/116
f 8/437/117 48/417/117 14/438/117
f 5/439/118 47/419/118 46/440/118
f 14/438/119 47/419/119 13/441/119
f 36/410/120 38/442/120 7/411/120
f 35/413/121 15/416/121 6/414/121
f 36/410/122 16/412/122 15/416/122
f 48/417/109 27/443/109 25/418/109
f 27/420/103 28/444/103 26/421/103
f 46/423/123 47/445/123 25/424/123
f 21/425/111 25/424/111 26/426/111
f 42/428/124 24/431/124 27/429/124
f 24/431/113 23/446/113 28/432/113
f 26/433/114 28/447/114 36/410/114
f 26/426/125 35/448/125 34/434/125
f 28/432/126 23/446/126 38/435/126
f 8/437/127 42/449/127 48/417/127
f 5/439/128 13/441/128 47/419/128
f 14/438/119 48/417/119 47/419/119
usemtl Material.002
f 22/450/103 81/451/103 21/452/103
f 82/453/129 85/454/129 81/451/129
f 85/454/103 90/455/103 89/456/103
f 94/457/130 97/458/130 93/459/130
f 90/455/131 93/459/131 89/456/131
f 97/458/132 102/460/132 101/461/132
f 101/461/133 106/462/133 105/463/133
f 106/462/134 109/464/134 105/463/134
f 22/450/103 82/453/103 81/451/103
f 82/453/129 86/465/129 85/454/129
f 85/454/103 86/465/103 90/455/103
f 94/457/130 98/466/130 97/458/130
f 90/455/131 94/457/131 93/459/131
f 97/458/132 98/466/132 102/460/132
f 101/461/133 102/460/133 106/462/133
f 106/462/134 110/467/134 109/464/134
usemtl Material.001
f 14/468/103 51/469/103 52/470/103
f 51/469/103 56/471/103 52/470/103
f 56/471/103 59/472/103 60/473/103
f 60/473/103 63/474/103 64/475/103
f 63/474/103 68/476/103 64/475/103
f 14/468/103 13/477/103 51/469/103
f 51/469/103 55/478/103 56/471/103
f 56/471/103 55/478/103 59/472/103
f 60/473/103 59/472/103 63/474/103
f 63/474/103 67/479/103 68/476/103
usemtl Material.006
f 144/480/103 147/481/103 143/482/103
f 145/483/28 148/484/28 146/485/28
f 143/486/43 145/487/43 141/488/43
f 146/485/28 151/489/28 145/483/28
f 142/490/44 148/491/44 144/492/44
f 150/493/44 156/494/44 152/495/44
f 142/490/44 152/495/44 146/496/44
f 145/487/43 149/497/43 141/488/43
f 153/498/13 156/499/13 154/500/13
f 152/501/28 155/502/28 151/489/28
f 151/503/43 153/504/43 149/497/43
f 150/493/44 160/505/44 154/506/44
f 154/500/13 159/507/13 153/498/13
f 153/504/43 157/508/43 149/497/43
f 196/509/44 211/510/44 200/511/44
f 198/512/44 210/513/44 196/509/44
f 209/514/7 206/515/7 203/516/7
f 201/517/7 209/514/7 203/516/7
f 205/518/7 210/519/7 204/520/7
f 202/521/7 210/519/7 208/522/7
f 200/523/135 205/524/135 150/525/135
f 197/526/28 198/527/28 144/528/28
f 199/529/43 209/530/43 195/531/43
f 202/532/43 214/533/43 144/534/43
f 195/531/43 207/535/43 197/536/43
f 149/537/136 212/538/136 199/539/136
f 197/540/103 208/541/103 198/542/103
f 143/543/44 215/544/44 201/545/44
f 143/546/28 214/547/28 144/528/28
f 201/517/7 215/548/7 207/549/7
f 208/522/7 216/550/7 202/521/7
f 203/516/7 205/518/7 204/520/7
f 215/551/7 208/552/7 207/553/7
f 144/480/103 148/554/103 147/481/103
f 145/483/28 147/555/28 148/484/28
f 143/486/43 147/556/43 145/487/43
f 146/485/28 152/501/28 151/489/28
f 142/490/44 146/496/44 148/491/44
f 150/493/44 154/506/44 156/494/44
f 142/490/44 150/493/44 152/495/44
f 145/487/43 151/503/43 149/497/43
f 153/498/13 155/557/13 156/499/13
f 152/501/28 156/558/28 155/502/28
f 151/503/43 155/559/43 153/504/43
f 150/493/44 158/560/44 160/505/44
f 154/500/13 160/561/13 159/507/13
f 153/504/43 159/562/43 157/508/43
f 196/509/44 210/513/44 211/510/44
f 198/512/44 208/563/44 210/513/44
f 209/514/7 212/564/7 206/515/7
f 201/517/7 207/549/7 209/514/7
f 205/518/7 211/565/7 210/519/7
f 202/521/7 204/520/7 210/519/7
f 200/523/135 211/566/135 205/524/135
f 143/546/28 141/567/28 195/568/28
f 149/569/28 199/570/28 195/568/28
f 195/568/28 197/526/28 143/546/28
f 198/527/28 196/571/28 144/528/28
f 200/572/28 150/573/28 196/571/28
f 150/573/28 142/574/28 196/571/28
f 141/567/28 149/569/28 195/568/28
f 196/571/28 142/574/28 144/528/28
f 144/528/28 143/546/28 197/526/28
f 199/529/43 212/575/43 209/530/43
f 202/532/43 216/576/43 214/533/43
f 195/531/43 209/530/43 207/535/43
f 149/537/136 206/577/136 212/538/136
f 197/540/103 207/578/103 208/541/103
f 143/543/44 213/579/44 215/544/44
f 143/546/28 213/580/28 214/547/28
f 204/520/7 202/521/7 203/516/7
f 203/516/7 206/515/7 205/518/7
f 202/521/7 201/517/7 203/516/7
f 215/551/7 216/581/7 208/552/7
usemtl Material.006_NONE
f 215/582/137 197/583/137 213/584/137
f 214/585/138 198/586/138 216/587/138
f 216/587/13 215/582/13 213/584/13
f 213/584/13 214/585/13 216/587/13
usemtl Material.007
f 161/588/103 166/589/103 162/590/103
f 217/591/139 226/592/139 225/593/139
f 233/594/7 236/595/7 234/596/7
f 328/597/13 236/595/13 235/598/13
f 165/599/103 234/596/103 166/589/103
f 237/600/7 240/601/7 238/602/7
f 329/603/103 237/600/103 238/602/103
f 161/588/103 165/599/103 166/589/103
f 217/591/140 218/604/140 226/592/140
f 233/594/7 235/598/7 236/595/7
f 235/598/13 167/605/13 328/597/13
f 328/597/13 168/606/13 236/595/13
f 165/599/103 233/594/103 234/596/103
f 237/600/7 239/607/7 240/601/7
f 238/602/103 172/608/103 329/603/103
f 329/603/103 171/609/103 237/600/103
usemtl Material.008
f 274/610/141 241/611/141 114/612/141
f 117/613/141 113/614/141 278/615/141
f 114/612/141 118/616/141 262/617/141
f 246/618/141 274/610/141 114/612/141
f 114/612/141 262/617/141 246/618/141
f 278/615/141 113/614/141 250/619/141
f 266/620/141 250/619/141 113/614/141
f 113/614/141 114/612/141 241/611/141
f 241/611/141 266/620/141 113/614/141
usemtl Material.008_ct_ten9.png
f 71/621/142 318/622/142 72/623/142
f 186/624/143 323/625/143 185/626/143
f 76/627/142 72/623/142 318/622/142
f 71/621/142 75/628/142 318/622/142
f 189/629/143 185/626/143 323/625/143
f 186/624/143 190/630/143 323/625/143
usemtl Material.009
f 327/631/7 193/632/7 325/633/7
f 327/631/7 324/634/7 193/632/7
usemtl Material.009_momiji_sq_[www.imagesplitter.net]-0-1.png
f 326/635/7 324/636/7 327/637/7
f 326/635/7 194/638/7 324/636/7
usemtl Material.009_momiji_sq_[www.imagesplitter.net]-1-0.png
f 323/639/7 325/640/7 189/641/7
f 323/639/7 327/642/7 325/640/7
usemtl Material.009_momiji_sq_[www.imagesplitter.net]-1-1.png
f 190/643/7 327/644/7 323/645/7
f 190/643/7 326/646/7 327/644/7
usemtl Material.010
f 322/647/43 78/648/43 320/649/43
f 322/647/43 319/650/43 78/648/43
usemtl Material.010_tomat_sq_[www.imagesplitter.net]-0-1.png
f 321/651/43 319/652/43 322/653/43
f 321/651/43 77/654/43 319/652/43
usemtl Material.010_tomat_sq_[www.imagesplitter.net]-1-0.png
f 318/655/43 320/656/43 76/657/43
f 318/655/43 322/658/43 320/656/43
usemtl Material.010_tomat_sq_[www.imagesplitter.net]-1-1.png
f 75/659/43 322/660/43 318/661/43
f 75/659/43 321/662/43 322/660/43
usemtl Material.011
f 307/663/28 119/664/28 280/665/28
f 307/663/28 279/666/28 119/664/28
usemtl Material.011_aya_square_[www.imagesplitter.net]-0-1.png
f 294/667/28 279/668/28 307/669/28
f 294/667/28 251/670/28 279/668/28
usemtl Material.011_aya_square_[www.imagesplitter.net]-0-2.png
f 316/671/28 251/672/28 294/673/28
f 316/671/28 267/674/28 251/672/28
usemtl Material.011_aya_square_[www.imagesplitter.net]-0-3.png
f 316/675/28 242/676/28 267/677/28
f 316/675/28 270/678/28 242/676/28
usemtl Material.011_aya_square_[www.imagesplitter.net]-0-4.png
f 304/679/28 242/680/28 270/681/28
f 304/679/28 275/682/28 242/680/28
usemtl Material.011_aya_square_[www.imagesplitter.net]-0-5.png
f 298/683/28 275/684/28 304/685/28
f 298/683/28 247/686/28 275/684/28
usemtl Material.011_aya_square_[www.imagesplitter.net]-0-6.png
f 317/687/28 247/688/28 298/689/28
f 317/687/28 263/690/28 247/688/28
usemtl Material.011_aya_square_[www.imagesplitter.net]-0-7.png
f 265/691/28 263/692/28 317/693/28
f 265/691/28 120/694/28 263/692/28
usemtl Material.011_aya_square_[www.imagesplitter.net]-1-0.png
f 296/695/28 280/696/28 252/697/28
f 296/695/28 307/698/28 280/696/28
usemtl Material.011_aya_square_[www.imagesplitter.net]-1-1.png
f 260/699/28 307/663/28 296/700/28
f 260/699/28 294/701/28 307/663/28
usemtl Material.011_aya_square_[www.imagesplitter.net]-1-2.png
f 297/702/28 294/703/28 260/704/28
f 297/702/28 316/705/28 294/703/28
usemtl Material.011_aya_square_[www.imagesplitter.net]-1-3.png
f 297/706/28 270/707/28 316/708/28
f 297/706/28 254/709/28 270/707/28
usemtl Material.011_aya_square_[www.imagesplitter.net]-1-4.png
f 300/710/28 270/711/28 254/712/28
f 300/710/28 304/713/28 270/711/28
usemtl Material.011_aya_square_[www.imagesplitter.net]-1-5.png
f 261/714/28 304/679/28 300/715/28
f 261/714/28 298/689/28 304/679/28
usemtl Material.011_aya_square_[www.imagesplitter.net]-1-6.png
f 301/716/28 298/717/28 261/718/28
f 301/716/28 317/719/28 298/717/28
usemtl Material.011_aya_square_[www.imagesplitter.net]-1-7.png
f 249/720/28 317/721/28 301/722/28
f 249/720/28 265/723/28 317/721/28
usemtl Material.011_aya_square_[www.imagesplitter.net]-2-0.png
f 306/724/28 252/725/28 268/726/28
f 306/724/28 296/727/28 252/725/28
usemtl Material.011_aya_square_[www.imagesplitter.net]-2-1.png
f 295/728/28 296/729/28 306/730/28
f 295/728/28 260/731/28 296/729/28
usemtl Material.011_aya_square_[www.imagesplitter.net]-2-2.png
f 305/732/28 260/733/28 295/734/28
f 305/732/28 297/735/28 260/733/28
usemtl Material.011_aya_square_[www.imagesplitter.net]-2-3.png
f 305/736/28 254/737/28 297/738/28
f 305/736/28 282/739/28 254/737/28
usemtl Material.011_aya_square_[www.imagesplitter.net]-2-4.png
f 303/740/28 254/741/28 282/742/28
f 303/740/28 300/715/28 254/741/28
usemtl Material.011_aya_square_[www.imagesplitter.net]-2-5.png
f 299/743/28 300/744/28 303/745/28
f 299/743/28 261/746/28 300/744/28
usemtl Material.011_aya_square_[www.imagesplitter.net]-2-6.png
f 302/747/28 261/714/28 299/748/28
f 302/747/28 301/749/28 261/714/28
usemtl Material.011_aya_square_[www.imagesplitter.net]-2-7.png
f 277/750/28 301/751/28 302/752/28
f 277/750/28 249/753/28 301/751/28
usemtl Material.011_aya_square_[www.imagesplitter.net]-3-0.png
f 272/754/28 268/755/28 243/756/28
f 272/754/28 306/757/28 268/755/28
usemtl Material.011_aya_square_[www.imagesplitter.net]-3-1.png
f 256/758/28 306/759/28 272/760/28
f 256/758/28 295/761/28 306/759/28
usemtl Material.011_aya_square_[www.imagesplitter.net]-3-2.png
f 284/762/28 295/763/28 256/764/28
f 284/762/28 305/765/28 295/763/28
usemtl Material.011_aya_square_[www.imagesplitter.net]-3-3.png
f 284/766/28 282/767/28 305/768/28
f 284/766/28 245/769/28 282/767/28
usemtl Material.011_aya_square_[www.imagesplitter.net]-3-4.png
f 273/770/28 282/771/28 245/772/28
f 273/770/28 303/773/28 282/771/28
usemtl Material.011_aya_square_[www.imagesplitter.net]-3-5.png
f 257/774/28 303/775/28 273/776/28
f 257/774/28 299/777/28 303/775/28
usemtl Material.011_aya_square_[www.imagesplitter.net]-3-6.png
f 285/778/28 299/779/28 257/780/28
f 285/778/28 302/781/28 299/779/28
usemtl Material.011_aya_square_[www.imagesplitter.net]-3-7.png
f 244/782/28 302/783/28 285/784/28
f 244/782/28 277/785/28 302/783/28
usemtl Material.011_aya_square_[www.imagesplitter.net]-4-0.png
f 310/786/28 243/787/28 276/788/28
f 310/786/28 272/789/28 243/787/28
usemtl Material.011_aya_square_[www.imagesplitter.net]-4-1.png
f 290/790/28 272/791/28 310/792/28
f 290/790/28 256/793/28 272/791/28
usemtl Material.011_aya_square_[www.imagesplitter.net]-4-2.png
f 315/794/28 256/795/28 290/796/28
f 315/794/28 284/797/28 256/795/28
usemtl Material.011_aya_square_[www.imagesplitter.net]-4-3.png
f 315/798/28 245/799/28 284/800/28
f 315/798/28 271/801/28 245/799/28
usemtl Material.011_aya_square_[www.imagesplitter.net]-4-4.png
f 313/802/28 245/803/28 271/804/28
f 313/802/28 273/805/28 245/803/28
usemtl Material.011_aya_square_[www.imagesplitter.net]-4-5.png
f 286/806/28 273/807/28 313/808/28
f 286/806/28 257/809/28 273/807/28
usemtl Material.011_aya_square_[www.imagesplitter.net]-4-6.png
f 314/810/28 257/811/28 286/812/28
f 314/810/28 285/813/28 257/811/28
usemtl Material.011_aya_square_[www.imagesplitter.net]-4-7.png
f 269/814/28 285/815/28 314/816/28
f 269/814/28 244/817/28 285/815/28
usemtl Material.011_aya_square_[www.imagesplitter.net]-5-0.png
f 292/818/28 276/819/28 248/820/28
f 292/818/28 310/821/28 276/819/28
usemtl Material.011_aya_square_[www.imagesplitter.net]-5-1.png
f 259/822/28 310/823/28 292/824/28
f 259/822/28 290/825/28 310/823/28
usemtl Material.011_aya_square_[www.imagesplitter.net]-5-2.png
f 259/826/28 315/827/28 290/828/28
f 259/826/28 293/829/28 315/827/28
usemtl Material.011_aya_square_[www.imagesplitter.net]-5-3.png
f 255/830/28 315/831/28 293/832/28
f 255/830/28 271/833/28 315/831/28
usemtl Material.011_aya_square_[www.imagesplitter.net]-5-4.png
f 288/834/28 271/835/28 255/836/28
f 288/834/28 313/837/28 271/835/28
usemtl Material.011_aya_square_[www.imagesplitter.net]-5-5.png
f 258/838/28 313/839/28 288/840/28
f 258/838/28 286/841/28 313/839/28
usemtl Material.011_aya_square_[www.imagesplitter.net]-5-6.png
f 289/842/28 286/843/28 258/844/28
f 289/842/28 314/845/28 286/843/28
usemtl Material.011_aya_square_[www.imagesplitter.net]-5-7.png
f 253/846/28 314/847/28 289/848/28
f 253/846/28 269/849/28 314/847/28
usemtl Material.011_aya_square_[www.imagesplitter.net]-6-0.png
f 309/850/28 248/851/28 264/852/28
f 309/850/28 292/853/28 248/851/28
usemtl Material.011_aya_square_[www.imagesplitter.net]-6-1.png
f 291/854/28 292/855/28 309/856/28
f 291/854/28 259/857/28 292/855/28
usemtl Material.011_aya_square_[www.imagesplitter.net]-6-2.png
f 291/858/28 293/859/28 259/860/28
f 291/858/28 308/861/28 293/859/28
usemtl Material.011_aya_square_[www.imagesplitter.net]-6-3.png
f 283/862/28 293/863/28 308/864/28
f 283/862/28 255/865/28 293/863/28
usemtl Material.011_aya_square_[www.imagesplitter.net]-6-4.png
f 312/866/28 255/867/28 283/868/28
f 312/866/28 288/869/28 255/867/28
usemtl Material.011_aya_square_[www.imagesplitter.net]-6-5.png
f 287/870/28 288/871/28 312/872/28
f 287/870/28 258/873/28 288/871/28
usemtl Material.011_aya_square_[www.imagesplitter.net]-6-6.png
f 311/874/28 258/875/28 287/876/28
f 311/874/28 289/877/28 258/875/28
usemtl Material.011_aya_square_[www.imagesplitter.net]-6-7.png
f 281/878/28 289/879/28 311/880/28
f 281/878/28 253/881/28 289/879/28
usemtl Material.011_aya_square_[www.imagesplitter.net]-7-0.png
f 278/882/28 264/883/28 117/884/28
f 278/882/28 309/885/28 264/883/28
usemtl Material.011_aya_square_[www.imagesplitter.net]-7-1.png
f 250/886/28 309/887/28 278/888/28
f 250/886/28 291/889/28 309/887/28
usemtl Material.011_aya_square_[www.imagesplitter.net]-7-2.png
f 266/890/28 291/891/28 250/892/28
f 266/890/28 308/893/28 291/891/28
usemtl Material.011_aya_square_[www.imagesplitter.net]-7-3.png
f 241/894/28 308/895/28 266/896/28
f 241/894/28 283/897/28 308/895/28
usemtl Material.011_aya_square_[www.imagesplitter.net]-7-4.png
f 274/898/28 283/899/28 241/900/28
f 274/898/28 312/901/28 283/899/28
usemtl Material.011_aya_square_[www.imagesplitter.net]-7-5.png
f 246/902/28 312/903/28 274/904/28
f 246/902/28 287/905/28 312/903/28
usemtl Material.011_aya_square_[www.imagesplitter.net]-7-6.png
f 262/906/28 287/907/28 246/908/28
f 262/906/28 311/909/28 287/907/28
usemtl Material.011_aya_square_[www.imagesplitter.net]-7-7.png
f 118/910/28 311/911/28 262/912/28
f 118/910/28 281/913/28 311/911/28
usemtl Material.012
f 229/914/144 218/915/144 217/916/144
f 229/914/145 232/917/145 218/915/145
usemtl Material.013
f 167/918/7 332/919/7 328/920/7
f 167/918/7 331/921/7 332/919/7
usemtl Material.013_smug4_[www.imagesplitter.net]-0-1.png
f 328/922/7 330/923/7 168/924/7
f 328/922/7 332/925/7 330/923/7
usemtl Material.013_smug4_[www.imagesplitter.net]-1-0.png
f 331/926/7 329/927/7 332/928/7
f 331/926/7 171/929/7 329/927/7
usemtl Material.013_smug4_[www.imagesplitter.net]-1-1.png
f 332/930/7 172/931/7 330/932/7
f 332/930/7 329/933/7 172/931/7
l 198 213
