# Blender v2.79 (sub 0) OBJ File: 'scoreboard.blend'
# www.blender.org
mtllib scoreboard.mtl
o Cube
v -0.059946 -0.693547 1.332484
v -0.059946 0.693547 1.332484
v -0.059946 -0.693547 -1.332484
v -0.059946 0.693547 -1.332484
v 0.059946 -0.693547 1.332484
v 0.059946 0.693547 1.332484
v 0.059946 -0.693547 -1.332484
v 0.059946 0.693547 -1.332484
v -0.059946 -0.693547 -0.999363
v -0.059946 -0.693547 -0.666242
v -0.059946 -0.693547 -0.333121
v -0.059946 -0.693547 0.000000
v -0.059946 -0.693547 0.333121
v -0.059946 -0.693547 0.666242
v -0.059946 -0.693547 0.999363
v -0.059946 0.693547 0.999363
v -0.059946 0.693547 0.666242
v -0.059946 0.693547 0.333121
v -0.059946 0.693547 0.000000
v -0.059946 0.693547 -0.333121
v -0.059946 0.693547 -0.666242
v -0.059946 0.693547 -0.999363
v 0.059946 -0.693547 0.999363
v 0.059946 -0.693547 0.666242
v 0.059946 -0.693547 0.333121
v 0.059946 -0.693547 0.000000
v 0.059946 -0.693547 -0.333121
v 0.059946 -0.693547 -0.666242
v 0.059946 -0.693547 -0.999363
v 0.059946 0.693547 -0.999363
v 0.059946 0.693547 -0.666242
v 0.059946 0.693547 -0.333121
v 0.059946 0.693547 0.000000
v 0.059946 0.693547 0.333121
v 0.059946 0.693547 0.666242
v 0.059946 0.693547 0.999363
v -0.059946 -0.231182 1.332484
v -0.059946 0.231182 1.332484
v -0.059946 0.231182 -1.332484
v -0.059946 -0.231182 -1.332484
v 0.059946 0.231182 -1.332484
v 0.059946 -0.231182 -1.332484
v 0.059946 0.231182 1.332484
v 0.059946 -0.231182 1.332484
v 0.059946 0.231182 -0.999363
v 0.059946 -0.231182 -0.999363
v 0.059946 0.231182 -0.666242
v 0.059946 -0.231182 -0.666242
v 0.059946 0.231182 -0.333121
v 0.059946 -0.231182 -0.333121
v 0.059946 0.231182 0.000000
v 0.059946 -0.231182 0.000000
v 0.059946 0.231182 0.333121
v 0.059946 -0.231182 0.333121
v 0.059946 0.231182 0.666242
v 0.059946 -0.231182 0.666242
v 0.059946 0.231182 0.999363
v 0.059946 -0.231182 0.999363
v -0.059946 0.231182 0.999363
v -0.059946 -0.231182 0.999363
v -0.059946 0.231182 0.666242
v -0.059946 -0.231182 0.666242
v -0.059946 0.231182 0.333121
v -0.059946 -0.231182 0.333121
v -0.059946 0.231182 0.000000
v -0.059946 -0.231182 0.000000
v -0.059946 0.231182 -0.333121
v -0.059946 -0.231182 -0.333121
v -0.059946 0.231182 -0.666242
v -0.059946 -0.231182 -0.666242
v -0.059946 0.231182 -0.999363
v -0.059946 -0.231182 -0.999363
v 0.069946 -0.693547 1.332484
v 0.069946 0.693547 1.332484
v 0.069946 0.693547 -1.332484
v 0.069946 -0.693547 0.999363
v 0.069946 0.693547 -0.999363
v 0.069946 0.693547 -0.666242
v 0.069946 0.693547 -0.333121
v 0.069946 0.693547 0.000000
v 0.069946 0.693547 0.333121
v 0.069946 0.693547 0.666242
v 0.069946 0.693547 0.999363
v 0.069946 0.231182 -1.332484
v 0.069946 0.231182 1.332484
v 0.069946 -0.231182 1.332484
v 0.069946 0.231182 -0.999363
v 0.069946 0.231182 -0.666242
v 0.069946 0.231182 -0.333121
v 0.069946 0.231182 0.000000
v 0.069946 0.231182 0.333121
v 0.069946 0.231182 0.666242
v 0.069946 0.231182 0.999363
v 0.069946 -0.231182 0.999363
vt 0.667620 1.000000
vt 0.332380 0.000000
vt 0.667620 0.000000
vt 0.332380 1.000000
vt 0.667620 1.000000
vt 0.332380 0.000000
vt 0.667620 0.000000
vt 0.332380 1.000000
vt 0.667620 1.000000
vt 0.332380 0.000000
vt 0.667620 0.000000
vt 0.332380 1.000000
vt 0.667620 1.000000
vt 0.332380 0.000000
vt 0.667620 0.000000
vt 0.332380 1.000000
vt 0.667620 1.000000
vt 0.332380 0.000000
vt 0.667620 0.000000
vt 0.332380 1.000000
vt 0.667620 1.000000
vt 0.332380 0.000000
vt 0.667620 0.000000
vt 0.332380 1.000000
vt 0.776723 1.000000
vt 0.223277 0.000000
vt 0.776723 0.000000
vt 0.223277 1.000000
vt 0.727676 1.000000
vt 0.201003 0.000000
vt 0.727676 0.000000
vt 0.201003 1.000000
vt 0.500000 1.000000
vt 0.000000 0.000000
vt 0.500000 0.000000
vt 1.000000 1.000000
vt 1.000000 0.000000
vt 0.000000 1.000000
vt 0.000000 0.000000
vt 1.000000 1.000000
vt 0.000000 1.000000
vt 0.000000 0.000000
vt 1.000000 1.000000
vt 0.000000 1.000000
vt 0.000000 0.000000
vt 1.000000 1.000000
vt 0.000000 1.000000
vt 0.000000 0.000000
vt 1.000000 1.000000
vt 0.000000 1.000000
vt 0.000000 0.000000
vt 1.000000 1.000000
vt 0.000000 1.000000
vt 0.000000 0.000000
vt 1.000000 1.000000
vt 0.000000 1.000000
vt 1.000000 1.000000
vt 0.000000 1.000000
vt 1.000000 1.000000
vt 0.000000 1.000000
vt 0.000000 0.000000
vt 1.000000 1.000000
vt 0.000000 1.000000
vt 0.000000 0.000000
vt 1.000000 1.000000
vt 0.000000 1.000000
vt 0.000000 0.000000
vt 1.000000 1.000000
vt 0.000000 1.000000
vt 0.000000 0.000000
vt 1.000000 1.000000
vt 0.000000 1.000000
vt 0.000000 0.000000
vt 1.000000 1.000000
vt 0.000000 1.000000
vt 0.000000 0.000000
vt 1.000000 1.000000
vt 0.000000 1.000000
vt 0.000000 0.000000
vt 1.000000 1.000000
vt 0.000000 1.000000
vt 0.000000 0.000000
vt 1.000000 1.000000
vt 0.000000 1.000000
vt 0.000000 0.000000
vt 1.000000 1.000000
vt 0.000000 1.000000
vt 0.000000 0.000000
vt 1.000000 1.000000
vt 0.000000 1.000000
vt 0.000000 0.000000
vt 1.000000 1.000000
vt 0.000000 1.000000
vt 0.000000 0.000000
vt 1.000000 1.000000
vt 0.000000 1.000000
vt 0.000000 0.000000
vt 1.000000 1.000000
vt 0.000000 1.000000
vt 0.000000 0.000000
vt 1.000000 1.000000
vt 0.000000 1.000000
vt 0.000000 0.000000
vt 1.000000 1.000000
vt 0.000000 1.000000
vt 0.000000 0.000000
vt 1.000000 1.000000
vt 0.000000 1.000000
vt 0.000000 0.000000
vt 1.000000 1.000000
vt 0.000000 1.000000
vt 0.000000 0.000000
vt 1.000000 1.000000
vt 0.000000 1.000000
vt 0.000000 0.000000
vt 1.000000 1.000000
vt 0.000000 1.000000
vt 0.000000 0.000000
vt 1.000000 1.000000
vt 0.000000 1.000000
vt 1.000000 1.000000
vt 0.000000 1.000000
vt 1.000000 1.000000
vt 0.000000 1.000000
vt 1.000000 1.000000
vt 0.000000 1.000000
vt 1.000000 1.000000
vt 0.000000 1.000000
vt 1.000000 1.000000
vt 0.000000 1.000000
vt 1.000000 1.000000
vt 0.000000 1.000000
vt 0.000000 0.000000
vt 0.000000 0.000000
vt 1.000000 1.000000
vt 0.000000 1.000000
vt 0.000000 0.000000
vt 0.000000 0.000000
vt 1.000000 1.000000
vt 0.000000 1.000000
vt 0.000000 0.000000
vt 0.000000 0.000000
vt 1.000000 1.000000
vt 0.000000 1.000000
vt 0.000000 0.000000
vt 0.000000 0.000000
vt 1.000000 1.000000
vt 0.000000 1.000000
vt 0.000000 0.000000
vt 0.000000 0.000000
vt 1.000000 1.000000
vt 0.000000 1.000000
vt 0.000000 0.000000
vt 0.000000 0.000000
vt 1.000000 1.000000
vt 0.000000 1.000000
vt 0.000000 0.000000
vt 0.000000 1.000000
vt 0.000000 0.000000
vt 1.000000 1.000000
vt 0.000000 1.000000
vt 0.000000 0.000000
vt 1.000000 1.000000
vt 0.000000 1.000000
vt 0.000000 0.000000
vt 1.000000 1.000000
vt 0.000000 1.000000
vt 0.000000 0.000000
vt 1.000000 1.000000
vt 0.000000 1.000000
vt 0.000000 0.000000
vt 1.000000 1.000000
vt 0.000000 1.000000
vt 0.000000 0.000000
vt 1.000000 1.000000
vt 0.000000 1.000000
vt 0.000000 0.000000
vt 1.000000 1.000000
vt 0.000000 1.000000
vt 0.000000 0.000000
vt 1.000000 1.000000
vt 0.000000 1.000000
vt 0.000000 0.000000
vt 1.000000 1.000000
vt 0.000000 1.000000
vt 0.000000 0.000000
vt 1.000000 1.000000
vt 0.000000 1.000000
vt 0.000000 0.000000
vt 1.000000 1.000000
vt 0.000000 1.000000
vt 0.000000 0.000000
vt 1.000000 1.000000
vt 0.000000 1.000000
vt 0.000000 0.000000
vt 1.000000 1.000000
vt 0.000000 1.000000
vt 0.000000 0.000000
vt 1.000000 1.000000
vt 0.000000 1.000000
vt 0.000000 0.000000
vt 1.000000 1.000000
vt 0.000000 1.000000
vt 0.000000 0.000000
vt 0.000000 1.000000
vt 0.000000 0.000000
vt 1.000000 1.000000
vt 0.000000 1.000000
vt 0.000000 0.000000
vt 1.000000 1.000000
vt 0.000000 1.000000
vt 0.000000 0.000000
vt 1.000000 1.000000
vt 0.000000 1.000000
vt 0.000000 0.000000
vt 1.000000 1.000000
vt 0.000000 0.000000
vt 1.000000 1.000000
vt 0.000000 1.000000
vt 0.000000 0.000000
vt 1.000000 1.000000
vt 0.000000 0.000000
vt 1.000000 1.000000
vt 0.000000 1.000000
vt 1.000000 0.000000
vt 1.000000 0.000000
vt 1.000000 0.000000
vt 1.000000 0.000000
vt 1.000000 0.000000
vt 1.000000 0.000000
vt 1.000000 0.000000
vt 1.000000 0.000000
vt 1.000000 0.000000
vt 1.000000 0.000000
vt 1.000000 0.000000
vt 1.000000 0.000000
vt 1.000000 0.000000
vt 1.000000 0.000000
vt 1.000000 0.000000
vt 1.000000 0.000000
vt 1.000000 0.000000
vt 1.000000 0.000000
vt 1.000000 0.000000
vt 1.000000 0.000000
vt 1.000000 0.000000
vt 1.000000 0.000000
vt 1.000000 0.000000
vt 1.000000 0.000000
vt 1.000000 0.000000
vt 1.000000 0.000000
vt 1.000000 0.000000
vt 1.000000 0.000000
vt 1.000000 0.000000
vt 1.000000 0.000000
vt 1.000000 0.000000
vt 1.000000 0.000000
vt 1.000000 0.000000
vt 1.000000 0.000000
vt 1.000000 0.000000
vt 1.000000 0.000000
vt 1.000000 0.000000
vt 1.000000 0.000000
vt 1.000000 0.000000
vt 1.000000 0.000000
vt 1.000000 0.000000
vt 1.000000 0.000000
vt 1.000000 0.000000
vt 1.000000 0.000000
vt 1.000000 0.000000
vt 1.000000 0.000000
vt 1.000000 0.000000
vt 1.000000 0.000000
vt 1.000000 0.000000
vt 1.000000 0.000000
vt 1.000000 0.000000
vt 1.000000 0.000000
vt 1.000000 0.000000
vt 1.000000 0.000000
vt 1.000000 0.000000
vt 1.000000 0.000000
vt 1.000000 0.000000
vt 1.000000 0.000000
vt 1.000000 0.000000
vt 1.000000 0.000000
vt 1.000000 0.000000
vt 1.000000 0.000000
vn 1.0000 0.0000 0.0000
vn -1.0000 0.0000 0.0000
vn 0.0000 0.0000 -1.0000
vn 0.0000 0.0000 1.0000
vn 0.0000 -1.0000 0.0000
vn 0.0000 1.0000 0.0000
usemtl None
s off
f 77/1/1 88/2/1 87/3/1
f 77/1/1 78/4/1 88/2/1
usemtl None_6.png
f 75/5/1 87/6/1 84/7/1
f 75/5/1 77/8/1 87/6/1
usemtl None_4.png
f 78/9/1 89/10/1 88/11/1
f 78/9/1 79/12/1 89/10/1
usemtl None_3.png
f 79/13/1 90/14/1 89/15/1
f 79/13/1 80/16/1 90/14/1
usemtl None_2.png
f 80/17/1 91/18/1 90/19/1
f 80/17/1 81/20/1 91/18/1
usemtl None_1.png
f 81/21/1 92/22/1 91/23/1
f 81/21/1 82/24/1 92/22/1
usemtl None_yip.png
f 94/25/1 73/26/1 76/27/1
f 94/25/1 86/28/1 73/26/1
usemtl None_par.png
f 93/29/1 86/30/1 94/31/1
f 93/29/1 85/32/1 86/30/1
usemtl None_star_num.png
f 83/33/1 85/34/1 93/35/1
f 82/36/1 93/35/1 92/37/1
f 83/33/1 74/38/1 85/34/1
f 82/36/1 83/33/1 93/35/1
usemtl None_wood_grain.png
f 22/39/2 39/40/2 71/41/2
f 4/42/3 41/43/3 39/44/3
f 36/45/1 43/46/1 57/47/1
f 6/48/4 38/49/4 43/50/4
f 23/51/5 1/52/5 15/53/5
f 16/54/6 6/55/6 36/56/6
f 4/42/6 30/57/6 8/58/6
f 22/39/6 31/59/6 30/60/6
f 21/61/6 32/62/6 31/63/6
f 20/64/6 33/65/6 32/66/6
f 19/67/6 34/68/6 33/69/6
f 18/70/6 35/71/6 34/72/6
f 17/73/6 36/74/6 35/75/6
f 7/76/5 9/77/5 3/78/5
f 29/79/5 10/80/5 9/81/5
f 28/82/5 11/83/5 10/84/5
f 27/85/5 12/86/5 11/87/5
f 26/88/5 13/89/5 12/90/5
f 25/91/5 14/92/5 13/93/5
f 24/94/5 15/95/5 14/96/5
f 8/97/1 45/98/1 41/99/1
f 30/100/1 47/101/1 45/102/1
f 31/103/1 49/104/1 47/105/1
f 32/106/1 51/107/1 49/108/1
f 33/109/1 53/110/1 51/111/1
f 34/112/1 55/113/1 53/114/1
f 35/115/1 57/116/1 55/117/1
f 2/118/2 59/119/2 38/120/2
f 16/54/2 61/121/2 59/122/2
f 17/73/2 63/123/2 61/124/2
f 18/70/2 65/125/2 63/126/2
f 19/67/2 67/127/2 65/128/2
f 20/64/2 69/129/2 67/130/2
f 21/61/2 71/131/2 69/132/2
f 70/133/2 9/77/2 10/84/2
f 69/134/2 72/135/2 70/136/2
f 68/137/2 10/80/2 11/87/2
f 67/138/2 70/139/2 68/140/2
f 66/141/2 11/83/2 12/90/2
f 65/142/2 68/143/2 66/144/2
f 64/145/2 12/86/2 13/93/2
f 63/146/2 66/147/2 64/148/2
f 62/149/2 13/89/2 14/96/2
f 61/150/2 64/151/2 62/152/2
f 60/153/2 14/92/2 15/53/2
f 59/154/2 62/155/2 60/156/2
f 37/157/2 15/95/2 1/158/2
f 38/159/2 60/160/2 37/161/2
f 56/162/1 23/163/1 24/164/1
f 55/165/1 58/166/1 56/167/1
f 54/168/1 24/169/1 25/170/1
f 53/171/1 56/172/1 54/173/1
f 52/174/1 25/175/1 26/176/1
f 51/177/1 54/178/1 52/179/1
f 50/180/1 26/181/1 27/182/1
f 49/183/1 52/184/1 50/185/1
f 48/186/1 27/187/1 28/188/1
f 47/189/1 50/190/1 48/191/1
f 46/192/1 28/193/1 29/194/1
f 45/195/1 48/196/1 46/197/1
f 42/198/1 29/199/1 7/200/1
f 41/201/1 46/202/1 42/203/1
f 44/204/4 1/52/4 5/205/4
f 43/206/4 37/207/4 44/208/4
f 58/209/1 5/210/1 23/211/1
f 57/212/1 44/213/1 58/214/1
f 40/215/3 7/216/3 3/78/3
f 39/217/3 42/218/3 40/219/3
f 72/220/2 3/221/2 9/81/2
f 71/222/2 40/223/2 72/224/2
f 22/39/2 4/225/2 39/40/2
f 4/42/3 8/226/3 41/43/3
f 36/45/1 6/227/1 43/46/1
f 6/48/4 2/228/4 38/49/4
f 23/51/5 5/229/5 1/52/5
f 16/54/6 2/228/6 6/55/6
f 4/42/6 22/230/6 30/57/6
f 22/39/6 21/231/6 31/59/6
f 21/61/6 20/232/6 32/62/6
f 20/64/6 19/233/6 33/65/6
f 19/67/6 18/234/6 34/68/6
f 18/70/6 17/235/6 35/71/6
f 17/73/6 16/236/6 36/74/6
f 7/76/5 29/237/5 9/77/5
f 29/79/5 28/238/5 10/80/5
f 28/82/5 27/239/5 11/83/5
f 27/85/5 26/240/5 12/86/5
f 26/88/5 25/241/5 13/89/5
f 25/91/5 24/242/5 14/92/5
f 24/94/5 23/243/5 15/95/5
f 8/97/1 30/244/1 45/98/1
f 30/100/1 31/245/1 47/101/1
f 31/103/1 32/246/1 49/104/1
f 32/106/1 33/247/1 51/107/1
f 33/109/1 34/248/1 53/110/1
f 34/112/1 35/249/1 55/113/1
f 35/115/1 36/250/1 57/116/1
f 2/118/2 16/236/2 59/119/2
f 16/54/2 17/235/2 61/121/2
f 17/73/2 18/234/2 63/123/2
f 18/70/2 19/233/2 65/125/2
f 19/67/2 20/232/2 67/127/2
f 20/64/2 21/231/2 69/129/2
f 21/61/2 22/230/2 71/131/2
f 70/133/2 72/251/2 9/77/2
f 69/134/2 71/252/2 72/135/2
f 68/137/2 70/253/2 10/80/2
f 67/138/2 69/254/2 70/139/2
f 66/141/2 68/255/2 11/83/2
f 65/142/2 67/256/2 68/143/2
f 64/145/2 66/257/2 12/86/2
f 63/146/2 65/258/2 66/147/2
f 62/149/2 64/259/2 13/89/2
f 61/150/2 63/260/2 64/151/2
f 60/153/2 62/261/2 14/92/2
f 59/154/2 61/262/2 62/155/2
f 37/157/2 60/263/2 15/95/2
f 38/159/2 59/264/2 60/160/2
f 56/162/1 58/265/1 23/163/1
f 55/165/1 57/266/1 58/166/1
f 54/168/1 56/267/1 24/169/1
f 53/171/1 55/268/1 56/172/1
f 52/174/1 54/269/1 25/175/1
f 51/177/1 53/270/1 54/178/1
f 50/180/1 52/271/1 26/181/1
f 49/183/1 51/272/1 52/184/1
f 48/186/1 50/273/1 27/187/1
f 47/189/1 49/274/1 50/190/1
f 46/192/1 48/275/1 28/193/1
f 45/195/1 47/276/1 48/196/1
f 42/198/1 46/277/1 29/199/1
f 41/201/1 45/278/1 46/202/1
f 44/204/4 37/279/4 1/52/4
f 43/206/4 38/280/4 37/207/4
f 58/209/1 44/281/1 5/210/1
f 57/212/1 43/282/1 44/213/1
f 40/215/3 42/283/3 7/216/3
f 39/217/3 41/284/3 42/218/3
f 72/220/2 40/285/2 3/221/2
f 71/222/2 39/286/2 40/223/2
